Alabama,https://www.officeholidays.com/ics-clean/usa/alabama
Alaska,https://www.officeholidays.com/ics-clean/usa/alaska
Arizona,https://www.officeholidays.com/ics-clean/usa/arizona
Arkansas,https://www.officeholidays.com/ics-clean/usa/arkansas
California,https://www.officeholidays.com/ics-clean/usa/california
Colorado,https://www.officeholidays.com/ics-clean/usa/colorado
Connecticut,https://www.officeholidays.com/ics-clean/usa/connecticut
Delaware,https://www.officeholidays.com/ics-clean/usa/delaware
Florida,https://www.officeholidays.com/ics-clean/usa/florida
Georgia,https://www.officeholidays.com/ics-clean/usa/georgia
Hawaii,https://www.officeholidays.com/ics-clean/usa/hawaii
Idaho,https://www.officeholidays.com/ics-clean/usa/idaho
Illinois,https://www.officeholidays.com/ics-clean/usa/illinois
Indiana,https://www.officeholidays.com/ics-clean/usa/indiana
Iowa,https://www.officeholidays.com/ics-clean/usa/iowa
Kansas,https://www.officeholidays.com/ics-clean/usa/kansas
Kentucky,https://www.officeholidays.com/ics-clean/usa/kentucky
Louisiana,https://www.officeholidays.com/ics-clean/usa/louisiana
Maine,https://www.officeholidays.com/ics-clean/usa/maine
Maryland,https://www.officeholidays.com/ics-clean/usa/maryland
Massachusetts,https://www.officeholidays.com/ics-clean/usa/massachusetts
Michigan,https://www.officeholidays.com/ics-clean/usa/michigan
Minnesota,https://www.officeholidays.com/ics-clean/usa/minnesota
Mississippi,https://www.officeholidays.com/ics-clean/usa/mississippi
Missouri,https://www.officeholidays.com/ics-clean/usa/missouri
Montana,https://www.officeholidays.com/ics-clean/usa/montana
Nebraska,https://www.officeholidays.com/ics-clean/usa/nebraska
Nevada,https://www.officeholidays.com/ics-clean/usa/nevada
New Hampshire,https://www.officeholidays.com/ics-clean/usa/new-hampshire
New Jersey,https://www.officeholidays.com/ics-clean/usa/new-jersey
New Mexico,https://www.officeholidays.com/ics-clean/usa/new-mexico
New York,https://www.officeholidays.com/ics-clean/usa/new-york
North Carolina,https://www.officeholidays.com/ics-clean/usa/north-carolina
North Dakota,https://www.officeholidays.com/ics-clean/usa/north-dakota
Ohio,https://www.officeholidays.com/ics-clean/usa/ohio
Oklahoma,https://www.officeholidays.com/ics-clean/usa/oklahoma
Oregon,https://www.officeholidays.com/ics-clean/usa/oregon
Pennsylvania,https://www.officeholidays.com/ics-clean/usa/pennsylvania
Rhode Island,https://www.officeholidays.com/ics-clean/usa/rhode-island
South Carolina,https://www.officeholidays.com/ics-clean/usa/south-carolina
South Dakota,https://www.officeholidays.com/ics-clean/usa/south-dakota
Tennessee,https://www.officeholidays.com/ics-clean/usa/tennessee
Texas,https://www.officeholidays.com/ics-clean/usa/texas
Utah,https://www.officeholidays.com/ics-clean/usa/utah
Vermont,https://www.officeholidays.com/ics-clean/usa/vermont
Virginia,https://www.officeholidays.com/ics-clean/usa/virginia
Washington,https://www.officeholidays.com/ics-clean/usa/washington
West Virginia,https://www.officeholidays.com/ics-clean/usa/west-virginia
Wisconsin,https://www.officeholidays.com/ics-clean/usa/wisconsin
Wyoming,https://www.officeholidays.com/ics-clean/usa/wyoming
Virgin Islands,https://www.officeholidays.com/ics-clean/us-virgin-islands
Washington DC,https://www.officeholidays.com/ics-clean/dc
