﻿Name,Population (2019),Area(KM2),Pop.density(2019) 
England,"56,286,961","130,395",431.6650255
Northern Ireland,"1,893,667","13,843",136.795998
Scotland,"5,463,300","78,772",69.35586249
Wales,"3,152,879",20779 ,151.733914
