date, confirmed_daily_cases, first_order,second_order, confirmed_daily_cases_outlier_removed,first_order_outlier_removed,second_order_outlier_removed
2020-01-01,0,0.0,0.0,0,0.0
2020-01-02,0,0.0,0.0,0,0.0
2020-01-03,0,0.0,0.0,0,0.0
2020-01-04,0,0.0,0.0,0,0.0
2020-01-05,0,0.0,0.0,0,0.0
2020-01-06,0,0.0,0.0,0,0.0
2020-01-07,0,0.0,0.0,0,0.0
2020-01-08,0,0.0,0.0,0,0.0
2020-01-09,0,0.0,0.0,0,0.0
2020-01-10,0,0.0,0.0,0,0.0
2020-01-11,0,0.0,0.0,0,0.0
2020-01-12,0,0.0,0.0,0,0.0
2020-01-13,0,0.0,0.0,0,0.0
2020-01-14,0,0.0,0.0,0,0.0
2020-01-15,0,0.0,0.0,0,0.0
2020-01-16,0,0.0,0.0,0,0.0
2020-01-17,0,0.0,0.0,0,0.0
2020-01-18,0,0.0,0.0,0,0.0
2020-01-19,0,0.0,0.0,0,0.0
2020-01-20,0,0.0,0.0,0,0.0
2020-01-21,0,0.0,0.0,0,0.0
2020-01-22,0,0.0,0.0,0,0.0
2020-01-23,0,0.0,0.0,0,0.0
2020-01-24,0,0.0,0.0,0,0.0
2020-01-25,0,0.0,0.0,0,0.0
2020-01-26,0,0.0,0.0,0,0.0
2020-01-27,0,0.0,0.0,0,0.0
2020-01-28,0,0.0,0.0,0,0.0
2020-01-29,0,0.0,0.0,0,0.0
2020-01-30,0,0.0,0.0,0,0.0
2020-01-31,0,0.0,0.0,0,0.0
2020-02-01,0,0.0,0.0,0,0.0
2020-02-02,0,0.0,0.0,0,0.0
2020-02-03,0,0.0,0.0,0,0.0
2020-02-04,0,0.0,0.0,0,0.0
2020-02-05,0,0.0,0.0,0,0.0
2020-02-06,0,0.0,0.0,0,0.0
2020-02-07,0,0.0,0.0,0,0.0
2020-02-08,0,0.0,0.0,0,0.0
2020-02-09,0,0.0,0.0,0,0.0
2020-02-10,0,0.0,0.0,0,0.0
2020-02-11,0,0.0,0.0,0,0.0
2020-02-12,0,0.0,0.0,0,0.0
2020-02-13,0,0.0,0.0,0,0.0
2020-02-14,0,0.0,0.0,0,0.0
2020-02-15,0,0.0,0.0,0,0.0
2020-02-16,0,0.0,0.0,0,0.0
2020-02-17,0,0.0,0.0,0,0.0
2020-02-18,0,0.0,0.0,0,0.0
2020-02-19,0,0.0,0.0,0,0.0
2020-02-20,0,0.0,0.0,0,0.0
2020-02-21,0,0.0,0.0,0,0.0
2020-02-22,0,0.0,0.0,0,0.0
2020-02-23,0,0.0,0.0,0,0.0
2020-02-24,0,0.0,0.0,0,0.0
2020-02-25,0,0.0,0.0,0,0.0
2020-02-26,0,0.0,0.0,0,0.0
2020-02-27,0,0.0,0.0,0,0.0
2020-02-28,0,0.0,0.0,0,0.0
2020-02-29,0,0.0,0.0,0,0.0
2020-03-01,0,0.0,0.0,0,0.0
2020-03-02,0,0.0,0.0,0,0.0
2020-03-03,0,0.0,0.0,0,0.0
2020-03-04,0,0.0,0.0,0,0.0
2020-03-05,0,0.0,0.0,0,0.0
2020-03-06,0,0.0,0.0,0,0.0
2020-03-07,0,0.0,0.0,0,0.0
2020-03-08,0,0.0,0.0,0,0.0
2020-03-09,0,0.0,0.0,0,0.0
2020-03-10,0,0.0,0.0,0,0.0
2020-03-11,0,0.0,2.25,0,0.0
2020-03-12,0,4.5,0.75,0,4.5
2020-03-13,9,1.5,-4.5,9,1.5
2020-03-14,3,-4.5,-1.5,3,-4.5
2020-03-15,0,-1.5,2.25,0,-1.5
2020-03-16,0,0.0,1.0,0,0.0
2020-03-17,0,0.5,14.5,0,0.5
2020-03-18,1,29.0,9.0,1,29.0
2020-03-19,58,18.5,-23.5,19,18.5
2020-03-20,38,-18.0,-8.0,38,-18.0
2020-03-21,22,2.5,10.25,22,2.5
2020-03-22,43,2.5,-5.25,43,2.5
2020-03-23,27,-8.0,7.25,27,-8.0
2020-03-24,27,17.0,11.0,27,17.0
2020-03-25,61,14.0,-12.25,61,14.0
2020-03-26,55,-7.5,-13.75,55,-7.5
2020-03-27,46,-13.5,-3.5,46,-13.5
2020-03-28,28,-14.5,11.5,28,-14.5
2020-03-29,17,9.5,15.5,17,9.5
2020-03-30,47,16.5,-1.25,47,16.5
2020-03-31,50,7.0,-6.0,50,7.0
2020-04-01,61,4.5,-3.5,61,4.5
2020-04-02,59,0.0,-7.25,59,0.0
2020-04-03,61,-10.0,8.25,61,-10.0
2020-04-04,39,16.5,4.75,39,16.5
2020-04-05,94,-0.5,-14.0,94,-0.5
2020-04-06,38,-11.5,4.25,38,-11.5
2020-04-07,71,8.0,17.75,71,8.0
2020-04-08,54,24.0,-4.5,54,24.0
2020-04-09,119,-1.0,-27.5,119,-1.0
2020-04-10,52,-31.0,0.5,52,-31.0
2020-04-11,57,0.0,33.75,57,0.0
2020-04-12,52,36.5,9.0,52,36.5
2020-04-13,130,18.0,-33.0,130,18.0
2020-04-14,88,-29.5,-18.25,88,-29.5
2020-04-15,71,-18.5,15.75,71,-18.5
2020-04-16,51,2.0,8.75,51,2.0
2020-04-17,75,-1.0,-10.5,75,-1.0
2020-04-18,49,-19.0,36.25,49,-19.0
2020-04-19,37,71.5,4.5,37,71.5
2020-04-20,192,-10.0,-12.25,192,-10.0
2020-04-21,17,47.0,81.5,17,47.0
2020-04-22,286,153.0,-42.25,286,153.0
2020-04-23,323,-37.5,-132.0,323,-37.5
2020-04-24,211,-111.0,-11.5,211,-111.0
2020-04-25,101,-60.5,47.25,101,-60.5
2020-04-26,90,-16.5,22.25,90,-16.5
2020-04-27,68,-16.0,7.75,68,-16.0
2020-04-28,58,-1.0,15.5,58,-1.0
2020-04-29,66,15.0,-2.0,66,15.0
2020-04-30,88,-5.0,-20.75,88,-5.0
2020-05-01,56,-26.5,4.75,56,-26.5
2020-05-02,35,4.5,18.0,35,4.5
2020-05-03,65,9.5,-10.0,65,9.5
2020-05-04,54,-15.5,3.25,54,-15.5
2020-05-05,34,16.0,22.25,34,16.0
2020-05-06,86,29.0,-18.5,86,29.0
2020-05-07,92,-21.0,-37.5,92,-21.0
2020-05-08,44,-46.0,65.75,44,-46.0
2020-05-09,0,110.5,30.75,0,110.5
2020-05-10,265,15.5,-91.25,265,15.5
2020-05-11,31,-72.0,2.5,31,-72.0
2020-05-12,121,20.5,38.25,121,20.5
2020-05-13,72,4.5,-4.0,72,4.5
2020-05-14,130,12.5,-6.0,130,12.5
2020-05-15,97,-7.5,14.75,97,-7.5
2020-05-16,115,42.0,-11.5,115,42.0
2020-05-17,181,-30.5,-38.75,181,-30.5
2020-05-18,54,-35.5,21.75,54,-35.5
2020-05-19,110,13.0,104.0,110,13.0
2020-05-20,80,172.5,12.0,80,172.5
2020-05-21,455,37.0,-159.25,455,37.0
2020-05-22,154,-146.0,-20.25,154,-146.0
2020-05-23,163,-3.5,59.0,163,-3.5
2020-05-24,147,-28.0,2.75,147,-28.0
2020-05-25,107,2.0,11.5,107,2.0
2020-05-26,151,-5.0,26.5,151,-5.0
2020-05-27,97,55.0,38.0,97,55.0
2020-05-28,261,71.0,-33.75,261,71.0
2020-05-29,239,-12.5,-35.25,239,-12.5
2020-05-30,236,0.5,-5.25,236,0.5
2020-05-31,240,-23.0,33.5,240,-23.0
2020-06-01,190,67.5,26.25,190,67.5
2020-06-02,375,29.5,-38.0,375,29.5
2020-06-03,249,-8.5,-20.5,249,-8.5
2020-06-04,358,-11.5,27.25,358,-11.5
2020-06-05,226,46.0,30.5,226,46.0
2020-06-06,450,49.5,-57.0,450,49.5
2020-06-07,325,-68.0,-21.0,325,-68.0
2020-06-08,314,7.5,27.5,314,7.5
2020-06-09,340,-13.0,23.25,340,-13.0
2020-06-10,288,54.0,117.25,288,54.0
2020-06-11,448,221.5,-2.0,448,221.5
2020-06-12,731,50.0,-192.0,731,50.0
2020-06-13,548,-162.5,-58.0,548,-162.5
2020-06-14,406,-66.0,48.25,406,-66.0
2020-06-15,416,-66.0,32.75,416,-66.0
2020-06-16,274,-0.5,45.0,274,-0.5
2020-06-17,415,24.0,72.25,415,24.0
2020-06-18,322,144.0,35.25,322,144.0
2020-06-19,703,94.5,-143.0,703,94.5
2020-06-20,511,-142.0,-44.5,511,-142.0
2020-06-21,419,5.5,115.0,419,5.5
2020-06-22,522,88.0,41.0,522,88.0
2020-06-23,595,87.5,-21.0,595,87.5
2020-06-24,697,46.0,-48.5,697,46.0
2020-06-25,687,-9.5,-52.25,687,-9.5
2020-06-26,678,-58.5,-37.75,678,-58.5
2020-06-27,570,-85.0,-3.5,570,-85.0
2020-06-28,508,-65.5,45.5,508,-65.5
2020-06-29,439,6.0,28.0,439,6.0
2020-06-30,520,-9.5,86.5,520,-9.5
2020-07-01,420,179.0,36.5,420,179.0
2020-07-02,878,63.5,-162.25,878,63.5
2020-07-03,547,-145.5,-17.25,547,-145.5
2020-07-04,587,29.0,35.75,587,29.0
2020-07-05,605,-74.0,-101.0,605,-74.0
2020-07-06,439,-173.0,110.75,439,-173.0
2020-07-07,259,147.5,223.25,259,147.5
2020-07-08,734,273.5,-69.5,734,273.5
2020-07-09,806,8.5,-73.0,806,8.5
2020-07-10,751,127.5,-66.25,751,127.5
2020-07-11,1061,-124.0,-186.0,1061,-124.0
2020-07-12,503,-244.5,154.5,503,-244.5
2020-07-13,572,185.0,100.5,572,185.0
2020-07-14,873,-43.5,-106.5,873,-43.5
2020-07-15,485,-28.0,62.5,485,-28.0
2020-07-16,817,81.5,2.5,817,81.5
2020-07-17,648,-23.0,-29.0,648,-23.0
2020-07-18,771,23.5,-6.5,771,23.5
2020-07-19,695,-36.0,-3.5,695,-36.0
2020-07-20,699,16.5,-9.0,699,16.5
2020-07-21,728,-54.0,63.0,728,-54.0
2020-07-22,591,142.5,126.75,591,142.5
2020-07-23,1013,199.5,-141.5,1013,199.5
2020-07-24,990,-140.5,-186.75,990,-140.5
2020-07-25,732,-174.0,93.25,732,-174.0
2020-07-26,642,46.0,110.0,642,46.0
2020-07-27,824,46.0,-32.25,824,46.0
2020-07-28,734,-18.5,-8.75,734,-18.5
2020-07-29,787,28.5,0.5,787,28.5
2020-07-30,791,-17.5,-46.5,791,-17.5
2020-07-31,752,-64.5,-20.0,752,-64.5
2020-08-01,662,-57.5,63.5,662,-57.5
2020-08-02,637,62.5,65.5,637,62.5
2020-08-03,787,73.5,0.0,787,73.5
2020-08-04,784,62.5,-49.0,784,62.5
2020-08-05,912,-24.5,-6.5,912,-24.5
2020-08-06,735,49.5,21.5,735,49.5
2020-08-07,1011,18.5,-134.5,1011,18.5
2020-08-08,772,-219.5,-41.0,772,-219.5
2020-08-09,572,-63.5,62.5,572,-63.5
2020-08-10,645,-94.5,41.75,645,-94.5
2020-08-11,383,20.0,119.0,383,20.0
2020-08-12,685,143.5,-24.75,685,143.5
2020-08-13,670,-29.5,-239.25,670,-29.5
2020-08-14,626,-335.0,26.5,626,-335.0
2020-08-15,0,23.5,270.5,0,23.5
2020-08-16,673,206.0,-77.5,673,206.0
2020-08-17,412,-131.5,-23.75,412,-131.5
2020-08-18,410,158.5,100.5,410,158.5
2020-08-19,729,69.5,-39.75,729,69.5
2020-08-20,549,79.0,-35.25,549,79.0
2020-08-21,887,-1.0,-167.5,887,-1.0
2020-08-22,547,-256.0,-56.25,547,-256.0
2020-08-23,375,-113.5,154.25,375,-113.5
2020-08-24,320,52.5,139.0,320,52.5
2020-08-25,480,164.5,34.25,480,164.5
2020-08-26,649,121.0,-35.0,649,121.0
2020-08-27,722,94.5,-42.25,722,94.5
2020-08-28,838,36.5,-137.25,838,36.5
2020-08-29,795,-180.0,-125.0,795,-180.0
2020-08-30,478,-213.5,38.75,478,-213.5
2020-08-31,368,-102.5,168.5,368,-102.5
2020-09-01,273,123.5,225.25,273,123.5
2020-09-02,615,348.0,58.0,615,348.0
2020-09-03,969,239.5,-287.5,969,239.5
2020-09-04,1094,-227.0,-221.5,1094,-227.0
2020-09-05,515,-203.5,72.25,515,-203.5
2020-09-06,687,-82.5,3.5,687,-82.5
2020-09-07,350,-196.5,50.0,350,-196.5
2020-09-08,294,17.5,124.25,294,17.5
2020-09-09,385,52.0,171.75,385,52.0
2020-09-10,398,361.0,324.25,398,361.0
2020-09-11,1107,700.5,-330.0,1107,700.5
2020-09-12,1799,-299.0,-698.0,1799,-299.0
2020-09-13,509,-695.5,239.75,509,-695.5
2020-09-14,408,180.5,426.25,408,180.5
2020-09-15,870,157.0,-59.75,870,157.0
2020-09-16,722,61.0,-41.25,722,61.0
2020-09-17,992,74.5,-9.0,992,74.5
2020-09-18,871,43.0,-114.25,871,43.0
2020-09-19,1078,-154.0,-130.75,1078,-154.0
2020-09-20,563,-218.5,90.5,563,-218.5
2020-09-21,641,27.0,194.5,641,27.0
2020-09-22,617,170.5,103.75,617,170.5
2020-09-23,982,234.5,-106.5,982,234.5
2020-09-24,1086,-42.5,-186.5,1086,-42.5
2020-09-25,897,-138.5,-81.25,897,-138.5
2020-09-26,809,-205.0,68.75,809,-205.0
2020-09-27,487,-1.0,157.25,487,-1.0
2020-09-28,807,109.5,34.25,807,109.5
2020-09-29,706,67.5,49.75,706,67.5
2020-09-30,942,209.0,-29.75,942,209.0
2020-10-01,1124,8.0,-199.0,1124,8.0
2020-10-02,958,-189.0,-121.5,958,-189.0
2020-10-03,746,-235.0,12.25,746,-235.0
2020-10-04,488,-164.5,155.75,488,-164.5
2020-10-05,417,76.5,180.25,417,76.5
2020-10-06,641,196.0,117.75,641,196.0
2020-10-07,809,312.0,-8.5,809,312.0
2020-10-08,1265,179.0,-245.25,1265,179.0
2020-10-09,1167,-178.5,-228.0,1167,-178.5
2020-10-10,908,-277.0,25.75,908,-277.0
2020-10-11,613,-127.0,155.25,613,-127.0
2020-10-12,654,33.5,169.75,654,33.5
2020-10-13,680,212.5,132.75,680,212.5
2020-10-14,1079,299.0,-122.25,1079,299.0
2020-10-15,1278,-32.0,-248.25,1278,-32.0
2020-10-16,1015,-197.5,-76.75,1015,-197.5
2020-10-17,883,-185.5,10.75,883,-185.5
2020-10-18,644,-176.0,142.75,644,-176.0
2020-10-19,531,100.0,244.0,531,100.0
2020-10-20,844,312.0,39.5,844,312.0
2020-10-21,1155,179.0,-110.5,1155,179.0
2020-10-22,1202,91.0,-94.25,1202,91.0
2020-10-23,1337,-9.5,-180.5,1337,-9.5
2020-10-24,1183,-270.0,-138.0,1183,-270.0
2020-10-25,797,-285.5,173.75,797,-285.5
2020-10-26,612,77.5,230.0,612,77.5
2020-10-27,952,174.5,-8.75,952,174.5
2020-10-28,961,60.0,-37.0,961,60.0
2020-10-29,1072,100.5,31.0,1072,100.5
2020-10-30,1162,122.0,-124.0,1162,122.0
2020-10-31,1316,-147.5,-244.0,1316,-147.5
2020-11-01,867,-366.0,76.5,867,-366.0
2020-11-02,584,5.5,360.25,584,5.5
2020-11-03,878,354.5,164.75,878,354.5
2020-11-04,1293,335.0,-33.0,1293,335.0
2020-11-05,1548,288.5,-155.0,1548,288.5
2020-11-06,1870,25.0,-352.25,1870,25.0
2020-11-07,1598,-416.0,-175.75,1598,-416.0
2020-11-08,1038,-326.5,304.5,1038,-326.5
2020-11-09,945,193.0,417.5,945,193.0
2020-11-10,1424,508.5,-0.25,1424,508.5
2020-11-11,1962,192.5,-166.75,1962,192.5
2020-11-12,1809,175.0,-86.5,1809,175.0
2020-11-13,2312,19.5,-447.0,2312,19.5
2020-11-14,1848,-719.0,-144.75,1848,-719.0
2020-11-15,874,-270.0,529.5,874,-270.0
2020-11-16,1308,340.0,236.75,1308,340.0
2020-11-17,1554,203.5,1.0,1554,203.5
2020-11-18,1715,342.0,-15.25,1715,342.0
2020-11-19,2238,173.0,-254.25,2238,173.0
2020-11-20,2061,-166.5,-263.75,2061,-166.5
2020-11-21,1905,-354.5,-138.75,1905,-354.5
2020-11-22,1352,-444.0,369.75,1352,-444.0
2020-11-23,1017,385.0,459.0,1017,385.0
2020-11-24,2122,474.0,-136.0,2122,474.0
2020-11-25,1965,113.0,-465.25,1965,113.0
2020-11-26,2348,-456.5,-306.25,2348,-456.5
2020-11-27,1052,-499.5,270.5,1052,-499.5
2020-11-28,1349,84.5,190.5,1349,84.5
2020-11-29,1221,-118.5,140.0,1221,-118.5
2020-11-30,1112,364.5,334.25,1112,364.5
2020-12-01,1950,550.0,27.5,1950,550.0
2020-12-02,2212,419.5,-121.25,2212,419.5
2020-12-03,2789,307.5,-345.75,2789,307.5
2020-12-04,2827,-272.0,-475.0,2827,-272.0
2020-12-05,2245,-642.5,-145.75,2245,-642.5
2020-12-06,1542,-563.5,506.5,1542,-563.5
2020-12-07,1118,370.5,584.0,1118,370.5
2020-12-08,2283,604.5,-205.5,2283,604.5
2020-12-09,2327,-40.5,-191.5,2327,-40.5
2020-12-10,2202,221.5,126.75,2202,221.5
2020-12-11,2770,213.0,-440.75,2770,213.0
2020-12-12,2628,-660.0,-424.75,2628,-660.0
2020-12-13,1450,-636.5,502.75,1450,-636.5
2020-12-14,1355,345.5,556.0,1355,345.5
2020-12-15,2141,475.5,51.75,2141,475.5
2020-12-16,2306,449.0,-94.75,2306,449.0
2020-12-17,3039,286.0,-311.0,3039,286.0
2020-12-18,2878,-173.0,-862.5,2878,-173.0
2020-12-19,2693,-1439.0,-1260.0,2693,-1439.0
2020-12-20,0,-2693.0,-1254.0,0,-2693.0
