date, confirmed_daily_cases, first_order,second_order, confirmed_daily_cases_outlier_removed,first_order_outlier_removed,second_order_outlier_removed
2020-01-01,0,0.0,0.0,0,0.0
2020-01-02,0,0.0,0.0,0,0.0
2020-01-03,0,0.0,0.0,0,0.0
2020-01-04,0,0.0,0.0,0,0.0
2020-01-05,0,0.0,0.0,0,0.0
2020-01-06,0,0.0,0.0,0,0.0
2020-01-07,0,0.0,0.0,0,0.0
2020-01-08,0,0.0,0.0,0,0.0
2020-01-09,0,0.0,0.0,0,0.0
2020-01-10,0,0.0,0.0,0,0.0
2020-01-11,0,0.0,0.0,0,0.0
2020-01-12,0,0.0,0.0,0,0.0
2020-01-13,0,0.0,0.0,0,0.0
2020-01-14,0,0.0,0.0,0,0.0
2020-01-15,0,0.0,0.0,0,0.0
2020-01-16,0,0.0,0.0,0,0.0
2020-01-17,0,0.0,0.0,0,0.0
2020-01-18,0,0.0,0.0,0,0.0
2020-01-19,0,0.0,0.0,0,0.0
2020-01-20,0,0.0,0.0,0,0.0
2020-01-21,0,0.0,0.0,0,0.0
2020-01-22,0,0.0,0.0,0,0.0
2020-01-23,0,0.0,0.0,0,0.0
2020-01-24,0,0.0,0.0,0,0.0
2020-01-25,0,0.0,0.0,0,0.0
2020-01-26,0,0.0,0.0,0,0.0
2020-01-27,0,0.0,0.0,0,0.0
2020-01-28,0,0.0,0.0,0,0.0
2020-01-29,0,0.0,0.0,0,0.0
2020-01-30,0,0.0,0.0,0,0.0
2020-01-31,0,0.0,0.0,0,0.0
2020-02-01,0,0.0,0.0,0,0.0
2020-02-02,0,0.0,0.0,0,0.0
2020-02-03,0,0.0,0.0,0,0.0
2020-02-04,0,0.0,0.0,0,0.0
2020-02-05,0,0.0,0.0,0,0.0
2020-02-06,0,0.0,0.0,0,0.0
2020-02-07,0,0.0,0.0,0,0.0
2020-02-08,0,0.0,0.0,0,0.0
2020-02-09,0,0.0,0.0,0,0.0
2020-02-10,0,0.0,0.0,0,0.0
2020-02-11,0,0.0,0.0,0,0.0
2020-02-12,0,0.0,0.0,0,0.0
2020-02-13,0,0.0,0.0,0,0.0
2020-02-14,0,0.0,0.0,0,0.0
2020-02-15,0,0.0,0.0,0,0.0
2020-02-16,0,0.0,0.0,0,0.0
2020-02-17,0,0.0,0.0,0,0.0
2020-02-18,0,0.0,0.0,0,0.0
2020-02-19,0,0.0,0.0,0,0.0
2020-02-20,0,0.0,0.0,0,0.0
2020-02-21,0,0.0,0.0,0,0.0
2020-02-22,0,0.0,0.0,0,0.0
2020-02-23,0,0.0,0.0,0,0.0
2020-02-24,0,0.0,0.0,0,0.0
2020-02-25,0,0.0,0.0,0,0.0
2020-02-26,0,0.0,0.0,0,0.0
2020-02-27,0,0.0,0.0,0,0.0
2020-02-28,0,0.0,0.0,0,0.0
2020-02-29,0,0.0,0.25,0,0.0
2020-03-01,0,0.5,0.25,0,0.5
2020-03-02,1,0.5,-0.5,1,0.5
2020-03-03,1,-0.5,-0.25,1,-0.5
2020-03-04,0,0.0,0.25,0,0.0
2020-03-05,1,0.0,0.75,1,0.0
2020-03-06,0,1.5,0.75,0,1.5
2020-03-07,4,1.5,-1.0,4,1.5
2020-03-08,3,-0.5,-1.0,3,-0.5
2020-03-09,3,-0.5,1.75,3,-0.5
2020-03-10,2,3.0,1.25,2,3.0
2020-03-11,9,2.0,1.25,9,2.0
2020-03-12,6,5.5,4.0,6,5.5
2020-03-13,20,10.0,-1.75,20,10.0
2020-03-14,26,2.0,-11.25,26,2.0
2020-03-15,24,-12.5,15.25,24,-12.5
2020-03-16,1,32.5,35.0,1,32.5
2020-03-17,89,57.5,-7.0,89,57.5
2020-03-18,116,18.5,-24.75,116,18.5
2020-03-19,126,8.0,9.0,126,8.0
2020-03-20,132,36.5,23.25,132,36.5
2020-03-21,199,54.5,-12.25,199,54.5
2020-03-22,241,12.0,-41.25,241,12.0
2020-03-23,223,-28.0,5.75,223,-28.0
2020-03-24,185,23.5,136.5,185,23.5
2020-03-25,270,245.0,56.5,270,245.0
2020-03-26,675,136.5,-75.5,675,136.5
2020-03-27,543,94.0,-83.25,543,94.0
2020-03-28,863,-30.0,44.0,863,-30.0
2020-03-29,483,182.0,211.25,483,182.0
2020-03-30,1227,392.5,-344.0,1227,392.5
2020-03-31,1268,-506.0,-0.25,1268,-506.0
2020-04-01,215,392.0,514.25,215,392.0
2020-04-02,2052,522.5,-391.75,737,522.5
2020-04-03,1260,-391.5,-373.0,1260,-391.5
2020-04-04,1269,-223.5,122.0,1269,-223.5
2020-04-05,813,-147.5,213.75,813,-147.5
2020-04-06,974,204.0,58.0,974,204.0
2020-04-07,1221,-31.5,-180.25,1221,-31.5
2020-04-08,911,-156.5,79.75,911,-156.5
2020-04-09,908,128.0,92.0,908,128.0
2020-04-10,1167,27.5,-5.5,1167,27.5
2020-04-11,963,117.0,26.5,963,117.0
2020-04-12,1401,80.5,-256.5,1401,80.5
2020-04-13,1124,-396.0,-100.5,1124,-396.0
2020-04-14,609,-120.5,253.75,609,-120.5
2020-04-15,883,111.5,193.5,883,111.5
2020-04-16,832,266.5,-80.5,832,266.5
2020-04-17,1416,-49.5,-281.75,1416,-49.5
2020-04-18,733,-297.0,27.75,733,-297.0
2020-04-19,822,6.0,145.5,822,6.0
2020-04-20,745,-6.0,-79.25,745,-6.0
2020-04-21,810,-152.5,135.25,810,-152.5
2020-04-22,440,264.5,187.5,440,264.5
2020-04-23,1339,222.5,-390.5,1339,222.5
2020-04-24,885,-516.5,-159.25,885,-516.5
2020-04-25,306,-96.0,333.25,306,-96.0
2020-04-26,693,150.0,52.25,693,150.0
2020-04-27,606,8.5,-140.25,606,8.5
2020-04-28,710,-130.5,-57.5,710,-130.5
2020-04-29,345,-106.5,238.5,345,-106.5
2020-04-30,497,346.5,112.75,497,346.5
2020-05-01,1038,119.0,-279.0,1038,119.0
2020-05-02,735,-211.5,-38.5,735,-211.5
2020-05-03,615,42.0,87.5,615,42.0
2020-05-04,819,-36.5,-85.0,819,-36.5
2020-05-05,542,-128.0,89.25,542,-128.0
2020-05-06,563,142.0,16.0,563,142.0
2020-05-07,826,-96.0,-77.0,826,-96.0
2020-05-08,371,-12.0,104.0,371,-12.0
2020-05-09,802,112.0,-98.0,802,112.0
2020-05-10,595,-208.0,30.5,595,-208.0
2020-05-11,386,173.0,127.25,386,173.0
2020-05-12,941,46.5,-119.75,941,46.5
2020-05-13,479,-66.5,89.0,479,-66.5
2020-05-14,808,224.5,-0.5,808,224.5
2020-05-15,928,-67.5,-150.0,928,-67.5
2020-05-16,673,-75.5,79.0,673,-75.5
2020-05-17,777,90.5,-31.0,777,90.5
2020-05-18,854,-137.5,-127.0,854,-137.5
2020-05-19,502,-163.5,244.25,502,-163.5
2020-05-20,527,351.0,144.0,527,351.0
2020-05-21,1204,124.5,-307.5,1204,124.5
2020-05-22,776,-264.0,-71.25,776,-264.0
2020-05-23,676,-18.0,182.75,676,-18.0
2020-05-24,740,101.5,-48.75,740,101.5
2020-05-25,879,-115.5,-175.75,879,-115.5
2020-05-26,509,-250.0,93.25,509,-250.0
2020-05-27,379,71.0,333.25,379,71.0
2020-05-28,651,416.5,33.5,651,416.5
2020-05-29,1212,138.0,-326.5,1212,138.0
2020-05-30,927,-236.5,-134.0,927,-236.5
2020-05-31,739,-130.0,87.75,739,-130.0
2020-06-01,667,-61.0,227.5,667,-61.0
2020-06-02,617,325.0,231.0,617,325.0
2020-06-03,1317,401.0,-165.5,1317,401.0
2020-06-04,1419,-6.0,-237.75,1419,-6.0
2020-06-05,1305,-74.5,-28.25,1305,-74.5
2020-06-06,1270,-62.5,-38.75,1270,-62.5
2020-06-07,1180,-152.0,10.25,1180,-152.0
2020-06-08,966,-42.0,177.25,966,-42.0
2020-06-09,1096,202.5,171.5,1096,202.5
2020-06-10,1371,301.0,31.5,1371,301.0
2020-06-11,1698,265.5,70.25,1698,265.5
2020-06-12,1902,441.5,-104.25,1902,441.5
2020-06-13,2581,57.0,-426.5,2581,57.0
2020-06-14,2016,-411.5,163.25,2016,-411.5
2020-06-15,1758,383.5,418.75,1758,383.5
2020-06-16,2783,426.0,-85.75,2783,426.0
2020-06-17,2610,212.0,90.0,2610,212.0
2020-06-18,3207,606.0,104.5,3207,606.0
2020-06-19,3822,421.0,-385.0,3822,421.0
2020-06-20,4049,-164.0,-491.25,4049,-164.0
2020-06-21,3494,-561.5,30.0,3494,-561.5
2020-06-22,2926,-104.0,927.0,2926,-104.0
2020-06-23,3286,1292.5,481.5,3286,1292.5
2020-06-24,5511,859.0,211.5,5511,859.0
2020-06-25,5004,1715.5,715.75,5004,1715.5
2020-06-26,8942,2290.5,-960.75,8942,2290.5
2020-06-27,9585,-206.0,-2225.0,9585,-206.0
2020-06-28,8530,-2159.5,-506.25,8530,-2159.5
2020-06-29,5266,-1218.5,1404.0,5266,-1218.5
2020-06-30,6093,648.5,1613.25,6093,648.5
2020-07-01,6563,2008.0,407.0,6563,2008.0
2020-07-02,10109,1462.5,-666.75,10109,1462.5
2020-07-03,9488,674.5,-588.5,9488,674.5
2020-07-04,11458,285.5,-1617.75,11458,285.5
2020-07-05,10059,-2561.0,-820.75,10059,-2561.0
2020-07-06,6336,-1356.0,2193.75,6336,-1356.0
2020-07-07,7347,1826.5,1075.0,7347,1826.5
2020-07-08,9989,794.0,-552.25,9989,794.0
2020-07-09,8935,722.0,-40.75,8935,722.0
2020-07-10,11433,712.5,605.75,11433,712.5
2020-07-11,10360,1933.5,209.75,10360,1933.5
2020-07-12,15300,1132.0,-2493.25,15300,1132.0
2020-07-13,12624,-3053.0,-1176.75,12624,-3053.0
2020-07-14,9194,-1221.5,2719.25,9194,-1221.5
2020-07-15,10181,2385.5,932.0,10181,2385.5
2020-07-16,13965,642.5,-2102.0,13965,642.5
2020-07-17,11466,-1818.5,-68.25,11466,-1818.5
2020-07-18,10328,506.0,914.0,10328,506.0
2020-07-19,12478,9.5,-1012.5,12478,9.5
2020-07-20,10347,-1519.0,-145.25,10347,-1519.0
2020-07-21,9440,-281.0,961.75,9440,-281.0
2020-07-22,9785,404.5,805.25,9785,404.5
2020-07-23,10249,1329.5,285.25,10249,1329.5
2020-07-24,12444,975.0,-1439.75,12444,975.0
2020-07-25,12199,-1550.0,-1314.25,12199,-1550.0
2020-07-26,9344,-1653.5,746.5,9344,-1653.5
2020-07-27,8892,-57.0,965.25,8892,-57.0
2020-07-28,9230,277.0,210.0,9230,277.0
2020-07-29,9446,363.0,-248.25,9446,363.0
2020-07-30,9956,-219.5,-260.0,9956,-219.5
2020-07-31,9007,-157.0,-366.0,9007,-157.0
2020-08-01,9642,-951.5,-1144.0,9642,-951.5
2020-08-02,7104,-2445.0,61.25,7104,-2445.0
2020-08-03,4752,-829.0,1386.75,4752,-829.0
2020-08-04,5446,328.5,965.5,5446,328.5
2020-08-05,5409,1102.0,405.0,5409,1102.0
2020-08-06,7650,1138.5,-338.0,7650,1138.5
2020-08-07,7686,426.0,-933.5,7686,426.0
2020-08-08,8502,-728.5,-1299.75,8502,-728.5
2020-08-09,6229,-2173.5,264.75,6229,-2173.5
2020-08-10,4155,-199.0,2075.25,4155,-199.0
2020-08-11,5831,1977.0,200.75,5831,1977.0
2020-08-12,8109,202.5,-1478.75,8109,202.5
2020-08-13,6236,-980.5,-72.25,6236,-980.5
2020-08-14,6148,58.0,-102.0,6148,58.0
2020-08-15,6352,-1184.5,-947.5,6352,-1184.5
2020-08-16,3779,-1837.0,607.0,3779,-1837.0
2020-08-17,2678,29.5,1277.75,2678,29.5
2020-08-18,3838,718.5,164.5,3838,718.5
2020-08-19,4115,358.5,-217.0,4115,358.5
2020-08-20,4555,284.5,-240.25,4555,284.5
2020-08-21,4684,-122.0,-569.75,4684,-122.0
2020-08-22,4311,-855.0,-452.25,4311,-855.0
2020-08-23,2974,-1026.5,352.25,2974,-1026.5
2020-08-24,2258,-150.5,753.75,2258,-150.5
2020-08-25,2673,481.0,224.25,2673,481.0
2020-08-26,3220,298.0,-91.75,3220,298.0
2020-08-27,3269,297.5,-167.0,3269,297.5
2020-08-28,3815,-36.0,-456.75,3815,-36.0
2020-08-29,3197,-616.0,-310.0,3197,-616.0
2020-08-30,2583,-656.0,1554.5,2583,-656.0
2020-08-31,1885,2493.0,457.25,1885,2493.0
2020-09-01,7569,258.5,-2246.0,7569,258.5
2020-09-02,2402,-1999.0,69.75,2402,-1999.0
2020-09-03,3571,398.0,1020.75,3571,398.0
2020-09-04,3198,42.5,-357.5,3198,42.5
2020-09-05,3656,-317.0,-475.75,3656,-317.0
2020-09-06,2564,-909.0,-26.75,2564,-909.0
2020-09-07,1838,-370.5,536.75,1838,-370.5
2020-09-08,1823,164.5,347.5,1823,164.5
2020-09-09,2167,324.5,288.5,2167,324.5
2020-09-10,2472,741.5,17.25,2472,741.5
2020-09-11,3650,359.0,-677.5,3650,359.0
2020-09-12,3190,-613.5,-543.0,3190,-613.5
2020-09-13,2423,-727.0,480.0,2423,-727.0
2020-09-14,1736,346.5,518.25,1736,346.5
2020-09-15,3116,309.5,-138.5,3116,309.5
2020-09-16,2355,69.5,57.5,2355,69.5
2020-09-17,3255,424.5,44.75,3255,424.5
2020-09-18,3204,159.0,-383.0,3204,159.0
2020-09-19,3573,-341.5,-551.5,3573,-341.5
2020-09-20,2521,-944.0,158.0,2521,-944.0
2020-09-21,1685,-25.5,698.25,1685,-25.5
2020-09-22,2470,452.5,30.5,2470,452.5
2020-09-23,2590,35.5,-162.0,2590,35.5
2020-09-24,2541,128.5,45.75,2541,128.5
2020-09-25,2847,127.0,-305.5,2847,127.0
2020-09-26,2795,-482.5,-577.75,2795,-482.5
2020-09-27,1882,-1028.5,587.25,1882,-1028.5
2020-09-28,738,692.0,816.75,738,692.0
2020-09-29,3266,605.0,-505.5,3266,605.0
2020-09-30,1948,-319.0,-124.5,1948,-319.0
2020-10-01,2628,356.0,199.25,2628,356.0
2020-10-02,2660,79.5,-376.0,2660,79.5
2020-10-03,2787,-396.0,-382.75,2787,-396.0
2020-10-04,1868,-686.0,293.75,1868,-686.0
2020-10-05,1415,191.5,634.75,1415,191.5
2020-10-06,2251,583.5,168.0,2251,583.5
2020-10-07,2582,527.5,-210.25,2582,527.5
2020-10-08,3306,163.0,-1090.25,3306,163.0
2020-10-09,2908,-1653.0,584.0,2908,-1653.0
2020-10-10,0,1331.0,1209.75,0,1331.0
2020-10-11,5570,766.5,-1376.75,5570,766.5
2020-10-12,1533,-1422.5,-45.75,1533,-1422.5
2020-10-13,2725,675.0,869.0,2725,675.0
2020-10-14,2883,315.5,-196.0,2883,315.5
2020-10-15,3356,283.0,14.25,3356,283.0
2020-10-16,3449,344.0,-369.0,3449,344.0
2020-10-17,4044,-455.0,-756.25,4044,-455.0
2020-10-18,2539,-1168.5,508.25,2539,-1168.5
2020-10-19,1707,561.5,693.5,1707,561.5
2020-10-20,3662,218.5,193.25,3662,218.5
2020-10-21,2144,948.0,277.0,2144,948.0
2020-10-22,5558,772.5,-745.75,5558,772.5
2020-10-23,3689,-543.5,-712.25,3689,-543.5
2020-10-24,4471,-652.0,-1.75,4471,-652.0
2020-10-25,2385,-547.0,804.25,2385,-547.0
2020-10-26,3377,956.5,458.0,3377,956.5
2020-10-27,4298,369.0,-503.25,4298,369.0
2020-10-28,4115,-50.0,184.75,4115,-50.0
2020-10-29,4198,738.5,-441.75,4198,738.5
2020-10-30,5592,-933.5,-551.0,5592,-933.5
2020-10-31,2331,-363.5,1046.75,2331,-363.5
2020-11-01,4865,1160.0,124.75,4865,1160.0
2020-11-02,4651,-114.0,-637.0,4651,-114.0
2020-11-03,4637,-114.0,462.0,4637,-114.0
2020-11-04,4423,810.0,262.5,4423,810.0
2020-11-05,6257,411.0,-856.25,6257,411.0
2020-11-06,5245,-902.5,188.25,5245,-902.5
2020-11-07,4452,787.5,319.25,4452,787.5
2020-11-08,6820,-264.0,-1010.5,6820,-264.0
2020-11-09,3924,-1233.5,610.5,3924,-1233.5
2020-11-10,4353,957.0,930.25,4353,957.0
2020-11-11,5838,627.0,-204.75,5838,627.0
2020-11-12,5607,547.5,-579.25,5607,547.5
2020-11-13,6933,-531.5,519.25,6933,-531.5
2020-11-14,4544,1586.0,295.5,4544,1586.0
2020-11-15,10105,59.5,-1454.5,10105,59.5
2020-11-16,4663,-1323.0,785.75,4663,-1323.0
2020-11-17,7459,1631.0,1068.0,7459,1631.0
2020-11-18,7925,813.0,-525.5,7925,813.0
2020-11-19,9085,580.0,-575.5,9085,580.0
2020-11-20,9085,-338.0,-914.5,9085,-338.0
2020-11-21,8409,-1249.0,-350.5,8409,-1249.0
2020-11-22,6587,-1039.0,1116.5,6587,-1039.0
2020-11-23,6331,984.0,1030.75,6331,984.0
2020-11-24,8555,1022.5,-2630.75,8555,1022.5
2020-11-25,8376,-4277.5,1730.75,8376,-4277.5
2020-11-26,0,4484.0,3708.0,0,4484.0
2020-11-27,17344,3138.5,-4737.25,17344,3138.5
2020-11-28,6277,-4990.5,-1473.75,6277,-4990.5
2020-11-29,7363,191.0,2866.25,7363,191.0
2020-11-30,6659,742.0,738.25,6659,742.0
2020-12-01,8847,1667.5,134.75,8847,1667.5
2020-12-02,9994,1011.5,-788.0,9994,1011.5
2020-12-03,10870,91.5,-615.5,10870,91.5
2020-12-04,10177,-219.5,-481.0,10177,-219.5
2020-12-05,10431,-870.5,-570.25,10431,-870.5
2020-12-06,8436,-1360.0,322.5,8436,-1360.0
2020-12-07,7711,-225.5,1150.25,7711,-225.5
2020-12-08,7985,940.5,950.25,7985,940.5
2020-12-09,9592,1675.0,56.5,9592,1675.0
2020-12-10,11335,1053.5,-1027.0,11335,1053.5
2020-12-11,11699,-379.0,-1212.0,11699,-379.0
2020-12-12,10577,-1370.5,-341.75,10577,-1370.5
2020-12-13,8958,-1062.5,798.5,8958,-1062.5
2020-12-14,8452,226.5,1303.5,8452,226.5
2020-12-15,9411,1544.5,821.0,9411,1544.5
2020-12-16,11541,1868.5,-407.5,11541,1868.5
2020-12-17,13148,729.5,-1300.75,13148,729.5
2020-12-18,13000,-733.0,-3614.75,13000,-733.0
2020-12-19,11682,-6500.0,-5474.5,11682,-6500.0
2020-12-20,0,-11682.0,-5182.0,0,-11682.0
