date, confirmed_daily_cases, first_order,second_order, confirmed_daily_cases_outlier_removed,first_order_outlier_removed,second_order_outlier_removed
2020-01-01,0,0.0,0.0,0,0.0
2020-01-02,0,0.0,0.0,0,0.0
2020-01-03,0,0.0,0.0,0,0.0
2020-01-04,0,0.0,0.0,0,0.0
2020-01-05,0,0.0,0.0,0,0.0
2020-01-06,0,0.0,0.0,0,0.0
2020-01-07,0,0.0,0.0,0,0.0
2020-01-08,0,0.0,0.0,0,0.0
2020-01-09,0,0.0,0.0,0,0.0
2020-01-10,0,0.0,0.0,0,0.0
2020-01-11,0,0.0,0.0,0,0.0
2020-01-12,0,0.0,0.0,0,0.0
2020-01-13,0,0.0,0.0,0,0.0
2020-01-14,0,0.0,0.0,0,0.0
2020-01-15,0,0.0,0.0,0,0.0
2020-01-16,0,0.0,0.0,0,0.0
2020-01-17,0,0.0,0.0,0,0.0
2020-01-18,0,0.0,0.0,0,0.0
2020-01-19,0,0.0,0.0,0,0.0
2020-01-20,0,0.0,0.0,0,0.0
2020-01-21,0,0.0,0.0,0,0.0
2020-01-22,0,0.0,0.0,0,0.0
2020-01-23,0,0.0,0.0,0,0.0
2020-01-24,0,0.0,0.0,0,0.0
2020-01-25,0,0.0,0.0,0,0.0
2020-01-26,0,0.0,0.0,0,0.0
2020-01-27,0,0.0,0.0,0,0.0
2020-01-28,0,0.0,0.0,0,0.0
2020-01-29,0,0.0,0.0,0,0.0
2020-01-30,0,0.0,0.0,0,0.0
2020-01-31,0,0.0,0.0,0,0.0
2020-02-01,0,0.0,0.0,0,0.0
2020-02-02,0,0.0,0.0,0,0.0
2020-02-03,0,0.0,0.0,0,0.0
2020-02-04,0,0.0,0.0,0,0.0
2020-02-05,0,0.0,0.0,0,0.0
2020-02-06,0,0.0,0.0,0,0.0
2020-02-07,0,0.0,0.0,0,0.0
2020-02-08,0,0.0,0.0,0,0.0
2020-02-09,0,0.0,0.0,0,0.0
2020-02-10,0,0.0,0.0,0,0.0
2020-02-11,0,0.0,0.0,0,0.0
2020-02-12,0,0.0,0.0,0,0.0
2020-02-13,0,0.0,0.0,0,0.0
2020-02-14,0,0.0,0.0,0,0.0
2020-02-15,0,0.0,0.0,0,0.0
2020-02-16,0,0.0,0.0,0,0.0
2020-02-17,0,0.0,0.0,0,0.0
2020-02-18,0,0.0,0.0,0,0.0
2020-02-19,0,0.0,0.0,0,0.0
2020-02-20,0,0.0,0.0,0,0.0
2020-02-21,0,0.0,0.0,0,0.0
2020-02-22,0,0.0,0.0,0,0.0
2020-02-23,0,0.0,0.0,0,0.0
2020-02-24,0,0.0,0.25,0,0.0
2020-02-25,0,0.5,0.0,0,0.5
2020-02-26,1,0.0,-0.5,1,0.0
2020-02-27,0,-0.5,0.0,0,-0.5
2020-02-28,0,0.0,0.75,0,0.0
2020-02-29,0,1.0,0.0,0,1.0
2020-03-01,2,0.0,-1.0,2,0.0
2020-03-02,0,-1.0,0.0,0,-1.0
2020-03-03,0,0.0,0.75,0,0.0
2020-03-04,0,0.5,0.0,0,0.5
2020-03-05,1,0.0,-0.5,1,0.0
2020-03-06,0,-0.5,2.25,0,-0.5
2020-03-07,0,4.5,0.75,0,4.5
2020-03-08,9,1.0,-4.5,9,1.0
2020-03-09,2,-4.5,1.25,2,-4.5
2020-03-10,0,3.5,2.25,0,3.5
2020-03-11,9,0.0,-3.75,9,0.0
2020-03-12,0,-4.0,1.25,0,-4.0
2020-03-13,1,2.5,2.5,1,2.5
2020-03-14,5,1.0,-2.5,5,1.0
2020-03-15,3,-2.5,-1.0,3,-2.5
2020-03-16,0,-1.0,2.25,0,-1.0
2020-03-17,1,2.0,0.75,1,2.0
2020-03-18,4,0.5,-1.25,4,0.5
2020-03-19,2,-0.5,0.75,2,-0.5
2020-03-20,3,2.0,0.75,3,2.0
2020-03-21,6,1.0,-0.75,6,1.0
2020-03-22,5,0.5,0.5,5,0.5
2020-03-23,7,2.0,-0.75,7,2.0
2020-03-24,9,-1.0,-2.25,9,-1.0
2020-03-25,5,-2.5,0.25,5,-2.5
2020-03-26,4,-0.5,2.0,4,-0.5
2020-03-27,4,1.5,-0.5,4,1.5
2020-03-28,7,-1.5,0.5,7,-1.5
2020-03-29,1,2.5,2.25,1,2.5
2020-03-30,12,3.0,-2.5,12,3.0
2020-03-31,7,-2.5,1.0,7,-2.5
2020-04-01,7,5.0,4.75,7,5.0
2020-04-02,17,7.0,-5.0,17,7.0
2020-04-03,21,-5.0,-5.75,21,-5.0
2020-04-04,7,-4.5,4.25,7,-4.5
2020-04-05,12,3.5,1.25,12,3.5
2020-04-06,14,-2.0,-1.5,14,-2.0
2020-04-07,8,0.5,0.75,8,0.5
2020-04-08,15,-0.5,0.0,15,-0.5
2020-04-09,7,0.5,0.5,7,0.5
2020-04-10,16,0.5,-0.5,16,0.5
2020-04-11,8,-0.5,1.5,8,-0.5
2020-04-12,15,3.5,3.5,15,3.5
2020-04-13,15,6.5,-4.0,15,6.5
2020-04-14,28,-4.5,0.25,28,-4.5
2020-04-15,6,7.0,6.25,6,7.0
2020-04-16,42,8.0,-9.5,42,8.0
2020-04-17,22,-12.0,-8.0,22,-12.0
2020-04-18,18,-8.0,3.5,18,-8.0
2020-04-19,6,-5.0,4.0,6,-5.0
2020-04-20,8,0.0,2.5,8,0.0
2020-04-21,6,0.0,0.75,6,0.0
2020-04-22,8,1.5,2.75,8,1.5
2020-04-23,9,5.5,0.0,9,5.5
2020-04-24,19,1.5,0.0,19,1.5
2020-04-25,12,5.5,-1.0,12,5.5
2020-04-26,30,-0.5,-6.75,30,-0.5
2020-04-27,11,-8.0,-1.0,11,-8.0
2020-04-28,14,-2.5,6.0,14,-2.5
2020-04-29,6,4.0,6.5,6,4.0
2020-04-30,22,10.5,-3.5,22,10.5
2020-05-01,27,-3.0,-10.25,27,-3.0
2020-05-02,16,-10.0,-1.5,16,-10.0
2020-05-03,7,-6.0,6.0,7,-6.0
2020-05-04,4,2.0,3.5,4,2.0
2020-05-05,11,1.0,-2.5,11,1.0
2020-05-06,6,-3.0,0.0,6,-3.0
2020-05-07,5,1.0,1.0,5,1.0
2020-05-08,8,-1.0,-0.25,8,-1.0
2020-05-09,3,0.5,0.5,3,0.5
2020-05-10,9,0.0,-1.5,9,0.0
2020-05-11,3,-2.5,0.5,3,-2.5
2020-05-12,4,1.0,5.25,4,1.0
2020-05-13,5,8.0,-0.75,5,8.0
2020-05-14,20,-0.5,-6.0,20,-0.5
2020-05-15,4,-4.0,2.25,4,-4.0
2020-05-16,12,4.0,0.5,12,4.0
2020-05-17,12,-3.0,-3.5,12,-3.0
2020-05-18,6,-3.0,1.5,6,-3.0
2020-05-19,6,0.0,2.0,6,0.0
2020-05-20,6,1.0,-1.0,6,1.0
2020-05-21,8,-2.0,-1.25,8,-2.0
2020-05-22,2,-1.5,1.0,2,-1.5
2020-05-23,5,0.0,-0.25,5,0.0
2020-05-24,2,-2.0,-0.25,2,-2.0
2020-05-25,1,-0.5,1.5,1,-0.5
2020-05-26,1,1.0,0.75,1,1.0
2020-05-27,3,1.0,0.75,3,1.0
2020-05-28,3,2.5,1.5,3,2.5
2020-05-29,8,4.0,3.25,8,4.0
2020-05-30,11,9.0,-2.0,11,9.0
2020-05-31,26,0.0,-10.5,26,0.0
2020-06-01,11,-12.0,-1.75,11,-12.0
2020-06-02,2,-3.5,5.75,2,-3.5
2020-06-03,4,-0.5,1.75,4,-0.5
2020-06-04,1,0.0,0.75,1,0.0
2020-06-05,4,1.0,-0.75,4,1.0
2020-06-06,3,-1.5,-0.5,3,-1.5
2020-06-07,1,0.0,2.0,1,0.0
2020-06-08,3,2.5,1.5,3,2.5
2020-06-09,6,3.0,-1.75,6,3.0
2020-06-10,9,-1.0,-0.75,9,-1.0
2020-06-11,4,1.5,1.5,4,1.5
2020-06-12,12,2.0,-0.5,12,2.0
2020-06-13,8,0.5,0.75,8,0.5
2020-06-14,13,3.5,-3.5,13,3.5
2020-06-15,15,-6.5,-3.25,15,-6.5
2020-06-16,0,-3.0,4.5,0,-3.0
2020-06-17,9,2.5,0.0,9,2.5
2020-06-18,5,-3.0,-2.0,5,-3.0
2020-06-19,3,-1.5,2.75,3,-1.5
2020-06-20,2,2.5,0.75,2,2.5
2020-06-21,8,0.0,-2.5,8,0.0
2020-06-22,2,-2.5,0.25,2,-2.5
2020-06-23,3,0.5,1.25,3,0.5
2020-06-24,3,0.0,-0.5,3,0.0
2020-06-25,3,-0.5,-0.25,3,-0.5
2020-06-26,2,-0.5,0.5,2,-0.5
2020-06-27,2,0.5,0.25,2,0.5
2020-06-28,3,0.0,-0.5,3,0.0
2020-06-29,2,-0.5,0.25,2,-0.5
2020-06-30,2,0.5,1.75,2,0.5
2020-07-01,3,3.0,0.0,3,3.0
2020-07-02,8,0.5,-2.25,8,0.5
2020-07-03,4,-1.5,-0.5,4,-1.5
2020-07-04,5,-0.5,0.0,5,-0.5
2020-07-05,3,-1.5,0.75,3,-1.5
2020-07-06,2,1.0,1.5,2,1.0
2020-07-07,5,1.5,-0.5,5,1.5
2020-07-08,5,0.0,-0.75,5,0.0
2020-07-09,5,0.0,0.75,5,0.0
2020-07-10,5,1.5,0.0,5,1.5
2020-07-11,8,0.0,-0.5,8,0.0
2020-07-12,5,0.5,-0.25,5,0.5
2020-07-13,9,-0.5,-1.25,9,-0.5
2020-07-14,4,-2.0,-0.25,4,-2.0
2020-07-15,5,-1.0,0.75,5,-1.0
2020-07-16,2,-0.5,2.0,2,-0.5
2020-07-17,4,3.0,1.75,4,3.0
2020-07-18,8,3.0,-0.75,8,3.0
2020-07-19,10,1.5,-1.5,10,1.5
2020-07-20,11,0.0,2.5,11,0.0
2020-07-21,10,6.5,0.5,10,6.5
2020-07-22,24,1.0,-4.5,24,1.0
2020-07-23,12,-2.5,-0.25,12,-2.5
2020-07-24,19,0.5,0.0,19,0.5
2020-07-25,13,-2.5,-2.0,13,-2.5
2020-07-26,14,-3.5,-0.25,14,-3.5
2020-07-27,6,-3.0,2.75,6,-3.0
2020-07-28,8,2.0,0.75,8,2.0
2020-07-29,10,-1.5,-1.5,10,-1.5
2020-07-30,5,-1.0,0.25,5,-1.0
2020-07-31,8,-1.0,0.0,8,-1.0
2020-08-01,3,-1.0,0.25,3,-1.0
2020-08-02,6,-0.5,-0.25,6,-0.5
2020-08-03,2,-1.5,3.5,2,-1.5
2020-08-04,3,6.5,2.25,3,6.5
2020-08-05,15,3.0,-5.25,15,3.0
2020-08-06,9,-4.0,-3.0,9,-4.0
2020-08-07,7,-3.0,2.5,7,-3.0
2020-08-08,3,1.0,7.0,3,1.0
2020-08-09,9,11.0,0.75,9,11.0
2020-08-10,25,2.5,-8.25,25,2.5
2020-08-11,14,-5.5,-3.5,14,-5.5
2020-08-12,14,-4.5,5.0,14,-4.5
2020-08-13,5,4.5,4.75,5,4.5
2020-08-14,23,5.0,-4.25,23,5.0
2020-08-15,15,-4.0,-5.0,15,-4.0
2020-08-16,15,-5.0,0.75,15,-5.0
2020-08-17,5,-2.5,3.75,5,-2.5
2020-08-18,10,2.5,1.0,10,2.5
2020-08-19,10,-0.5,0.0,10,-0.5
2020-08-20,9,2.5,0.25,9,2.5
2020-08-21,15,0.0,-0.75,15,0.0
2020-08-22,9,1.0,0.25,9,1.0
2020-08-23,17,0.5,-2.75,17,0.5
2020-08-24,10,-4.5,-1.0,10,-4.5
2020-08-25,8,-1.5,3.0,8,-1.5
2020-08-26,7,1.5,1.0,7,1.5
2020-08-27,11,0.5,-1.75,11,0.5
2020-08-28,8,-2.0,-0.5,8,-2.0
2020-08-29,7,-0.5,3.75,7,-0.5
2020-08-30,7,5.5,4.25,7,5.5
2020-08-31,18,8.0,2.25,18,8.0
2020-09-01,23,10.0,-4.75,23,10.0
2020-09-02,38,-1.5,-7.5,38,-1.5
2020-09-03,20,-5.0,2.0,20,-5.0
2020-09-04,28,2.5,2.75,28,2.5
2020-09-05,25,0.5,1.0,25,0.5
2020-09-06,29,4.5,3.75,29,4.5
2020-09-07,34,8.0,0.25,34,8.0
2020-09-08,45,5.0,-1.0,45,5.0
2020-09-09,44,6.0,8.25,44,6.0
2020-09-10,57,21.5,22.25,57,21.5
2020-09-11,87,50.5,5.5,87,50.5
2020-09-12,158,32.5,-23.5,158,32.5
2020-09-13,152,3.5,-11.75,152,3.5
2020-09-14,165,9.0,6.0,165,9.0
2020-09-15,170,15.5,-2.25,170,15.5
2020-09-16,196,4.5,-11.25,196,4.5
2020-09-17,179,-7.0,-0.25,179,-7.0
2020-09-18,182,4.0,7.0,182,4.0
2020-09-19,187,7.0,-0.5,187,7.0
2020-09-20,196,3.0,2.0,196,3.0
2020-09-21,193,11.0,7.0,193,11.0
2020-09-22,218,17.0,4.75,218,17.0
2020-09-23,227,20.5,1.0,227,20.5
2020-09-24,259,19.0,-1.0,259,19.0
2020-09-25,265,18.5,-2.25,265,18.5
2020-09-26,296,14.5,-8.75,296,14.5
2020-09-27,294,1.0,-2.25,294,1.0
2020-09-28,298,10.0,6.5,298,10.0
2020-09-29,314,14.0,28.5,314,14.0
2020-09-30,326,67.0,24.75,326,67.0
2020-10-01,448,63.5,-27.75,448,63.5
2020-10-02,453,11.5,-6.5,453,11.5
2020-10-03,471,50.5,21.0,471,50.5
2020-10-04,554,53.5,-26.5,554,53.5
2020-10-05,578,-2.5,-44.25,578,-2.5
2020-10-06,549,-35.0,-18.0,549,-35.0
2020-10-07,508,-38.5,22.25,508,-38.5
2020-10-08,472,9.5,31.0,472,9.5
2020-10-09,527,23.5,-5.75,527,23.5
2020-10-10,519,-2.0,-22.0,519,-2.0
2020-10-11,523,-20.5,12.5,523,-20.5
2020-10-12,478,23.0,60.75,478,23.0
2020-10-13,569,101.0,76.0,569,101.0
2020-10-14,680,175.0,1.25,680,175.0
2020-10-15,919,103.5,-77.75,919,103.5
2020-10-16,887,19.5,24.5,887,19.5
2020-10-17,958,152.5,47.25,958,152.5
2020-10-18,1192,114.0,-75.75,1192,114.0
2020-10-19,1186,1.0,-15.75,1186,1.0
2020-10-20,1194,82.5,99.75,1194,82.5
2020-10-21,1351,200.5,60.75,1351,200.5
2020-10-22,1595,204.0,-13.75,1595,204.0
2020-10-23,1759,173.0,-59.75,1759,173.0
2020-10-24,1941,84.5,-103.75,1941,84.5
2020-10-25,1928,-34.5,-68.25,1928,-34.5
2020-10-26,1872,-52.0,-18.0,1872,-52.0
2020-10-27,1824,-70.5,-2.75,1824,-70.5
2020-10-28,1731,-57.5,26.5,1731,-57.5
2020-10-29,1709,-17.5,19.75,1709,-17.5
2020-10-30,1696,-18.0,32.5,1696,-18.0
2020-10-31,1673,47.5,53.75,1673,47.5
2020-11-01,1791,89.5,14.25,1791,89.5
2020-11-02,1852,76.0,66.0,1852,76.0
2020-11-03,1943,221.5,76.5,1943,221.5
2020-11-04,2295,229.0,9.25,2295,229.0
2020-11-05,2401,240.0,0.0,2401,240.0
2020-11-06,2775,229.0,-88.5,2775,229.0
2020-11-07,2859,63.0,-97.5,2859,63.0
2020-11-08,2901,34.0,-14.25,2901,34.0
2020-11-09,2927,34.5,-21.0,2927,34.5
2020-11-10,2970,-8.0,20.25,2970,-8.0
2020-11-11,2911,75.0,144.5,2911,75.0
2020-11-12,3120,281.0,58.5,3120,281.0
2020-11-13,3473,192.0,-253.75,3473,192.0
2020-11-14,3504,-226.5,-182.75,3504,-226.5
2020-11-15,3020,-173.5,137.5,3020,-173.5
2020-11-16,3157,48.5,158.25,3157,48.5
2020-11-17,3117,143.0,120.75,3117,143.0
2020-11-18,3443,290.0,9.75,3443,290.0
2020-11-19,3697,162.5,-113.25,3697,162.5
2020-11-20,3768,63.5,-11.25,3768,63.5
2020-11-21,3824,140.0,1.75,3824,140.0
2020-11-22,4048,67.0,-300.0,4048,67.0
2020-11-23,3958,-460.0,-255.25,3958,-460.0
2020-11-24,3128,-443.5,398.25,3128,-443.5
2020-11-25,3071,336.5,649.0,3071,336.5
2020-11-26,3801,854.5,-0.5,3801,854.5
2020-11-27,4780,335.5,-515.75,4780,335.5
2020-11-28,4472,-177.0,-481.75,4472,-177.0
2020-11-29,4426,-628.0,-78.25,4426,-628.0
2020-11-30,3216,-333.5,518.25,3216,-333.5
2020-12-01,3759,408.5,292.0,3759,408.5
2020-12-02,4033,250.5,54.5,4033,250.5
2020-12-03,4260,517.5,172.25,4260,517.5
2020-12-04,5068,595.0,-445.5,5068,595.0
2020-12-05,5450,-373.5,-1034.75,5450,-373.5
2020-12-06,4321,-1474.5,274.75,4321,-1474.5
2020-12-07,2501,176.0,1295.5,2501,176.0
2020-12-08,4673,1116.5,-113.75,4673,1116.5
2020-12-09,4734,-51.5,-705.25,4734,-51.5
2020-12-10,4570,-294.0,-140.0,4570,-294.0
2020-12-11,4146,-331.5,-209.5,4146,-331.5
2020-12-12,3907,-713.0,-476.75,3907,-713.0
2020-12-13,2720,-1285.0,635.75,2720,-1285.0
2020-12-14,1337,558.5,1180.0,1337,558.5
2020-12-15,3837,1075.0,-493.25,3837,1075.0
2020-12-16,3487,-428.0,-750.5,3487,-428.0
2020-12-17,2981,-426.0,194.75,2981,-426.0
2020-12-18,2635,-38.5,-445.75,2635,-38.5
2020-12-19,2904,-1317.5,-706.75,2904,-1317.5
2020-12-20,0,-1452.0,658.75,0,-1452.0
2020-12-21,0,0.0,726.0,0,0.0
2020-12-22,0,0.0,0.0,0,0.0
2020-12-23,0,0.0,0.0,0,0.0
2020-12-24,0,0.0,0.0,0,0.0
2020-12-25,0,0.0,0.0,0,0.0
2020-12-26,0,0.0,0.0,0,0.0
2020-12-27,0,0.0,0.0,0,0.0
2020-12-28,0,0.0,0.0,0,0.0
2020-12-29,0,0.0,0.0,0,0.0
2020-12-30,0,0.0,0.0,0,0.0
2020-12-31,0,0.0,0.0,0,0.0
2021-01-01,0,0.0,0.0,0,0.0
2021-01-02,0,0.0,0.0,0,0.0
2021-01-03,0,0.0,0.0,0,0.0
2021-01-04,0,0.0,0.0,0,0.0
2021-01-05,0,0.0,0.0,0,0.0
2021-01-06,0,0.0,0.0,0,0.0
2021-01-07,0,0.0,0.0,0,0.0
2021-01-08,0,0.0,0.0,0,0.0
2021-01-09,0,0.0,0.0,0,0.0
2021-01-10,0,0.0,0.0,0,0.0
2021-01-11,0,0.0,0.0,0,0.0
2021-01-12,0,0.0,0.0,0,0.0
2021-01-13,0,0.0,0.0,0,0.0
2021-01-14,0,0.0,0.0,0,0.0
2021-01-15,0,0.0,0.0,0,0.0
2021-01-16,0,0.0,0.0,0,0.0
2021-01-17,0,0.0,0.0,0,0.0
2021-01-18,0,0.0,0.0,0,0.0
2021-01-19,0,0.0,0.0,0,0.0
2021-01-20,0,0.0,0.0,0,0.0
2021-01-21,0,0.0,0.0,0,0.0
2021-01-22,0,0.0,0.0,0,0.0
2021-01-23,0,0.0,0.0,0,0.0
2021-01-24,0,0.0,0.0,0,0.0
2021-01-25,0,0.0,0.0,0,0.0
2021-01-26,0,0.0,0.0,0,0.0
2021-01-27,0,0.0,0.0,0,0.0
2021-01-28,0,0.0,0.0,0,0.0
2021-01-29,0,0.0,0.0,0,0.0
2021-01-30,0,0.0,0.0,0,0.0
2021-01-31,0,0.0,0.0,0,0.0
2021-02-01,0,0.0,0.0,0,0.0
2021-02-02,0,0.0,0.0,0,0.0
2021-02-03,0,0.0,0.0,0,0.0
2021-02-04,0,0.0,0.0,0,0.0
2021-02-05,0,0.0,0.0,0,0.0
2021-02-06,0,0.0,0.0,0,0.0
2021-02-07,0,0.0,0.0,0,0.0
2021-02-08,0,0.0,0.0,0,0.0
2021-02-09,0,0.0,0.0,0,0.0
2021-02-10,0,0.0,0.0,0,0.0
2021-02-11,0,0.0,0.0,0,0.0
2021-02-12,0,0.0,0.0,0,0.0
2021-02-13,0,0.0,0.0,0,0.0
2021-02-14,0,0.0,0.0,0,0.0
2021-02-15,0,0.0,0.0,0,0.0
2021-02-16,0,0.0,0.0,0,0.0
2021-02-17,0,0.0,0.0,0,0.0
2021-02-18,0,0.0,0.0,0,0.0
2021-02-19,0,0.0,0.5,0,0.0
2021-02-20,0,1.0,0.0,0,1.0
2021-02-21,2,0.0,-1.0,2,0.0
2021-02-22,0,-1.0,0.25,0,-1.0
2021-02-23,0,0.5,1.0,0,0.5
2021-02-24,1,1.0,-0.5,1,1.0
2021-02-25,2,-0.5,0.25,2,-0.5
2021-02-26,0,1.5,2.0,0,1.5
2021-02-27,5,3.5,-0.5,5,3.5
2021-02-28,7,0.5,-1.5,7,0.5
2021-03-01,6,0.5,1.0,6,0.5
2021-03-02,8,2.5,5.5,8,2.5
2021-03-03,11,11.5,2.5,11,11.5
2021-03-04,31,7.5,-8.0,31,7.5
2021-03-05,26,-4.5,-4.0,26,-4.5
2021-03-06,22,-0.5,9.5,22,-0.5
2021-03-07,25,14.5,16.5,25,14.5
2021-03-08,51,32.5,29.5,51,32.5
2021-03-09,90,73.5,-21.25,90,73.5
2021-03-10,198,-10.0,-69.75,198,-10.0
2021-03-11,70,-66.0,25.25,70,-66.0
2021-03-12,66,40.5,80.0,66,40.5
2021-03-13,151,94.0,-2.75,151,94.0
2021-03-14,254,35.0,-41.0,254,35.0
2021-03-15,221,12.0,46.0,221,12.0
2021-03-16,278,127.0,16.0,278,127.0
2021-03-17,475,44.0,-111.0,475,44.0
2021-03-18,366,-95.0,-74.25,366,-95.0
2021-03-19,285,-104.5,256.5,285,-104.5
2021-03-20,157,418.0,190.25,157,418.0
2021-03-21,1121,276.0,-311.75,433,276.0
2021-03-22,709,-205.5,-194.5,709,-205.5
2021-03-23,710,-113.0,7.5,710,-113.0
2021-03-24,483,-190.5,57.5,483,-190.5
2021-03-25,329,2.0,179.75,329,2.0
2021-03-26,487,169.0,254.25,487,169.0
2021-03-27,667,510.5,18.5,667,510.5
2021-03-28,1508,206.0,-466.0,1508,206.0
2021-03-29,1079,-421.5,-143.0,1079,-421.5
2021-03-30,665,-80.0,213.0,665,-80.0
2021-03-31,919,4.5,-116.5,919,4.5
2021-04-01,674,-313.0,45.0,674,-313.0
2021-04-02,293,94.5,399.0,293,94.5
2021-04-03,863,485.0,-160.75,863,485.0
2021-04-04,1263,-227.0,-387.75,1263,-227.0
2021-04-05,409,-290.5,392.5,409,-290.5
2021-04-06,682,558.0,93.5,682,558.0
2021-04-07,1525,-103.5,-502.25,1525,-103.5
2021-04-08,475,-446.5,209.5,475,-446.5
2021-04-09,632,315.5,183.75,632,315.5
2021-04-10,1106,-79.0,-101.0,1106,-79.0
2021-04-11,474,113.5,88.25,474,113.5
2021-04-12,1333,97.5,-238.0,1333,97.5
2021-04-13,669,-362.5,-33.25,669,-362.5
2021-04-14,608,31.0,95.25,608,31.0
2021-04-15,731,-172.0,5.75,731,-172.0
2021-04-16,264,42.5,175.0,264,42.5
2021-04-17,816,178.0,-12.0,816,178.0
2021-04-18,620,18.5,-121.75,620,18.5
2021-04-19,853,-65.5,83.75,853,-65.5
2021-04-20,489,186.0,121.0,489,186.0
2021-04-21,1225,176.5,-315.75,1225,176.5
2021-04-22,842,-445.5,-102.25,842,-445.5
2021-04-23,334,-28.0,276.0,334,-28.0
2021-04-24,786,106.5,3.75,786,106.5
2021-04-25,547,-20.5,28.75,547,-20.5
2021-04-26,745,164.0,-35.25,745,164.0
2021-04-27,875,-91.0,-199.0,875,-91.0
2021-04-28,563,-234.0,152.75,563,-234.0
2021-04-29,407,214.5,120.75,407,214.5
2021-04-30,992,7.5,-124.75,992,7.5
2021-05-01,422,-35.0,16.5,422,-35.0
2021-05-02,922,40.5,-75.5,922,40.5
2021-05-03,503,-186.0,52.75,503,-186.0
2021-05-04,550,146.0,65.5,550,146.0
2021-05-05,795,-55.0,-180.0,795,-55.0
2021-05-06,440,-214.0,93.5,440,-214.0
2021-05-07,367,132.0,158.25,367,132.0
2021-05-08,704,102.5,-5.5,704,102.5
2021-05-09,572,121.0,21.25,572,121.0
2021-05-10,946,145.0,-92.25,946,145.0
2021-05-11,862,-63.5,-98.0,862,-63.5
2021-05-12,819,-51.0,-8.0,819,-51.0
2021-05-13,760,-79.5,-40.0,760,-79.5
2021-05-14,660,-131.0,20.5,660,-131.0
2021-05-15,498,-38.5,104.75,498,-38.5
2021-05-16,583,78.5,30.5,583,78.5
2021-05-17,655,22.5,-49.25,655,22.5
2021-05-18,628,-20.0,-55.75,628,-20.0
2021-05-19,615,-89.0,39.25,615,-89.0
2021-05-20,450,58.5,141.75,450,58.5
2021-05-21,732,194.5,-136.0,732,194.5
2021-05-22,839,-213.5,-135.25,839,-213.5
2021-05-23,305,-76.0,271.75,305,-76.0
2021-05-24,687,330.0,56.75,687,330.0
2021-05-25,965,37.5,-221.75,965,37.5
2021-05-26,762,-113.5,-74.5,762,-113.5
2021-05-27,738,-111.5,22.0,738,-111.5
2021-05-28,539,-69.5,109.0,539,-69.5
2021-05-29,599,106.5,67.75,599,106.5
2021-05-30,752,66.0,7.0,752,66.0
2021-05-31,731,120.5,-13.25,731,120.5
2021-06-01,993,39.5,-53.25,993,39.5
2021-06-02,810,14.0,-3.0,810,14.0
2021-06-03,1021,33.5,-79.0,1021,33.5
2021-06-04,877,-144.0,-70.0,877,-144.0
2021-06-05,733,-106.5,126.75,733,-106.5
2021-06-06,664,109.5,107.75,664,109.5
2021-06-07,952,109.0,-18.5,952,109.0
2021-06-08,882,72.5,175.0,882,72.5
2021-06-09,1097,459.0,-87.5,1097,459.0
2021-06-10,1800,-102.5,-372.75,1800,-102.5
2021-06-11,892,-286.5,298.75,892,-286.5
2021-06-12,1227,495.0,229.25,1227,495.0
2021-06-13,1882,172.0,-289.5,1882,172.0
2021-06-14,1571,-84.0,-3.75,1571,-84.0
2021-06-15,1714,164.5,111.0,1714,164.5
2021-06-16,1900,138.0,-1.0,1900,138.0
2021-06-17,1990,162.5,-14.75,1990,162.5
2021-06-18,2225,108.5,-169.0,2225,108.5
2021-06-19,2207,-175.5,131.75,2207,-175.5
2021-06-20,1874,372.0,486.0,1874,372.0
2021-06-21,2951,796.5,-227.75,2951,796.5
2021-06-22,3467,-83.5,-558.5,3467,-83.5
2021-06-23,2784,-320.5,-105.0,2784,-320.5
2021-06-24,2826,-293.5,-159.25,2826,-293.5
2021-06-25,2197,-639.0,449.0,2197,-639.0
2021-06-26,1548,604.5,787.5,1548,604.5
2021-06-27,3406,936.0,-444.5,3406,936.0
2021-06-28,3420,-284.5,-200.5,3420,-284.5
2021-06-29,2837,535.0,229.0,2837,535.0
2021-06-30,4490,173.5,-756.5,4490,173.5
2021-07-01,3184,-978.0,26.5,3184,-978.0
2021-07-02,2534,226.5,703.25,2534,226.5
2021-07-03,3637,428.5,-53.75,3637,428.5
2021-07-04,3391,119.0,-199.75,3391,119.0
2021-07-05,3875,29.0,-52.0,3875,29.0
2021-07-06,3449,15.0,295.25,3449,15.0
2021-07-07,3905,619.5,-171.5,3905,619.5
2021-07-08,4688,-328.0,-868.5,4688,-328.0
2021-07-09,3249,-1117.5,203.25,3249,-1117.5
2021-07-10,2453,78.5,774.0,2453,78.5
2021-07-11,3406,430.5,185.5,3406,430.5
2021-07-12,3314,449.5,159.5,3314,449.5
2021-07-13,4305,749.5,-359.0,4305,749.5
2021-07-14,4813,-268.5,-886.75,4813,-268.5
2021-07-15,3768,-1024.0,-85.25,3768,-1024.0
2021-07-16,2765,-439.0,873.0,2765,-439.0
2021-07-17,2890,722.0,314.75,2890,722.0
2021-07-18,4209,190.5,-422.5,4209,190.5
2021-07-19,3271,-123.0,103.5,3271,-123.0
2021-07-20,3963,397.5,-14.25,3963,397.5
2021-07-21,4066,-151.5,-424.0,4066,-151.5
2021-07-22,3660,-450.5,-274.75,3660,-450.5
2021-07-23,3165,-701.0,62.25,3165,-701.0
2021-07-24,2258,-326.0,727.25,2258,-326.0
2021-07-25,2513,753.5,330.25,2513,753.5
2021-07-26,3765,334.5,-290.75,3765,334.5
2021-07-27,3182,172.0,143.0,3182,172.0
2021-07-28,4109,620.5,-321.0,4109,620.5
2021-07-29,4423,-470.0,-808.75,4423,-470.0
2021-07-30,3169,-997.0,333.5,3169,-997.0
2021-07-31,2429,197.0,782.5,2429,197.0
2021-08-01,3563,568.0,-360.5,3563,568.0
2021-08-02,3565,-524.0,-368.5,3565,-524.0
2021-08-03,2515,-169.0,451.5,2515,-169.0
2021-08-04,3227,379.0,-256.75,3227,379.0
2021-08-05,3273,-682.5,-550.0,3273,-682.5
2021-08-06,1862,-721.0,579.75,1862,-721.0
2021-08-07,1831,477.0,479.0,1831,477.0
2021-08-08,2816,237.0,-252.75,2816,237.0
2021-08-09,2305,-28.5,27.5,2305,-28.5
2021-08-10,2759,292.0,-27.5,2759,292.0
2021-08-11,2889,-83.5,-436.5,2889,-83.5
2021-08-12,2592,-581.0,-30.25,2592,-581.0
2021-08-13,1727,-144.0,384.0,1727,-144.0
2021-08-14,2304,187.0,55.0,2304,187.0
2021-08-15,2101,-34.0,2.25,2101,-34.0
2021-08-16,2236,191.5,32.5,2236,191.5
2021-08-17,2484,31.0,-120.25,2484,31.0
2021-08-18,2298,-49.0,-286.25,2298,-49.0
2021-08-19,2386,-541.5,-197.5,2386,-541.5
2021-08-20,1215,-444.0,523.5,1215,-444.0
2021-08-21,1498,505.5,326.5,1498,505.5
2021-08-22,2226,209.0,-140.5,2226,209.0
2021-08-23,1916,224.5,-67.0,1916,224.5
2021-08-24,2675,75.0,-232.5,2675,75.0
2021-08-25,2066,-240.5,-141.25,2066,-240.5
2021-08-26,2194,-207.5,-276.25,2194,-207.5
2021-08-27,1651,-793.0,76.75,1651,-793.0
2021-08-28,608,-54.0,732.0,608,-54.0
2021-08-29,1543,671.0,97.0,1543,671.0
2021-08-30,1950,140.0,-408.5,1950,140.0
2021-08-31,1823,-146.0,5.25,1823,-146.0
2021-09-01,1658,150.5,10.75,1658,150.5
2021-09-02,2124,-124.5,-350.5,2124,-124.5
2021-09-03,1409,-550.5,124.25,1409,-550.5
2021-09-04,1023,124.0,535.0,1023,124.0
2021-09-05,1657,519.5,-14.5,1657,519.5
2021-09-06,2062,95.0,-287.5,2062,95.0
2021-09-07,1847,-55.5,32.5,1847,-55.5
2021-09-08,1951,160.0,-176.5,1951,160.0
2021-09-09,2167,-408.5,-325.75,2167,-408.5
2021-09-10,1134,-491.5,159.5,1134,-491.5
2021-09-11,1184,-89.5,416.5,1184,-89.5
2021-09-12,955,341.5,190.25,955,341.5
2021-09-13,1867,291.0,-433.5,1867,291.0
2021-09-14,1537,-525.5,-190.0,1537,-525.5
2021-09-15,816,-89.0,261.75,816,-89.0
2021-09-16,1359,-2.0,-146.25,1359,-2.0
2021-09-17,812,-381.5,54.25,812,-381.5
2021-09-18,596,106.5,471.75,596,106.5
2021-09-19,1025,562.0,23.75,1025,562.0
2021-09-20,1720,154.0,-392.25,1720,154.0
2021-09-21,1333,-222.5,-26.5,1333,-222.5
2021-09-22,1275,101.0,-18.5,1275,101.0
2021-09-23,1535,-259.5,-237.0,1535,-259.5
2021-09-24,756,-373.0,174.75,756,-373.0
2021-09-25,789,90.0,362.25,789,90.0
2021-09-26,936,351.5,37.25,936,351.5
2021-09-27,1492,164.5,-142.5,1492,164.5
2021-09-28,1265,66.5,-89.25,1265,66.5
2021-09-29,1625,-14.0,-154.5,1625,-14.0
2021-09-30,1237,-242.5,-76.75,1237,-242.5
2021-10-01,1140,-167.5,84.5,1140,-167.5
2021-10-02,902,-73.5,182.5,902,-73.5
2021-10-03,993,197.5,198.5,993,197.5
2021-10-04,1297,323.5,-20.75,1297,323.5
2021-10-05,1640,156.0,-188.25,1640,156.0
2021-10-06,1609,-53.0,-186.75,1609,-53.0
2021-10-07,1534,-217.5,-169.0,1534,-217.5
2021-10-08,1174,-391.0,97.25,1174,-391.0
2021-10-09,752,-23.0,335.5,752,-23.0
2021-10-10,1128,280.0,175.75,1128,280.0
2021-10-11,1312,328.5,88.0,1312,328.5
2021-10-12,1785,456.0,-149.0,1785,456.0
2021-10-13,2224,30.5,-454.5,2224,30.5
2021-10-14,1846,-453.0,-237.25,1846,-453.0
2021-10-15,1318,-444.0,269.75,1318,-444.0
2021-10-16,958,86.5,395.75,958,86.5
2021-10-17,1491,347.5,39.75,1491,347.5
2021-10-18,1653,166.0,-242.75,1653,166.0
2021-10-19,1823,-138.0,102.5,1823,-138.0
2021-10-20,1377,371.0,22.75,1377,371.0
2021-10-21,2565,-92.5,-592.0,2565,-92.5
2021-10-22,1192,-813.0,7649.5,1192,-813.0
2021-10-23,939,15206.5,824.5,939,15206.5
2021-10-24,31605,836.0,-14882.5,1775,836.0
2021-10-25,2611,-14558.5,-370.25,2611,-14558.5
2021-10-26,2488,95.5,7309.75,2488,95.5
2021-10-27,2802,61.0,-492.25,2802,61.0
2021-10-28,2610,-889.0,-365.0,2610,-889.0
2021-10-29,1024,-669.0,1268.25,1024,-669.0
2021-10-30,1272,1647.5,577.0,1272,1647.5
2021-10-31,4319,485.0,-1158.0,4319,485.0
2021-11-01,2242,-668.5,-54.5,2242,-668.5
2021-11-02,2982,376.0,347.5,2982,376.0
2021-11-03,2994,26.5,-415.5,2994,26.5
2021-11-04,3035,-455.0,-460.25,3035,-455.0
2021-11-05,2084,-894.0,790.25,2084,-894.0
2021-11-06,1247,1125.5,925.5,1247,1125.5
2021-11-07,4335,957.0,-790.5,4335,957.0
2021-11-08,3161,-455.5,-410.0,3161,-455.5
2021-11-09,3424,137.0,925.0,3424,137.0
2021-11-10,3435,1394.5,-345.25,3435,1394.5
2021-11-11,6213,-553.5,-1769.5,6213,-553.5
2021-11-12,2328,-2144.5,613.75,2328,-2144.5
2021-11-13,1924,674.0,1385.5,1924,674.0
2021-11-14,3676,626.5,-354.0,3676,626.5
2021-11-15,3177,-34.0,-355.25,3177,-34.0
2021-11-16,3608,-84.0,-125.5,3608,-84.0
2021-11-17,3009,-285.0,-222.25,3009,-285.0
2021-11-18,3038,-528.5,-105.25,3038,-528.5
2021-11-19,1952,-495.5,986.75,1952,-495.5
2021-11-20,2047,1445.0,1169.5,2047,1445.0
2021-11-21,4842,1843.5,-473.25,4842,1843.5
2021-11-22,5734,498.5,-761.25,5734,498.5
2021-11-23,5839,321.0,-454.75,5839,321.0
2021-11-24,6376,-411.0,-1246.0,6376,-411.0
2021-11-25,5017,-2171.0,272.5,5017,-2171.0
2021-11-26,2034,134.0,1971.25,2034,134.0
2021-11-27,5285,1771.5,-10.25,5285,1771.5
2021-11-28,5577,113.5,-374.25,5577,113.5
2021-11-29,5512,1023.0,113.0,5512,1023.0
2021-11-30,7623,339.5,-805.5,7623,339.5
2021-12-01,6191,-588.0,-518.0,6191,-588.0
2021-12-02,6447,-696.5,-387.75,6447,-696.5
2021-12-03,4798,-1363.5,1008.0,4798,-1363.5
2021-12-04,3720,1319.5,1407.75,3720,1319.5
2021-12-05,7437,1452.0,-574.75,7437,1452.0
2021-12-06,6624,170.0,-346.75,6624,170.0
2021-12-07,7777,758.5,-588.5,7777,758.5
2021-12-08,8141,-1007.0,-2414.5,8141,-1007.0
2021-12-09,5763,-4070.5,-2378.0,5763,-4070.5
2021-12-10,0,-5763.0,-1692.5,0,-5763.0
