date, confirmed_daily_cases, first_order,second_order, confirmed_daily_cases_outlier_removed,first_order_outlier_removed,second_order_outlier_removed
2020-01-01,0,0.0,0.0,0,0.0
2020-01-02,0,0.0,0.0,0,0.0
2020-01-03,0,0.0,0.0,0,0.0
2020-01-04,0,0.0,0.0,0,0.0
2020-01-05,0,0.0,0.0,0,0.0
2020-01-06,0,0.0,0.0,0,0.0
2020-01-07,0,0.0,0.0,0,0.0
2020-01-08,0,0.0,0.0,0,0.0
2020-01-09,0,0.0,0.0,0,0.0
2020-01-10,0,0.0,0.0,0,0.0
2020-01-11,0,0.0,0.0,0,0.0
2020-01-12,0,0.0,0.0,0,0.0
2020-01-13,0,0.0,0.0,0,0.0
2020-01-14,0,0.0,0.0,0,0.0
2020-01-15,0,0.0,0.0,0,0.0
2020-01-16,0,0.0,0.0,0,0.0
2020-01-17,0,0.0,0.0,0,0.0
2020-01-18,0,0.0,0.0,0,0.0
2020-01-19,0,0.0,0.0,0,0.0
2020-01-20,0,0.0,0.0,0,0.0
2020-01-21,0,0.0,0.0,0,0.0
2020-01-22,0,0.0,0.0,0,0.0
2020-01-23,0,0.0,0.0,0,0.0
2020-01-24,0,0.0,0.0,0,0.0
2020-01-25,0,0.0,0.0,0,0.0
2020-01-26,0,0.0,0.0,0,0.0
2020-01-27,0,0.0,0.0,0,0.0
2020-01-28,0,0.0,0.0,0,0.0
2020-01-29,0,0.0,0.0,0,0.0
2020-01-30,0,0.0,0.0,0,0.0
2020-01-31,0,0.0,0.0,0,0.0
2020-02-01,0,0.0,0.0,0,0.0
2020-02-02,0,0.0,0.0,0,0.0
2020-02-03,0,0.0,0.0,0,0.0
2020-02-04,0,0.0,0.0,0,0.0
2020-02-05,0,0.0,0.0,0,0.0
2020-02-06,0,0.0,0.0,0,0.0
2020-02-07,0,0.0,0.0,0,0.0
2020-02-08,0,0.0,0.0,0,0.0
2020-02-09,0,0.0,0.0,0,0.0
2020-02-10,0,0.0,0.0,0,0.0
2020-02-11,0,0.0,0.0,0,0.0
2020-02-12,0,0.0,0.0,0,0.0
2020-02-13,0,0.0,0.0,0,0.0
2020-02-14,0,0.0,0.0,0,0.0
2020-02-15,0,0.0,0.0,0,0.0
2020-02-16,0,0.0,0.0,0,0.0
2020-02-17,0,0.0,0.0,0,0.0
2020-02-18,0,0.0,0.0,0,0.0
2020-02-19,0,0.0,0.0,0,0.0
2020-02-20,0,0.0,0.0,0,0.0
2020-02-21,0,0.0,0.0,0,0.0
2020-02-22,0,0.0,0.0,0,0.0
2020-02-23,0,0.0,0.0,0,0.0
2020-02-24,0,0.0,0.0,0,0.0
2020-02-25,0,0.0,0.0,0,0.0
2020-02-26,0,0.0,0.0,0,0.0
2020-02-27,0,0.0,0.0,0,0.0
2020-02-28,0,0.0,0.0,0,0.0
2020-02-29,0,0.0,0.0,0,0.0
2020-03-01,0,0.0,0.0,0,0.0
2020-03-02,0,0.0,0.0,0,0.0
2020-03-03,0,0.0,0.0,0,0.0
2020-03-04,0,0.0,0.25,0,0.0
2020-03-05,0,0.5,0.0,0,0.5
2020-03-06,1,0.0,-0.5,1,0.0
2020-03-07,0,-0.5,0.75,0,-0.5
2020-03-08,0,1.5,0.5,0,1.5
2020-03-09,3,0.5,-0.75,3,0.5
2020-03-10,1,0.0,0.0,1,0.0
2020-03-11,3,0.5,0.25,3,0.5
2020-03-12,2,0.5,-0.25,2,0.5
2020-03-13,4,0.0,-0.75,4,0.0
2020-03-14,2,-1.0,0.25,2,-1.0
2020-03-15,2,0.5,1.25,2,0.5
2020-03-16,3,1.5,-0.5,3,1.5
2020-03-17,5,-0.5,3.5,5,-0.5
2020-03-18,2,8.5,3.25,2,8.5
2020-03-19,22,6.0,-4.0,22,6.0
2020-03-20,14,0.5,-2.5,14,0.5
2020-03-21,23,1.0,-1.0,23,1.0
2020-03-22,16,-1.5,5.25,16,-1.5
2020-03-23,20,11.5,4.5,20,11.5
2020-03-24,39,7.5,-3.0,39,7.5
2020-03-25,35,5.5,1.0,35,5.5
2020-03-26,50,9.5,4.5,50,9.5
2020-03-27,54,14.5,-3.75,54,14.5
2020-03-28,79,2.0,-16.75,79,2.0
2020-03-29,58,-19.0,21.75,58,-19.0
2020-03-30,41,45.5,0.25,41,45.5
2020-03-31,149,-18.5,-25.5,149,-18.5
2020-04-01,4,-5.5,8.25,4,-5.5
2020-04-02,138,-2.0,5.0,2,-2.0
2020-04-03,0,4.5,10.5,0,4.5
2020-04-04,147,19.0,-39.0,147,19.0
2020-04-05,38,-73.5,29.5,38,-73.5
2020-04-06,0,78.0,36.75,0,78.0
2020-04-07,194,0.0,-39.5,194,0.0
2020-04-08,0,-1.0,88.0,0,-1.0
2020-04-09,192,176.0,-47.5,192,176.0
2020-04-10,352,-96.0,-108.5,352,-96.0
2020-04-11,0,-41.0,61.75,0,-41.0
2020-04-12,270,27.5,-39.5,270,27.5
2020-04-13,55,-120.0,13.0,55,-120.0
2020-04-14,30,53.5,108.75,30,53.5
2020-04-15,162,97.5,-45.5,162,97.5
2020-04-16,225,-37.5,-58.75,225,-37.5
2020-04-17,87,-20.0,60.25,87,-20.0
2020-04-18,185,83.0,-13.75,185,83.0
2020-04-19,253,-47.5,-66.25,253,-47.5
2020-04-20,90,-49.5,44.75,90,-49.5
2020-04-21,154,42.0,11.5,154,42.0
2020-04-22,174,-26.5,10.5,174,-26.5
2020-04-23,101,63.0,22.0,101,63.0
2020-04-24,300,17.5,-64.0,300,17.5
2020-04-25,136,-65.0,-25.0,136,-65.0
2020-04-26,170,-32.5,44.75,170,-32.5
2020-04-27,71,24.5,39.0,71,24.5
2020-04-28,219,45.5,-24.25,219,45.5
2020-04-29,162,-24.0,-19.75,162,-24.0
2020-04-30,171,6.0,-30.75,171,6.0
2020-05-01,174,-85.5,16.25,174,-85.5
2020-05-02,0,38.5,71.5,0,38.5
2020-05-03,251,57.5,62.25,251,57.5
2020-05-04,115,163.0,-29.5,115,163.0
2020-05-05,577,-1.5,-177.0,577,-1.5
2020-05-06,112,-191.0,12.5,112,-191.0
2020-05-07,195,23.5,84.75,195,23.5
2020-05-08,159,-21.5,-51.5,159,-21.5
2020-05-09,152,-79.5,32.0,152,-79.5
2020-05-10,0,42.5,83.75,0,42.5
2020-05-11,237,88.0,-80.5,237,88.0
2020-05-12,176,-118.5,5.0,176,-118.5
2020-05-13,0,98.0,114.0,0,98.0
2020-05-14,372,109.5,-81.0,372,109.5
2020-05-15,219,-64.0,-109.5,219,-64.0
2020-05-16,244,-109.5,32.75,244,-109.5
2020-05-17,0,1.5,88.25,0,1.5
2020-05-18,247,67.0,-38.0,247,67.0
2020-05-19,134,-74.5,-37.25,134,-74.5
2020-05-20,98,-7.5,47.75,98,-7.5
2020-05-21,119,21.0,10.25,119,21.0
2020-05-22,140,13.0,-45.5,140,13.0
2020-05-23,145,-70.0,-42.75,145,-70.0
2020-05-24,0,-72.5,130.0,0,-72.5
2020-05-25,0,190.0,67.75,0,190.0
2020-05-26,380,63.0,-163.0,380,63.0
2020-05-27,126,-136.0,6.75,126,-136.0
2020-05-28,108,76.5,101.0,108,76.5
2020-05-29,279,66.0,-108.0,279,66.0
2020-05-30,240,-139.5,-7.5,240,-139.5
2020-05-31,0,51.0,104.5,0,51.0
2020-06-01,342,69.5,-54.75,342,69.5
2020-06-02,139,-58.5,4.25,139,-58.5
2020-06-03,225,78.0,41.0,225,78.0
2020-06-04,295,23.5,-35.25,295,23.5
2020-06-05,272,7.5,-79.75,272,7.5
2020-06-06,310,-136.0,-34.0,310,-136.0
2020-06-07,0,-60.5,125.75,0,-60.5
2020-06-08,189,115.5,27.0,189,115.5
2020-06-09,231,-6.5,-100.0,231,-6.5
2020-06-10,176,-84.5,14.5,176,-84.5
2020-06-11,62,22.5,96.5,62,22.5
2020-06-12,221,108.5,-66.5,221,108.5
2020-06-13,279,-110.5,-73.5,279,-110.5
2020-06-14,0,-38.5,55.25,0,-38.5
2020-06-15,202,0.0,55.75,202,0.0
2020-06-16,0,73.0,50.5,0,73.0
2020-06-17,348,101.0,-59.25,348,101.0
2020-06-18,202,-45.5,-57.0,202,-45.5
2020-06-19,257,-13.0,-11.5,257,-13.0
2020-06-20,176,-68.5,-15.25,176,-68.5
2020-06-21,120,-43.5,79.75,120,-43.5
2020-06-22,89,91.0,55.0,89,91.0
2020-06-23,302,66.5,-57.5,302,66.5
2020-06-24,222,-24.0,-28.25,222,-24.0
2020-06-25,254,10.0,25.5,254,10.0
2020-06-26,242,27.0,-49.25,242,27.0
2020-06-27,308,-88.5,-61.75,308,-88.5
2020-06-28,65,-96.5,97.25,65,-96.5
2020-06-29,115,106.0,74.0,115,106.0
2020-06-30,277,51.5,-63.0,277,51.5
2020-07-01,218,-20.0,-6.0,218,-20.0
2020-07-02,237,39.5,-49.25,237,39.5
2020-07-03,297,-118.5,-94.0,297,-118.5
2020-07-04,0,-148.5,253.25,0,-148.5
2020-07-05,0,388.0,166.0,0,388.0
2020-07-06,776,183.5,-288.0,776,183.5
2020-07-07,367,-188.0,-102.0,367,-188.0
2020-07-08,400,-20.5,100.75,400,-20.5
2020-07-09,326,13.5,41.0,326,13.5
2020-07-10,427,61.5,-46.5,427,61.5
2020-07-11,449,-79.5,-77.0,449,-79.5
2020-07-12,268,-92.5,115.25,268,-92.5
2020-07-13,264,151.0,93.75,264,151.0
2020-07-14,570,95.0,-116.5,570,95.0
2020-07-15,454,-82.0,-30.5,454,-82.0
2020-07-16,406,34.0,84.25,406,34.0
2020-07-17,522,86.5,96.75,522,86.5
2020-07-18,579,227.5,-124.75,579,227.5
2020-07-19,977,-163.0,-196.5,977,-163.0
2020-07-20,253,-165.5,138.25,253,-165.5
2020-07-21,646,113.5,73.0,646,113.5
2020-07-22,480,-19.5,19.5,480,-19.5
2020-07-23,607,152.5,66.0,607,152.5
2020-07-24,785,112.5,-193.0,785,112.5
2020-07-25,832,-233.5,-138.25,832,-233.5
2020-07-26,318,-164.0,168.5,318,-164.0
2020-07-27,504,103.5,110.0,504,103.5
2020-07-28,525,56.0,-18.25,525,56.0
2020-07-29,616,67.0,9.25,616,67.0
2020-07-30,659,74.5,-55.25,659,74.5
2020-07-31,765,-43.5,-113.0,765,-43.5
2020-08-01,572,-151.5,-40.5,572,-151.5
2020-08-02,462,-124.5,132.5,462,-124.5
2020-08-03,323,113.5,117.5,323,113.5
2020-08-04,689,110.5,-100.75,689,110.5
2020-08-05,544,-88.0,-55.75,544,-88.0
2020-08-06,513,-1.0,111.25,513,-1.0
2020-08-07,542,134.5,-34.0,542,134.5
2020-08-08,782,-69.0,-194.75,782,-69.0
2020-08-09,404,-255.0,68.25,404,-255.0
2020-08-10,272,67.5,347.5,272,67.5
2020-08-11,539,440.0,16.75,539,440.0
2020-08-12,1152,101.0,-355.0,1152,101.0
2020-08-13,741,-270.0,-77.75,741,-270.0
2020-08-14,612,-54.5,-18.0,612,-54.5
2020-08-15,632,-306.0,59.5,632,-306.0
2020-08-16,0,64.5,305.0,0,64.5
2020-08-17,761,304.0,-65.75,761,304.0
2020-08-18,608,-67.0,-129.0,608,-67.0
2020-08-19,627,46.0,36.5,627,46.0
2020-08-20,700,6.0,2.25,700,6.0
2020-08-21,639,50.5,-162.75,639,50.5
2020-08-22,801,-319.5,-17.5,801,-319.5
2020-08-23,0,15.5,327.25,0,15.5
2020-08-24,832,335.0,-50.25,832,335.0
2020-08-25,670,-85.0,-148.0,670,-85.0
2020-08-26,662,39.0,71.75,662,39.0
2020-08-27,748,58.5,-1.5,748,58.5
2020-08-28,779,36.0,-110.5,779,36.0
2020-08-29,820,-162.5,-131.75,820,-162.5
2020-08-30,454,-227.5,165.0,454,-227.5
2020-08-31,365,167.5,224.0,365,167.5
2020-09-01,789,220.5,-57.5,789,220.5
2020-09-02,806,52.5,-113.75,806,52.5
2020-09-03,894,-7.0,-53.0,894,-7.0
2020-09-04,792,-53.5,-117.0,792,-53.5
2020-09-05,787,-241.0,-97.5,787,-241.0
2020-09-06,310,-248.5,106.75,310,-248.5
2020-09-07,290,-27.5,216.25,290,-27.5
2020-09-08,255,184.0,148.75,255,184.0
2020-09-09,658,270.0,-23.5,658,270.0
2020-09-10,795,137.0,-156.0,795,137.0
2020-09-11,932,-42.0,-169.0,932,-42.0
2020-09-12,711,-201.0,-72.5,711,-201.0
2020-09-13,530,-187.0,147.5,530,-187.0
2020-09-14,337,94.0,200.25,337,94.0
2020-09-15,718,213.5,-75.0,718,213.5
2020-09-16,764,-56.0,-108.25,764,-56.0
2020-09-17,606,-3.0,121.0,606,-3.0
2020-09-18,758,186.0,-79.0,758,186.0
2020-09-19,978,-161.0,-243.75,978,-161.0
2020-09-20,436,-301.5,175.0,436,-301.5
2020-09-21,375,189.0,253.0,375,189.0
2020-09-22,814,204.5,-137.25,814,204.5
2020-09-23,784,-85.5,-71.25,784,-85.5
2020-09-24,643,62.0,124.5,643,62.0
2020-09-25,908,163.5,-144.25,908,163.5
2020-09-26,970,-226.5,-212.25,970,-226.5
2020-09-27,455,-261.0,228.75,455,-261.0
2020-09-28,448,231.0,264.5,448,231.0
2020-09-29,917,268.0,-122.75,917,268.0
2020-09-30,984,-14.5,-130.25,984,-14.5
2020-10-01,888,7.5,103.75,888,7.5
2020-10-02,999,193.0,-99.5,999,193.0
2020-10-03,1274,-191.5,-279.75,1274,-191.5
2020-10-04,616,-366.5,200.75,616,-366.5
2020-10-05,541,210.0,646.25,541,210.0
2020-10-06,1036,926.0,-147.0,1036,926.0
2020-10-07,2393,-84.0,-811.0,2393,-84.0
2020-10-08,868,-696.0,72.25,868,-696.0
2020-10-09,1001,60.5,309.5,1001,60.5
2020-10-10,989,-77.0,-118.0,989,-77.0
2020-10-11,847,-175.5,17.0,847,-175.5
2020-10-12,638,-43.0,258.75,638,-43.0
2020-10-13,761,342.0,126.75,761,342.0
2020-10-14,1322,210.5,-173.75,1322,210.5
2020-10-15,1182,-5.5,-78.0,1182,-5.5
2020-10-16,1311,54.5,-122.5,1311,54.5
2020-10-17,1291,-250.5,-190.0,1291,-250.5
2020-10-18,810,-325.5,247.0,810,-325.5
2020-10-19,640,243.5,365.75,640,243.5
2020-10-20,1297,406.0,-120.25,1297,406.0
2020-10-21,1452,3.0,-203.75,1452,3.0
2020-10-22,1303,-1.5,105.75,1303,-1.5
2020-10-23,1449,214.5,4.0,1449,214.5
2020-10-24,1732,6.5,-309.25,1732,6.5
2020-10-25,1462,-404.0,74.0,1462,-404.0
2020-10-26,924,154.5,435.25,924,154.5
2020-10-27,1771,466.5,-67.25,1771,466.5
2020-10-28,1857,20.0,-213.25,1857,20.0
2020-10-29,1811,40.0,31.5,1811,40.0
2020-10-30,1937,83.0,-148.5,1937,83.0
2020-10-31,1977,-257.0,-278.75,1977,-257.0
2020-11-01,1423,-474.5,200.0,1423,-474.5
2020-11-02,1028,143.0,387.75,1028,143.0
2020-11-03,1709,301.0,68.25,1709,301.0
2020-11-04,1630,279.5,-1.0,1630,279.5
2020-11-05,2268,299.0,-167.75,2268,299.0
2020-11-06,2228,-56.0,-412.25,2228,-56.0
2020-11-07,2156,-525.5,-78.75,2156,-525.5
2020-11-08,1177,-213.5,488.25,1177,-213.5
2020-11-09,1729,451.0,349.0,1729,451.0
2020-11-10,2079,484.5,-161.25,2079,484.5
2020-11-11,2698,128.5,-125.75,2698,128.5
2020-11-12,2336,233.0,175.0,2336,233.0
2020-11-13,3164,478.5,-545.25,3164,478.5
2020-11-14,3293,-857.5,-684.75,3293,-857.5
2020-11-15,1449,-891.0,794.25,1449,-891.0
2020-11-16,1511,731.0,754.0,1511,731.0
2020-11-17,2911,617.0,-184.0,2911,617.0
2020-11-18,2745,363.0,-40.75,2745,363.0
2020-11-19,3637,535.5,-165.25,3637,535.5
2020-11-20,3816,32.5,-673.75,3816,32.5
2020-11-21,3702,-812.0,-408.75,3702,-812.0
2020-11-22,2192,-785.0,509.5,2192,-785.0
2020-11-23,2132,207.0,684.75,2132,207.0
2020-11-24,2606,584.5,-755.0,2606,584.5
2020-11-25,3301,-1303.0,286.5,3301,-1303.0
2020-11-26,0,1157.5,1258.25,0,1157.5
2020-11-27,5616,1213.5,-1297.0,5616,1213.5
2020-11-28,2427,-1436.5,-684.5,2427,-1436.5
2020-11-29,2743,-155.5,1063.25,2743,-155.5
2020-11-30,2116,690.0,449.0,2116,690.0
2020-12-01,4123,742.5,-417.0,4123,742.5
2020-12-02,3601,-144.0,-373.5,3601,-144.0
2020-12-03,3835,-4.5,81.25,3835,-4.5
2020-12-04,3592,18.5,-254.0,3592,18.5
2020-12-05,3872,-512.5,-487.25,3872,-512.5
2020-12-06,2567,-956.0,383.5,2567,-956.0
2020-12-07,1960,254.5,855.0,1960,254.5
2020-12-08,3076,754.0,182.25,3076,754.0
2020-12-09,3468,619.0,-326.5,3468,619.0
2020-12-10,4314,101.0,-503.0,4314,101.0
2020-12-11,3670,-387.0,-357.0,3670,-387.0
2020-12-12,3540,-613.0,-245.0,3540,-613.0
2020-12-13,2444,-877.0,427.5,2444,-877.0
2020-12-14,1786,242.0,710.75,1786,242.0
2020-12-15,2928,544.5,-21.0,2928,544.5
2020-12-16,2875,200.0,-198.75,2875,200.0
2020-12-17,3328,147.0,-88.5,3328,147.0
2020-12-18,3169,23.0,-865.75,3169,23.0
2020-12-19,3374,-1584.5,-1698.5,3374,-1584.5
2020-12-20,0,-3374.0,-1789.5,0,-3374.0
