date, confirmed_daily_cases, first_order,second_order, confirmed_daily_cases_outlier_removed,first_order_outlier_removed,second_order_outlier_removed
2020-01-01,0,0.0,0.0,0,0.0
2020-01-02,0,0.0,0.0,0,0.0
2020-01-03,0,0.0,0.0,0,0.0
2020-01-04,0,0.0,0.0,0,0.0
2020-01-05,0,0.0,0.0,0,0.0
2020-01-06,0,0.0,0.0,0,0.0
2020-01-07,0,0.0,0.0,0,0.0
2020-01-08,0,0.0,0.0,0,0.0
2020-01-09,0,0.0,0.0,0,0.0
2020-01-10,0,0.0,0.0,0,0.0
2020-01-11,0,0.0,0.0,0,0.0
2020-01-12,0,0.0,0.0,0,0.0
2020-01-13,0,0.0,0.0,0,0.0
2020-01-14,0,0.0,0.0,0,0.0
2020-01-15,0,0.0,0.0,0,0.0
2020-01-16,0,0.0,0.0,0,0.0
2020-01-17,0,0.0,0.0,0,0.0
2020-01-18,0,0.0,0.0,0,0.0
2020-01-19,0,0.0,0.0,0,0.0
2020-01-20,0,0.0,0.0,0,0.0
2020-01-21,0,0.0,0.0,0,0.0
2020-01-22,0,0.0,0.0,0,0.0
2020-01-23,0,0.0,0.0,0,0.0
2020-01-24,0,0.0,0.0,0,0.0
2020-01-25,0,0.0,0.0,0,0.0
2020-01-26,0,0.0,0.0,0,0.0
2020-01-27,0,0.0,0.0,0,0.0
2020-01-28,0,0.0,0.0,0,0.0
2020-01-29,0,0.0,0.0,0,0.0
2020-01-30,0,0.0,0.0,0,0.0
2020-01-31,0,0.0,0.0,0,0.0
2020-02-01,0,0.0,0.0,0,0.0
2020-02-02,0,0.0,0.0,0,0.0
2020-02-03,0,0.0,0.0,0,0.0
2020-02-04,0,0.0,0.0,0,0.0
2020-02-05,0,0.0,0.0,0,0.0
2020-02-06,0,0.0,0.0,0,0.0
2020-02-07,0,0.0,0.0,0,0.0
2020-02-08,0,0.0,0.0,0,0.0
2020-02-09,0,0.0,0.0,0,0.0
2020-02-10,0,0.0,0.0,0,0.0
2020-02-11,0,0.0,0.0,0,0.0
2020-02-12,0,0.0,0.0,0,0.0
2020-02-13,0,0.0,0.0,0,0.0
2020-02-14,0,0.0,0.0,0,0.0
2020-02-15,0,0.0,0.0,0,0.0
2020-02-16,0,0.0,0.0,0,0.0
2020-02-17,0,0.0,0.0,0,0.0
2020-02-18,0,0.0,0.0,0,0.0
2020-02-19,0,0.0,0.0,0,0.0
2020-02-20,0,0.0,0.0,0,0.0
2020-02-21,0,0.0,0.0,0,0.0
2020-02-22,0,0.0,0.0,0,0.0
2020-02-23,0,0.0,0.0,0,0.0
2020-02-24,0,0.0,0.0,0,0.0
2020-02-25,0,0.0,0.0,0,0.0
2020-02-26,0,0.0,0.0,0,0.0
2020-02-27,0,0.0,0.0,0,0.0
2020-02-28,0,0.0,0.0,0,0.0
2020-02-29,0,0.0,0.0,0,0.0
2020-03-01,0,0.0,0.0,0,0.0
2020-03-02,0,0.0,0.0,0,0.0
2020-03-03,0,0.0,0.0,0,0.0
2020-03-04,0,0.0,0.75,0,0.0
2020-03-05,0,1.5,0.0,0,1.5
2020-03-06,3,0.0,-1.0,3,0.0
2020-03-07,0,-0.5,0.0,0,-0.5
2020-03-08,2,0.0,0.5,2,0.0
2020-03-09,0,0.5,0.25,0,0.5
2020-03-10,3,0.5,-0.25,3,0.5
2020-03-11,1,0.0,1.0,1,0.0
2020-03-12,3,2.5,1.5,3,2.5
2020-03-13,6,3.0,-2.75,6,3.0
2020-03-14,9,-3.0,0.75,9,-3.0
2020-03-15,0,4.5,6.0,0,4.5
2020-03-16,18,9.0,-0.5,18,9.0
2020-03-17,18,3.5,-3.5,18,3.5
2020-03-18,25,2.0,2.5,25,2.0
2020-03-19,22,8.5,4.5,22,8.5
2020-03-20,42,11.0,-2.0,42,11.0
2020-03-21,44,4.5,-5.0,44,4.5
2020-03-22,51,1.0,-0.25,51,1.0
2020-03-23,46,4.0,7.0,46,4.0
2020-03-24,59,15.0,22.75,59,15.0
2020-03-25,76,49.5,21.5,76,49.5
2020-03-26,158,58.0,-9.25,158,58.0
2020-03-27,192,31.0,-16.0,192,31.0
2020-03-28,220,26.0,-27.0,220,26.0
2020-03-29,244,-23.0,-12.25,244,-23.0
2020-03-30,174,1.5,49.5,174,1.5
2020-03-31,247,76.0,23.75,247,76.0
2020-04-01,326,49.0,-12.75,326,49.0
2020-04-02,345,50.5,-19.0,345,50.5
2020-04-03,427,11.0,-9.0,427,11.0
2020-04-04,367,32.5,9.75,367,32.5
2020-04-05,492,30.5,-57.75,492,30.5
2020-04-06,428,-83.0,167.25,428,-83.0
2020-04-07,326,365.0,124.0,326,365.0
2020-04-08,1158,165.0,-276.25,1158,165.0
2020-04-09,656,-187.5,-65.0,656,-187.5
2020-04-10,783,35.0,30.75,783,35.0
2020-04-11,726,-126.0,-21.25,726,-126.0
2020-04-12,531,-7.5,64.25,531,-7.5
2020-04-13,711,2.5,-34.0,711,2.5
2020-04-14,536,-75.5,52.75,536,-75.5
2020-04-15,560,108.0,94.75,560,108.0
2020-04-16,752,114.0,-53.5,752,114.0
2020-04-17,788,1.0,-123.75,788,1.0
2020-04-18,754,-133.5,20.25,754,-133.5
2020-04-19,521,41.5,63.75,521,41.5
2020-04-20,837,-6.0,-84.5,837,-6.0
2020-04-21,509,-127.5,116.25,509,-127.5
2020-04-22,582,226.5,138.0,582,226.5
2020-04-23,962,148.5,-66.25,962,148.5
2020-04-24,879,94.0,-90.25,879,94.0
2020-04-25,1150,-32.0,-108.0,1150,-32.0
2020-04-26,815,-122.0,-31.25,815,-122.0
2020-04-27,906,-94.5,18.5,906,-94.5
2020-04-28,626,-85.0,114.0,626,-85.0
2020-04-29,736,133.5,291.0,736,133.5
2020-04-30,893,497.0,-39.75,893,497.0
2020-05-01,1730,54.0,-433.75,1730,54.0
2020-05-02,1001,-370.5,-40.75,1001,-370.5
2020-05-03,989,-27.5,115.25,989,-27.5
2020-05-04,946,-140.0,38.75,946,-140.0
2020-05-05,709,50.0,195.5,709,50.0
2020-05-06,1046,251.0,-8.75,1046,251.0
2020-05-07,1211,32.5,-166.0,1211,32.5
2020-05-08,1111,-81.0,-30.75,1111,-81.0
2020-05-09,1049,-29.0,-25.25,1049,-29.0
2020-05-10,1053,-131.5,-76.75,1053,-131.5
2020-05-11,786,-182.5,57.0,786,-182.5
2020-05-12,688,-17.5,192.0,688,-17.5
2020-05-13,751,201.5,91.75,751,201.5
2020-05-14,1091,166.0,-128.0,1091,166.0
2020-05-15,1083,-54.5,-144.75,1083,-54.5
2020-05-16,982,-123.5,21.25,982,-123.5
2020-05-17,836,-12.0,298.75,836,-12.0
2020-05-18,958,474.0,-39.25,958,474.0
2020-05-19,1784,-90.5,-381.0,1784,-90.5
2020-05-20,777,-288.0,74.25,777,-288.0
2020-05-21,1208,58.0,109.75,1208,58.0
2020-05-22,893,-68.5,-47.75,893,-68.5
2020-05-23,1071,-37.5,-23.75,1071,-37.5
2020-05-24,818,-116.0,-52.0,818,-116.0
2020-05-25,839,-141.5,32.25,839,-141.5
2020-05-26,535,-51.5,258.5,535,-51.5
2020-05-27,736,375.5,161.5,736,375.5
2020-05-28,1286,271.5,-252.5,1286,271.5
2020-05-29,1279,-129.5,-264.75,1279,-129.5
2020-05-30,1027,-258.0,-54.75,1027,-258.0
2020-05-31,763,-239.0,150.25,763,-239.0
2020-06-01,549,42.5,184.0,549,42.5
2020-06-02,848,129.0,-14.25,848,129.0
2020-06-03,807,14.0,-38.25,807,14.0
2020-06-04,876,52.5,-48.0,876,52.5
2020-06-05,912,-82.0,-131.5,912,-82.0
2020-06-06,712,-210.5,-29.25,712,-210.5
2020-06-07,491,-140.5,107.5,491,-140.5
2020-06-08,431,4.5,102.75,431,4.5
2020-06-09,500,65.0,55.75,500,65.0
2020-06-10,561,116.0,-68.75,561,116.0
2020-06-11,732,-72.5,-68.0,732,-72.5
2020-06-12,416,-20.0,31.25,416,-20.0
2020-06-13,692,-10.0,-80.25,692,-10.0
2020-06-14,396,-180.5,0.25,396,-180.5
2020-06-15,331,-9.5,147.5,331,-9.5
2020-06-16,377,114.5,-24.5,377,114.5
2020-06-17,560,-58.5,-117.5,560,-58.5
2020-06-18,260,-120.5,66.25,260,-120.5
2020-06-19,319,74.0,68.0,319,74.0
2020-06-20,408,15.5,-64.75,408,15.5
2020-06-21,350,-55.5,5.75,350,-55.5
2020-06-22,297,27.0,36.0,297,27.0
2020-06-23,404,16.5,-4.5,404,16.5
2020-06-24,330,18.0,-6.25,330,18.0
2020-06-25,440,4.0,-35.25,440,4.0
2020-06-26,338,-52.5,-4.75,338,-52.5
2020-06-27,335,-5.5,61.75,335,-5.5
2020-06-28,327,71.0,-2.75,327,71.0
2020-06-29,477,-11.0,-65.0,477,-11.0
2020-06-30,305,-59.0,55.5,305,-59.0
2020-07-01,359,100.0,74.25,359,100.0
2020-07-02,505,89.5,-81.25,505,89.5
2020-07-03,538,-62.5,-106.5,538,-62.5
2020-07-04,380,-123.5,4.25,380,-123.5
2020-07-05,291,-54.0,112.0,291,-54.0
2020-07-06,272,100.5,75.25,272,100.5
2020-07-07,492,96.5,-26.75,492,96.5
2020-07-08,465,47.0,-48.75,465,47.0
2020-07-09,586,-1.0,-30.75,586,-1.0
2020-07-10,463,-14.5,45.25,463,-14.5
2020-07-11,557,89.5,-27.5,557,89.5
2020-07-12,642,-69.5,-22.0,642,-69.5
2020-07-13,418,45.5,119.25,418,45.5
2020-07-14,733,169.0,-44.0,733,169.0
2020-07-15,756,-42.5,-96.75,756,-42.5
2020-07-16,648,-24.5,68.0,648,-24.5
2020-07-17,707,93.5,66.75,707,93.5
2020-07-18,835,109.0,-117.0,835,109.0
2020-07-19,925,-140.5,-70.75,925,-140.5
2020-07-20,554,-32.5,88.5,554,-32.5
2020-07-21,860,36.5,-32.75,860,36.5
2020-07-22,627,-98.0,57.5,627,-98.0
2020-07-23,664,151.5,205.0,664,151.5
2020-07-24,930,312.0,-134.75,930,312.0
2020-07-25,1288,-118.0,-196.0,1288,-118.0
2020-07-26,694,-80.0,47.5,694,-80.0
2020-07-27,1128,-23.0,-51.75,1128,-23.0
2020-07-28,648,-183.5,72.5,648,-183.5
2020-07-29,761,122.0,193.75,761,122.0
2020-07-30,892,204.0,-29.25,892,204.0
2020-07-31,1169,63.5,-167.0,1169,63.5
2020-08-01,1019,-130.0,-69.0,1019,-130.0
2020-08-02,909,-74.5,15.25,909,-74.5
2020-08-03,870,-99.5,-37.25,870,-99.5
2020-08-04,710,-149.0,17.0,710,-149.0
2020-08-05,572,-65.5,131.75,572,-65.5
2020-08-06,579,114.5,81.75,579,114.5
2020-08-07,801,98.0,-27.0,801,98.0
2020-08-08,775,60.5,-54.0,775,60.5
2020-08-09,922,-10.0,-114.5,922,-10.0
2020-08-10,755,-168.5,-48.5,755,-168.5
2020-08-11,585,-107.0,132.0,585,-107.0
2020-08-12,541,95.5,97.0,541,95.5
2020-08-13,776,87.0,-37.25,776,87.0
2020-08-14,715,21.0,-92.5,715,21.0
2020-08-15,818,-98.0,-89.25,818,-98.0
2020-08-16,519,-157.5,49.25,519,-157.5
2020-08-17,503,0.5,56.5,503,0.5
2020-08-18,520,-44.5,14.75,520,-44.5
2020-08-19,414,30.0,86.25,414,30.0
2020-08-20,580,128.0,-4.0,580,128.0
2020-08-21,670,22.0,-86.75,670,22.0
2020-08-22,624,-45.5,-25.25,624,-45.5
2020-08-23,579,-28.5,-27.75,579,-28.5
2020-08-24,567,-101.0,-17.5,567,-101.0
2020-08-25,377,-63.5,100.5,377,-63.5
2020-08-26,440,100.0,72.0,440,100.0
2020-08-27,577,80.5,-36.75,577,80.5
2020-08-28,601,26.5,-66.25,601,26.5
2020-08-29,630,-52.0,-56.25,630,-52.0
2020-08-30,497,-86.0,55.25,497,-86.0
2020-08-31,458,58.5,42.5,458,58.5
2020-09-01,614,-1.0,-9.5,614,-1.0
2020-09-02,456,39.5,91.25,456,39.5
2020-09-03,693,181.5,1.0,693,181.5
2020-09-04,819,41.5,-167.5,819,41.5
2020-09-05,776,-153.5,-23.75,776,-153.5
2020-09-06,512,-6.0,37.75,512,-6.0
2020-09-07,764,-78.0,-104.0,764,-78.0
2020-09-08,356,-214.0,75.75,356,-214.0
2020-09-09,336,73.5,184.5,336,73.5
2020-09-10,503,155.0,39.75,503,155.0
2020-09-11,646,153.0,-94.75,646,153.0
2020-09-12,809,-34.5,-144.75,809,-34.5
2020-09-13,577,-136.5,22.75,577,-136.5
2020-09-14,536,11.0,95.0,536,11.0
2020-09-15,599,53.5,2.5,599,53.5
2020-09-16,643,16.0,-51.75,643,16.0
2020-09-17,631,-50.0,4.75,631,-50.0
2020-09-18,543,25.5,-7.75,543,25.5
2020-09-19,682,-65.5,-80.25,682,-65.5
2020-09-20,412,-135.0,15.75,412,-135.0
2020-09-21,412,-34.0,60.75,412,-34.0
2020-09-22,344,-13.5,56.75,344,-13.5
2020-09-23,385,79.5,50.25,385,79.5
2020-09-24,503,87.0,-12.25,503,87.0
2020-09-25,559,55.0,-75.5,559,55.0
2020-09-26,613,-64.0,-61.5,613,-64.0
2020-09-27,431,-68.0,32.0,431,-68.0
2020-09-28,477,0.0,18.25,477,0.0
2020-09-29,431,-31.5,88.5,431,-31.5
2020-09-30,414,177.0,90.25,414,177.0
2020-10-01,785,149.0,-135.5,785,149.0
2020-10-02,712,-94.0,-134.75,712,-94.0
2020-10-03,597,-120.5,23.0,597,-120.5
2020-10-04,471,-48.0,45.75,471,-48.0
2020-10-05,501,-29.0,13.75,501,-29.0
2020-10-06,413,-20.5,101.5,413,-20.5
2020-10-07,460,174.0,78.75,460,174.0
2020-10-08,761,137.0,-118.25,761,137.0
2020-10-09,734,-62.5,-111.5,734,-62.5
2020-10-10,636,-86.0,-1.75,636,-86.0
2020-10-11,562,-66.0,23.0,562,-66.0
2020-10-12,504,-40.0,50.75,504,-40.0
2020-10-13,482,35.5,57.0,482,35.5
2020-10-14,575,74.0,33.75,575,74.0
2020-10-15,630,103.0,5.0,630,103.0
2020-10-16,781,84.0,-114.25,781,84.0
2020-10-17,798,-125.5,-117.25,798,-125.5
2020-10-18,530,-150.5,77.75,530,-150.5
2020-10-19,497,30.0,74.0,497,30.0
2020-10-20,590,-2.5,23.25,590,-2.5
2020-10-21,492,76.5,56.25,492,76.5
2020-10-22,743,110.0,-25.0,743,110.0
2020-10-23,712,26.5,-35.0,712,26.5
2020-10-24,796,40.0,-71.0,796,40.0
2020-10-25,792,-115.5,6.25,792,-115.5
2020-10-26,565,52.5,87.5,565,52.5
2020-10-27,897,59.5,-10.0,897,59.5
2020-10-28,684,32.5,31.0,684,32.5
2020-10-29,962,121.5,-15.0,962,121.5
2020-10-30,927,2.5,-76.5,927,2.5
2020-10-31,967,-31.5,-30.5,967,-31.5
2020-11-01,864,-58.5,-7.5,864,-58.5
2020-11-02,850,-46.5,66.75,850,-46.5
2020-11-03,771,75.0,130.0,771,75.0
2020-11-04,1000,213.5,97.75,1000,213.5
2020-11-05,1198,270.5,-53.75,1198,270.5
2020-11-06,1541,106.0,-250.25,1541,106.0
2020-11-07,1410,-230.0,-61.75,1410,-230.0
2020-11-08,1081,-17.5,179.25,1081,-17.5
2020-11-09,1375,128.5,93.5,1375,128.5
2020-11-10,1338,169.5,-29.5,1338,169.5
2020-11-11,1714,69.5,-46.0,1714,69.5
2020-11-12,1477,77.5,176.25,1477,77.5
2020-11-13,1869,422.0,-46.0,1869,422.0
2020-11-14,2321,-14.5,-359.75,2321,-14.5
2020-11-15,1840,-297.5,84.5,1840,-297.5
2020-11-16,1726,154.5,221.75,1726,154.5
2020-11-17,2149,146.0,113.0,2149,146.0
2020-11-18,2018,380.5,10.75,2018,380.5
2020-11-19,2910,167.5,-196.5,2910,167.5
2020-11-20,2353,-12.5,-130.0,2353,-12.5
2020-11-21,2885,-92.5,-300.5,2885,-92.5
2020-11-22,2168,-613.5,-79.0,2168,-613.5
2020-11-23,1658,-250.5,566.5,1658,-250.5
2020-11-24,1667,519.5,288.25,1667,519.5
2020-11-25,2697,326.0,-339.5,2697,326.0
2020-11-26,2319,-159.5,-345.25,2319,-159.5
2020-11-27,2378,-364.5,-15.0,2378,-364.5
2020-11-28,1590,-189.5,265.5,1590,-189.5
2020-11-29,1999,166.5,286.25,1999,166.5
2020-11-30,1923,383.0,-9.0,1923,383.0
2020-12-01,2765,148.5,-371.75,2765,148.5
2020-12-02,2220,-360.5,318.75,2220,-360.5
2020-12-03,2044,786.0,467.5,2044,786.0
2020-12-04,3792,574.5,-680.25,3792,574.5
2020-12-05,3193,-574.5,-510.0,3193,-574.5
2020-12-06,2643,-445.5,284.5,2643,-445.5
2020-12-07,2302,-5.5,320.25,2302,-5.5
2020-12-08,2632,195.0,145.25,2632,195.0
2020-12-09,2692,285.0,-116.5,2692,285.0
2020-12-10,3202,-38.0,-58.5,3202,-38.0
2020-12-11,2616,168.0,24.5,2616,168.0
2020-12-12,3538,11.0,-390.0,3538,11.0
2020-12-13,2638,-612.0,-64.75,2638,-612.0
2020-12-14,2314,-118.5,328.75,2314,-118.5
2020-12-15,2401,45.5,13.25,2401,45.5
2020-12-16,2405,-92.0,18.25,2405,-92.0
2020-12-17,2217,82.0,42.0,2217,82.0
2020-12-18,2569,-8.0,-683.25,2569,-8.0
2020-12-19,2201,-1284.5,-1096.5,2201,-1284.5
2020-12-20,0,-2201.0,-916.5,0,-2201.0
