date, confirmed_daily_cases, first_order,second_order, confirmed_daily_cases_outlier_removed,first_order_outlier_removed,second_order_outlier_removed
2020-01-01,0,0.0,0.0,0,0.0
2020-01-02,0,0.0,0.0,0,0.0
2020-01-03,0,0.0,0.0,0,0.0
2020-01-04,0,0.0,0.0,0,0.0
2020-01-05,0,0.0,0.0,0,0.0
2020-01-06,0,0.0,0.0,0,0.0
2020-01-07,0,0.0,0.0,0,0.0
2020-01-08,0,0.0,0.0,0,0.0
2020-01-09,0,0.0,0.0,0,0.0
2020-01-10,0,0.0,0.0,0,0.0
2020-01-11,0,0.0,0.0,0,0.0
2020-01-12,0,0.0,0.0,0,0.0
2020-01-13,0,0.0,0.0,0,0.0
2020-01-14,0,0.0,0.0,0,0.0
2020-01-15,0,0.0,0.0,0,0.0
2020-01-16,0,0.0,0.0,0,0.0
2020-01-17,0,0.0,0.0,0,0.0
2020-01-18,0,0.0,0.0,0,0.0
2020-01-19,0,0.0,0.0,0,0.0
2020-01-20,0,0.0,0.0,0,0.0
2020-01-21,0,0.0,0.0,0,0.0
2020-01-22,0,0.0,0.0,0,0.0
2020-01-23,0,0.0,0.0,0,0.0
2020-01-24,0,0.0,0.0,0,0.0
2020-01-25,0,0.0,0.0,0,0.0
2020-01-26,0,0.0,0.0,0,0.0
2020-01-27,0,0.0,0.0,0,0.0
2020-01-28,0,0.0,0.0,0,0.0
2020-01-29,0,0.0,0.0,0,0.0
2020-01-30,0,0.0,0.0,0,0.0
2020-01-31,0,0.0,0.0,0,0.0
2020-02-01,0,0.0,0.0,0,0.0
2020-02-02,0,0.0,0.0,0,0.0
2020-02-03,0,0.0,0.0,0,0.0
2020-02-04,0,0.0,0.0,0,0.0
2020-02-05,0,0.0,0.0,0,0.0
2020-02-06,0,0.0,0.0,0,0.0
2020-02-07,0,0.0,0.0,0,0.0
2020-02-08,0,0.0,0.0,0,0.0
2020-02-09,0,0.0,0.0,0,0.0
2020-02-10,0,0.0,0.0,0,0.0
2020-02-11,0,0.0,0.0,0,0.0
2020-02-12,0,0.0,0.0,0,0.0
2020-02-13,0,0.0,0.0,0,0.0
2020-02-14,0,0.0,0.0,0,0.0
2020-02-15,0,0.0,0.0,0,0.0
2020-02-16,0,0.0,0.0,0,0.0
2020-02-17,0,0.0,0.0,0,0.0
2020-02-18,0,0.0,0.0,0,0.0
2020-02-19,0,0.0,0.0,0,0.0
2020-02-20,0,0.0,0.0,0,0.0
2020-02-21,0,0.0,0.0,0,0.0
2020-02-22,0,0.0,0.0,0,0.0
2020-02-23,0,0.0,0.0,0,0.0
2020-02-24,0,0.0,0.0,0,0.0
2020-02-25,0,0.0,0.0,0,0.0
2020-02-26,0,0.0,0.0,0,0.0
2020-02-27,0,0.0,0.0,0,0.0
2020-02-28,0,0.0,0.0,0,0.0
2020-02-29,0,0.0,0.0,0,0.0
2020-03-01,0,0.0,0.0,0,0.0
2020-03-02,0,0.0,0.0,0,0.0
2020-03-03,0,0.0,0.0,0,0.0
2020-03-04,0,0.0,0.0,0,0.0
2020-03-05,0,0.0,0.0,0,0.0
2020-03-06,0,0.0,0.0,0,0.0
2020-03-07,0,0.0,0.0,0,0.0
2020-03-08,0,0.0,0.0,0,0.0
2020-03-09,0,0.0,0.0,0,0.0
2020-03-10,0,0.0,0.0,0,0.0
2020-03-11,0,0.0,0.25,0,0.0
2020-03-12,0,0.5,1.0,0,0.5
2020-03-13,1,2.0,-0.25,1,2.0
2020-03-14,4,0.0,-2.0,4,0.0
2020-03-15,1,-2.0,0.25,1,-2.0
2020-03-16,0,0.5,1.5,0,0.5
2020-03-17,2,1.0,-0.5,2,1.0
2020-03-18,2,-0.5,1.25,2,-0.5
2020-03-19,1,3.5,1.75,1,3.5
2020-03-20,9,3.0,-2.25,9,3.0
2020-03-21,7,-1.0,-3.25,7,-1.0
2020-03-22,7,-3.5,3.0,7,-3.5
2020-03-23,0,5.0,5.25,0,5.0
2020-03-24,17,7.0,-0.5,17,7.0
2020-03-25,14,4.0,-2.25,14,4.0
2020-03-26,25,2.5,-3.25,25,2.5
2020-03-27,19,-2.5,0.25,19,-2.5
2020-03-28,20,3.0,0.5,20,3.0
2020-03-29,25,-1.5,-1.0,25,-1.5
2020-03-30,17,1.0,-1.0,17,1.0
2020-03-31,27,-3.5,1.0,27,-3.5
2020-04-01,10,3.0,-0.25,10,3.0
2020-04-02,33,-4.0,-4.25,33,-4.0
2020-04-03,2,-5.5,6.75,2,-5.5
2020-04-04,22,9.5,0.5,22,9.5
2020-04-05,21,-4.5,-5.0,21,-4.5
2020-04-06,13,-0.5,2.25,13,-0.5
2020-04-07,20,0.0,0.75,20,0.0
2020-04-08,13,1.0,-0.5,13,1.0
2020-04-09,22,-1.0,-3.0,22,-1.0
2020-04-10,11,-5.0,0.25,11,-5.0
2020-04-11,12,-0.5,1.25,12,-0.5
2020-04-12,10,-2.5,-1.0,10,-2.5
2020-04-13,7,-2.5,0.75,7,-2.5
2020-04-14,5,-1.0,2.75,5,-1.0
2020-04-15,5,3.0,1.0,5,3.0
2020-04-16,11,1.0,-3.25,11,1.0
2020-04-17,7,-3.5,-0.5,7,-3.5
2020-04-18,4,0.0,0.75,4,0.0
2020-04-19,7,-2.0,-0.75,7,-2.0
2020-04-20,0,-1.5,1.5,0,-1.5
2020-04-21,4,1.0,0.5,4,1.0
2020-04-22,2,-0.5,-0.5,2,-0.5
2020-04-23,3,0.0,-0.25,3,0.0
2020-04-24,2,-1.0,0.25,2,-1.0
2020-04-25,1,0.5,0.5,1,0.5
2020-04-26,3,0.0,-0.5,3,0.0
2020-04-27,1,-0.5,-0.25,1,-0.5
2020-04-28,2,-0.5,0.25,2,-0.5
2020-04-29,0,0.0,0.25,0,0.0
2020-04-30,2,0.0,0.0,2,0.0
2020-05-01,0,0.0,0.0,0,0.0
2020-05-02,2,0.0,0.0,2,0.0
2020-05-03,0,0.0,0.0,0,0.0
2020-05-04,2,0.0,-0.5,2,0.0
2020-05-05,0,-1.0,0.0,0,-1.0
2020-05-06,0,0.0,1.0,0,0.0
2020-05-07,0,1.0,0.0,0,1.0
2020-05-08,2,0.0,-1.0,2,0.0
2020-05-09,0,-1.0,0.25,0,-1.0
2020-05-10,0,0.5,1.0,0,0.5
2020-05-11,1,1.0,-0.25,1,1.0
2020-05-12,2,0.0,-1.0,2,0.0
2020-05-13,1,-1.0,0.75,1,-1.0
2020-05-14,0,1.5,1.0,0,1.5
2020-05-15,4,1.0,-1.75,4,1.0
2020-05-16,2,-2.0,-0.5,2,-2.0
2020-05-17,0,0.0,1.25,0,0.0
2020-05-18,2,0.5,1.25,2,0.5
2020-05-19,1,2.5,-0.25,1,2.5
2020-05-20,7,0.0,-3.0,7,0.0
2020-05-21,1,-3.5,-0.25,1,-3.5
2020-05-22,0,-0.5,1.75,0,-0.5
2020-05-23,0,0.0,0.25,0,0.0
2020-05-24,0,0.0,0.0,0,0.0
2020-05-25,0,0.0,0.5,0,0.0
2020-05-26,0,1.0,1.0,0,1.0
2020-05-27,2,2.0,1.0,2,2.0
2020-05-28,4,3.0,1.0,4,3.0
2020-05-29,8,4.0,-1.0,8,4.0
2020-05-30,12,1.0,-4.0,12,1.0
2020-05-31,10,-4.0,-2.0,10,-4.0
2020-06-01,4,-3.0,1.5,4,-3.0
2020-06-02,4,-1.0,4.0,4,-1.0
2020-06-03,2,5.0,0.5,2,5.0
2020-06-04,14,0.0,-6.0,14,0.0
2020-06-05,2,-7.0,0.75,2,-7.0
2020-06-06,0,1.5,4.25,0,1.5
2020-06-07,5,1.5,-0.5,5,1.5
2020-06-08,3,0.5,0.25,3,0.5
2020-06-09,6,2.0,-1.25,6,2.0
2020-06-10,7,-2.0,-0.25,7,-2.0
2020-06-11,2,1.5,4.25,2,1.5
2020-06-12,10,6.5,0.0,10,6.5
2020-06-13,15,1.5,-5.0,15,1.5
2020-06-14,13,-3.5,-2.75,13,-3.5
2020-06-15,8,-4.0,3.75,8,-4.0
2020-06-16,5,4.0,7.0,5,4.0
2020-06-17,16,10.0,-3.25,16,10.0
2020-06-18,25,-2.5,-3.25,25,-2.5
2020-06-19,11,3.5,3.25,11,3.5
2020-06-20,32,4.0,-5.5,32,4.0
2020-06-21,19,-7.5,-4.5,19,-7.5
2020-06-22,17,-5.0,5.25,17,-5.0
2020-06-23,9,3.0,9.5,9,3.0
2020-06-24,23,14.0,-0.75,23,14.0
2020-06-25,37,1.5,-10.5,37,1.5
2020-06-26,26,-7.0,-4.5,26,-7.0
2020-06-27,23,-7.5,11.75,23,-7.5
2020-06-28,11,16.5,13.0,11,16.5
2020-06-29,56,18.5,-10.0,56,18.5
2020-06-30,48,-3.5,-4.5,48,-3.5
2020-07-01,49,9.5,0.75,49,9.5
2020-07-02,67,-2.0,-11.75,67,-2.0
2020-07-03,45,-14.0,1.0,45,-14.0
2020-07-04,39,0.0,6.5,39,0.0
2020-07-05,45,-1.0,8.25,45,-1.0
2020-07-06,37,16.5,2.25,37,16.5
2020-07-07,78,3.5,-4.0,78,3.5
2020-07-08,44,8.5,19.0,44,8.5
2020-07-09,95,41.5,-7.0,95,41.5
2020-07-10,127,-5.5,-32.25,127,-5.5
2020-07-11,84,-23.0,3.0,84,-23.0
2020-07-12,81,0.5,18.5,81,0.5
2020-07-13,85,14.0,14.5,85,14.0
2020-07-14,109,29.5,-0.5,109,29.5
2020-07-15,144,13.0,-17.0,144,13.0
2020-07-16,135,-4.5,-14.0,135,-4.5
2020-07-17,135,-15.0,-16.0,135,-15.0
2020-07-18,105,-36.5,3.0,105,-36.5
2020-07-19,62,-9.0,25.5,62,-9.0
2020-07-20,87,14.5,8.0,87,14.5
2020-07-21,91,7.0,-5.75,91,7.0
2020-07-22,101,3.0,3.5,101,3.0
2020-07-23,97,14.0,29.5,97,14.0
2020-07-24,129,62.0,-18.75,129,62.0
2020-07-25,221,-23.5,-76.5,221,-23.5
2020-07-26,82,-91.0,14.75,82,-91.0
2020-07-27,39,6.0,86.25,39,6.0
2020-07-28,94,81.5,8.0,94,81.5
2020-07-29,202,22.0,-53.5,202,22.0
2020-07-30,138,-25.5,-16.5,138,-25.5
2020-07-31,151,-11.0,3.0,151,-11.0
2020-08-01,116,-19.5,-13.5,116,-19.5
2020-08-02,112,-38.0,2.0,112,-38.0
2020-08-03,40,-15.5,37.75,40,-15.5
2020-08-04,81,37.5,30.75,81,37.5
2020-08-05,115,46.0,-8.75,115,46.0
2020-08-06,173,20.0,-33.25,173,20.0
2020-08-07,155,-20.5,-33.0,155,-20.5
2020-08-08,132,-46.0,-6.5,132,-46.0
2020-08-09,63,-33.5,29.0,63,-33.5
2020-08-10,65,12.0,41.5,65,12.0
2020-08-11,87,49.5,7.0,87,49.5
2020-08-12,164,26.0,-32.25,164,26.0
2020-08-13,139,-15.0,-18.25,139,-15.0
2020-08-14,134,-10.5,-3.25,134,-10.5
2020-08-15,118,-21.5,-13.75,118,-21.5
2020-08-16,91,-38.0,1.5,91,-38.0
2020-08-17,42,-18.5,36.0,42,-18.5
2020-08-18,54,34.0,24.75,54,34.0
2020-08-19,110,31.0,-8.5,110,31.0
2020-08-20,116,17.0,-4.5,116,17.0
2020-08-21,144,22.0,-31.25,144,22.0
2020-08-22,160,-45.5,-36.0,160,-45.5
2020-08-23,53,-50.0,43.25,53,-50.0
2020-08-24,60,41.0,50.25,60,41.0
2020-08-25,135,50.5,-18.25,135,50.5
2020-08-26,161,4.5,-32.0,161,4.5
2020-08-27,144,-13.5,8.75,144,-13.5
2020-08-28,134,22.0,-4.5,134,22.0
2020-08-29,188,-22.5,-37.75,188,-22.5
2020-08-30,89,-53.5,11.0,89,-53.5
2020-08-31,81,-0.5,52.0,81,-0.5
2020-09-01,88,50.5,23.25,88,50.5
2020-09-02,182,46.0,-33.75,182,46.0
2020-09-03,180,-17.0,-31.75,180,-17.0
2020-09-04,148,-17.5,-3.5,148,-17.5
2020-09-05,145,-24.0,-14.5,145,-24.0
2020-09-06,100,-46.5,3.25,100,-46.5
2020-09-07,52,-17.5,32.0,52,-17.5
2020-09-08,65,17.5,41.25,65,17.5
2020-09-09,87,65.0,0.0,87,65.0
2020-09-10,195,17.5,-46.25,195,17.5
2020-09-11,122,-27.5,-15.25,122,-27.5
2020-09-12,140,-13.0,0.25,140,-13.0
2020-09-13,96,-27.0,16.75,96,-27.0
2020-09-14,86,20.5,38.75,86,20.5
2020-09-15,137,50.5,9.5,137,50.5
2020-09-16,187,39.5,-16.0,187,39.5
2020-09-17,216,18.5,-0.75,216,18.5
2020-09-18,224,38.0,-31.25,224,38.0
2020-09-19,292,-44.0,-59.5,292,-44.0
2020-09-20,136,-81.0,55.75,136,-81.0
2020-09-21,130,67.5,61.0,130,67.5
2020-09-22,271,41.0,-19.0,271,41.0
2020-09-23,212,29.5,7.0,212,29.5
2020-09-24,330,55.0,-11.5,330,55.0
2020-09-25,322,6.5,-58.0,322,6.5
2020-09-26,343,-61.0,-12.5,343,-61.0
2020-09-27,200,-18.5,58.25,200,-18.5
2020-09-28,306,55.5,19.5,306,55.5
2020-09-29,311,20.5,1.75,311,20.5
2020-09-30,347,59.0,-8.25,347,59.0
2020-10-01,429,4.0,-11.5,429,4.0
2020-10-02,355,36.0,-21.0,355,36.0
2020-10-03,501,-38.0,-90.25,501,-38.0
2020-10-04,279,-144.5,74.25,279,-144.5
2020-10-05,212,110.5,198.25,212,110.5
2020-10-06,500,252.0,-26.75,500,252.0
2020-10-07,716,57.0,-124.5,716,57.0
2020-10-08,614,3.0,-2.5,614,3.0
2020-10-09,722,52.0,-35.75,722,52.0
2020-10-10,718,-68.5,-99.75,718,-68.5
2020-10-11,585,-147.5,9.5,585,-147.5
2020-10-12,423,-49.5,117.75,423,-49.5
2020-10-13,486,88.0,84.0,486,88.0
2020-10-14,599,118.5,-28.25,599,118.5
2020-10-15,723,31.5,-82.5,723,31.5
2020-10-16,662,-46.5,-32.25,662,-46.5
2020-10-17,630,-33.0,8.0,630,-33.0
2020-10-18,596,-30.5,43.25,596,-30.5
2020-10-19,569,53.5,27.75,569,53.5
2020-10-20,703,25.0,29.5,703,25.0
2020-10-21,619,112.5,48.5,619,112.5
2020-10-22,928,122.0,-128.5,928,122.0
2020-10-23,863,-144.5,-92.25,863,-144.5
2020-10-24,639,-62.5,67.75,639,-62.5
2020-10-25,738,-9.0,58.0,738,-9.0
2020-10-26,621,53.5,4.25,621,53.5
2020-10-27,845,-0.5,-16.25,845,-0.5
2020-10-28,620,21.0,111.0,620,21.0
2020-10-29,887,221.5,-11.0,887,221.5
2020-10-30,1063,-1.0,-203.0,1063,-1.0
2020-10-31,885,-184.5,-31.5,885,-184.5
2020-11-01,694,-64.0,145.5,694,-64.0
2020-11-02,757,106.5,41.75,757,106.5
2020-11-03,907,19.5,-26.75,907,19.5
2020-11-04,796,53.0,36.0,796,53.0
2020-11-05,1013,91.5,-29.5,1013,91.5
2020-11-06,979,-6.0,-107.75,979,-6.0
2020-11-07,1001,-124.0,-153.75,1001,-124.0
2020-11-08,731,-313.5,153.75,731,-313.5
2020-11-09,374,183.5,293.0,374,183.5
2020-11-10,1098,272.5,-126.0,1098,272.5
2020-11-11,919,-68.5,-62.75,919,-68.5
2020-11-12,961,147.0,204.5,961,147.0
2020-11-13,1213,340.5,-58.75,1213,340.5
2020-11-14,1642,29.5,-363.5,1642,29.5
2020-11-15,1272,-386.5,10.0,1272,-386.5
2020-11-16,869,49.5,272.0,869,49.5
2020-11-17,1371,157.5,-58.5,1371,157.5
2020-11-18,1184,-67.5,-6.0,1184,-67.5
2020-11-19,1236,145.5,37.0,1236,145.5
2020-11-20,1475,6.5,-157.0,1475,6.5
2020-11-21,1249,-168.5,-140.25,1249,-168.5
2020-11-22,1138,-274.0,80.5,1138,-274.0
2020-11-23,701,-7.5,227.0,701,-7.5
2020-11-24,1123,180.0,2.25,1123,180.0
2020-11-25,1061,-3.0,-326.75,1061,-3.0
2020-11-26,1117,-473.5,-15.5,1117,-473.5
2020-11-27,114,-34.0,447.25,114,-34.0
2020-11-28,1049,421.0,-146.0,535,421.0
2020-11-29,956,-326.0,-197.75,956,-326.0
2020-11-30,397,25.5,347.5,397,25.5
2020-12-01,1007,369.0,-69.0,1007,369.0
2020-12-02,1135,-112.5,-139.75,1135,-112.5
2020-12-03,782,89.5,19.0,782,89.5
2020-12-04,1314,-74.5,-171.75,1314,-74.5
2020-12-05,633,-254.0,58.0,633,-254.0
2020-12-06,806,41.5,114.25,806,41.5
2020-12-07,716,-25.5,-3.0,716,-25.5
2020-12-08,755,35.5,13.75,755,35.5
2020-12-09,787,2.0,30.0,787,2.0
2020-12-10,759,95.5,2.75,759,95.5
2020-12-11,978,7.5,-127.5,978,7.5
2020-12-12,774,-159.5,-197.25,774,-159.5
2020-12-13,659,-387.0,99.25,659,-387.0
2020-12-14,0,39.0,344.5,0,39.0
2020-12-15,737,302.0,6.0,737,302.0
2020-12-16,604,51.0,-174.75,604,51.0
2020-12-17,839,-47.5,-78.5,839,-47.5
2020-12-18,509,-106.0,-103.5,509,-106.0
2020-12-19,627,-254.5,-260.5,627,-254.5
2020-12-20,0,-627.0,-372.5,0,-627.0
