date, confirmed_daily_cases, first_order,second_order, confirmed_daily_cases_outlier_removed,first_order_outlier_removed,second_order_outlier_removed
2020-01-01,0,0.0,0.0,0,0.0
2020-01-02,0,0.0,0.0,0,0.0
2020-01-03,0,0.0,0.0,0,0.0
2020-01-04,0,0.0,0.0,0,0.0
2020-01-05,0,0.0,0.0,0,0.0
2020-01-06,0,0.0,0.0,0,0.0
2020-01-07,0,0.0,0.0,0,0.0
2020-01-08,0,0.0,0.0,0,0.0
2020-01-09,0,0.0,0.0,0,0.0
2020-01-10,0,0.0,0.0,0,0.0
2020-01-11,0,0.0,0.0,0,0.0
2020-01-12,0,0.0,0.0,0,0.0
2020-01-13,0,0.0,0.0,0,0.0
2020-01-14,0,0.0,0.0,0,0.0
2020-01-15,0,0.0,0.0,0,0.0
2020-01-16,0,0.0,0.0,0,0.0
2020-01-17,0,0.0,0.0,0,0.0
2020-01-18,0,0.0,0.0,0,0.0
2020-01-19,0,0.0,0.0,0,0.0
2020-01-20,0,0.0,0.0,0,0.0
2020-01-21,0,0.0,0.0,0,0.0
2020-01-22,0,0.0,0.0,0,0.0
2020-01-23,0,0.0,0.0,0,0.0
2020-01-24,0,0.0,0.0,0,0.0
2020-01-25,0,0.0,0.0,0,0.0
2020-01-26,0,0.0,0.0,0,0.0
2020-01-27,0,0.0,0.0,0,0.0
2020-01-28,0,0.0,0.0,0,0.0
2020-01-29,0,0.0,0.0,0,0.0
2020-01-30,0,0.0,0.0,0,0.0
2020-01-31,0,0.0,0.0,0,0.0
2020-02-01,0,0.0,0.0,0,0.0
2020-02-02,0,0.0,0.0,0,0.0
2020-02-03,0,0.0,0.0,0,0.0
2020-02-04,0,0.0,0.0,0,0.0
2020-02-05,0,0.0,0.0,0,0.0
2020-02-06,0,0.0,0.0,0,0.0
2020-02-07,0,0.0,0.0,0,0.0
2020-02-08,0,0.0,0.0,0,0.0
2020-02-09,0,0.0,0.0,0,0.0
2020-02-10,0,0.0,0.0,0,0.0
2020-02-11,0,0.0,0.0,0,0.0
2020-02-12,0,0.0,0.0,0,0.0
2020-02-13,0,0.0,0.0,0,0.0
2020-02-14,0,0.0,0.0,0,0.0
2020-02-15,0,0.0,0.0,0,0.0
2020-02-16,0,0.0,0.0,0,0.0
2020-02-17,0,0.0,0.0,0,0.0
2020-02-18,0,0.0,0.0,0,0.0
2020-02-19,0,0.0,0.0,0,0.0
2020-02-20,0,0.0,0.0,0,0.0
2020-02-21,0,0.0,0.0,0,0.0
2020-02-22,0,0.0,0.0,0,0.0
2020-02-23,0,0.0,0.0,0,0.0
2020-02-24,0,0.0,0.0,0,0.0
2020-02-25,0,0.0,0.0,0,0.0
2020-02-26,0,0.0,0.0,0,0.0
2020-02-27,0,0.0,0.0,0,0.0
2020-02-28,0,0.0,0.0,0,0.0
2020-02-29,0,0.0,0.0,0,0.0
2020-03-01,0,0.0,0.0,0,0.0
2020-03-02,0,0.0,0.0,0,0.0
2020-03-03,0,0.0,0.0,0,0.0
2020-03-04,0,0.0,0.0,0,0.0
2020-03-05,0,0.0,0.0,0,0.0
2020-03-06,0,0.0,0.0,0,0.0
2020-03-07,0,0.0,0.0,0,0.0
2020-03-08,0,0.0,0.0,0,0.0
2020-03-09,0,0.0,0.0,0,0.0
2020-03-10,0,0.0,0.25,0,0.0
2020-03-11,0,0.5,0.0,0,0.5
2020-03-12,1,0.0,-0.5,1,0.0
2020-03-13,0,-0.5,0.0,0,-0.5
2020-03-14,0,0.0,0.25,0,0.0
2020-03-15,0,0.0,0.5,0,0.0
2020-03-16,0,1.0,0.75,0,1.0
2020-03-17,2,1.5,2.25,2,1.5
2020-03-18,3,5.5,0.25,3,5.5
2020-03-19,13,2.0,-5.5,13,2.0
2020-03-20,7,-5.5,-2.75,7,-5.5
2020-03-21,2,-3.5,2.75,2,-3.5
2020-03-22,0,0.0,3.25,0,0.0
2020-03-23,2,3.0,1.75,2,3.0
2020-03-24,6,3.5,-1.5,6,3.5
2020-03-25,9,0.0,0.25,9,0.0
2020-03-26,6,4.0,5.0,6,4.0
2020-03-27,17,10.0,-5.25,17,10.0
2020-03-28,26,-6.5,-8.75,26,-6.5
2020-03-29,4,-7.5,5.5,4,-7.5
2020-03-30,11,4.5,6.0,11,4.5
2020-03-31,13,4.5,-1.25,13,4.5
2020-04-01,20,2.0,-3.75,20,2.0
2020-04-02,17,-3.0,-2.0,17,-3.0
2020-04-03,14,-2.0,3.25,14,-2.0
2020-04-04,13,3.5,2.25,13,3.5
2020-04-05,21,2.5,-4.0,21,2.5
2020-04-06,18,-4.5,-2.25,18,-4.5
2020-04-07,12,-2.0,3.75,12,-2.0
2020-04-08,14,3.0,-0.25,14,3.0
2020-04-09,18,-2.5,-2.25,18,-2.5
2020-04-10,9,-1.5,2.75,9,-1.5
2020-04-11,15,3.0,2.75,15,3.0
2020-04-12,15,4.0,-2.75,15,4.0
2020-04-13,23,-2.5,-1.75,23,-2.5
2020-04-14,10,0.5,5.75,10,0.5
2020-04-15,24,9.0,-6.25,24,9.0
2020-04-16,28,-12.0,22.25,28,-12.0
2020-04-17,0,53.5,20.25,0,53.5
2020-04-18,135,28.5,-50.0,135,28.5
2020-04-19,57,-46.5,-24.25,57,-46.5
2020-04-20,42,-20.0,21.5,42,-20.0
2020-04-21,17,-3.5,13.25,17,-3.5
2020-04-22,35,6.5,2.75,35,6.5
2020-04-23,30,2.0,3.0,30,2.0
2020-04-24,39,12.5,5.25,39,12.5
2020-04-25,55,12.5,-1.25,55,12.5
2020-04-26,64,10.0,-10.0,64,10.0
2020-04-27,75,-7.5,-13.25,75,-7.5
2020-04-28,49,-16.5,0.0,49,-16.5
2020-04-29,42,-7.5,7.75,42,-7.5
2020-04-30,34,-1.0,6.75,34,-1.0
2020-05-01,40,6.0,0.0,40,6.0
2020-05-02,46,-1.0,-6.0,46,-1.0
2020-05-03,38,-6.0,1.25,38,-6.0
2020-05-04,34,1.5,8.75,34,1.5
2020-05-05,41,11.5,1.0,41,11.5
2020-05-06,57,3.5,-6.5,57,3.5
2020-05-07,48,-1.5,-4.0,48,-1.5
2020-05-08,54,-4.5,-6.0,54,-4.5
2020-05-09,39,-13.5,-0.75,39,-13.5
2020-05-10,27,-6.0,13.25,27,-6.0
2020-05-11,27,13.0,15.25,27,13.0
2020-05-12,53,24.5,-3.5,53,24.5
2020-05-13,76,6.0,-19.0,76,6.0
2020-05-14,65,-13.5,2.5,65,-13.5
2020-05-15,49,11.0,7.5,49,11.0
2020-05-16,87,1.5,-19.5,87,1.5
2020-05-17,52,-28.0,2.0,52,-28.0
2020-05-18,31,5.5,31.5,31,5.5
2020-05-19,63,35.0,15.0,63,35.0
2020-05-20,101,35.5,-20.75,101,35.5
2020-05-21,134,-6.5,-39.25,134,-6.5
2020-05-22,88,-43.0,-5.5,88,-43.0
2020-05-23,48,-17.5,19.25,48,-17.5
2020-05-24,53,-4.5,-4.5,53,-4.5
2020-05-25,39,-26.5,-3.25,39,-26.5
2020-05-26,0,-11.0,23.75,0,-11.0
2020-05-27,17,21.0,11.0,17,21.0
2020-05-28,42,11.0,-12.5,42,11.0
2020-05-29,39,-4.0,-9.5,39,-4.0
2020-05-30,34,-8.0,5.5,34,-8.0
2020-05-31,23,7.0,3.5,23,7.0
2020-06-01,48,-1.0,-7.25,48,-1.0
2020-06-02,21,-7.5,2.0,21,-7.5
2020-06-03,33,3.0,5.25,33,3.0
2020-06-04,27,3.0,9.5,27,3.0
2020-06-05,39,22.0,0.0,39,22.0
2020-06-06,71,3.0,-24.0,71,3.0
2020-06-07,45,-26.0,-7.5,45,-26.0
2020-06-08,19,-12.0,18.25,19,-12.0
2020-06-09,21,10.5,10.5,21,10.5
2020-06-10,40,9.0,-6.25,40,9.0
2020-06-11,39,-2.0,-3.75,39,-2.0
2020-06-12,36,1.5,-2.5,36,1.5
2020-06-13,42,-7.0,-6.0,42,-7.0
2020-06-14,22,-10.5,3.75,22,-10.5
2020-06-15,21,0.5,10.5,21,0.5
2020-06-16,23,10.5,0.75,23,10.5
2020-06-17,42,2.0,-7.5,42,2.0
2020-06-18,27,-4.5,-1.5,27,-4.5
2020-06-19,33,-1.0,3.25,33,-1.0
2020-06-20,25,2.0,0.5,25,2.0
2020-06-21,37,0.0,-8.5,37,0.0
2020-06-22,25,-15.0,4.25,25,-15.0
2020-06-23,7,8.5,13.5,7,8.5
2020-06-24,42,12.0,-7.75,42,12.0
2020-06-25,31,-7.0,-4.5,31,-7.0
2020-06-26,28,3.0,5.75,28,3.0
2020-06-27,37,4.5,0.25,37,4.5
2020-06-28,37,3.5,-2.25,37,3.5
2020-06-29,44,0.0,-3.0,44,0.0
2020-06-30,37,-2.5,1.25,37,-2.5
2020-07-01,39,2.5,7.75,39,2.5
2020-07-02,42,13.0,2.5,42,13.0
2020-07-03,65,7.5,-13.5,65,7.5
2020-07-04,57,-14.0,-9.75,57,-14.0
2020-07-05,37,-12.0,10.0,37,-12.0
2020-07-06,33,6.0,16.0,33,6.0
2020-07-07,49,20.0,9.75,49,20.0
2020-07-08,73,25.5,-7.25,73,25.5
2020-07-09,100,5.5,-15.75,100,5.5
2020-07-10,84,-6.0,-1.0,84,-6.0
2020-07-11,88,3.5,8.0,88,3.5
2020-07-12,91,10.0,-11.75,91,10.0
2020-07-13,108,-20.0,-14.0,108,-20.0
2020-07-14,51,-18.0,23.0,51,-18.0
2020-07-15,72,26.0,22.0,72,26.0
2020-07-16,103,26.0,-10.0,103,26.0
2020-07-17,124,6.0,-16.0,124,6.0
2020-07-18,115,-6.0,-5.0,115,-6.0
2020-07-19,112,-4.0,-4.75,112,-4.0
2020-07-20,107,-15.5,15.25,107,-15.5
2020-07-21,81,26.5,19.0,81,26.5
2020-07-22,160,22.5,-23.0,160,22.5
2020-07-23,126,-19.5,-12.25,126,-19.5
2020-07-24,121,-2.0,14.5,121,-2.0
2020-07-25,122,9.5,-2.0,122,9.5
2020-07-26,140,-6.0,-1.0,140,-6.0
2020-07-27,110,7.5,-3.0,110,7.5
2020-07-28,155,-12.0,-24.0,155,-12.0
2020-07-29,86,-40.5,26.5,86,-40.5
2020-07-30,74,41.0,35.0,74,41.0
2020-07-31,168,29.5,-48.0,168,29.5
2020-08-01,133,-55.0,-16.75,133,-55.0
2020-08-02,58,-4.0,50.0,58,-4.0
2020-08-03,125,45.0,1.75,125,45.0
2020-08-04,148,-0.5,-29.5,148,-0.5
2020-08-05,124,-14.0,6.75,124,-14.0
2020-08-06,120,13.0,22.25,120,13.0
2020-08-07,150,30.5,-22.0,150,30.5
2020-08-08,181,-31.0,-31.25,181,-31.0
2020-08-09,88,-32.0,36.5,88,-32.0
2020-08-10,117,42.0,8.0,117,42.0
2020-08-11,172,-16.0,-13.75,172,-16.0
2020-08-12,85,14.5,24.5,85,14.5
2020-08-13,201,33.0,-27.0,201,33.0
2020-08-14,151,-39.5,-18.5,151,-39.5
2020-08-15,122,-4.0,4.25,122,-4.0
2020-08-16,143,-31.0,0.0,143,-31.0
2020-08-17,60,-4.0,47.0,60,-4.0
2020-08-18,135,63.0,36.75,135,63.0
2020-08-19,186,69.5,-20.0,186,69.5
2020-08-20,274,23.0,-37.75,274,23.0
2020-08-21,232,-6.0,-34.5,232,-6.0
2020-08-22,262,-46.0,-31.5,262,-46.0
2020-08-23,140,-69.0,45.25,140,-69.0
2020-08-24,124,44.5,63.0,124,44.5
2020-08-25,229,57.0,3.75,229,57.0
2020-08-26,238,52.0,-10.5,238,52.0
2020-08-27,333,36.0,-15.75,333,36.0
2020-08-28,310,20.5,-41.0,310,20.5
2020-08-29,374,-46.0,-75.25,374,-46.0
2020-08-30,218,-130.0,14.5,218,-130.0
2020-08-31,114,-17.0,103.25,114,-17.0
2020-09-01,184,76.5,53.0,184,76.5
2020-09-02,267,89.0,-19.0,267,89.0
2020-09-03,362,38.5,-44.75,362,38.5
2020-09-04,344,-0.5,-31.0,344,-0.5
2020-09-05,361,-23.5,-47.5,361,-23.5
2020-09-06,297,-95.5,-44.75,297,-95.5
2020-09-07,170,-113.0,64.75,170,-113.0
2020-09-08,71,34.0,122.0,71,34.0
2020-09-09,238,131.0,-16.25,238,131.0
2020-09-10,333,1.5,-32.0,333,1.5
2020-09-11,241,67.0,45.5,241,67.0
2020-09-12,467,92.5,-86.75,467,92.5
2020-09-13,426,-106.5,-94.5,426,-106.5
2020-09-14,254,-96.5,57.0,254,-96.5
2020-09-15,233,7.5,87.5,233,7.5
2020-09-16,269,78.5,55.75,269,78.5
2020-09-17,390,119.0,-42.5,390,119.0
2020-09-18,507,-6.5,-98.5,507,-6.5
2020-09-19,377,-78.0,-19.5,377,-78.0
2020-09-20,351,-45.5,17.25,351,-45.5
2020-09-21,286,-43.5,69.5,286,-43.5
2020-09-22,264,93.5,73.25,264,93.5
2020-09-23,473,103.0,-56.5,473,103.0
2020-09-24,470,-19.5,-45.25,470,-19.5
2020-09-25,434,12.5,-12.75,434,12.5
2020-09-26,495,-45.0,-65.25,495,-45.0
2020-09-27,344,-118.0,41.0,344,-118.0
2020-09-28,259,37.0,105.5,259,37.0
2020-09-29,418,93.0,-30.0,418,93.0
2020-09-30,445,-23.0,-38.75,445,-23.0
2020-10-01,372,15.5,28.5,372,15.5
2020-10-02,476,34.0,-22.75,476,34.0
2020-10-03,440,-30.0,-49.0,440,-30.0
2020-10-04,416,-64.0,36.5,416,-64.0
2020-10-05,312,43.0,77.25,312,43.0
2020-10-06,502,90.5,-15.25,502,90.5
2020-10-07,493,12.5,-4.75,493,12.5
2020-10-08,527,81.0,9.0,527,81.0
2020-10-09,655,30.5,-45.0,655,30.5
2020-10-10,588,-9.0,-44.25,588,-9.0
2020-10-11,637,-58.0,-27.75,637,-58.0
2020-10-12,472,-64.5,86.75,472,-64.5
2020-10-13,508,115.5,81.75,508,115.5
2020-10-14,703,99.0,-17.5,703,99.0
2020-10-15,706,80.5,-40.0,706,80.5
2020-10-16,864,19.0,-77.0,864,19.0
2020-10-17,744,-73.5,-30.75,744,-73.5
2020-10-18,717,-42.5,114.75,717,-42.5
2020-10-19,659,156.0,-18.75,659,156.0
2020-10-20,1029,-80.0,-113.5,1029,-80.0
2020-10-21,499,-71.0,137.0,499,-71.0
2020-10-22,887,194.0,47.5,887,194.0
2020-10-23,887,24.0,-107.5,887,24.0
2020-10-24,935,-21.0,-115.25,935,-21.0
2020-10-25,845,-206.5,21.5,845,-206.5
2020-10-26,522,22.0,167.0,522,22.0
2020-10-27,889,127.5,72.5,889,127.5
2020-10-28,777,167.0,80.25,777,167.0
2020-10-29,1223,288.0,-31.0,1223,288.0
2020-10-30,1353,105.0,-200.5,1353,105.0
2020-10-31,1433,-113.0,-167.75,1433,-113.0
2020-11-01,1127,-230.5,67.75,1127,-230.5
2020-11-02,972,22.5,150.75,972,22.5
2020-11-03,1172,71.0,79.75,1172,71.0
2020-11-04,1114,182.0,127.25,1114,182.0
2020-11-05,1536,325.5,-74.5,1536,325.5
2020-11-06,1765,33.0,-328.75,1765,33.0
2020-11-07,1602,-332.0,-128.75,1602,-332.0
2020-11-08,1101,-224.5,114.25,1101,-224.5
2020-11-09,1153,-103.5,79.25,1153,-103.5
2020-11-10,894,-66.0,278.25,894,-66.0
2020-11-11,1021,453.0,135.0,1021,453.0
2020-11-12,1800,204.0,-109.0,1800,204.0
2020-11-13,1429,235.0,-228.25,1429,235.0
2020-11-14,2270,-252.5,-412.75,2270,-252.5
2020-11-15,924,-590.5,165.75,924,-590.5
2020-11-16,1089,79.0,338.75,1089,79.0
2020-11-17,1082,87.0,35.5,1082,87.0
2020-11-18,1263,150.0,-8.25,1263,150.0
2020-11-19,1382,70.5,-39.5,1382,70.5
2020-11-20,1404,71.0,-100.5,1404,71.0
2020-11-21,1524,-130.5,-238.0,1524,-130.5
2020-11-22,1143,-405.0,30.5,1143,-405.0
2020-11-23,714,-69.5,293.25,714,-69.5
2020-11-24,1004,181.5,24.75,1004,181.5
2020-11-25,1077,-20.0,-162.5,1077,-20.0
2020-11-26,964,-143.5,-55.25,964,-143.5
2020-11-27,790,-130.5,55.0,790,-130.5
2020-11-28,703,-33.5,38.0,703,-33.5
2020-11-29,723,-54.5,-63.25,723,-54.5
2020-11-30,594,-160.0,-1.25,594,-160.0
2020-12-01,403,-57.0,221.75,403,-57.0
2020-12-02,480,283.5,119.5,480,283.5
2020-12-03,970,182.0,-245.5,970,182.0
2020-12-04,844,-207.5,-182.75,844,-207.5
2020-12-05,555,-183.5,55.25,555,-183.5
2020-12-06,477,-97.0,-27.5,477,-97.0
2020-12-07,361,-238.5,660.0,361,-238.5
2020-12-08,0,1223.0,258.75,0,1223.0
2020-12-09,2807,279.0,-1186.5,2807,279.0
2020-12-10,558,-1150.0,-185.0,558,-1150.0
2020-12-11,507,-91.0,518.5,507,-91.0
2020-12-12,376,-113.0,0.5,376,-113.0
2020-12-13,281,-90.0,67.75,281,-90.0
2020-12-14,196,22.5,69.25,196,22.5
2020-12-15,326,48.5,1.5,326,48.5
2020-12-16,293,25.5,25.25,293,25.5
2020-12-17,377,99.0,-49.5,377,99.0
2020-12-18,491,-73.5,-172.25,491,-73.5
2020-12-19,230,-245.5,-78.25,230,-245.5
2020-12-20,0,-230.0,15.5,0,-230.0
