date, confirmed_daily_cases, first_order,second_order, confirmed_daily_cases_outlier_removed,first_order_outlier_removed,second_order_outlier_removed
2020-01-01,0,0.0,0.0,0,0.0
2020-01-02,0,0.0,0.0,0,0.0
2020-01-03,0,0.0,0.0,0,0.0
2020-01-04,0,0.0,0.0,0,0.0
2020-01-05,0,0.0,0.0,0,0.0
2020-01-06,0,0.0,0.0,0,0.0
2020-01-07,0,0.0,0.0,0,0.0
2020-01-08,0,0.0,0.0,0,0.0
2020-01-09,0,0.0,0.0,0,0.0
2020-01-10,0,0.0,0.0,0,0.0
2020-01-11,0,0.0,0.0,0,0.0
2020-01-12,0,0.0,0.0,0,0.0
2020-01-13,0,0.0,0.0,0,0.0
2020-01-14,0,0.0,0.0,0,0.0
2020-01-15,0,0.0,0.0,0,0.0
2020-01-16,0,0.0,0.0,0,0.0
2020-01-17,0,0.0,0.0,0,0.0
2020-01-18,0,0.0,0.0,0,0.0
2020-01-19,0,0.0,0.0,0,0.0
2020-01-20,0,0.0,0.0,0,0.0
2020-01-21,0,0.0,0.0,0,0.0
2020-01-22,0,0.0,0.0,0,0.0
2020-01-23,0,0.0,0.0,0,0.0
2020-01-24,0,0.0,0.0,0,0.0
2020-01-25,0,0.0,0.0,0,0.0
2020-01-26,0,0.0,0.0,0,0.0
2020-01-27,0,0.0,0.0,0,0.0
2020-01-28,0,0.0,0.0,0,0.0
2020-01-29,0,0.0,0.0,0,0.0
2020-01-30,0,0.0,0.0,0,0.0
2020-01-31,0,0.0,0.0,0,0.0
2020-02-01,0,0.0,0.0,0,0.0
2020-02-02,0,0.0,0.0,0,0.0
2020-02-03,0,0.0,0.0,0,0.0
2020-02-04,0,0.0,0.0,0,0.0
2020-02-05,0,0.0,0.0,0,0.0
2020-02-06,0,0.0,0.0,0,0.0
2020-02-07,0,0.0,0.0,0,0.0
2020-02-08,0,0.0,0.0,0,0.0
2020-02-09,0,0.0,0.0,0,0.0
2020-02-10,0,0.0,0.0,0,0.0
2020-02-11,0,0.0,0.0,0,0.0
2020-02-12,0,0.0,0.0,0,0.0
2020-02-13,0,0.0,0.0,0,0.0
2020-02-14,0,0.0,0.0,0,0.0
2020-02-15,0,0.0,0.0,0,0.0
2020-02-16,0,0.0,0.0,0,0.0
2020-02-17,0,0.0,0.0,0,0.0
2020-02-18,0,0.0,0.0,0,0.0
2020-02-19,0,0.0,0.0,0,0.0
2020-02-20,0,0.0,0.0,0,0.0
2020-02-21,0,0.0,0.0,0,0.0
2020-02-22,0,0.0,0.0,0,0.0
2020-02-23,0,0.0,0.0,0,0.0
2020-02-24,0,0.0,0.0,0,0.0
2020-02-25,0,0.0,0.0,0,0.0
2020-02-26,0,0.0,0.0,0,0.0
2020-02-27,0,0.0,0.0,0,0.0
2020-02-28,0,0.0,0.0,0,0.0
2020-02-29,0,0.0,0.0,0,0.0
2020-03-01,0,0.0,0.0,0,0.0
2020-03-02,0,0.0,0.0,0,0.0
2020-03-03,0,0.0,0.0,0,0.0
2020-03-04,0,0.0,0.0,0,0.0
2020-03-05,0,0.0,0.0,0,0.0
2020-03-06,0,0.0,0.0,0,0.0
2020-03-07,0,0.0,0.0,0,0.0
2020-03-08,0,0.0,0.75,0,0.0
2020-03-09,0,1.5,0.25,0,1.5
2020-03-10,3,0.5,-1.25,3,0.5
2020-03-11,1,-1.0,1.25,1,-1.0
2020-03-12,1,3.0,3.75,1,3.0
2020-03-13,7,6.5,-2.25,7,6.5
2020-03-14,14,-1.5,-1.75,14,-1.5
2020-03-15,4,3.0,4.0,4,3.0
2020-03-16,20,6.5,-1.0,20,6.5
2020-03-17,17,1.0,0.0,17,1.0
2020-03-18,22,6.5,7.5,22,6.5
2020-03-19,30,16.0,7.75,30,16.0
2020-03-20,54,22.0,5.75,54,22.0
2020-03-21,74,27.5,-7.75,74,27.5
2020-03-22,109,6.5,-10.0,109,6.5
2020-03-23,87,7.5,9.25,87,7.5
2020-03-24,124,25.0,6.25,124,25.0
2020-03-25,137,20.0,20.5,137,20.0
2020-03-26,164,66.0,16.25,164,66.0
2020-03-27,269,52.5,-38.5,269,52.5
2020-03-28,269,-11.0,-23.5,269,-11.0
2020-03-29,247,5.5,10.25,247,5.5
2020-03-30,280,9.5,14.25,280,9.5
2020-03-31,266,34.0,17.25,266,34.0
2020-04-01,348,44.0,-1.25,348,44.0
2020-04-02,354,31.5,-3.75,354,31.5
2020-04-03,411,36.5,-42.5,411,36.5
2020-04-04,427,-53.5,-22.5,427,-53.5
2020-04-05,304,-8.5,33.0,304,-8.5
2020-04-06,410,12.5,-6.75,410,12.5
2020-04-07,329,-22.0,2.5,329,-22.0
2020-04-08,366,17.5,11.0,366,17.5
2020-04-09,364,0.0,-6.75,364,0.0
2020-04-10,366,4.0,-3.0,366,4.0
2020-04-11,372,-6.0,-2.25,372,-6.0
2020-04-12,354,-0.5,-8.0,354,-0.5
2020-04-13,371,-22.0,34.75,371,-22.0
2020-04-14,310,69.0,88.5,310,69.0
2020-04-15,509,155.0,11.5,509,155.0
2020-04-16,620,92.0,46.25,620,92.0
2020-04-17,693,247.5,125.75,693,247.5
2020-04-18,1115,343.5,-73.25,1115,343.5
2020-04-19,1380,101.0,-315.25,1380,101.0
2020-04-20,1317,-287.0,-281.75,1317,-287.0
2020-04-21,806,-462.5,86.25,806,-462.5
2020-04-22,392,-114.5,252.0,392,-114.5
2020-04-23,577,41.5,17.5,577,41.5
2020-04-24,475,-79.5,-43.25,475,-79.5
2020-04-25,418,-45.0,23.5,418,-45.0
2020-04-26,385,-32.5,37.25,385,-32.5
2020-04-27,353,29.5,61.5,353,29.5
2020-04-28,444,90.5,55.25,444,90.5
2020-04-29,534,140.0,0.25,534,140.0
2020-04-30,724,91.0,-103.0,724,91.0
2020-05-01,716,-66.0,-79.75,716,-66.0
2020-05-02,592,-68.5,25.0,592,-68.5
2020-05-03,579,-16.0,13.25,579,-16.0
2020-05-04,560,-42.0,19.75,560,-42.0
2020-05-05,495,23.5,36.0,495,23.5
2020-05-06,607,30.0,57.75,607,30.0
2020-05-07,555,139.0,16.5,555,139.0
2020-05-08,885,63.0,-194.75,885,63.0
2020-05-09,681,-250.5,-27.75,681,-250.5
2020-05-10,384,7.5,147.5,384,7.5
2020-05-11,696,44.5,-60.0,696,44.5
2020-05-12,473,-112.5,18.5,473,-112.5
2020-05-13,471,81.5,87.75,471,81.5
2020-05-14,636,63.0,-69.75,636,63.0
2020-05-15,597,-58.0,-68.5,597,-58.0
2020-05-16,520,-74.0,31.75,520,-74.0
2020-05-17,449,5.5,49.25,449,5.5
2020-05-18,531,24.5,-14.5,531,24.5
2020-05-19,498,-23.5,46.0,498,-23.5
2020-05-20,484,116.5,47.5,484,116.5
2020-05-21,731,71.5,-87.5,731,71.5
2020-05-22,627,-58.5,-66.75,627,-58.5
2020-05-23,614,-62.0,17.25,614,-62.0
2020-05-24,503,-24.0,37.5,503,-24.0
2020-05-25,566,13.0,-21.25,566,13.0
2020-05-26,529,-66.5,-19.75,529,-66.5
2020-05-27,433,-26.5,87.75,433,-26.5
2020-05-28,476,109.0,11.0,476,109.0
2020-05-29,651,-4.5,-97.25,651,-4.5
2020-05-30,467,-85.5,3.25,467,-85.5
2020-05-31,480,2.0,14.25,480,2.0
2020-06-01,471,-57.0,-8.25,471,-57.0
2020-06-02,366,-14.5,59.5,366,-14.5
2020-06-03,442,62.0,15.75,442,62.0
2020-06-04,490,17.0,-65.25,490,17.0
2020-06-05,476,-68.5,-36.25,476,-68.5
2020-06-06,353,-55.5,36.25,353,-55.5
2020-06-07,365,4.0,17.75,365,4.0
2020-06-08,361,-20.0,11.0,361,-20.0
2020-06-09,325,26.0,36.0,325,26.0
2020-06-10,413,52.0,-11.25,413,52.0
2020-06-11,429,3.5,-26.5,429,3.5
2020-06-12,420,-1.0,-32.5,420,-1.0
2020-06-13,427,-61.5,0.75,427,-61.5
2020-06-14,297,0.5,65.0,297,0.5
2020-06-15,428,68.5,-4.25,428,68.5
2020-06-16,434,-8.0,32.25,434,-8.0
2020-06-17,412,133.0,53.25,412,133.0
2020-06-18,700,98.5,-109.0,700,98.5
2020-06-19,609,-85.0,-64.75,609,-85.0
2020-06-20,530,-31.0,92.25,530,-31.0
2020-06-21,547,99.5,26.25,547,99.5
2020-06-22,729,21.5,-74.0,729,21.5
2020-06-23,590,-48.5,64.75,590,-48.5
2020-06-24,632,151.0,113.0,632,151.0
2020-06-25,892,177.5,-94.25,892,177.5
2020-06-26,987,-37.5,-122.0,987,-37.5
2020-06-27,817,-66.5,-1.25,817,-66.5
2020-06-28,854,-40.0,5.5,854,-40.0
2020-06-29,737,-55.5,104.75,737,-55.5
2020-06-30,743,169.5,167.25,743,169.5
2020-07-01,1076,279.0,-81.0,1076,279.0
2020-07-02,1301,7.5,-233.25,1301,7.5
2020-07-03,1091,-187.5,-34.75,1091,-187.5
2020-07-04,926,-62.0,63.75,926,-62.0
2020-07-05,967,-60.0,26.25,967,-60.0
2020-07-06,806,-9.5,147.75,806,-9.5
2020-07-07,948,235.5,55.25,948,235.5
2020-07-08,1277,101.0,-55.75,1277,101.0
2020-07-09,1150,124.0,1.5,1150,124.0
2020-07-10,1525,104.0,-98.75,1525,104.0
2020-07-11,1358,-73.5,-76.25,1358,-73.5
2020-07-12,1378,-48.5,-22.25,1378,-48.5
2020-07-13,1261,-118.0,38.0,1261,-118.0
2020-07-14,1142,27.5,96.0,1142,27.5
2020-07-15,1316,74.0,77.0,1316,74.0
2020-07-16,1290,181.5,25.75,1290,181.5
2020-07-17,1679,125.5,-232.75,1679,125.5
2020-07-18,1541,-284.0,-139.0,1541,-284.0
2020-07-19,1111,-152.5,126.0,1111,-152.5
2020-07-20,1236,-32.0,149.0,1236,-32.0
2020-07-21,1047,145.5,115.25,1047,145.5
2020-07-22,1527,198.5,-64.5,1527,198.5
2020-07-23,1444,16.5,-100.75,1444,16.5
2020-07-24,1560,-3.0,-176.0,1560,-3.0
2020-07-25,1438,-335.5,-82.0,1438,-335.5
2020-07-26,889,-167.0,275.5,889,-167.0
2020-07-27,1104,215.5,156.5,1104,215.5
2020-07-28,1320,146.0,-4.5,1320,146.0
2020-07-29,1396,206.5,-38.75,1396,206.5
2020-07-30,1733,68.5,-304.5,1733,68.5
2020-07-31,1533,-402.5,-181.5,1533,-402.5
2020-08-01,928,-294.5,202.25,928,-294.5
2020-08-02,944,2.0,197.0,944,2.0
2020-08-03,932,99.5,65.75,932,99.5
2020-08-04,1143,133.5,-44.0,1143,133.5
2020-08-05,1199,11.5,-65.5,1199,11.5
2020-08-06,1166,2.5,26.25,1166,2.5
2020-08-07,1204,64.0,-82.5,1204,64.0
2020-08-08,1294,-162.5,-134.75,1294,-162.5
2020-08-09,879,-205.5,135.25,879,-205.5
2020-08-10,883,108.0,237.5,883,108.0
2020-08-11,1095,269.5,-33.25,1095,269.5
2020-08-12,1422,41.5,-207.5,1422,41.5
2020-08-13,1178,-145.5,-36.0,1178,-145.5
2020-08-14,1131,-30.5,-56.75,1131,-30.5
2020-08-15,1117,-259.0,-70.25,1117,-259.0
2020-08-16,613,-171.0,188.25,613,-171.0
2020-08-17,775,117.5,134.5,775,117.5
2020-08-18,848,98.0,9.75,848,98.0
2020-08-19,971,137.0,-31.0,971,137.0
2020-08-20,1122,36.0,-69.25,1122,36.0
2020-08-21,1043,-1.5,-119.5,1043,-1.5
2020-08-22,1119,-203.0,-66.75,1119,-203.0
2020-08-23,637,-135.0,153.25,637,-135.0
2020-08-24,849,103.5,127.5,849,103.5
2020-08-25,844,120.0,48.25,844,120.0
2020-08-26,1089,200.0,-8.25,1089,200.0
2020-08-27,1244,103.5,-112.0,1244,103.5
2020-08-28,1296,-24.0,-140.75,1296,-24.0
2020-08-29,1196,-178.0,-63.25,1196,-178.0
2020-08-30,940,-150.5,216.75,940,-150.5
2020-08-31,895,255.5,141.75,895,255.5
2020-09-01,1451,133.0,-154.25,1451,133.0
2020-09-02,1161,-53.0,-23.75,1161,-53.0
2020-09-03,1345,85.5,25.5,1345,85.5
2020-09-04,1332,-2.0,-182.5,1332,-2.0
2020-09-05,1341,-279.5,-139.75,1341,-279.5
2020-09-06,773,-281.5,110.5,773,-281.5
2020-09-07,778,-58.5,189.5,778,-58.5
2020-09-08,656,97.5,145.5,656,97.5
2020-09-09,973,232.5,18.0,973,232.5
2020-09-10,1121,133.5,-86.0,1121,133.5
2020-09-11,1240,60.5,-167.5,1240,60.5
2020-09-12,1242,-201.5,-71.0,1242,-201.5
2020-09-13,837,-81.5,141.75,837,-81.5
2020-09-14,1079,82.0,29.25,1079,82.0
2020-09-15,1001,-23.0,-24.5,1001,-23.0
2020-09-16,1033,33.0,6.0,1033,33.0
2020-09-17,1067,-11.0,-45.5,1067,-11.0
2020-09-18,1011,-58.0,-56.75,1011,-58.0
2020-09-19,951,-124.5,5.25,951,-124.5
2020-09-20,762,-47.5,43.0,762,-47.5
2020-09-21,856,-38.5,35.5,856,-38.5
2020-09-22,685,23.5,95.75,685,23.5
2020-09-23,903,153.0,50.0,903,153.0
2020-09-24,991,123.5,-45.5,991,123.5
2020-09-25,1150,62.0,-149.25,1150,62.0
2020-09-26,1115,-175.0,-61.5,1115,-175.0
2020-09-27,800,-61.0,163.75,800,-61.0
2020-09-28,993,152.5,52.25,993,152.5
2020-09-29,1105,43.5,-20.75,1105,43.5
2020-09-30,1080,111.0,82.0,1080,111.0
2020-10-01,1327,207.5,-98.0,1327,207.5
2020-10-02,1495,-85.0,-242.25,1495,-85.0
2020-10-03,1157,-277.0,17.5,1157,-277.0
2020-10-04,941,-50.0,237.0,941,-50.0
2020-10-05,1057,197.0,116.75,1057,197.0
2020-10-06,1335,183.5,-47.5,1335,183.5
2020-10-07,1424,102.0,12.25,1424,102.0
2020-10-08,1539,208.0,-96.75,1539,208.0
2020-10-09,1840,-91.5,-241.25,1840,-91.5
2020-10-10,1356,-274.5,64.25,1356,-274.5
2020-10-11,1291,37.0,176.25,1291,37.0
2020-10-12,1430,78.0,133.75,1430,78.0
2020-10-13,1447,304.5,143.75,1447,304.5
2020-10-14,2039,365.5,-125.0,2039,365.5
2020-10-15,2178,54.5,-168.75,2178,54.5
2020-10-16,2148,28.0,-173.75,2148,28.0
2020-10-17,2234,-293.0,-113.25,2234,-293.0
2020-10-18,1562,-198.5,259.75,1562,-198.5
2020-10-19,1837,226.5,231.5,1837,226.5
2020-10-20,2015,264.5,-10.75,2015,264.5
2020-10-21,2366,205.0,-94.25,2366,205.0
2020-10-22,2425,76.0,5.75,2425,76.0
2020-10-23,2518,216.5,-90.25,2518,216.5
2020-10-24,2858,-104.5,-293.75,2858,-104.5
2020-10-25,2309,-371.0,102.25,2309,-371.0
2020-10-26,2116,100.0,308.25,2116,100.0
2020-10-27,2509,245.5,220.25,2509,245.5
2020-10-28,2607,540.5,186.75,2607,540.5
2020-10-29,3590,619.0,-439.0,3590,619.0
2020-10-30,3845,-337.5,-445.0,3845,-337.5
2020-10-31,2915,-271.0,167.25,2915,-271.0
2020-11-01,3303,-3.0,367.0,3303,-3.0
2020-11-02,2909,463.0,292.0,2909,463.0
2020-11-03,4229,581.0,-48.5,4229,581.0
2020-11-04,4071,366.0,-56.25,4071,366.0
2020-11-05,4961,468.5,-36.0,4961,468.5
2020-11-06,5008,294.0,-351.0,5008,294.0
2020-11-07,5549,-233.5,-357.75,5549,-233.5
2020-11-08,4541,-421.5,608.5,4541,-421.5
2020-11-09,4706,983.5,502.75,4706,983.5
2020-11-10,6508,584.0,-343.5,6508,584.0
2020-11-11,5874,296.5,257.25,5874,296.5
2020-11-12,7101,1098.5,5.25,7101,1098.5
2020-11-13,8071,307.0,-603.75,8071,307.0
2020-11-14,7715,-109.0,-265.25,7715,-109.0
2020-11-15,7853,-223.5,-139.0,7853,-223.5
2020-11-16,7268,-387.0,-109.0,7268,-387.0
2020-11-17,7079,-441.5,370.5,7079,-441.5
2020-11-18,6385,354.0,826.5,6385,354.0
2020-11-19,7787,1211.5,-158.0,7787,1211.5
2020-11-20,8808,38.0,-774.5,8808,38.0
2020-11-21,7863,-337.5,986.5,7863,-337.5
2020-11-22,8133,2011.0,269.5,8133,2011.0
2020-11-23,11885,201.5,-1251.0,11885,201.5
2020-11-24,8536,-491.0,-2234.75,8536,-491.0
2020-11-25,10903,-4268.0,1786.0,10903,-4268.0
2020-11-26,0,3081.0,3857.75,0,3081.0
2020-11-27,17065,3447.5,-3874.5,17065,3447.5
2020-11-28,6895,-4668.0,-1789.75,6895,-4668.0
2020-11-29,7729,-132.0,2659.25,7729,-132.0
2020-11-30,6631,650.5,367.0,6631,650.5
2020-12-01,9030,602.0,-352.5,9030,602.0
2020-12-02,7835,-54.5,268.75,7835,-54.5
2020-12-03,8921,1139.5,414.25,8921,1139.5
2020-12-04,10114,774.0,-1200.25,10114,774.0
2020-12-05,10469,-1261.0,-686.0,10469,-1261.0
2020-12-06,7592,-598.0,5162.75,7592,-598.0
2020-12-07,9273,9064.5,504.25,9273,9064.5
2020-12-08,25721,410.5,-8028.0,25721,410.5
2020-12-09,10094,-6991.5,-139.0,10094,-6991.5
2020-12-10,11738,132.5,3374.25,11738,132.5
2020-12-11,10359,-243.0,-339.5,10359,-243.0
2020-12-12,11252,-546.5,-722.75,11252,-546.5
2020-12-13,9266,-1688.5,145.5,9266,-1688.5
2020-12-14,7875,-255.5,227.75,7875,-255.5
2020-12-15,8755,-1233.0,792.0,8755,-1233.0
2020-12-16,5409,1328.5,1685.25,5409,1328.5
2020-12-17,11412,2137.5,-1375.5,11412,2137.5
2020-12-18,9684,-1422.5,-3489.75,9684,-1422.5
2020-12-19,8567,-4842.0,-3572.25,8567,-4842.0
2020-12-20,0,-8567.0,-3725.0,0,-8567.0
