date, confirmed_daily_cases, first_order,second_order, confirmed_daily_cases_outlier_removed,first_order_outlier_removed,second_order_outlier_removed
2020-01-01,0,0.0,0.0,0,0.0
2020-01-02,0,0.0,0.0,0,0.0
2020-01-03,0,0.0,0.0,0,0.0
2020-01-04,0,0.0,0.0,0,0.0
2020-01-05,0,0.0,0.0,0,0.0
2020-01-06,0,0.0,0.0,0,0.0
2020-01-07,0,0.0,0.0,0,0.0
2020-01-08,0,0.0,0.0,0,0.0
2020-01-09,0,0.0,0.0,0,0.0
2020-01-10,0,0.0,0.0,0,0.0
2020-01-11,0,0.0,0.0,0,0.0
2020-01-12,0,0.0,0.0,0,0.0
2020-01-13,0,0.0,0.0,0,0.0
2020-01-14,0,0.0,0.0,0,0.0
2020-01-15,0,0.0,0.0,0,0.0
2020-01-16,0,0.0,0.0,0,0.0
2020-01-17,0,0.0,0.0,0,0.0
2020-01-18,0,0.0,0.0,0,0.0
2020-01-19,0,0.0,0.0,0,0.0
2020-01-20,0,0.0,0.0,0,0.0
2020-01-21,0,0.0,0.0,0,0.0
2020-01-22,0,0.0,0.0,0,0.0
2020-01-23,0,0.0,0.0,0,0.0
2020-01-24,0,0.0,0.0,0,0.0
2020-01-25,0,0.0,0.0,0,0.0
2020-01-26,0,0.0,0.0,0,0.0
2020-01-27,0,0.0,0.0,0,0.0
2020-01-28,0,0.0,0.0,0,0.0
2020-01-29,0,0.0,0.0,0,0.0
2020-01-30,0,0.0,0.0,0,0.0
2020-01-31,0,0.0,0.0,0,0.0
2020-02-01,0,0.0,0.0,0,0.0
2020-02-02,0,0.0,0.0,0,0.0
2020-02-03,0,0.0,0.0,0,0.0
2020-02-04,0,0.0,0.0,0,0.0
2020-02-05,0,0.0,0.0,0,0.0
2020-02-06,0,0.0,0.0,0,0.0
2020-02-07,0,0.0,0.0,0,0.0
2020-02-08,0,0.0,0.0,0,0.0
2020-02-09,0,0.0,0.0,0,0.0
2020-02-10,0,0.0,0.0,0,0.0
2020-02-11,0,0.0,0.0,0,0.0
2020-02-12,0,0.0,0.0,0,0.0
2020-02-13,0,0.0,0.0,0,0.0
2020-02-14,0,0.0,0.0,0,0.0
2020-02-15,0,0.0,0.0,0,0.0
2020-02-16,0,0.0,0.0,0,0.0
2020-02-17,0,0.0,0.0,0,0.0
2020-02-18,0,0.0,0.0,0,0.0
2020-02-19,0,0.0,0.0,0,0.0
2020-02-20,0,0.0,0.0,0,0.0
2020-02-21,0,0.0,0.0,0,0.0
2020-02-22,0,0.0,0.0,0,0.0
2020-02-23,0,0.0,0.0,0,0.0
2020-02-24,0,0.0,0.0,0,0.0
2020-02-25,0,0.0,0.0,0,0.0
2020-02-26,0,0.0,0.0,0,0.0
2020-02-27,0,0.0,0.25,0,0.0
2020-02-28,0,0.5,0.0,0,0.5
2020-02-29,1,0.0,0.0,1,0.0
2020-03-01,0,0.5,0.0,0,0.5
2020-03-02,2,0.0,-0.75,2,0.0
2020-03-03,0,-1.0,0.0,0,-1.0
2020-03-04,0,0.0,0.5,0,0.0
2020-03-05,0,0.0,0.75,0,0.0
2020-03-06,0,1.5,2.0,0,1.5
2020-03-07,3,4.0,-1.5,3,4.0
2020-03-08,8,-1.5,-4.0,8,-1.5
2020-03-09,0,-4.0,2.0,0,-4.0
2020-03-10,0,2.5,3.25,0,2.5
2020-03-11,5,2.5,-1.0,5,2.5
2020-03-12,5,0.5,-1.0,5,0.5
2020-03-13,6,0.5,-1.75,6,0.5
2020-03-14,6,-3.0,-1.0,6,-3.0
2020-03-15,0,-1.5,8.25,0,-1.5
2020-03-16,3,13.5,2.25,3,13.5
2020-03-17,27,3.0,-10.25,27,3.0
2020-03-18,9,-7.0,2.75,9,-7.0
2020-03-19,13,8.5,6.0,13,8.5
2020-03-20,26,5.0,-4.75,26,5.0
2020-03-21,23,-1.0,-0.75,23,-1.0
2020-03-22,24,3.5,-0.75,24,3.5
2020-03-23,30,-2.5,4.75,30,-2.5
2020-03-24,19,13.0,9.0,19,13.0
2020-03-25,56,15.5,4.5,56,15.5
2020-03-26,50,22.0,-4.5,50,22.0
2020-03-27,100,6.5,-18.75,100,6.5
2020-03-28,63,-15.5,-4.5,63,-15.5
2020-03-29,69,-2.5,11.5,69,-2.5
2020-03-30,58,7.5,-1.75,58,7.5
2020-03-31,84,-6.0,-2.25,84,-6.0
2020-04-01,46,3.0,9.75,46,3.0
2020-04-02,90,13.5,-24.0,90,13.5
2020-04-03,73,-45.0,17.25,73,-45.0
2020-04-04,0,48.0,22.5,0,48.0
2020-04-05,169,0.0,-50.25,169,0.0
2020-04-06,0,-52.5,12.25,0,-52.5
2020-04-07,64,24.5,45.25,64,24.5
2020-04-08,49,38.0,-24.25,49,38.0
2020-04-09,140,-24.0,-41.75,140,-24.0
2020-04-10,1,-45.5,50.75,1,-45.5
2020-04-11,49,77.5,24.75,49,77.5
2020-04-12,156,4.0,-65.5,156,4.0
2020-04-13,57,-53.5,-8.75,57,-53.5
2020-04-14,49,-13.5,32.75,49,-13.5
2020-04-15,30,12.0,11.5,30,12.0
2020-04-16,73,9.5,-9.5,73,9.5
2020-04-17,49,-7.0,-0.5,49,-7.0
2020-04-18,59,8.5,0.5,59,8.5
2020-04-19,66,-6.0,-9.0,66,-6.0
2020-04-20,47,-9.5,5.0,47,-9.5
2020-04-21,47,4.0,10.0,47,4.0
2020-04-22,55,10.5,-3.25,55,10.5
2020-04-23,68,-2.5,-3.25,68,-2.5
2020-04-24,50,4.0,3.25,50,4.0
2020-04-25,76,4.0,-10.25,76,4.0
2020-04-26,58,-16.5,-8.75,58,-16.5
2020-04-27,43,-13.5,12.75,43,-13.5
2020-04-28,31,9.0,15.0,31,9.0
2020-04-29,61,16.5,-2.5,61,16.5
2020-04-30,64,4.0,-10.25,64,4.0
2020-05-01,69,-4.0,-8.0,69,-4.0
2020-05-02,56,-12.0,7.75,56,-12.0
2020-05-03,45,11.5,14.75,45,11.5
2020-05-04,79,17.5,-6.25,79,17.5
2020-05-05,80,-1.0,-10.5,80,-1.0
2020-05-06,77,-3.5,1.0,77,-3.5
2020-05-07,73,1.0,6.5,73,1.0
2020-05-08,79,9.5,-3.25,79,9.5
2020-05-09,92,-5.5,-13.25,92,-5.5
2020-05-10,68,-17.0,3.75,68,-17.0
2020-05-11,58,2.0,8.5,58,2.0
2020-05-12,72,0.0,-3.25,72,0.0
2020-05-13,58,-4.5,1.0,58,-4.5
2020-05-14,63,2.0,4.25,63,2.0
2020-05-15,62,4.0,-13.75,62,4.0
2020-05-16,71,-25.5,-3.75,71,-25.5
2020-05-17,11,-3.5,19.75,11,-3.5
2020-05-18,64,14.0,4.5,25,14.0
2020-05-19,39,5.5,-12.75,39,5.5
2020-05-20,75,-11.5,-9.75,75,-11.5
2020-05-21,16,-14.0,7.75,16,-14.0
2020-05-22,47,4.0,5.0,47,4.0
2020-05-23,24,-4.0,-2.5,24,-4.0
2020-05-24,39,-1.0,-3.25,39,-1.0
2020-05-25,22,-10.5,12.75,22,-10.5
2020-05-26,18,24.5,12.75,18,24.5
2020-05-27,71,15.0,-18.75,71,15.0
2020-05-28,48,-13.0,-6.0,48,-13.0
2020-05-29,45,3.0,9.75,45,3.0
2020-05-30,54,6.5,-0.25,54,6.5
2020-05-31,58,2.5,-9.5,58,2.5
2020-06-01,59,-12.5,0.0,59,-12.5
2020-06-02,33,2.5,16.75,33,2.5
2020-06-03,64,21.0,6.75,64,21.0
2020-06-04,75,16.0,-29.25,75,16.0
2020-06-05,96,-37.5,-9.0,96,-37.5
2020-06-06,0,-2.0,83.75,0,-2.0
2020-06-07,92,130.0,-5.5,92,130.0
2020-06-08,260,-13.0,-112.0,260,-13.0
2020-06-09,66,-94.0,34.25,66,-94.0
2020-06-10,72,55.5,64.0,72,55.5
2020-06-11,177,34.0,-72.0,177,34.0
2020-06-12,140,-88.5,12.75,140,-88.5
2020-06-13,0,59.5,90.25,0,59.5
2020-06-14,259,92.0,-25.0,259,92.0
2020-06-15,184,9.5,-62.0,184,9.5
2020-06-16,278,-32.0,-37.25,278,-32.0
2020-06-17,120,-65.0,37.5,120,-65.0
2020-06-18,148,43.0,40.0,148,43.0
2020-06-19,206,15.0,-26.25,206,15.0
2020-06-20,178,-9.5,-15.5,178,-9.5
2020-06-21,187,-16.0,5.75,187,-16.0
2020-06-22,146,2.0,14.0,146,2.0
2020-06-23,191,12.0,-17.75,191,12.0
2020-06-24,170,-33.5,14.0,170,-33.5
2020-06-25,124,40.0,54.75,124,40.0
2020-06-26,250,76.0,-20.75,250,76.0
2020-06-27,276,-1.5,-71.0,276,-1.5
2020-06-28,247,-66.0,-18.25,247,-66.0
2020-06-29,144,-38.0,65.75,144,-38.0
2020-06-30,171,65.5,67.0,171,65.5
2020-07-01,275,96.0,-16.0,275,96.0
2020-07-02,363,33.5,-65.25,363,33.5
2020-07-03,342,-34.5,-27.25,342,-34.5
2020-07-04,294,-21.0,-15.0,294,-21.0
2020-07-05,300,-64.5,-12.0,300,-64.5
2020-07-06,165,-45.0,44.0,165,-45.0
2020-07-07,210,23.5,62.75,210,23.5
2020-07-08,212,80.5,1.75,212,80.5
2020-07-09,371,27.0,-33.75,371,27.0
2020-07-10,266,13.0,-0.25,266,13.0
2020-07-11,397,26.5,-38.75,397,26.5
2020-07-12,319,-64.5,-1.25,319,-64.5
2020-07-13,268,24.0,34.25,268,24.0
2020-07-14,367,4.0,3.25,367,4.0
2020-07-15,276,30.5,2.25,276,30.5
2020-07-16,428,8.5,-35.5,428,8.5
2020-07-17,293,-40.5,30.0,293,-40.5
2020-07-18,347,68.5,0.5,347,68.5
2020-07-19,430,-39.5,-68.75,430,-39.5
2020-07-20,268,-69.0,16.25,268,-69.0
2020-07-21,292,-7.0,41.5,292,-7.0
2020-07-22,254,14.0,37.75,254,14.0
2020-07-23,320,68.5,10.0,320,68.5
2020-07-24,391,34.0,-65.5,391,34.0
2020-07-25,388,-62.5,-31.5,388,-62.5
2020-07-26,266,-29.0,44.75,266,-29.0
2020-07-27,330,27.0,10.25,330,27.0
2020-07-28,320,-8.5,9.0,320,-8.5
2020-07-29,313,45.0,16.25,313,45.0
2020-07-30,410,24.0,-43.75,410,24.0
2020-07-31,361,-42.5,-32.25,361,-42.5
2020-08-01,325,-40.5,7.25,325,-40.5
2020-08-02,280,-28.0,33.5,280,-28.0
2020-08-03,269,26.5,16.5,269,26.5
2020-08-04,333,5.0,-35.0,333,5.0
2020-08-05,279,-43.5,30.5,279,-43.5
2020-08-06,246,66.0,54.0,246,66.0
2020-08-07,411,64.5,-70.25,411,64.5
2020-08-08,375,-74.5,-72.0,375,-74.5
2020-08-09,262,-79.5,43.25,262,-79.5
2020-08-10,216,12.0,47.75,216,12.0
2020-08-11,286,16.0,-8.0,286,16.0
2020-08-12,248,-4.0,8.25,248,-4.0
2020-08-13,278,32.5,33.75,278,32.5
2020-08-14,313,63.5,-33.5,313,63.5
2020-08-15,405,-34.5,-85.75,405,-34.5
2020-08-16,244,-108.0,12.5,244,-108.0
2020-08-17,189,-9.5,55.25,189,-9.5
2020-08-18,225,2.5,22.25,225,2.5
2020-08-19,194,35.0,14.25,194,35.0
2020-08-20,295,31.0,-19.0,295,31.0
2020-08-21,256,-3.0,-22.75,256,-3.0
2020-08-22,289,-14.5,-16.25,289,-14.5
2020-08-23,227,-35.5,9.5,227,-35.5
2020-08-24,218,4.5,8.25,218,4.5
2020-08-25,236,-19.0,-13.75,236,-19.0
2020-08-26,180,-23.0,37.75,180,-23.0
2020-08-27,190,56.5,23.75,190,56.5
2020-08-28,293,24.5,-36.25,293,24.5
2020-08-29,239,-16.0,-32.25,239,-16.0
2020-08-30,261,-40.0,1.0,261,-40.0
2020-08-31,159,-14.0,12.5,159,-14.0
2020-09-01,233,-15.0,14.0,233,-15.0
2020-09-02,129,14.0,41.5,129,14.0
2020-09-03,261,68.0,-8.5,261,68.0
2020-09-04,265,-3.0,-53.25,265,-3.0
2020-09-05,255,-38.5,-25.75,255,-38.5
2020-09-06,188,-54.5,13.75,188,-54.5
2020-09-07,146,-11.0,19.5,146,-11.0
2020-09-08,166,-15.5,9.75,166,-15.5
2020-09-09,115,8.5,31.75,115,8.5
2020-09-10,183,48.0,22.75,183,48.0
2020-09-11,211,54.0,-31.5,211,54.0
2020-09-12,291,-15.0,-99.75,291,-15.0
2020-09-13,181,-145.5,43.5,181,-145.5
2020-09-14,0,72.0,119.75,0,72.0
2020-09-15,325,94.0,-64.75,325,94.0
2020-09-16,188,-57.5,-23.5,188,-57.5
2020-09-17,210,47.0,40.5,210,47.0
2020-09-18,282,23.5,-43.5,282,23.5
2020-09-19,257,-40.0,-27.5,257,-40.0
2020-09-20,202,-31.5,49.0,202,-31.5
2020-09-21,194,58.0,14.75,194,58.0
2020-09-22,318,-2.0,-18.0,318,-2.0
2020-09-23,190,22.0,65.75,190,22.0
2020-09-24,362,129.5,-34.75,362,129.5
2020-09-25,449,-47.5,-117.25,449,-47.5
2020-09-26,267,-105.0,0.5,267,-105.0
2020-09-27,239,-46.5,67.0,239,-46.5
2020-09-28,174,29.0,34.25,174,29.0
2020-09-29,297,22.0,-0.5,297,22.0
2020-09-30,218,28.0,9.75,218,28.0
2020-10-01,353,41.5,-15.25,353,41.5
2020-10-02,301,-2.5,-31.25,301,-2.5
2020-10-03,348,-21.0,-16.0,348,-21.0
2020-10-04,259,-34.5,18.25,259,-34.5
2020-10-05,279,15.5,21.25,279,15.5
2020-10-06,290,8.0,40.25,290,8.0
2020-10-07,295,96.0,24.75,295,96.0
2020-10-08,482,57.5,-69.0,482,57.5
2020-10-09,410,-42.0,-48.5,410,-42.0
2020-10-10,398,-39.5,-25.5,398,-39.5
2020-10-11,331,-93.0,15.25,331,-93.0
2020-10-12,212,-9.0,88.5,212,-9.0
2020-10-13,313,84.0,17.5,313,84.0
2020-10-14,380,26.0,-34.5,380,26.0
2020-10-15,365,15.0,-9.25,365,15.0
2020-10-16,410,7.5,-55.75,410,7.5
2020-10-17,380,-96.5,-33.25,380,-96.5
2020-10-18,217,-59.0,79.5,217,-59.0
2020-10-19,262,62.5,40.75,262,62.5
2020-10-20,342,22.5,-116.75,342,22.5
2020-10-21,307,-171.0,138.25,307,-171.0
2020-10-22,0,299.0,183.25,0,299.0
2020-10-23,905,195.5,-285.25,905,195.5
2020-10-24,391,-271.5,-111.75,391,-271.5
2020-10-25,362,-28.0,138.25,362,-28.0
2020-10-26,335,5.0,35.25,335,5.0
2020-10-27,372,42.5,45.75,372,42.5
2020-10-28,420,96.5,22.5,420,96.5
2020-10-29,565,87.5,-56.25,565,87.5
2020-10-30,595,-16.0,-65.5,595,-16.0
2020-10-31,533,-43.5,12.0,533,-43.5
2020-11-01,508,8.0,15.25,508,8.0
2020-11-02,549,-13.0,6.0,549,-13.0
2020-11-03,482,20.0,83.5,482,20.0
2020-11-04,589,154.0,35.0,589,154.0
2020-11-05,790,90.0,-29.75,790,90.0
2020-11-06,769,94.5,-22.0,769,94.5
2020-11-07,979,46.0,-115.25,979,46.0
2020-11-08,861,-136.0,-49.75,861,-136.0
2020-11-09,707,-53.5,106.5,707,-53.5
2020-11-10,754,77.0,115.5,754,77.0
2020-11-11,861,177.5,10.75,861,177.5
2020-11-12,1109,98.5,-95.75,1109,98.5
2020-11-13,1058,-14.0,-98.25,1058,-14.0
2020-11-14,1081,-98.0,-71.75,1081,-98.0
2020-11-15,862,-157.5,64.5,862,-157.5
2020-11-16,766,31.0,162.0,766,31.0
2020-11-17,924,166.5,54.5,924,166.5
2020-11-18,1099,140.0,-32.5,1099,140.0
2020-11-19,1204,101.5,2.25,1204,101.5
2020-11-20,1302,144.5,-0.75,1302,144.5
2020-11-21,1493,100.0,-154.75,1493,100.0
2020-11-22,1502,-165.0,-175.5,1502,-165.0
2020-11-23,1163,-251.0,84.25,1163,-251.0
2020-11-24,1000,3.5,-124.5,1000,3.5
2020-11-25,1170,-500.0,288.0,1170,-500.0
2020-11-26,0,579.5,668.5,0,579.5
2020-11-27,2329,837.0,-468.75,2329,837.0
2020-11-28,1674,-358.0,-509.0,1674,-358.0
2020-11-29,1613,-181.0,81.5,1613,-181.0
2020-11-30,1312,-195.0,139.0,1312,-195.0
2020-12-01,1223,97.0,75.0,1223,97.0
2020-12-02,1506,-45.0,111.0,1506,-45.0
2020-12-03,1133,319.0,190.75,1133,319.0
2020-12-04,2144,336.5,-382.25,2144,336.5
2020-12-05,1806,-445.5,-296.75,1806,-445.5
2020-12-06,1253,-257.0,233.0,1253,-257.0
2020-12-07,1292,20.5,106.75,1292,20.5
2020-12-08,1294,-43.5,54.0,1294,-43.5
2020-12-09,1205,128.5,116.0,1205,128.5
2020-12-10,1551,188.5,-97.25,1551,188.5
2020-12-11,1582,-66.0,-236.25,1582,-66.0
2020-12-12,1419,-284.0,-32.5,1419,-284.0
2020-12-13,1014,-131.0,159.0,1014,-131.0
2020-12-14,1157,34.0,158.75,1157,34.0
2020-12-15,1082,186.5,41.0,1082,186.5
2020-12-16,1530,116.0,-132.75,1530,116.0
2020-12-17,1314,-79.0,-10.0,1314,-79.0
2020-12-18,1372,96.0,-303.5,1372,96.0
2020-12-19,1506,-686.0,-801.0,1506,-686.0
2020-12-20,0,-1506.0,-820.0,0,-1506.0
