date, confirmed_daily_cases, first_order,second_order, confirmed_daily_cases_outlier_removed,first_order_outlier_removed,second_order_outlier_removed
2020-01-01,0,0.0,0.0,0,0.0
2020-01-02,0,0.0,0.0,0,0.0
2020-01-03,0,0.0,0.0,0,0.0
2020-01-04,0,0.0,0.0,0,0.0
2020-01-05,0,0.0,0.0,0,0.0
2020-01-06,0,0.0,0.0,0,0.0
2020-01-07,0,0.0,0.0,0,0.0
2020-01-08,0,0.0,0.0,0,0.0
2020-01-09,0,0.0,0.0,0,0.0
2020-01-10,0,0.0,0.0,0,0.0
2020-01-11,0,0.0,0.0,0,0.0
2020-01-12,0,0.0,0.0,0,0.0
2020-01-13,0,0.0,0.0,0,0.0
2020-01-14,0,0.0,0.0,0,0.0
2020-01-15,0,0.0,0.0,0,0.0
2020-01-16,0,0.0,0.0,0,0.0
2020-01-17,0,0.0,0.0,0,0.0
2020-01-18,0,0.0,0.0,0,0.0
2020-01-19,0,0.0,0.0,0,0.0
2020-01-20,0,0.0,0.0,0,0.0
2020-01-21,0,0.0,0.0,0,0.0
2020-01-22,0,0.0,0.0,0,0.0
2020-01-23,0,0.0,0.0,0,0.0
2020-01-24,0,0.0,0.0,0,0.0
2020-01-25,0,0.0,0.0,0,0.0
2020-01-26,0,0.0,0.0,0,0.0
2020-01-27,0,0.0,0.0,0,0.0
2020-01-28,0,0.0,0.0,0,0.0
2020-01-29,0,0.0,0.0,0,0.0
2020-01-30,0,0.0,0.0,0,0.0
2020-01-31,0,0.0,0.0,0,0.0
2020-02-01,0,0.0,0.0,0,0.0
2020-02-02,0,0.0,0.0,0,0.0
2020-02-03,0,0.0,0.0,0,0.0
2020-02-04,0,0.0,0.0,0,0.0
2020-02-05,0,0.0,0.0,0,0.0
2020-02-06,0,0.0,0.0,0,0.0
2020-02-07,0,0.0,0.0,0,0.0
2020-02-08,0,0.0,0.0,0,0.0
2020-02-09,0,0.0,0.0,0,0.0
2020-02-10,0,0.0,0.0,0,0.0
2020-02-11,0,0.0,0.0,0,0.0
2020-02-12,0,0.0,0.0,0,0.0
2020-02-13,0,0.0,0.0,0,0.0
2020-02-14,0,0.0,0.0,0,0.0
2020-02-15,0,0.0,0.0,0,0.0
2020-02-16,0,0.0,0.0,0,0.0
2020-02-17,0,0.0,0.0,0,0.0
2020-02-18,0,0.0,0.0,0,0.0
2020-02-19,0,0.0,0.0,0,0.0
2020-02-20,0,0.0,0.0,0,0.0
2020-02-21,0,0.0,0.0,0,0.0
2020-02-22,0,0.0,0.0,0,0.0
2020-02-23,0,0.0,0.0,0,0.0
2020-02-24,0,0.0,0.0,0,0.0
2020-02-25,0,0.0,0.0,0,0.0
2020-02-26,0,0.0,0.0,0,0.0
2020-02-27,0,0.0,0.0,0,0.0
2020-02-28,0,0.0,0.0,0,0.0
2020-02-29,0,0.0,0.0,0,0.0
2020-03-01,0,0.0,0.0,0,0.0
2020-03-02,0,0.0,0.0,0,0.0
2020-03-03,0,0.0,0.0,0,0.0
2020-03-04,0,0.0,0.0,0,0.0
2020-03-05,0,0.0,0.0,0,0.0
2020-03-06,0,0.0,0.0,0,0.0
2020-03-07,0,0.0,0.0,0,0.0
2020-03-08,0,0.0,0.0,0,0.0
2020-03-09,0,0.0,2.0,0,0.0
2020-03-10,0,4.0,0.0,0,4.0
2020-03-11,8,0.0,-3.75,8,0.0
2020-03-12,0,-3.5,0.0,0,-3.5
2020-03-13,1,0.0,1.5,1,0.0
2020-03-14,0,-0.5,0.5,0,-0.5
2020-03-15,0,1.0,0.5,0,1.0
2020-03-16,2,0.5,-1.0,2,0.5
2020-03-17,1,-1.0,0.25,1,-1.0
2020-03-18,0,1.0,0.5,0,1.0
2020-03-19,3,0.0,-1.25,3,0.0
2020-03-20,0,-1.5,1.75,0,-1.5
2020-03-21,0,3.5,2.5,0,3.5
2020-03-22,7,3.5,-3.0,7,3.5
2020-03-23,7,-2.5,-0.75,7,-2.5
2020-03-24,2,2.0,2.0,2,2.0
2020-03-25,11,1.5,-0.75,11,1.5
2020-03-26,5,0.5,0.5,5,0.5
2020-03-27,12,2.5,2.25,12,2.5
2020-03-28,10,5.0,-1.0,10,5.0
2020-03-29,22,0.5,-6.25,22,0.5
2020-03-30,11,-7.5,2.25,11,-7.5
2020-03-31,7,5.0,11.0,7,5.0
2020-04-01,21,14.5,-2.25,21,14.5
2020-04-02,36,0.5,-10.0,36,0.5
2020-04-03,22,-5.5,1.25,22,-5.5
2020-04-04,25,3.0,8.5,25,3.0
2020-04-05,28,11.5,-0.5,28,11.5
2020-04-06,48,2.0,0.5,48,2.0
2020-04-07,32,12.5,4.5,32,12.5
2020-04-08,73,11.0,-2.25,73,11.0
2020-04-09,54,8.0,3.5,54,8.0
2020-04-10,89,18.0,-0.25,89,18.0
2020-04-11,90,7.5,3.0,90,7.5
2020-04-12,104,24.0,0.25,104,24.0
2020-04-13,138,8.0,-1.5,138,8.0
2020-04-14,120,21.0,1.75,120,21.0
2020-04-15,180,11.5,-30.5,180,11.5
2020-04-16,143,-40.0,-8.75,143,-40.0
2020-04-17,100,-6.0,18.25,100,-6.0
2020-04-18,131,-3.5,-17.25,131,-3.5
2020-04-19,93,-40.5,-4.0,93,-40.5
2020-04-20,50,-11.5,33.5,50,-11.5
2020-04-21,70,26.5,12.75,70,26.5
2020-04-22,103,14.0,-18.0,103,14.0
2020-04-23,98,-9.5,-4.75,98,-9.5
2020-04-24,84,4.5,0.0,84,4.5
2020-04-25,107,-9.5,-21.0,107,-9.5
2020-04-26,65,-37.5,5.75,65,-37.5
2020-04-27,32,2.0,25.75,32,2.0
2020-04-28,69,14.0,0.75,69,14.0
2020-04-29,60,3.5,-3.0,60,3.5
2020-04-30,76,8.0,-5.0,76,8.0
2020-05-01,76,-6.5,-12.25,76,-6.5
2020-05-02,63,-16.5,-3.25,63,-16.5
2020-05-03,43,-13.0,10.75,43,-13.0
2020-05-04,37,5.0,12.0,37,5.0
2020-05-05,53,11.0,15.75,53,11.0
2020-05-06,59,36.5,39.5,59,36.5
2020-05-07,126,90.0,12.25,126,90.0
2020-05-08,239,61.0,-73.75,239,61.0
2020-05-09,248,-57.5,-68.25,248,-57.5
2020-05-10,124,-75.5,10.0,124,-75.5
2020-05-11,97,-37.5,30.75,97,-37.5
2020-05-12,49,-14.0,21.5,49,-14.0
2020-05-13,69,5.5,13.5,69,5.5
2020-05-14,60,13.0,0.25,60,13.0
2020-05-15,95,6.0,-23.25,95,6.0
2020-05-16,72,-33.5,-11.0,72,-33.5
2020-05-17,28,-16.0,24.25,28,-16.0
2020-05-18,40,15.0,21.0,40,15.0
2020-05-19,58,26.0,-22.0,58,26.0
2020-05-20,92,-29.0,8.75,92,-29.0
2020-05-21,0,43.5,41.5,0,43.5
2020-05-22,179,54.0,-41.75,179,54.0
2020-05-23,108,-40.0,-48.25,108,-40.0
2020-05-24,99,-42.5,12.0,99,-42.5
2020-05-25,23,-16.0,29.75,23,-16.0
2020-05-26,67,17.0,12.0,67,17.0
2020-05-27,57,8.0,-4.5,57,8.0
2020-05-28,83,8.0,-1.25,83,8.0
2020-05-29,73,5.5,-14.0,73,5.5
2020-05-30,94,-20.0,-16.0,94,-20.0
2020-05-31,33,-26.5,10.0,33,-26.5
2020-06-01,41,0.0,26.75,41,0.0
2020-06-02,33,27.0,13.0,33,27.0
2020-06-03,95,26.0,-29.75,95,26.0
2020-06-04,85,-32.5,-11.75,85,-32.5
2020-06-05,30,2.5,26.5,30,2.5
2020-06-06,90,20.5,-15.5,90,20.5
2020-06-07,71,-28.5,-15.0,71,-28.5
2020-06-08,33,-9.5,26.25,33,-9.5
2020-06-09,52,24.0,7.0,52,24.0
2020-06-10,81,4.5,-13.0,81,4.5
2020-06-11,61,-2.0,5.25,61,-2.0
2020-06-12,77,15.0,-2.0,77,15.0
2020-06-13,91,-6.0,-22.75,91,-6.0
2020-06-14,65,-30.5,-3.75,65,-30.5
2020-06-15,30,-13.5,28.75,30,-13.5
2020-06-16,38,27.0,12.0,38,27.0
2020-06-17,84,10.5,-22.25,84,10.5
2020-06-18,59,-17.5,-3.25,59,-17.5
2020-06-19,49,4.0,14.5,49,4.0
2020-06-20,67,11.5,-11.5,67,11.5
2020-06-21,72,-19.0,-17.0,72,-19.0
2020-06-22,29,-22.5,18.75,29,-22.5
2020-06-23,27,18.5,19.5,27,18.5
2020-06-24,66,16.5,-11.75,66,16.5
2020-06-25,60,-5.0,-0.5,60,-5.0
2020-06-26,56,15.5,2.25,56,15.5
2020-06-27,91,-0.5,-21.75,91,-0.5
2020-06-28,55,-28.0,-1.5,55,-28.0
2020-06-29,35,-3.5,20.75,35,-3.5
2020-06-30,48,13.5,6.5,48,13.5
2020-07-01,62,9.5,-1.0,62,9.5
2020-07-02,67,11.5,-9.0,67,11.5
2020-07-03,85,-8.5,-18.25,85,-8.5
2020-07-04,50,-25.0,2.25,50,-25.0
2020-07-05,35,-4.0,18.25,35,-4.0
2020-07-06,42,11.5,11.25,42,11.5
2020-07-07,58,18.5,3.25,58,18.5
2020-07-08,79,18.0,-12.75,79,18.0
2020-07-09,94,-7.0,-19.25,94,-7.0
2020-07-10,65,-20.5,-1.5,65,-20.5
2020-07-11,53,-10.0,3.25,53,-10.0
2020-07-12,45,-14.0,5.75,45,-14.0
2020-07-13,25,1.5,20.75,25,1.5
2020-07-14,48,27.5,-2.25,48,27.5
2020-07-15,80,-3.0,-10.0,80,-3.0
2020-07-16,42,7.5,9.25,42,7.5
2020-07-17,95,15.5,-16.5,95,15.5
2020-07-18,73,-25.5,-16.75,73,-25.5
2020-07-19,44,-18.0,20.75,44,-18.0
2020-07-20,37,16.0,14.25,37,16.0
2020-07-21,76,10.5,-10.5,76,10.5
2020-07-22,58,-5.0,-5.5,58,-5.0
2020-07-23,66,-0.5,12.25,66,-0.5
2020-07-24,57,19.5,8.5,57,19.5
2020-07-25,105,16.5,-23.75,105,16.5
2020-07-26,90,-28.0,-18.75,90,-28.0
2020-07-27,49,-21.0,39.0,49,-21.0
2020-07-28,48,50.0,9.5,48,50.0
2020-07-29,149,-2.0,-42.5,149,-2.0
2020-07-30,44,-35.0,15.75,44,-35.0
2020-07-31,79,29.5,19.75,79,29.5
2020-08-01,103,4.5,-24.25,103,4.5
2020-08-02,88,-19.0,-9.5,88,-19.0
2020-08-03,65,-14.5,15.5,65,-14.5
2020-08-04,59,12.0,18.75,59,12.0
2020-08-05,89,23.0,-3.75,89,23.0
2020-08-06,105,4.5,-11.25,105,4.5
2020-08-07,98,0.5,5.25,98,0.5
2020-08-08,106,15.0,-12.25,106,15.0
2020-08-09,128,-24.0,-27.0,128,-24.0
2020-08-10,58,-39.0,23.0,58,-39.0
2020-08-11,50,22.0,27.5,50,22.0
2020-08-12,102,16.0,-4.75,102,16.0
2020-08-13,82,12.5,-5.0,82,12.5
2020-08-14,127,6.0,1.0,127,6.0
2020-08-15,94,14.5,-5.0,94,14.5
2020-08-16,156,-4.0,-26.0,156,-4.0
2020-08-17,86,-37.5,11.75,86,-37.5
2020-08-18,81,19.5,29.75,81,19.5
2020-08-19,125,22.0,7.25,125,22.0
2020-08-20,125,34.0,20.5,125,34.0
2020-08-21,193,63.0,-30.0,193,63.0
2020-08-22,251,-26.0,-57.0,251,-26.0
2020-08-23,141,-51.0,-2.25,141,-51.0
2020-08-24,149,-30.5,4.75,149,-30.5
2020-08-25,80,-41.5,151.0,80,-41.5
2020-08-26,66,271.5,85.0,66,271.5
2020-08-27,623,128.5,-185.25,194,128.5
2020-08-28,323,-99.0,-50.0,323,-99.0
2020-08-29,425,28.5,-10.0,425,28.5
2020-08-30,380,-119.0,-49.25,380,-119.0
2020-08-31,187,-70.0,76.25,187,-70.0
2020-09-01,240,33.5,58.5,240,33.5
2020-09-02,254,47.0,-15.5,254,47.0
2020-09-03,334,2.5,-33.75,334,2.5
2020-09-04,259,-20.5,-11.0,259,-20.5
2020-09-05,293,-19.5,-15.25,293,-19.5
2020-09-06,220,-51.0,-19.5,220,-51.0
2020-09-07,191,-58.5,19.75,191,-58.5
2020-09-08,103,-11.5,69.25,103,-11.5
2020-09-09,168,80.0,34.5,168,80.0
2020-09-10,263,57.5,-25.75,263,57.5
2020-09-11,283,28.5,-49.25,283,28.5
2020-09-12,320,-41.0,-53.5,320,-41.0
2020-09-13,201,-78.5,18.5,201,-78.5
2020-09-14,163,-4.0,72.75,163,-4.0
2020-09-15,193,67.0,52.5,193,67.0
2020-09-16,297,101.0,-10.5,297,101.0
2020-09-17,395,46.0,-57.0,395,46.0
2020-09-18,389,-13.0,-57.25,389,-13.0
2020-09-19,369,-68.5,-42.5,369,-68.5
2020-09-20,252,-98.0,51.25,252,-98.0
2020-09-21,173,34.0,117.0,173,34.0
2020-09-22,320,136.0,18.75,320,136.0
2020-09-23,445,71.5,-65.0,445,71.5
2020-09-24,463,6.0,-6.75,463,6.0
2020-09-25,457,58.0,-15.25,457,58.0
2020-09-26,579,-24.5,-124.5,579,-24.5
2020-09-27,408,-191.0,-25.0,408,-191.0
2020-09-28,197,-74.5,144.25,197,-74.5
2020-09-29,259,97.5,159.25,259,97.5
2020-09-30,392,244.0,-50.25,392,244.0
2020-10-01,747,-3.0,-192.75,747,-3.0
2020-10-02,386,-141.5,13.0,386,-141.5
2020-10-03,464,23.0,-0.25,464,23.0
2020-10-04,432,-142.0,-50.0,432,-142.0
2020-10-05,180,-77.0,283.5,180,-77.0
2020-10-06,278,425.0,102.75,278,425.0
2020-10-07,1030,128.5,-276.5,1030,128.5
2020-10-08,535,-128.0,-15.0,535,-128.0
2020-10-09,774,98.5,24.75,774,98.5
2020-10-10,732,-78.5,-142.0,732,-78.5
2020-10-11,617,-185.5,-11.5,617,-185.5
2020-10-12,361,-101.5,221.5,361,-101.5
2020-10-13,414,257.5,146.5,414,257.5
2020-10-14,876,191.5,-149.5,876,191.5
2020-10-15,797,-41.5,-93.5,797,-41.5
2020-10-16,793,4.5,-13.0,793,4.5
2020-10-17,806,-67.5,-62.0,806,-67.5
2020-10-18,658,-119.5,24.5,658,-119.5
2020-10-19,567,-18.5,64.75,567,-18.5
2020-10-20,621,10.0,97.25,621,10.0
2020-10-21,587,176.0,144.5,587,176.0
2020-10-22,973,299.0,-96.5,973,299.0
2020-10-23,1185,-17.0,-180.25,1185,-17.0
2020-10-24,939,-61.5,-91.75,939,-61.5
2020-10-25,1062,-200.5,12.5,1062,-200.5
2020-10-26,538,-36.5,283.25,538,-36.5
2020-10-27,989,366.0,21.0,989,366.0
2020-10-28,1270,5.5,-110.75,1270,5.5
2020-10-29,1000,144.5,105.5,1000,144.5
2020-10-30,1559,216.5,-129.0,1559,216.5
2020-10-31,1433,-113.5,-335.0,1433,-113.5
2020-11-01,1332,-453.5,-25.25,1332,-453.5
2020-11-02,526,-164.0,329.5,526,-164.0
2020-11-03,1004,205.5,171.0,1004,205.5
2020-11-04,937,178.0,35.0,937,178.0
2020-11-05,1360,275.5,-94.75,1360,275.5
2020-11-06,1488,-11.5,-152.75,1488,-11.5
2020-11-07,1337,-30.0,-101.75,1337,-30.0
2020-11-08,1428,-215.0,-86.25,1428,-215.0
2020-11-09,907,-202.5,221.25,907,-202.5
2020-11-10,1023,227.5,350.5,1023,227.5
2020-11-11,1362,498.5,-51.5,1362,498.5
2020-11-12,2020,124.5,-290.5,2020,124.5
2020-11-13,1611,-82.5,-165.25,1611,-82.5
2020-11-14,1855,-206.0,-198.25,1855,-206.0
2020-11-15,1199,-479.0,54.75,1199,-479.0
2020-11-16,897,-96.5,362.0,897,-96.5
2020-11-17,1006,245.0,64.5,1006,245.0
2020-11-18,1387,32.5,-137.25,1387,32.5
2020-11-19,1071,-29.5,2.0,1071,-29.5
2020-11-20,1328,36.5,-104.5,1328,36.5
2020-11-21,1144,-238.5,-108.5,1144,-238.5
2020-11-22,851,-180.5,159.25,851,-180.5
2020-11-23,783,80.0,215.25,783,80.0
2020-11-24,1011,250.0,-292.75,1011,250.0
2020-11-25,1283,-505.5,88.75,1283,-505.5
2020-11-26,0,427.5,457.5,0,427.5
2020-11-27,2138,409.5,-548.0,2138,409.5
2020-11-28,819,-668.5,-268.5,819,-668.5
2020-11-29,801,-127.5,246.0,801,-127.5
2020-11-30,564,-176.5,245.5,564,-176.5
2020-12-01,448,363.5,262.5,448,363.5
2020-12-02,1291,348.5,-242.0,1291,348.5
2020-12-03,1145,-120.5,-234.0,1145,-120.5
2020-12-04,1050,-119.5,-30.5,1050,-119.5
2020-12-05,906,-181.5,-39.5,906,-181.5
2020-12-06,687,-198.5,53.5,687,-198.5
2020-12-07,509,-74.5,218.25,509,-74.5
2020-12-08,538,238.0,78.75,538,238.0
2020-12-09,985,83.0,-129.0,985,83.0
2020-12-10,704,-20.0,-33.75,704,-20.0
2020-12-11,945,15.5,-68.5,945,15.5
2020-12-12,735,-157.0,-112.5,735,-157.0
2020-12-13,631,-209.5,7.0,631,-209.5
2020-12-14,316,-143.0,251.75,316,-143.0
2020-12-15,345,294.0,133.75,345,294.0
2020-12-16,904,124.5,-229.25,904,124.5
2020-12-17,594,-164.5,-69.75,594,-164.5
2020-12-18,575,-15.0,-61.5,575,-15.0
2020-12-19,564,-287.5,-274.5,564,-287.5
2020-12-20,0,-564.0,-276.5,0,-564.0
