date, confirmed_daily_cases, first_order,second_order, confirmed_daily_cases_outlier_removed,first_order_outlier_removed,second_order_outlier_removed
2020-01-01,0,0.0,0.0,0,0.0
2020-01-02,0,0.0,0.0,0,0.0
2020-01-03,0,0.0,0.0,0,0.0
2020-01-04,0,0.0,0.0,0,0.0
2020-01-05,0,0.0,0.0,0,0.0
2020-01-06,0,0.0,0.0,0,0.0
2020-01-07,0,0.0,0.0,0,0.0
2020-01-08,0,0.0,0.0,0,0.0
2020-01-09,0,0.0,0.0,0,0.0
2020-01-10,0,0.0,0.0,0,0.0
2020-01-11,0,0.0,0.0,0,0.0
2020-01-12,0,0.0,0.0,0,0.0
2020-01-13,0,0.0,0.0,0,0.0
2020-01-14,0,0.0,0.0,0,0.0
2020-01-15,0,0.0,0.0,0,0.0
2020-01-16,0,0.0,0.0,0,0.0
2020-01-17,0,0.0,0.0,0,0.0
2020-01-18,0,0.0,0.0,0,0.0
2020-01-19,0,0.0,0.0,0,0.0
2020-01-20,0,0.0,0.0,0,0.0
2020-01-21,0,0.0,0.0,0,0.0
2020-01-22,0,0.0,0.0,0,0.0
2020-01-23,0,0.0,0.0,0,0.0
2020-01-24,0,0.0,0.0,0,0.0
2020-01-25,0,0.0,0.0,0,0.0
2020-01-26,0,0.0,0.0,0,0.0
2020-01-27,0,0.0,0.0,0,0.0
2020-01-28,0,0.0,0.0,0,0.0
2020-01-29,0,0.0,0.0,0,0.0
2020-01-30,0,0.0,0.0,0,0.0
2020-01-31,0,0.0,0.0,0,0.0
2020-02-01,0,0.0,0.0,0,0.0
2020-02-02,0,0.0,0.0,0,0.0
2020-02-03,0,0.0,0.0,0,0.0
2020-02-04,0,0.0,0.0,0,0.0
2020-02-05,0,0.0,0.0,0,0.0
2020-02-06,0,0.0,0.0,0,0.0
2020-02-07,0,0.0,0.0,0,0.0
2020-02-08,0,0.0,0.0,0,0.0
2020-02-09,0,0.0,0.0,0,0.0
2020-02-10,0,0.0,0.0,0,0.0
2020-02-11,0,0.0,0.0,0,0.0
2020-02-12,0,0.0,0.0,0,0.0
2020-02-13,0,0.0,0.0,0,0.0
2020-02-14,0,0.0,0.0,0,0.0
2020-02-15,0,0.0,0.0,0,0.0
2020-02-16,0,0.0,0.0,0,0.0
2020-02-17,0,0.0,0.0,0,0.0
2020-02-18,0,0.0,0.0,0,0.0
2020-02-19,0,0.0,0.0,0,0.0
2020-02-20,0,0.0,0.0,0,0.0
2020-02-21,0,0.0,0.0,0,0.0
2020-02-22,0,0.0,0.0,0,0.0
2020-02-23,0,0.0,0.0,0,0.0
2020-02-24,0,0.0,0.0,0,0.0
2020-02-25,0,0.0,0.0,0,0.0
2020-02-26,0,0.0,0.0,0,0.0
2020-02-27,0,0.0,0.0,0,0.0
2020-02-28,0,0.0,0.0,0,0.0
2020-02-29,0,0.0,0.0,0,0.0
2020-03-01,0,0.0,0.0,0,0.0
2020-03-02,0,0.0,0.0,0,0.0
2020-03-03,0,0.0,0.0,0,0.0
2020-03-04,0,0.0,0.0,0,0.0
2020-03-05,0,0.0,0.5,0,0.0
2020-03-06,0,1.0,0.0,0,1.0
2020-03-07,2,0.0,-0.75,2,0.0
2020-03-08,0,-0.5,1.0,0,-0.5
2020-03-09,1,2.0,0.75,1,2.0
2020-03-10,4,1.0,-2.0,4,1.0
2020-03-11,3,-2.0,-1.0,3,-2.0
2020-03-12,0,-1.0,3.75,0,-1.0
2020-03-13,1,5.5,0.25,1,5.5
2020-03-14,11,-0.5,-2.75,11,-0.5
2020-03-15,0,0.0,4.5,0,0.0
2020-03-16,11,8.5,0.5,11,8.5
2020-03-17,17,1.0,-3.5,17,1.0
2020-03-18,13,1.5,7.75,13,1.5
2020-03-19,20,16.5,6.25,20,16.5
2020-03-20,46,14.0,-14.25,46,14.0
2020-03-21,48,-12.0,6.5,48,-12.0
2020-03-22,22,27.0,11.5,22,27.0
2020-03-23,102,11.0,-18.5,102,11.0
2020-03-24,44,-10.0,-16.5,44,-10.0
2020-03-25,82,-22.0,14.0,82,-22.0
2020-03-26,0,18.0,40.5,0,18.0
2020-03-27,118,59.0,-10.0,118,59.0
2020-03-28,118,-2.0,-21.25,118,-2.0
2020-03-29,114,16.5,12.0,114,16.5
2020-03-30,151,22.0,6.5,151,22.0
2020-03-31,158,29.5,14.75,158,29.5
2020-04-01,210,51.5,-30.75,210,51.5
2020-04-02,261,-32.0,-36.75,261,-32.0
2020-04-03,146,-22.0,12.5,146,-22.0
2020-04-04,217,-7.0,2.5,217,-7.0
2020-04-05,132,-17.0,16.75,132,-17.0
2020-04-06,183,26.5,-37.25,183,26.5
2020-04-07,185,-91.5,34.5,185,-91.5
2020-04-08,0,95.5,114.25,0,95.5
2020-04-09,376,137.0,-105.75,376,137.0
2020-04-10,274,-116.0,-109.75,274,-116.0
2020-04-11,144,-82.5,39.75,144,-82.5
2020-04-12,109,-36.5,54.5,109,-36.5
2020-04-13,71,26.5,26.25,71,26.5
2020-04-14,162,16.0,15.0,162,16.0
2020-04-15,103,56.5,8.25,103,56.5
2020-04-16,275,32.5,-59.75,275,32.5
2020-04-17,168,-63.0,-26.0,168,-63.0
2020-04-18,149,-19.5,11.5,149,-19.5
2020-04-19,129,-40.0,-22.5,129,-40.0
2020-04-20,69,-64.5,83.25,69,-64.5
2020-04-21,0,126.5,71.25,0,126.5
2020-04-22,322,78.0,-105.5,322,78.0
2020-04-23,156,-84.5,-32.25,156,-84.5
2020-04-24,153,13.5,65.25,153,13.5
2020-04-25,183,46.0,-23.75,183,46.0
2020-04-26,245,-34.0,-53.75,245,-34.0
2020-04-27,115,-61.5,25.0,115,-61.5
2020-04-28,122,16.0,53.5,122,16.0
2020-04-29,147,45.5,-4.0,147,45.5
2020-04-30,213,8.0,-18.25,213,8.0
2020-05-01,163,9.0,-10.5,163,9.0
2020-05-02,231,-13.0,-29.5,231,-13.0
2020-05-03,137,-50.0,-6.75,137,-50.0
2020-05-04,131,-26.5,16.0,131,-26.5
2020-05-05,84,-18.0,43.75,84,-18.0
2020-05-06,95,61.0,41.5,95,61.0
2020-05-07,206,65.0,-41.0,206,65.0
2020-05-08,225,-21.0,-58.25,225,-21.0
2020-05-09,164,-51.5,4.25,164,-51.5
2020-05-10,122,-12.5,29.0,122,-12.5
2020-05-11,139,6.5,-2.75,139,6.5
2020-05-12,135,-18.0,2.75,135,-18.0
2020-05-13,103,12.0,37.75,103,12.0
2020-05-14,159,57.5,17.75,159,57.5
2020-05-15,218,47.5,-44.5,218,47.5
2020-05-16,254,-31.5,-55.75,254,-31.5
2020-05-17,155,-64.0,5.5,155,-64.0
2020-05-18,126,-20.5,30.25,126,-20.5
2020-05-19,114,-3.5,33.25,114,-3.5
2020-05-20,119,46.0,36.25,119,46.0
2020-05-21,206,69.0,-10.25,206,69.0
2020-05-22,257,25.5,-48.5,257,25.5
2020-05-23,257,-28.0,-56.5,257,-28.0
2020-05-24,201,-87.5,23.25,201,-87.5
2020-05-25,82,18.5,75.0,82,18.5
2020-05-26,238,62.5,-27.5,238,62.5
2020-05-27,207,-36.5,2.75,207,-36.5
2020-05-28,165,68.0,42.75,165,68.0
2020-05-29,343,49.0,-3.0,343,49.0
2020-05-30,263,62.0,-18.5,263,62.0
2020-05-31,467,12.0,-80.0,467,12.0
2020-06-01,287,-98.0,-65.0,287,-98.0
2020-06-02,271,-118.0,-4.75,271,-118.0
2020-06-03,51,-107.5,279.25,51,-107.5
2020-06-04,56,440.5,59.75,56,440.5
2020-06-05,932,12.0,-262.25,68,12.0
2020-06-06,80,-84.0,98.5,80,-84.0
2020-06-07,764,209.0,-42.0,289,209.0
2020-06-08,498,-168.0,-96.25,498,-168.0
2020-06-09,428,16.5,147.5,428,16.5
2020-06-10,531,127.0,41.25,531,127.0
2020-06-11,682,99.0,-37.75,682,99.0
2020-06-12,729,51.5,-21.75,729,51.5
2020-06-13,785,55.5,-76.25,785,55.5
2020-06-14,840,-101.0,-84.75,840,-101.0
2020-06-15,583,-114.0,46.25,583,-114.0
2020-06-16,612,-8.5,148.25,612,-8.5
2020-06-17,566,182.5,131.5,566,182.5
2020-06-18,977,254.5,-48.5,977,254.5
2020-06-19,1075,85.5,-169.75,1075,85.5
2020-06-20,1148,-85.0,-78.5,1148,-85.0
2020-06-21,905,-71.5,42.75,905,-71.5
2020-06-22,1005,0.5,115.75,1005,0.5
2020-06-23,906,160.0,54.5,906,160.0
2020-06-24,1325,109.5,-83.0,1325,109.5
2020-06-25,1125,-6.0,65.0,1125,-6.0
2020-06-26,1313,239.5,20.0,1313,239.5
2020-06-27,1604,34.0,-189.75,1604,34.0
2020-06-28,1381,-140.0,76.5,1381,-140.0
2020-06-29,1324,187.0,119.0,1324,187.0
2020-06-30,1755,98.0,-86.75,1755,98.0
2020-07-01,1520,13.5,28.75,1520,13.5
2020-07-02,1782,155.5,11.25,1782,155.5
2020-07-03,1831,36.0,-170.25,1831,36.0
2020-07-04,1854,-185.0,-98.25,1854,-185.0
2020-07-05,1461,-160.5,-29.75,1461,-160.5
2020-07-06,1533,-244.5,86.25,1533,-244.5
2020-07-07,972,12.0,324.75,972,12.0
2020-07-08,1557,405.0,36.75,1557,405.0
2020-07-09,1782,85.5,-78.0,1782,85.5
2020-07-10,1728,249.0,12.5,1728,249.0
2020-07-11,2280,110.5,-314.5,2280,110.5
2020-07-12,1949,-380.0,12.75,1949,-380.0
2020-07-13,1520,136.0,274.0,1520,136.0
2020-07-14,2221,168.0,-163.75,2221,168.0
2020-07-15,1856,-191.5,-53.75,1856,-191.5
2020-07-16,1838,60.5,24.25,1838,60.5
2020-07-17,1977,-143.0,69.0,1977,-143.0
2020-07-18,1552,198.5,48.25,1552,198.5
2020-07-19,2374,-46.5,-219.75,2374,-46.5
2020-07-20,1459,-241.0,84.75,1459,-241.0
2020-07-21,1892,123.0,38.5,1892,123.0
2020-07-22,1705,-164.0,12.5,1705,-164.0
2020-07-23,1564,148.0,41.25,1564,148.0
2020-07-24,2001,-81.5,-276.5,2001,-81.5
2020-07-25,1401,-405.0,-5.0,1401,-405.0
2020-07-26,1191,-91.5,327.75,1191,-91.5
2020-07-27,1218,250.5,175.5,1218,250.5
2020-07-28,1692,259.5,-116.75,1692,259.5
2020-07-29,1737,17.0,-203.0,1737,17.0
2020-07-30,1726,-146.5,-44.25,1726,-146.5
2020-07-31,1444,-71.5,9.5,1444,-71.5
2020-08-01,1583,-127.5,-69.25,1583,-127.5
2020-08-02,1189,-210.0,76.25,1189,-210.0
2020-08-03,1163,25.0,134.75,1163,25.0
2020-08-04,1239,59.5,9.0,1239,59.5
2020-08-05,1282,43.0,5.25,1282,43.0
2020-08-06,1325,70.0,-42.5,1325,70.0
2020-08-07,1422,-42.0,-146.75,1422,-42.0
2020-08-08,1241,-223.5,-108.25,1241,-223.5
2020-08-09,975,-258.5,110.75,975,-258.5
2020-08-10,724,-2.0,159.25,724,-2.0
2020-08-11,971,60.0,-8.0,971,60.0
2020-08-12,844,-18.0,-8.0,844,-18.0
2020-08-13,935,44.0,35.5,935,44.0
2020-08-14,932,53.0,-101.25,932,53.0
2020-08-15,1041,-158.5,-172.75,1041,-158.5
2020-08-16,615,-292.5,105.25,615,-292.5
2020-08-17,456,52.0,217.0,456,52.0
2020-08-18,719,141.5,21.5,719,141.5
2020-08-19,739,95.0,9.0,739,95.0
2020-08-20,909,159.5,-45.5,909,159.5
2020-08-21,1058,4.0,-171.0,1058,4.0
2020-08-22,917,-182.5,-90.5,917,-182.5
2020-08-23,693,-177.0,152.25,693,-177.0
2020-08-24,563,122.0,99.0,563,122.0
2020-08-25,937,21.0,-169.0,937,21.0
2020-08-26,605,-216.0,176.5,605,-216.0
2020-08-27,505,374.0,306.25,505,374.0
2020-08-28,1353,396.5,-256.5,1353,396.5
2020-08-29,1298,-139.0,-355.75,1298,-139.0
2020-08-30,1075,-315.0,14.25,1075,-315.0
2020-08-31,668,-110.5,154.75,668,-110.5
2020-09-01,854,-5.5,140.0,854,-5.5
2020-09-02,657,169.5,245.75,657,169.5
2020-09-03,1193,486.0,-142.0,1193,486.0
2020-09-04,1629,-114.5,-484.5,1629,-114.5
2020-09-05,964,-483.0,-20.0,964,-483.0
2020-09-06,663,-154.5,151.0,663,-154.5
2020-09-07,655,-181.0,-10.25,655,-181.0
2020-09-08,301,-175.0,110.0,301,-175.0
2020-09-09,305,39.0,624.75,305,39.0
2020-09-10,379,1074.5,118.75,379,1074.5
2020-09-11,2454,276.5,-679.25,655,276.5
2020-09-12,932,-284.0,-167.25,932,-284.0
2020-09-13,1886,-58.0,-132.0,1886,-58.0
2020-09-14,816,-548.0,-12.0,816,-548.0
2020-09-15,790,-82.0,407.5,790,-82.0
2020-09-16,652,267.0,96.0,652,267.0
2020-09-17,1324,110.0,-234.0,1324,110.0
2020-09-18,872,-201.0,-156.0,872,-201.0
2020-09-19,922,-202.0,-26.0,922,-202.0
2020-09-20,468,-253.0,650.25,468,-253.0
2020-09-21,416,1098.5,246.75,416,1098.5
2020-09-22,2665,240.5,-960.25,656,240.5
2020-09-23,897,-822.0,-45.75,897,-822.0
2020-09-24,1021,149.0,498.5,1021,149.0
2020-09-25,1195,175.0,-219.75,1195,175.0
2020-09-26,1371,-290.5,-288.25,1371,-290.5
2020-09-27,614,-401.5,286.5,614,-401.5
2020-09-28,568,282.5,135.75,568,282.5
2020-09-29,1179,-130.0,-340.75,1179,-130.0
2020-09-30,308,-399.0,203.5,308,-399.0
2020-10-01,381,277.0,530.75,381,277.0
2020-10-02,862,662.5,-181.25,862,662.5
2020-10-03,1706,-85.5,-613.5,1706,-85.5
2020-10-04,691,-564.5,72.75,691,-564.5
2020-10-05,577,60.0,321.75,577,60.0
2020-10-06,811,79.0,29.75,811,79.0
2020-10-07,735,119.5,7.0,735,119.5
2020-10-08,1050,93.0,-86.0,1050,93.0
2020-10-09,921,-52.5,-80.5,921,-52.5
2020-10-10,945,-68.0,-47.75,945,-68.0
2020-10-11,785,-148.0,44.75,785,-148.0
2020-10-12,649,21.5,143.25,649,21.5
2020-10-13,828,138.5,106.5,828,138.5
2020-10-14,926,234.5,-14.0,926,234.5
2020-10-15,1297,110.5,-201.25,1297,110.5
2020-10-16,1147,-168.0,-148.0,1147,-168.0
2020-10-17,961,-185.5,-1.5,961,-185.5
2020-10-18,776,-171.0,119.75,776,-171.0
2020-10-19,619,54.0,146.75,619,54.0
2020-10-20,884,122.5,34.0,884,122.5
2020-10-21,864,122.0,-11.25,864,122.0
2020-10-22,1128,100.0,-145.0,1128,100.0
2020-10-23,1064,-168.0,18.25,1064,-168.0
2020-10-24,792,136.5,91.75,792,136.5
2020-10-25,1337,15.5,-133.0,1337,15.5
2020-10-26,823,-129.5,14.5,823,-129.5
2020-10-27,1078,44.5,70.25,1078,44.5
2020-10-28,912,11.0,0.5,912,11.0
2020-10-29,1100,45.5,-26.0,1100,45.5
2020-10-30,1003,-41.0,79.25,1003,-41.0
2020-10-31,1018,204.0,-10.5,1018,204.0
2020-11-01,1411,-62.0,-196.0,1411,-62.0
2020-11-02,894,-188.0,37.0,894,-188.0
2020-11-03,1035,12.0,27.5,1035,12.0
2020-11-04,918,-133.0,72.75,918,-133.0
2020-11-05,769,157.5,341.75,769,157.5
2020-11-06,1233,550.5,-150.5,1233,550.5
2020-11-07,1870,-143.5,-567.0,1870,-143.5
2020-11-08,946,-583.5,172.0,946,-583.5
2020-11-09,703,200.5,430.25,703,200.5
2020-11-10,1347,277.0,-63.25,1347,277.0
2020-11-11,1257,74.0,-50.0,1257,74.0
2020-11-12,1495,177.0,67.5,1495,177.0
2020-11-13,1611,209.0,-118.0,1611,209.0
2020-11-14,1913,-59.0,-305.25,1913,-59.0
2020-11-15,1493,-401.5,-23.0,1493,-401.5
2020-11-16,1110,-105.0,310.0,1110,-105.0
2020-11-17,1283,218.5,160.0,1283,218.5
2020-11-18,1547,215.0,4.25,1547,215.0
2020-11-19,1713,227.0,-71.5,1713,227.0
2020-11-20,2001,72.0,-294.5,2001,72.0
2020-11-21,1857,-362.0,-186.0,1857,-362.0
2020-11-22,1277,-300.0,281.25,1277,-300.0
2020-11-23,1257,200.5,254.5,1257,200.5
2020-11-24,1678,209.0,-519.75,1678,209.0
2020-11-25,1675,-839.0,30.5,1675,-839.0
2020-11-26,0,270.0,867.25,0,270.0
2020-11-27,2215,895.5,-384.25,2215,895.5
2020-11-28,1791,-498.5,-556.0,1791,-498.5
2020-11-29,1218,-216.5,301.0,1218,-216.5
2020-11-30,1358,103.5,249.5,1358,103.5
2020-12-01,1425,282.5,149.0,1425,282.5
2020-12-02,1923,401.5,115.5,1923,401.5
2020-12-03,2228,513.5,47.75,2228,513.5
2020-12-04,2950,497.0,-278.25,2950,497.0
2020-12-05,3222,-43.0,-415.75,3222,-43.0
2020-12-06,2864,-334.5,-119.0,2864,-334.5
2020-12-07,2553,-281.0,151.5,2553,-281.0
2020-12-08,2302,-31.5,125.5,2302,-31.5
2020-12-09,2490,-30.0,278.25,2490,-30.0
2020-12-10,2242,525.0,347.5,2242,525.0
2020-12-11,3540,665.0,-295.5,3540,665.0
2020-12-12,3572,-66.0,-583.0,3572,-66.0
2020-12-13,3408,-501.0,-183.0,3408,-501.0
2020-12-14,2570,-432.0,307.75,2570,-432.0
2020-12-15,2544,114.5,243.75,2544,114.5
2020-12-16,2799,55.5,318.5,2799,55.5
2020-12-17,2655,751.5,173.75,2655,751.5
2020-12-18,4302,403.0,-1451.25,4302,403.0
2020-12-19,3461,-2151.0,-1932.0,3461,-2151.0
2020-12-20,0,-3461.0,-1310.0,0,-3461.0
