date, confirmed_daily_cases, first_order,second_order, confirmed_daily_cases_outlier_removed,first_order_outlier_removed,second_order_outlier_removed
2020-01-01,0,0.0,0.0,0,0.0
2020-01-02,0,0.0,0.0,0,0.0
2020-01-03,0,0.0,0.0,0,0.0
2020-01-04,0,0.0,0.0,0,0.0
2020-01-05,0,0.0,0.0,0,0.0
2020-01-06,0,0.0,0.0,0,0.0
2020-01-07,0,0.0,0.0,0,0.0
2020-01-08,0,0.0,0.0,0,0.0
2020-01-09,0,0.0,0.0,0,0.0
2020-01-10,0,0.0,0.0,0,0.0
2020-01-11,0,0.0,0.0,0,0.0
2020-01-12,0,0.0,0.0,0,0.0
2020-01-13,0,0.0,0.0,0,0.0
2020-01-14,0,0.0,0.0,0,0.0
2020-01-15,0,0.0,0.0,0,0.0
2020-01-16,0,0.0,0.0,0,0.0
2020-01-17,0,0.0,0.0,0,0.0
2020-01-18,0,0.0,0.0,0,0.0
2020-01-19,0,0.0,0.0,0,0.0
2020-01-20,0,0.0,0.0,0,0.0
2020-01-21,0,0.0,0.0,0,0.0
2020-01-22,0,0.0,0.0,0,0.0
2020-01-23,0,0.0,0.0,0,0.0
2020-01-24,0,0.0,0.0,0,0.0
2020-01-25,0,0.0,0.0,0,0.0
2020-01-26,0,0.0,0.0,0,0.0
2020-01-27,0,0.0,0.0,0,0.0
2020-01-28,0,0.0,0.0,0,0.0
2020-01-29,0,0.0,0.0,0,0.0
2020-01-30,0,0.0,0.0,0,0.0
2020-01-31,0,0.0,0.0,0,0.0
2020-02-01,0,0.0,0.0,0,0.0
2020-02-02,0,0.0,0.0,0,0.0
2020-02-03,0,0.0,0.0,0,0.0
2020-02-04,0,0.0,0.0,0,0.0
2020-02-05,0,0.0,0.0,0,0.0
2020-02-06,0,0.0,0.0,0,0.0
2020-02-07,0,0.0,0.0,0,0.0
2020-02-08,0,0.0,0.0,0,0.0
2020-02-09,0,0.0,0.0,0,0.0
2020-02-10,0,0.0,0.0,0,0.0
2020-02-11,0,0.0,0.0,0,0.0
2020-02-12,0,0.0,0.0,0,0.0
2020-02-13,0,0.0,0.0,0,0.0
2020-02-14,0,0.0,0.0,0,0.0
2020-02-15,0,0.0,0.0,0,0.0
2020-02-16,0,0.0,0.0,0,0.0
2020-02-17,0,0.0,0.0,0,0.0
2020-02-18,0,0.0,0.0,0,0.0
2020-02-19,0,0.0,0.0,0,0.0
2020-02-20,0,0.0,0.0,0,0.0
2020-02-21,0,0.0,0.0,0,0.0
2020-02-22,0,0.0,0.0,0,0.0
2020-02-23,0,0.0,0.25,0,0.0
2020-02-24,0,0.5,0.0,0,0.5
2020-02-25,1,0.0,-0.5,1,0.0
2020-02-26,0,-0.5,0.0,0,-0.5
2020-02-27,0,0.0,0.25,0,0.0
2020-02-28,0,0.0,0.0,0,0.0
2020-02-29,0,0.0,0.5,0,0.0
2020-03-01,0,1.0,0.5,0,1.0
2020-03-02,2,1.0,0.75,2,1.0
2020-03-03,2,2.5,-1.0,2,2.5
2020-03-04,7,-1.0,-1.75,7,-1.0
2020-03-05,0,-1.0,0.5,0,-1.0
2020-03-06,5,0.0,-0.25,5,0.0
2020-03-07,0,-1.5,0.25,0,-1.5
2020-03-08,2,0.5,0.25,2,0.5
2020-03-09,1,-1.0,-0.5,1,-1.0
2020-03-10,0,-0.5,1.5,0,-0.5
2020-03-11,0,2.0,0.75,0,2.0
2020-03-12,4,1.0,0.75,4,1.0
2020-03-13,2,3.5,1.75,2,3.5
2020-03-14,11,4.5,-3.0,11,4.5
2020-03-15,11,-2.5,-3.5,11,-2.5
2020-03-16,6,-2.5,3.25,6,-2.5
2020-03-17,6,4.0,3.0,6,4.0
2020-03-18,14,3.5,-4.75,14,3.5
2020-03-19,13,-5.5,7.25,13,-5.5
2020-03-20,3,18.0,17.5,3,18.0
2020-03-21,49,29.5,-14.0,49,29.5
2020-03-22,62,-10.0,-21.75,62,-10.0
2020-03-23,29,-14.0,7.25,29,-14.0
2020-03-24,34,4.5,14.75,34,4.5
2020-03-25,38,15.5,-1.25,38,15.5
2020-03-26,65,2.0,-12.75,65,2.0
2020-03-27,42,-10.0,2.75,42,-10.0
2020-03-28,45,7.5,12.0,45,7.5
2020-03-29,57,14.0,15.0,57,14.0
2020-03-30,73,37.5,7.5,73,37.5
2020-03-31,132,29.0,-17.0,132,29.0
2020-04-01,131,3.5,-1.0,131,3.5
2020-04-02,139,27.0,-16.5,139,27.0
2020-04-03,185,-29.5,-42.5,185,-29.5
2020-04-04,80,-58.0,20.5,80,-58.0
2020-04-05,69,11.5,23.0,69,11.5
2020-04-06,103,-12.0,-5.5,103,-12.0
2020-04-07,45,0.5,18.25,45,0.5
2020-04-08,104,24.5,-2.5,104,24.5
2020-04-09,94,-4.5,-19.75,94,-4.5
2020-04-10,95,-15.0,0.75,95,-15.0
2020-04-11,64,-3.0,8.75,64,-3.0
2020-04-12,89,2.5,1.0,89,2.5
2020-04-13,69,-1.0,4.0,69,-1.0
2020-04-14,87,10.5,5.75,87,10.5
2020-04-15,90,10.5,9.75,90,10.5
2020-04-16,108,30.0,-3.25,108,30.0
2020-04-17,150,4.0,-28.75,150,4.0
2020-04-18,116,-27.5,-8.75,116,-27.5
2020-04-19,95,-13.5,13.25,95,-13.5
2020-04-20,89,-1.0,9.25,89,-1.0
2020-04-21,93,5.0,1.5,93,5.0
2020-04-22,99,2.0,2.75,99,2.0
2020-04-23,97,10.5,7.0,97,10.5
2020-04-24,120,16.0,-3.75,120,16.0
2020-04-25,129,3.0,-6.5,129,3.0
2020-04-26,126,3.0,0.0,126,3.0
2020-04-27,135,3.0,14.5,135,3.0
2020-04-28,132,32.0,5.0,132,32.0
2020-04-29,199,13.0,-28.75,199,13.0
2020-04-30,158,-25.5,-10.75,158,-25.5
2020-05-01,148,-8.5,20.5,148,-8.5
2020-05-02,141,15.5,12.5,141,15.5
2020-05-03,179,16.5,-5.0,179,16.5
2020-05-04,174,5.5,-12.0,174,5.5
2020-05-05,190,-7.5,-4.0,190,-7.5
2020-05-06,159,-2.5,10.75,159,-2.5
2020-05-07,185,14.0,2.25,185,14.0
2020-05-08,187,2.0,-12.5,187,2.0
2020-05-09,189,-11.0,-6.25,189,-11.0
2020-05-10,165,-10.5,8.25,165,-10.5
2020-05-11,168,5.5,9.75,168,5.5
2020-05-12,176,9.0,0.5,176,9.0
2020-05-13,186,6.5,-4.25,186,6.5
2020-05-14,189,0.5,-2.5,189,0.5
2020-05-15,187,1.5,2.5,187,1.5
2020-05-16,192,5.5,-3.25,192,5.5
2020-05-17,198,-5.0,-8.25,198,-5.0
2020-05-18,182,-11.0,-1.75,182,-11.0
2020-05-19,176,-8.5,8.0,176,-8.5
2020-05-20,165,5.0,10.5,165,5.0
2020-05-21,186,12.5,-0.25,186,12.5
2020-05-22,190,4.5,-5.5,190,4.5
2020-05-23,195,1.5,-1.75,195,1.5
2020-05-24,193,1.0,-0.5,193,1.0
2020-05-25,197,0.5,-9.75,197,0.5
2020-05-26,194,-18.5,-13.75,194,-18.5
2020-05-27,160,-27.0,3.5,160,-27.0
2020-05-28,140,-11.5,11.75,140,-11.5
2020-05-29,137,-3.5,3.25,137,-3.5
2020-05-30,133,-5.0,-1.75,133,-5.0
2020-05-31,127,-7.0,-1.0,127,-7.0
2020-06-01,119,-7.0,0.5,119,-7.0
2020-06-02,113,-6.0,-0.25,113,-6.0
2020-06-03,107,-7.5,2.25,107,-7.5
2020-06-04,98,-1.5,8.0,98,-1.5
2020-06-05,104,8.5,0.75,104,8.5
2020-06-06,115,0.0,-5.25,115,0.0
2020-06-07,104,-2.0,3.25,104,-2.0
2020-06-08,111,6.5,-1.25,111,6.5
2020-06-09,117,-4.5,-6.25,117,-4.5
2020-06-10,102,-6.0,4.0,102,-6.0
2020-06-11,105,3.5,4.75,105,3.5
2020-06-12,109,3.5,-1.75,109,3.5
2020-06-13,112,0.0,-1.75,112,0.0
2020-06-14,109,0.0,1.75,109,0.0
2020-06-15,112,3.5,2.25,112,3.5
2020-06-16,116,4.5,-1.5,116,4.5
2020-06-17,121,0.5,-2.75,121,0.5
2020-06-18,117,-1.0,2.25,117,-1.0
2020-06-19,119,5.0,5.75,119,5.0
2020-06-20,127,10.5,3.0,127,10.5
2020-06-21,140,11.0,-1.25,140,11.0
2020-06-22,149,8.0,0.25,149,8.0
2020-06-23,156,11.5,6.25,156,11.5
2020-06-24,172,20.5,11.25,172,20.5
2020-06-25,197,34.0,11.25,197,34.0
2020-06-26,240,43.0,-0.75,240,43.0
2020-06-27,283,32.5,-17.75,283,32.5
2020-06-28,305,7.5,-8.5,305,7.5
2020-06-29,298,15.5,13.0,298,15.5
2020-06-30,336,33.5,4.5,336,33.5
2020-07-01,365,24.5,-4.75,365,24.5
2020-07-02,385,24.0,-1.0,385,24.0
2020-07-03,413,22.5,-5.0,413,22.5
2020-07-04,430,14.0,-3.0,430,14.0
2020-07-05,441,16.5,1.5,441,16.5
2020-07-06,463,17.0,-6.75,463,17.0
2020-07-07,475,3.0,-12.25,475,3.0
2020-07-08,469,-7.5,-10.25,469,-7.5
2020-07-09,460,-17.5,6.25,460,-17.5
2020-07-10,434,5.0,21.0,434,5.0
2020-07-11,470,24.5,3.5,470,24.5
2020-07-12,483,12.0,-1.25,483,12.0
2020-07-13,494,22.0,9.0,494,22.0
2020-07-14,527,30.0,3.5,527,30.0
2020-07-15,554,29.0,-5.25,554,29.0
2020-07-16,585,19.5,-10.5,585,19.5
2020-07-17,593,8.0,-24.25,593,8.0
2020-07-18,601,-29.0,-2.5,601,-29.0
2020-07-19,535,3.0,27.5,535,3.0
2020-07-20,607,26.0,-4.75,607,26.0
2020-07-21,587,-6.5,-6.75,587,-6.5
2020-07-22,594,12.5,23.5,594,12.5
2020-07-23,612,40.5,-8.0,612,40.5
2020-07-24,675,-3.5,-40.75,675,-3.5
2020-07-25,605,-41.0,4.5,605,-41.0
2020-07-26,593,5.5,32.75,593,5.5
2020-07-27,616,24.5,-3.25,616,24.5
2020-07-28,642,-1.0,-22.25,642,-1.0
2020-07-29,614,-20.0,-12.25,614,-20.0
2020-07-30,602,-25.5,-1.5,602,-25.5
2020-07-31,563,-23.0,0.75,563,-23.0
2020-08-01,556,-24.0,-0.75,556,-24.0
2020-08-02,515,-24.5,16.25,515,-24.5
2020-08-03,507,8.5,23.25,507,8.5
2020-08-04,532,22.0,5.5,532,22.0
2020-08-05,551,19.5,-16.5,551,19.5
2020-08-06,571,-11.0,-18.0,571,-11.0
2020-08-07,529,-16.5,-10.0,529,-16.5
2020-08-08,538,-31.0,11.75,538,-31.0
2020-08-09,467,7.0,21.75,467,7.0
2020-08-10,552,12.5,-17.75,552,12.5
2020-08-11,492,-28.5,-7.25,492,-28.5
2020-08-12,495,-2.0,9.75,495,-2.0
2020-08-13,488,-9.0,-3.75,488,-9.0
2020-08-14,477,-9.5,-2.25,477,-9.5
2020-08-15,469,-13.5,-2.0,469,-13.5
2020-08-16,450,-13.5,-1.0,450,-13.5
2020-08-17,442,-15.5,-3.0,442,-15.5
2020-08-18,419,-19.5,5.75,419,-19.5
2020-08-19,403,-4.0,11.25,403,-4.0
2020-08-20,411,3.0,-0.5,411,3.0
2020-08-21,409,-5.0,-5.75,409,-5.0
2020-08-22,401,-8.5,1.75,401,-8.5
2020-08-23,392,-1.5,-1.25,392,-1.5
2020-08-24,398,-11.0,-1.0,398,-11.0
2020-08-25,370,-3.5,12.25,370,-3.5
2020-08-26,391,13.5,0.75,391,13.5
2020-08-27,397,-2.0,-11.5,397,-2.0
2020-08-28,387,-9.5,-4.5,387,-9.5
2020-08-29,378,-11.0,-2.75,378,-11.0
2020-08-30,365,-15.0,-1.0,365,-15.0
2020-08-31,348,-13.0,1.75,348,-13.0
2020-09-01,339,-11.5,-0.5,339,-11.5
2020-09-02,325,-14.0,0.5,325,-14.0
2020-09-03,311,-10.5,3.75,311,-10.5
2020-09-04,304,-6.5,2.5,304,-6.5
2020-09-05,298,-5.5,1.0,298,-5.5
2020-09-06,293,-4.5,0.75,293,-4.5
2020-09-07,289,-4.0,-0.5,289,-4.0
2020-09-08,285,-5.5,-1.25,285,-5.5
2020-09-09,278,-6.5,-0.75,278,-6.5
2020-09-10,272,-7.0,-1.0,272,-7.0
2020-09-11,264,-8.5,-0.75,264,-8.5
2020-09-12,255,-8.5,1.0,255,-8.5
2020-09-13,247,-6.5,2.0,247,-6.5
2020-09-14,242,-4.5,0.75,242,-4.5
2020-09-15,238,-5.0,-0.25,238,-5.0
2020-09-16,232,-5.0,-0.75,232,-5.0
2020-09-17,228,-6.5,-2.0,228,-6.5
2020-09-18,219,-9.0,-0.75,219,-9.0
2020-09-19,210,-8.0,1.25,210,-8.0
2020-09-20,203,-6.5,1.0,203,-6.5
2020-09-21,197,-6.0,0.5,197,-6.0
2020-09-22,191,-5.5,0.0,191,-5.5
2020-09-23,186,-6.0,0.0,186,-6.0
2020-09-24,179,-5.5,-1.75,179,-5.5
2020-09-25,175,-9.5,-2.75,175,-9.5
2020-09-26,160,-11.0,1.25,160,-11.0
2020-09-27,153,-7.0,6.0,153,-7.0
2020-09-28,146,1.0,7.5,146,1.0
2020-09-29,155,8.0,0.75,155,8.0
2020-09-30,162,2.5,-5.25,162,2.5
2020-10-01,160,-2.5,-4.25,160,-2.5
2020-10-02,157,-6.0,-2.75,157,-6.0
2020-10-03,148,-8.0,-0.5,148,-8.0
2020-10-04,141,-7.0,1.0,141,-7.0
2020-10-05,134,-6.0,0.25,134,-6.0
2020-10-06,129,-6.5,5.25,129,-6.5
2020-10-07,121,4.5,9.5,121,4.5
2020-10-08,138,12.5,-2.75,138,12.5
2020-10-09,146,-1.0,-9.75,146,-1.0
2020-10-10,136,-7.0,29.75,136,-7.0
2020-10-11,132,58.5,-11.0,132,58.5
2020-10-12,253,-29.0,-46.25,253,-29.0
2020-10-13,74,-34.0,44.25,74,-34.0
2020-10-14,185,59.5,26.0,185,59.5
2020-10-15,193,18.0,-26.75,193,18.0
2020-10-16,221,6.0,-14.5,221,6.0
2020-10-17,205,-11.0,-0.75,205,-11.0
2020-10-18,199,4.5,9.0,199,4.5
2020-10-19,214,7.0,7.25,214,7.0
2020-10-20,213,19.0,12.25,213,19.0
2020-10-21,252,31.5,-4.25,252,31.5
2020-10-22,276,10.5,-22.25,276,10.5
2020-10-23,273,-13.0,-7.75,273,-13.0
2020-10-24,250,-5.0,13.0,250,-5.0
2020-10-25,263,13.0,8.5,263,13.0
2020-10-26,276,12.0,4.5,276,12.0
2020-10-27,287,22.0,-1.25,287,22.0
2020-10-28,320,9.5,-11.25,320,9.5
2020-10-29,306,-0.5,-8.5,306,-0.5
2020-10-30,319,-7.5,3.0,319,-7.5
2020-10-31,291,5.5,6.5,291,5.5
2020-11-01,330,5.5,16.0,330,5.5
2020-11-02,302,37.5,58.75,302,37.5
2020-11-03,405,123.0,40.5,405,123.0
2020-11-04,548,118.5,-40.75,548,118.5
2020-11-05,642,41.5,-74.5,642,41.5
2020-11-06,631,-30.5,-11.0,631,-30.5
2020-11-07,581,19.5,30.5,581,19.5
2020-11-08,670,30.5,11.0,670,30.5
2020-11-09,642,41.5,27.0,642,41.5
2020-11-10,753,84.5,3.75,753,84.5
2020-11-11,811,49.0,-28.25,811,49.0
2020-11-12,851,28.0,-26.25,851,28.0
2020-11-13,867,-3.5,-15.75,867,-3.5
2020-11-14,844,-3.5,18.25,844,-3.5
2020-11-15,860,33.0,37.25,860,33.0
2020-11-16,910,71.0,15.5,910,71.0
2020-11-17,1002,64.0,-30.25,1002,64.0
2020-11-18,1038,10.5,-15.75,1038,10.5
2020-11-19,1023,32.5,-6.25,1023,32.5
2020-11-20,1103,-2.0,-20.0,1103,-2.0
2020-11-21,1019,-7.5,-2.5,1019,-7.5
2020-11-22,1088,-7.0,15.0,1088,-7.0
2020-11-23,1005,22.5,8.5,1005,22.5
2020-11-24,1133,10.0,-23.25,1133,10.0
2020-11-25,1025,-24.0,3.25,1025,-24.0
2020-11-26,1085,16.5,1.75,1085,16.5
2020-11-27,1058,-20.5,-20.5,1058,-20.5
2020-11-28,1044,-24.5,-6.25,1044,-24.5
2020-11-29,1009,-33.0,-1.75,1009,-33.0
2020-11-30,978,-28.0,5.0,978,-28.0
2020-12-01,953,-23.0,-13.5,953,-23.0
2020-12-02,932,-55.0,-20.75,932,-55.0
2020-12-03,843,-64.5,9.75,843,-64.5
2020-12-04,803,-35.5,19.0,803,-35.5
2020-12-05,772,-26.5,-32.0,772,-26.5
2020-12-06,750,-99.5,-26.5,750,-99.5
2020-12-07,573,-79.5,56.0,573,-79.5
2020-12-08,591,12.5,33.25,591,12.5
2020-12-09,598,-13.0,-20.25,598,-13.0
2020-12-10,565,-28.0,-5.5,565,-28.0
2020-12-11,542,-24.0,-5.5,542,-24.0
2020-12-12,517,-39.0,6.5,517,-39.0
2020-12-13,464,-11.0,20.5,464,-11.0
2020-12-14,495,2.0,-7.75,495,2.0
2020-12-15,468,-26.5,-11.5,468,-26.5
2020-12-16,442,-21.0,12.25,442,-21.0
2020-12-17,426,-2.0,6.5,426,-2.0
2020-12-18,438,-8.0,-108.5,438,-8.0
2020-12-19,410,-219.0,-201.0,410,-219.0
2020-12-20,0,-410.0,-191.0,0,-410.0
