date, confirmed_daily_cases, first_order,second_order, confirmed_daily_cases_outlier_removed,first_order_outlier_removed,second_order_outlier_removed
2020-01-01,0,0.0,0.0,0,0.0
2020-01-02,0,0.0,0.0,0,0.0
2020-01-03,0,0.0,0.0,0,0.0
2020-01-04,0,0.0,0.0,0,0.0
2020-01-05,0,0.0,0.0,0,0.0
2020-01-06,0,0.0,0.0,0,0.0
2020-01-07,0,0.0,0.0,0,0.0
2020-01-08,0,0.0,0.0,0,0.0
2020-01-09,0,0.0,0.0,0,0.0
2020-01-10,0,0.0,0.0,0,0.0
2020-01-11,0,0.0,0.0,0,0.0
2020-01-12,0,0.0,0.0,0,0.0
2020-01-13,0,0.0,0.0,0,0.0
2020-01-14,0,0.0,0.0,0,0.0
2020-01-15,0,0.0,0.0,0,0.0
2020-01-16,0,0.0,0.0,0,0.0
2020-01-17,0,0.0,0.0,0,0.0
2020-01-18,0,0.0,0.0,0,0.0
2020-01-19,0,0.0,0.0,0,0.0
2020-01-20,0,0.0,0.0,0,0.0
2020-01-21,0,0.0,0.0,0,0.0
2020-01-22,0,0.0,0.0,0,0.0
2020-01-23,0,0.0,0.0,0,0.0
2020-01-24,0,0.0,0.0,0,0.0
2020-01-25,0,0.0,0.0,0,0.0
2020-01-26,0,0.0,0.0,0,0.0
2020-01-27,0,0.0,0.0,0,0.0
2020-01-28,0,0.0,0.0,0,0.0
2020-01-29,0,0.0,0.0,0,0.0
2020-01-30,0,0.0,0.0,0,0.0
2020-01-31,0,0.0,0.0,0,0.0
2020-02-01,0,0.0,0.0,0,0.0
2020-02-02,0,0.0,0.0,0,0.0
2020-02-03,0,0.0,0.0,0,0.0
2020-02-04,0,0.0,0.0,0,0.0
2020-02-05,0,0.0,0.0,0,0.0
2020-02-06,0,0.0,0.0,0,0.0
2020-02-07,0,0.0,0.0,0,0.0
2020-02-08,0,0.0,0.0,0,0.0
2020-02-09,0,0.0,0.0,0,0.0
2020-02-10,0,0.0,0.0,0,0.0
2020-02-11,0,0.0,0.0,0,0.0
2020-02-12,0,0.0,0.0,0,0.0
2020-02-13,0,0.0,0.0,0,0.0
2020-02-14,0,0.0,0.0,0,0.0
2020-02-15,0,0.0,0.0,0,0.0
2020-02-16,0,0.0,0.0,0,0.0
2020-02-17,0,0.0,0.0,0,0.0
2020-02-18,0,0.0,0.0,0,0.0
2020-02-19,0,0.0,0.0,0,0.0
2020-02-20,0,0.0,0.0,0,0.0
2020-02-21,0,0.0,0.0,0,0.0
2020-02-22,0,0.0,0.0,0,0.0
2020-02-23,0,0.0,0.0,0,0.0
2020-02-24,0,0.0,0.0,0,0.0
2020-02-25,0,0.0,0.0,0,0.0
2020-02-26,0,0.0,0.0,0,0.0
2020-02-27,0,0.0,0.0,0,0.0
2020-02-28,0,0.0,0.0,0,0.0
2020-02-29,0,0.0,0.0,0,0.0
2020-03-01,0,0.0,0.0,0,0.0
2020-03-02,0,0.0,0.0,0,0.0
2020-03-03,0,0.0,0.0,0,0.0
2020-03-04,0,0.0,0.0,0,0.0
2020-03-05,0,0.0,0.0,0,0.0
2020-03-06,0,0.0,0.0,0,0.0
2020-03-07,0,0.0,0.0,0,0.0
2020-03-08,0,0.0,0.0,0,0.0
2020-03-09,0,0.0,0.0,0,0.0
2020-03-10,0,0.0,0.0,0,0.0
2020-03-11,0,0.0,0.0,0,0.0
2020-03-12,0,0.0,0.0,0,0.0
2020-03-13,0,0.0,0.0,0,0.0
2020-03-14,0,0.0,0.0,0,0.0
2020-03-15,0,0.0,0.0,0,0.0
2020-03-16,0,0.0,0.0,0,0.0
2020-03-17,0,0.0,0.0,0,0.0
2020-03-18,0,0.0,0.25,0,0.0
2020-03-19,0,0.5,0.25,0,0.5
2020-03-20,1,0.5,-0.5,1,0.5
2020-03-21,1,-0.5,-0.25,1,-0.5
2020-03-22,0,0.0,0.25,0,0.0
2020-03-23,1,0.0,-0.25,1,0.0
2020-03-24,0,-0.5,0.25,0,-0.5
2020-03-25,0,0.5,0.25,0,0.5
2020-03-26,1,0.0,-0.25,1,0.0
2020-03-27,0,0.0,0.5,0,0.0
2020-03-28,1,1.0,-0.25,1,1.0
2020-03-29,2,-0.5,-1.0,2,-0.5
2020-03-30,0,-1.0,0.5,0,-1.0
2020-03-31,0,0.5,0.5,0,0.5
2020-04-01,1,0.0,-0.5,1,0.0
2020-04-02,0,-0.5,0.5,0,-0.5
2020-04-03,0,1.0,1.25,0,1.0
2020-04-04,2,2.0,-0.5,2,2.0
2020-04-05,4,0.0,-1.75,4,0.0
2020-04-06,2,-1.5,0.0,2,-1.5
2020-04-07,1,0.0,0.5,1,0.0
2020-04-08,2,-0.5,-0.5,2,-0.5
2020-04-09,0,-1.0,0.25,0,-1.0
2020-04-10,0,0.0,0.5,0,0.0
2020-04-11,0,0.0,0.0,0,0.0
2020-04-12,0,0.0,0.0,0,0.0
2020-04-13,0,0.0,0.0,0,0.0
2020-04-14,0,0.0,0.0,0,0.0
2020-04-15,0,0.0,0.0,0,0.0
2020-04-16,0,0.0,1.25,0,0.0
2020-04-17,0,2.5,0.0,0,2.5
2020-04-18,5,0.0,-2.5,5,0.0
2020-04-19,0,-2.5,0.0,0,-2.5
2020-04-20,0,0.0,1.5,0,0.0
2020-04-21,0,0.5,0.0,0,0.5
2020-04-22,1,0.0,-0.5,1,0.0
2020-04-23,0,-0.5,0.0,0,-0.5
2020-04-24,0,0.0,0.5,0,0.0
2020-04-25,0,0.5,0.25,0,0.5
2020-04-26,1,0.5,-0.5,1,0.5
2020-04-27,1,-0.5,-0.5,1,-0.5
2020-04-28,0,-0.5,0.25,0,-0.5
2020-04-29,0,0.0,1.0,0,0.0
2020-04-30,0,1.5,1.25,0,1.5
2020-05-01,3,2.5,-1.5,3,2.5
2020-05-02,5,-1.5,-2.5,5,-1.5
2020-05-03,0,-2.5,1.0,0,-2.5
2020-05-04,0,0.5,1.25,0,0.5
2020-05-05,1,0.0,-0.5,1,0.0
2020-05-06,0,-0.5,1.75,0,-0.5
2020-05-07,0,3.5,0.25,0,3.5
2020-05-08,7,0.0,-3.0,7,0.0
2020-05-09,0,-2.5,0.0,0,-2.5
2020-05-10,2,0.0,0.75,2,0.0
2020-05-11,0,-1.0,0.0,0,-1.0
2020-05-12,0,0.0,1.25,0,0.0
2020-05-13,0,1.5,0.0,0,1.5
2020-05-14,3,0.0,-1.5,3,0.0
2020-05-15,0,-1.5,0.0,0,-1.5
2020-05-16,0,0.0,1.25,0,0.0
2020-05-17,0,1.0,0.5,0,1.0
2020-05-18,2,1.0,-1.0,2,1.0
2020-05-19,2,-1.0,0.5,2,-1.0
2020-05-20,0,2.0,1.0,0,2.0
2020-05-21,6,1.0,-2.25,6,1.0
2020-05-22,2,-2.5,1.0,2,-2.5
2020-05-23,1,3.0,1.25,1,3.0
2020-05-24,8,0.0,-3.5,8,0.0
2020-05-25,1,-4.0,0.0,1,-4.0
2020-05-26,0,0.0,2.75,0,0.0
2020-05-27,1,1.5,1.5,1,1.5
2020-05-28,3,3.0,-0.75,3,3.0
2020-05-29,7,0.0,-2.75,7,0.0
2020-05-30,3,-2.5,-0.75,3,-2.5
2020-05-31,2,-1.5,0.75,2,-1.5
2020-06-01,0,-1.0,0.75,0,-1.0
2020-06-02,0,0.0,0.5,0,0.0
2020-06-03,0,0.0,0.0,0,0.0
2020-06-04,0,0.0,0.5,0,0.0
2020-06-05,0,1.0,0.75,0,1.0
2020-06-06,2,1.5,-0.75,2,1.5
2020-06-07,3,-0.5,-0.5,3,-0.5
2020-06-08,1,0.5,4.25,1,0.5
2020-06-09,4,8.0,0.0,4,8.0
2020-06-10,17,0.5,-5.25,17,0.5
2020-06-11,5,-2.5,0.5,5,-2.5
2020-06-12,12,1.5,-1.25,12,1.5
2020-06-13,8,-5.0,-2.25,8,-5.0
2020-06-14,2,-3.0,3.5,2,-3.0
2020-06-15,2,2.0,2.75,2,2.0
2020-06-16,6,2.5,0.25,6,2.5
2020-06-17,7,2.5,-1.5,7,2.5
2020-06-18,11,-0.5,-3.0,11,-0.5
2020-06-19,6,-3.5,0.5,6,-3.5
2020-06-20,4,0.5,1.5,4,0.5
2020-06-21,7,-0.5,-1.25,7,-0.5
2020-06-22,3,-2.0,1.5,3,-2.0
2020-06-23,3,2.5,4.0,3,2.5
2020-06-24,8,6.0,-3.25,8,6.0
2020-06-25,15,-4.0,5.0,15,-4.0
2020-06-26,0,16.0,4.0,0,16.0
2020-06-27,47,4.0,-17.5,47,4.0
2020-06-28,8,-19.0,-2.0,8,-19.0
2020-06-29,9,0.0,9.0,9,0.0
2020-06-30,8,-1.0,4.0,8,-1.0
2020-07-01,7,8.0,2.0,7,8.0
2020-07-02,24,3.0,-5.5,24,3.0
2020-07-03,13,-3.0,-4.75,13,-3.0
2020-07-04,18,-6.5,-3.0,18,-6.5
2020-07-05,0,-9.0,13.25,0,-9.0
2020-07-06,0,20.0,4.5,0,20.0
2020-07-07,40,0.0,-17.5,40,0.0
2020-07-08,0,-15.0,15.5,0,-15.0
2020-07-09,10,31.0,6.0,10,31.0
2020-07-10,62,-3.0,-20.0,7,-3.0
2020-07-11,4,-9.0,5.25,4,-9.0
2020-07-12,44,7.5,-2.5,44,7.5
2020-07-13,19,-14.0,0.25,19,-14.0
2020-07-14,16,8.0,10.75,16,8.0
2020-07-15,35,7.5,-5.0,35,7.5
2020-07-16,31,-2.0,0.75,31,-2.0
2020-07-17,31,9.0,-2.25,31,9.0
2020-07-18,49,-6.5,-5.75,49,-6.5
2020-07-19,18,-2.5,6.25,18,-2.5
2020-07-20,44,6.0,-1.5,44,6.0
2020-07-21,30,-5.5,-0.75,30,-5.5
2020-07-22,33,4.5,1.75,33,4.5
2020-07-23,39,-2.0,-3.0,39,-2.0
2020-07-24,29,-1.5,-2.25,29,-1.5
2020-07-25,36,-6.5,-3.75,36,-6.5
2020-07-26,16,-9.0,11.75,16,-9.0
2020-07-27,18,17.0,19.5,18,17.0
2020-07-28,50,30.0,-13.25,50,30.0
2020-07-29,78,-9.5,-24.75,78,-9.5
2020-07-30,31,-19.5,1.0,31,-19.5
2020-07-31,39,-7.5,8.75,39,-7.5
2020-08-01,16,-2.0,20.0,16,-2.0
2020-08-02,35,32.5,8.25,35,32.5
2020-08-03,81,14.5,-23.75,81,14.5
2020-08-04,64,-15.0,-1.25,64,-15.0
2020-08-05,51,12.0,8.5,51,12.0
2020-08-06,88,2.0,-19.5,88,2.0
2020-08-07,55,-27.0,10.25,55,-27.0
2020-08-08,34,22.5,6.75,34,22.5
2020-08-09,100,-13.5,-22.25,100,-13.5
2020-08-10,7,-22.0,11.75,7,-22.0
2020-08-11,56,10.0,10.25,17,10.0
2020-08-12,27,-1.5,-2.5,27,-1.5
2020-08-13,53,5.0,-5.75,53,5.0
2020-08-14,37,-13.0,-5.0,37,-13.0
2020-08-15,27,-5.0,7.0,27,-5.0
2020-08-16,27,1.0,3.5,27,1.0
2020-08-17,29,2.0,4.5,29,2.0
2020-08-18,31,10.0,-1.5,31,10.0
2020-08-19,49,-1.0,-11.25,49,-1.0
2020-08-20,29,-12.5,9.75,29,-12.5
2020-08-21,24,18.5,9.5,24,18.5
2020-08-22,66,6.5,-13.0,66,6.5
2020-08-23,37,-7.5,2.75,37,-7.5
2020-08-24,51,12.0,3.25,51,12.0
2020-08-25,61,-1.0,-0.5,61,-1.0
2020-08-26,49,11.0,2.25,49,11.0
2020-08-27,83,3.5,-6.25,83,3.5
2020-08-28,56,-1.5,2.5,56,-1.5
2020-08-29,80,8.5,-11.75,80,8.5
2020-08-30,73,-25.0,-3.75,73,-25.0
2020-08-31,30,1.0,17.0,30,1.0
2020-09-01,75,9.0,-12.25,75,9.0
2020-09-02,48,-23.5,1.25,48,-23.5
2020-09-03,28,11.5,19.5,28,11.5
2020-09-04,71,15.5,-16.0,71,15.5
2020-09-05,59,-20.5,-18.5,59,-20.5
2020-09-06,30,-21.5,15.75,30,-21.5
2020-09-07,16,11.0,21.5,16,11.0
2020-09-08,52,21.5,12.75,52,21.5
2020-09-09,59,36.5,-10.0,59,36.5
2020-09-10,125,1.5,-35.5,125,1.5
2020-09-11,62,-34.5,-3.0,62,-34.5
2020-09-12,56,-4.5,16.0,56,-4.5
2020-09-13,53,-2.5,21.5,53,-2.5
2020-09-14,51,38.5,15.0,51,38.5
2020-09-15,130,27.5,-23.25,130,27.5
2020-09-16,106,-8.0,-25.5,106,-8.0
2020-09-17,114,-23.5,-11.25,114,-23.5
2020-09-18,59,-30.5,19.5,59,-30.5
2020-09-19,53,15.5,33.5,53,15.5
2020-09-20,90,36.5,-0.5,90,36.5
2020-09-21,126,14.5,-18.0,126,14.5
2020-09-22,119,0.5,-9.0,119,0.5
2020-09-23,127,-3.5,-3.25,127,-3.5
2020-09-24,112,-6.0,-5.75,112,-6.0
2020-09-25,115,-15.0,-14.25,115,-15.0
2020-09-26,82,-34.5,6.75,82,-34.5
2020-09-27,46,-1.5,32.75,46,-1.5
2020-09-28,79,31.0,-2.25,79,31.0
2020-09-29,108,-6.0,-7.0,108,-6.0
2020-09-30,67,17.0,10.5,67,17.0
2020-10-01,142,15.0,-4.25,142,15.0
2020-10-02,97,8.5,-23.75,97,8.5
2020-10-03,159,-32.5,-12.0,159,-32.5
2020-10-04,32,-15.5,57.0,32,-15.5
2020-10-05,128,81.5,-24.25,128,81.5
2020-10-06,195,-64.0,-31.25,195,-64.0
2020-10-07,0,19.0,50.25,0,19.0
2020-10-08,233,36.5,-14.0,233,36.5
2020-10-09,73,-9.0,-6.5,73,-9.0
2020-10-10,215,23.5,-18.75,215,23.5
2020-10-11,120,-46.5,6.25,120,-46.5
2020-10-12,122,36.0,34.25,122,36.0
2020-10-13,192,22.0,-3.5,192,22.0
2020-10-14,166,29.0,-21.0,166,29.0
2020-10-15,250,-20.0,-17.0,250,-20.0
2020-10-16,126,-5.0,18.5,126,-5.0
2020-10-17,240,17.0,-5.75,240,17.0
2020-10-18,160,-16.5,6.5,160,-16.5
2020-10-19,207,30.0,28.75,207,30.0
2020-10-20,220,41.0,-9.0,220,41.0
2020-10-21,289,12.0,-31.0,289,12.0
2020-10-22,244,-21.0,-17.75,244,-21.0
2020-10-23,247,-23.5,37.5,247,-23.5
2020-10-24,197,54.0,28.25,197,54.0
2020-10-25,355,33.0,-59.0,355,33.0
2020-10-26,263,-64.0,-31.5,263,-64.0
2020-10-27,227,-30.0,24.0,227,-30.0
2020-10-28,203,-16.0,36.5,203,-16.0
2020-10-29,195,43.0,21.0,195,43.0
2020-10-30,289,26.0,-36.25,289,26.0
2020-10-31,247,-29.5,-26.5,247,-29.5
2020-11-01,230,-27.0,44.5,230,-27.0
2020-11-02,193,59.5,24.25,193,59.5
2020-11-03,349,21.5,-44.75,349,21.5
2020-11-04,236,-30.0,-39.5,236,-30.0
2020-11-05,289,-57.5,-29.25,289,-57.5
2020-11-06,121,-88.5,23.0,121,-88.5
2020-11-07,112,-11.5,78.0,112,-11.5
2020-11-08,98,67.5,15.25,98,67.5
2020-11-09,247,19.0,-61.25,247,19.0
2020-11-10,136,-55.0,-18.5,136,-55.0
2020-11-11,137,-18.0,37.0,137,-18.0
2020-11-12,100,19.0,20.5,100,19.0
2020-11-13,175,23.0,-34.0,175,23.0
2020-11-14,146,-49.0,-7.0,146,-49.0
2020-11-15,77,9.0,56.0,77,9.0
2020-11-16,164,63.0,-19.5,164,63.0
2020-11-17,203,-30.0,-29.25,203,-30.0
2020-11-18,104,4.5,22.25,104,4.5
2020-11-19,212,14.5,-18.75,212,14.5
2020-11-20,133,-33.0,-20.5,133,-33.0
2020-11-21,146,-26.5,15.25,146,-26.5
2020-11-22,80,-2.5,20.25,80,-2.5
2020-11-23,141,14.0,-14.25,141,14.0
2020-11-24,108,-31.0,-9.25,108,-31.0
2020-11-25,79,-4.5,17.75,79,-4.5
2020-11-26,99,4.5,-2.75,99,4.5
2020-11-27,88,-10.0,-20.25,88,-10.0
2020-11-28,79,-36.0,-5.75,79,-36.0
2020-11-29,16,-21.5,42.0,16,-21.5
2020-11-30,36,48.0,18.75,36,48.0
2020-12-01,112,16.0,-41.5,112,16.0
2020-12-02,68,-35.0,8.0,68,-35.0
2020-12-03,42,32.0,17.75,42,32.0
2020-12-04,132,0.5,-35.25,132,0.5
2020-12-05,43,-38.5,3.25,43,-38.5
2020-12-06,55,7.0,25.75,55,7.0
2020-12-07,57,13.0,1.0,57,13.0
2020-12-08,81,9.0,3.5,81,9.0
2020-12-09,75,20.0,10.75,75,20.0
2020-12-10,121,30.5,-15.25,121,30.5
2020-12-11,136,-10.5,-42.5,136,-10.5
2020-12-12,100,-54.5,2.5,100,-54.5
2020-12-13,27,-5.5,41.75,27,-5.5
2020-12-14,89,29.0,-8.25,89,29.0
2020-12-15,85,-22.0,-16.5,85,-22.0
2020-12-16,45,-4.0,19.25,45,-4.0
2020-12-17,77,16.5,-1.25,77,16.5
2020-12-18,78,-6.5,-27.75,78,-6.5
2020-12-19,64,-39.0,-28.75,64,-39.0
2020-12-20,0,-64.0,-25.0,0,-64.0
