date, confirmed_daily_cases, first_order,second_order, confirmed_daily_cases_outlier_removed,first_order_outlier_removed,second_order_outlier_removed
2020-01-01,0,0.0,0.0,0,0.0
2020-01-02,0,0.0,0.0,0,0.0
2020-01-03,0,0.0,0.0,0,0.0
2020-01-04,0,0.0,0.0,0,0.0
2020-01-05,0,0.0,0.0,0,0.0
2020-01-06,0,0.0,0.0,0,0.0
2020-01-07,0,0.0,0.0,0,0.0
2020-01-08,0,0.0,0.0,0,0.0
2020-01-09,0,0.0,0.0,0,0.0
2020-01-10,0,0.0,0.0,0,0.0
2020-01-11,0,0.0,0.0,0,0.0
2020-01-12,0,0.0,0.0,0,0.0
2020-01-13,0,0.0,0.0,0,0.0
2020-01-14,0,0.0,0.0,0,0.0
2020-01-15,0,0.0,0.0,0,0.0
2020-01-16,0,0.0,0.0,0,0.0
2020-01-17,0,0.0,0.0,0,0.0
2020-01-18,0,0.0,0.0,0,0.0
2020-01-19,0,0.0,0.0,0,0.0
2020-01-20,0,0.0,0.0,0,0.0
2020-01-21,0,0.0,0.0,0,0.0
2020-01-22,0,0.0,0.0,0,0.0
2020-01-23,0,0.0,0.0,0,0.0
2020-01-24,0,0.0,0.0,0,0.0
2020-01-25,0,0.0,0.0,0,0.0
2020-01-26,0,0.0,0.0,0,0.0
2020-01-27,0,0.0,0.0,0,0.0
2020-01-28,0,0.0,0.0,0,0.0
2020-01-29,0,0.0,0.0,0,0.0
2020-01-30,0,0.0,0.0,0,0.0
2020-01-31,0,0.0,0.0,0,0.0
2020-02-01,0,0.0,0.0,0,0.0
2020-02-02,0,0.0,0.0,0,0.0
2020-02-03,0,0.0,0.0,0,0.0
2020-02-04,0,0.0,0.0,0,0.0
2020-02-05,0,0.0,0.0,0,0.0
2020-02-06,0,0.0,0.0,0,0.0
2020-02-07,0,0.0,0.0,0,0.0
2020-02-08,0,0.0,0.0,0,0.0
2020-02-09,0,0.0,0.0,0,0.0
2020-02-10,0,0.0,0.0,0,0.0
2020-02-11,0,0.0,0.0,0,0.0
2020-02-12,0,0.0,0.0,0,0.0
2020-02-13,0,0.0,0.0,0,0.0
2020-02-14,0,0.0,0.0,0,0.0
2020-02-15,0,0.0,0.0,0,0.0
2020-02-16,0,0.0,0.0,0,0.0
2020-02-17,0,0.0,0.0,0,0.0
2020-02-18,0,0.0,0.0,0,0.0
2020-02-19,0,0.0,0.0,0,0.0
2020-02-20,0,0.0,0.0,0,0.0
2020-02-21,0,0.0,0.0,0,0.0
2020-02-22,0,0.0,0.0,0,0.0
2020-02-23,0,0.0,0.0,0,0.0
2020-02-24,0,0.0,0.0,0,0.0
2020-02-25,0,0.0,0.0,0,0.0
2020-02-26,0,0.0,0.0,0,0.0
2020-02-27,0,0.0,0.0,0,0.0
2020-02-28,0,0.0,0.0,0,0.0
2020-02-29,0,0.0,0.0,0,0.0
2020-03-01,0,0.0,0.0,0,0.0
2020-03-02,0,0.0,0.0,0,0.0
2020-03-03,0,0.0,0.0,0,0.0
2020-03-04,0,0.0,0.0,0,0.0
2020-03-05,0,0.0,0.0,0,0.0
2020-03-06,0,0.0,0.0,0,0.0
2020-03-07,0,0.0,0.0,0,0.0
2020-03-08,0,0.0,0.0,0,0.0
2020-03-09,0,0.0,0.0,0,0.0
2020-03-10,0,0.0,0.0,0,0.0
2020-03-11,0,0.0,0.0,0,0.0
2020-03-12,0,0.0,0.0,0,0.0
2020-03-13,0,0.0,0.0,0,0.0
2020-03-14,0,0.0,0.25,0,0.0
2020-03-15,0,0.5,0.0,0,0.5
2020-03-16,1,0.0,-0.5,1,0.0
2020-03-17,0,-0.5,0.5,0,-0.5
2020-03-18,0,1.0,0.25,0,1.0
2020-03-19,2,0.0,-0.75,2,0.0
2020-03-20,0,-0.5,0.0,0,-0.5
2020-03-21,1,0.0,0.0,1,0.0
2020-03-22,0,-0.5,0.25,0,-0.5
2020-03-23,0,0.5,0.25,0,0.5
2020-03-24,1,0.0,0.5,1,0.0
2020-03-25,0,1.5,0.25,0,1.5
2020-03-26,4,0.5,-1.75,4,0.5
2020-03-27,1,-2.0,-0.25,1,-2.0
2020-03-28,0,0.0,1.75,0,0.0
2020-03-29,1,1.5,-0.25,1,1.5
2020-03-30,3,-0.5,0.25,3,-0.5
2020-03-31,0,2.0,1.0,0,2.0
2020-04-01,7,1.5,-2.75,7,1.5
2020-04-02,3,-3.5,-0.5,3,-3.5
2020-04-03,0,0.5,1.75,0,0.5
2020-04-04,4,0.0,-1.0,4,0.0
2020-04-05,0,-1.5,1.0,0,-1.5
2020-04-06,1,2.0,2.25,1,2.0
2020-04-07,4,3.0,-1.75,4,3.0
2020-04-08,7,-1.5,-3.0,7,-1.5
2020-04-09,1,-3.0,1.5,1,-3.0
2020-04-10,1,1.5,1.25,1,1.5
2020-04-11,4,-0.5,-1.5,4,-0.5
2020-04-12,0,-1.5,0.75,0,-1.5
2020-04-13,1,1.0,0.5,1,1.0
2020-04-14,2,-0.5,0.0,2,-0.5
2020-04-15,0,1.0,0.5,0,1.0
2020-04-16,4,0.5,-1.25,4,0.5
2020-04-17,1,-1.5,-0.5,1,-1.5
2020-04-18,1,-0.5,1.75,1,-0.5
2020-04-19,0,2.0,1.5,0,2.0
2020-04-20,5,2.5,-2.25,5,2.5
2020-04-21,5,-2.5,-0.75,5,-2.5
2020-04-22,0,1.0,1.5,0,1.0
2020-04-23,7,0.5,-1.0,7,0.5
2020-04-24,1,-1.0,0.0,1,-1.0
2020-04-25,5,0.5,-0.75,5,0.5
2020-04-26,2,-2.5,-0.75,2,-2.5
2020-04-27,0,-1.0,1.25,0,-1.0
2020-04-28,0,0.0,0.75,0,0.0
2020-04-29,0,0.5,0.0,0,0.5
2020-04-30,1,0.0,0.0,1,0.0
2020-05-01,0,0.5,0.0,0,0.5
2020-05-02,2,0.0,-0.75,2,0.0
2020-05-03,0,-1.0,1.5,0,-1.0
2020-05-04,0,3.0,1.25,0,3.0
2020-05-05,6,1.5,-3.0,6,1.5
2020-05-06,3,-3.0,-1.5,3,-3.0
2020-05-07,0,-1.5,1.5,0,-1.5
2020-05-08,0,0.0,0.75,0,0.0
2020-05-09,0,0.0,0.25,0,0.0
2020-05-10,0,0.5,0.0,0,0.5
2020-05-11,1,0.0,-0.25,1,0.0
2020-05-12,0,0.0,0.5,0,0.0
2020-05-13,1,1.0,-0.25,1,1.0
2020-05-14,2,-0.5,-1.0,2,-0.5
2020-05-15,0,-1.0,0.25,0,-1.0
2020-05-16,0,0.0,0.5,0,0.0
2020-05-17,0,0.0,0.0,0,0.0
2020-05-18,0,0.0,0.25,0,0.0
2020-05-19,0,0.5,0.0,0,0.5
2020-05-20,1,0.0,-0.5,1,0.0
2020-05-21,0,-0.5,0.75,0,-0.5
2020-05-22,0,1.5,0.25,0,1.5
2020-05-23,3,0.0,-1.5,3,0.0
2020-05-24,0,-1.5,0.0,0,-1.5
2020-05-25,0,0.0,0.75,0,0.0
2020-05-26,0,0.0,0.25,0,0.0
2020-05-27,0,0.5,0.25,0,0.5
2020-05-28,1,0.5,-0.5,1,0.5
2020-05-29,1,-0.5,-0.5,1,-0.5
2020-05-30,0,-0.5,0.25,0,-0.5
2020-05-31,0,0.0,0.25,0,0.0
2020-06-01,0,0.0,0.0,0,0.0
2020-06-02,0,0.0,0.0,0,0.0
2020-06-03,0,0.0,0.0,0,0.0
2020-06-04,0,0.0,0.25,0,0.0
2020-06-05,0,0.5,0.0,0,0.5
2020-06-06,1,0.0,-0.5,1,0.0
2020-06-07,0,-0.5,0.0,0,-0.5
2020-06-08,0,0.0,0.25,0,0.0
2020-06-09,0,0.0,0.0,0,0.0
2020-06-10,0,0.0,0.0,0,0.0
2020-06-11,0,0.0,0.0,0,0.0
2020-06-12,0,0.0,0.0,0,0.0
2020-06-13,0,0.0,0.0,0,0.0
2020-06-14,0,0.0,0.25,0,0.0
2020-06-15,0,0.5,0.0,0,0.5
2020-06-16,1,0.0,-0.5,1,0.0
2020-06-17,0,-0.5,0.0,0,-0.5
2020-06-18,0,0.0,0.25,0,0.0
2020-06-19,0,0.0,0.0,0,0.0
2020-06-20,0,0.0,0.0,0,0.0
2020-06-21,0,0.0,0.0,0,0.0
2020-06-22,0,0.0,0.0,0,0.0
2020-06-23,0,0.0,0.0,0,0.0
2020-06-24,0,0.0,0.0,0,0.0
2020-06-25,0,0.0,0.0,0,0.0
2020-06-26,0,0.0,0.0,0,0.0
2020-06-27,0,0.0,0.0,0,0.0
2020-06-28,0,0.0,0.0,0,0.0
2020-06-29,0,0.0,0.0,0,0.0
2020-06-30,0,0.0,0.0,0,0.0
2020-07-01,0,0.0,0.0,0,0.0
2020-07-02,0,0.0,0.0,0,0.0
2020-07-03,0,0.0,0.0,0,0.0
2020-07-04,0,0.0,0.0,0,0.0
2020-07-05,0,0.0,0.0,0,0.0
2020-07-06,0,0.0,0.5,0,0.0
2020-07-07,0,1.0,0.25,0,1.0
2020-07-08,2,0.5,-0.75,2,0.5
2020-07-09,1,-0.5,0.25,1,-0.5
2020-07-10,1,1.0,0.0,1,1.0
2020-07-11,3,-0.5,-0.75,3,-0.5
2020-07-12,0,-0.5,1.0,0,-0.5
2020-07-13,2,1.5,0.5,2,1.5
2020-07-14,3,0.5,-0.25,3,0.5
2020-07-15,3,1.0,0.25,3,1.0
2020-07-16,5,1.0,0.5,5,1.0
2020-07-17,5,2.0,2.0,5,2.0
2020-07-18,9,5.0,2.0,9,5.0
2020-07-19,15,6.0,-1.25,15,6.0
2020-07-20,21,2.5,-2.0,21,2.5
2020-07-21,20,2.0,7.5,20,2.0
2020-07-22,25,17.5,3.25,25,17.5
2020-07-23,55,8.5,-20.0,55,8.5
2020-07-24,42,-22.5,-10.75,42,-22.5
2020-07-25,10,-13.0,18.75,10,-13.0
2020-07-26,16,15.0,18.75,16,15.0
2020-07-27,40,24.5,-8.25,40,24.5
2020-07-28,65,-1.5,-22.5,65,-1.5
2020-07-29,37,-20.5,8.0,37,-20.5
2020-07-30,24,14.5,10.5,24,14.5
2020-07-31,66,0.5,-11.5,66,0.5
2020-08-01,25,-8.5,1.25,25,-8.5
2020-08-02,49,3.0,1.0,49,3.0
2020-08-03,31,-6.5,-0.25,31,-6.5
2020-08-04,36,2.5,-3.25,36,2.5
2020-08-05,36,-13.0,7.0,36,-13.0
2020-08-06,10,16.5,16.0,10,16.5
2020-08-07,69,19.0,-20.5,29,19.0
2020-08-08,48,-24.5,-9.75,48,-24.5
2020-08-09,20,-0.5,18.25,20,-0.5
2020-08-10,47,12.0,0.25,47,12.0
2020-08-11,44,0.0,-3.75,44,0.0
2020-08-12,47,4.5,-4.25,47,4.5
2020-08-13,53,-8.5,17.75,53,-8.5
2020-08-14,30,40.0,12.5,30,40.0
2020-08-15,133,16.5,-49.75,133,16.5
2020-08-16,63,-59.5,-0.25,63,-59.5
2020-08-17,14,16.0,53.0,14,16.0
2020-08-18,95,46.5,-12.0,95,46.5
2020-08-19,107,-8.0,-26.75,107,-8.0
2020-08-20,79,-7.0,-0.25,79,-7.0
2020-08-21,93,-8.5,-15.0,93,-8.5
2020-08-22,62,-37.0,-7.75,62,-37.0
2020-08-23,19,-24.0,17.5,19,-24.0
2020-08-24,14,-2.0,36.0,14,-2.0
2020-08-25,15,48.0,21.5,15,48.0
2020-08-26,110,41.0,-42.25,56,41.0
2020-08-27,97,-36.5,-25.25,97,-36.5
2020-08-28,37,-9.5,17.0,37,-9.5
2020-08-29,78,-2.5,-2.25,78,-2.5
2020-08-30,32,-14.0,8.0,32,-14.0
2020-08-31,50,13.5,9.75,50,13.5
2020-09-01,59,5.5,-9.25,59,5.5
2020-09-02,61,-5.0,-18.0,61,-5.0
2020-09-03,49,-30.5,12.75,49,-30.5
2020-09-04,0,20.5,22.75,0,20.5
2020-09-05,90,15.0,-22.75,90,15.0
2020-09-06,30,-25.0,-5.25,30,-25.0
2020-09-07,40,4.5,36.5,40,4.5
2020-09-08,39,48.0,-12.0,39,48.0
2020-09-09,136,-19.5,-34.75,136,-19.5
2020-09-10,0,-21.5,38.25,0,-21.5
2020-09-11,93,57.0,-12.5,93,57.0
2020-09-12,114,-46.5,-37.0,114,-46.5
2020-09-13,0,-17.0,29.25,0,-17.0
2020-09-14,80,12.0,2.25,80,12.0
2020-09-15,24,-12.5,10.5,24,-12.5
2020-09-16,55,33.0,-7.5,55,33.0
2020-09-17,90,-27.5,-29.75,90,-27.5
2020-09-18,0,-26.5,39.0,0,-26.5
2020-09-19,37,50.5,29.75,37,50.5
2020-09-20,101,33.0,-38.25,101,33.0
2020-09-21,103,-26.0,-4.5,103,-26.0
2020-09-22,49,24.0,21.0,49,24.0
2020-09-23,151,16.0,-27.0,151,16.0
2020-09-24,81,-30.0,-28.25,81,-30.0
2020-09-25,91,-40.5,4.25,91,-40.5
2020-09-26,0,-21.5,20.25,0,-21.5
2020-09-27,48,0.0,15.0,48,0.0
2020-09-28,0,8.5,55.0,0,8.5
2020-09-29,65,110.0,-20.5,65,110.0
2020-09-30,220,-32.5,-85.75,220,-32.5
2020-10-01,0,-61.5,44.25,0,-61.5
2020-10-02,97,56.0,25.75,97,56.0
2020-10-03,112,-10.0,-45.25,112,-10.0
2020-10-04,77,-34.5,12.5,77,-34.5
2020-10-05,43,15.0,45.0,43,15.0
2020-10-06,107,55.5,-34.25,107,55.5
2020-10-07,154,-53.5,-66.25,154,-53.5
2020-10-08,0,-77.0,104.25,0,-77.0
2020-10-09,0,155.0,52.25,0,155.0
2020-10-10,310,27.5,-133.75,310,27.5
2020-10-11,55,-112.5,-27.5,55,-112.5
2020-10-12,85,-27.5,42.0,85,-27.5
2020-10-13,0,-28.5,62.25,0,-28.5
2020-10-14,28,97.0,40.25,28,97.0
2020-10-15,194,52.0,-69.25,80,52.0
2020-10-16,132,-41.5,-40.25,132,-41.5
2020-10-17,111,-28.5,10.5,111,-28.5
2020-10-18,75,-20.5,33.0,75,-20.5
2020-10-19,70,37.5,24.75,70,37.5
2020-10-20,150,29.0,-35.25,150,29.0
2020-10-21,128,-33.0,-13.25,128,-33.0
2020-10-22,84,2.5,-4.5,84,2.5
2020-10-23,133,-42.0,1.0,133,-42.0
2020-10-24,0,4.5,21.0,0,4.5
2020-10-25,142,0.0,-14.75,142,0.0
2020-10-26,0,-25.0,11.75,0,-25.0
2020-10-27,92,23.5,4.0,92,23.5
2020-10-28,47,-17.0,-14.25,47,-17.0
2020-10-29,58,-5.0,11.5,58,-5.0
2020-10-30,37,6.0,-6.75,37,6.0
2020-10-31,70,-18.5,-15.25,70,-18.5
2020-11-01,0,-24.5,23.0,0,-24.5
2020-11-02,21,27.5,20.25,21,27.5
2020-11-03,55,16.0,-17.75,55,16.0
2020-11-04,53,-8.0,-21.25,53,-8.0
2020-11-05,39,-26.5,10.5,39,-26.5
2020-11-06,0,13.0,13.25,0,13.0
2020-11-07,65,0.0,-18.5,65,0.0
2020-11-08,0,-24.0,12.0,0,-24.0
2020-11-09,17,24.0,19.75,17,24.0
2020-11-10,48,15.5,-8.0,48,15.5
2020-11-11,48,8.0,-10.0,48,8.0
2020-11-12,64,-4.5,-20.0,64,-4.5
2020-11-13,39,-32.0,-1.75,39,-32.0
2020-11-14,0,-8.0,33.5,0,-8.0
2020-11-15,23,35.0,12.25,23,35.0
2020-11-16,70,16.5,-32.25,70,16.5
2020-11-17,56,-29.5,-16.0,56,-29.5
2020-11-18,11,-15.5,16.75,11,-15.5
2020-11-19,25,4.0,8.5,25,4.0
2020-11-20,19,1.5,-2.25,19,1.5
2020-11-21,28,-0.5,-3.25,28,-0.5
2020-11-22,18,-5.0,3.0,18,-5.0
2020-11-23,18,5.5,0.25,18,5.5
2020-11-24,29,-4.5,-6.75,29,-4.5
2020-11-25,9,-8.0,3.5,9,-8.0
2020-11-26,13,2.5,0.75,13,2.5
2020-11-27,14,-6.5,0.5,14,-6.5
2020-11-28,0,3.5,9.25,0,3.5
2020-11-29,21,12.0,-6.5,21,12.0
2020-11-30,24,-9.5,-12.0,24,-9.5
2020-12-01,2,-12.0,5.75,2,-12.0
2020-12-02,0,2.0,10.0,0,2.0
2020-12-03,6,8.0,-1.25,6,8.0
2020-12-04,16,-0.5,-8.0,16,-0.5
2020-12-05,5,-8.0,1.25,5,-8.0
2020-12-06,0,2.0,4.0,0,2.0
2020-12-07,9,0.0,-1.75,9,0.0
2020-12-08,0,-1.5,0.0,0,-1.5
2020-12-09,6,0.0,8.75,6,0.0
2020-12-10,0,16.0,6.25,0,16.0
2020-12-11,38,12.5,-14.75,38,12.5
2020-12-12,25,-13.5,-8.75,25,-13.5
2020-12-13,11,-5.0,10.0,11,-5.0
2020-12-14,15,6.5,2.75,15,6.5
2020-12-15,24,0.5,-6.5,24,0.5
2020-12-16,16,-6.5,-2.25,16,-6.5
2020-12-17,11,-4.0,0.5,11,-4.0
2020-12-18,8,-5.5,0.0,8,-5.5
2020-12-19,0,-4.0,2.75,0,-4.0
2020-12-20,0,0.0,4.0,0,0.0
