date, confirmed_daily_cases, first_order,second_order, confirmed_daily_cases_outlier_removed,first_order_outlier_removed,second_order_outlier_removed
2020-01-01,0,0.0,0.0,0,0.0
2020-01-02,0,0.0,0.0,0,0.0
2020-01-03,0,0.0,0.0,0,0.0
2020-01-04,0,0.0,0.0,0,0.0
2020-01-05,0,0.0,0.0,0,0.0
2020-01-06,0,0.0,0.0,0,0.0
2020-01-07,0,0.0,0.0,0,0.0
2020-01-08,0,0.0,0.0,0,0.0
2020-01-09,0,0.0,0.0,0,0.0
2020-01-10,0,0.0,0.0,0,0.0
2020-01-11,0,0.0,0.0,0,0.0
2020-01-12,0,0.0,0.0,0,0.0
2020-01-13,0,0.0,0.0,0,0.0
2020-01-14,0,0.0,0.0,0,0.0
2020-01-15,0,0.0,0.0,0,0.0
2020-01-16,0,0.0,0.0,0,0.0
2020-01-17,0,0.0,0.0,0,0.0
2020-01-18,0,0.0,0.0,0,0.0
2020-01-19,0,0.0,0.0,0,0.0
2020-01-20,0,0.0,0.0,0,0.0
2020-01-21,0,0.0,0.0,0,0.0
2020-01-22,0,0.0,0.0,0,0.0
2020-01-23,0,0.0,0.0,0,0.0
2020-01-24,0,0.0,0.0,0,0.0
2020-01-25,0,0.0,0.0,0,0.0
2020-01-26,0,0.0,0.0,0,0.0
2020-01-27,0,0.0,0.0,0,0.0
2020-01-28,0,0.0,0.0,0,0.0
2020-01-29,0,0.0,0.0,0,0.0
2020-01-30,0,0.0,0.0,0,0.0
2020-01-31,0,0.0,0.0,0,0.0
2020-02-01,0,0.0,0.0,0,0.0
2020-02-02,0,0.0,0.0,0,0.0
2020-02-03,0,0.0,0.0,0,0.0
2020-02-04,0,0.0,0.0,0,0.0
2020-02-05,0,0.0,0.0,0,0.0
2020-02-06,0,0.0,0.0,0,0.0
2020-02-07,0,0.0,0.0,0,0.0
2020-02-08,0,0.0,0.0,0,0.0
2020-02-09,0,0.0,0.0,0,0.0
2020-02-10,0,0.0,0.0,0,0.0
2020-02-11,0,0.0,0.0,0,0.0
2020-02-12,0,0.0,0.0,0,0.0
2020-02-13,0,0.0,0.0,0,0.0
2020-02-14,0,0.0,0.0,0,0.0
2020-02-15,0,0.0,0.0,0,0.0
2020-02-16,0,0.0,0.0,0,0.0
2020-02-17,0,0.0,0.0,0,0.0
2020-02-18,0,0.0,0.0,0,0.0
2020-02-19,0,0.0,0.0,0,0.0
2020-02-20,0,0.0,0.0,0,0.0
2020-02-21,0,0.0,0.0,0,0.0
2020-02-22,0,0.0,0.0,0,0.0
2020-02-23,0,0.0,0.0,0,0.0
2020-02-24,0,0.0,0.0,0,0.0
2020-02-25,0,0.0,0.0,0,0.0
2020-02-26,0,0.0,0.0,0,0.0
2020-02-27,0,0.0,0.0,0,0.0
2020-02-28,0,0.0,0.0,0,0.0
2020-02-29,0,0.0,0.0,0,0.0
2020-03-01,0,0.0,0.0,0,0.0
2020-03-02,0,0.0,0.0,0,0.0
2020-03-03,0,0.0,0.0,0,0.0
2020-03-04,0,0.0,0.0,0,0.0
2020-03-05,0,0.0,0.0,0,0.0
2020-03-06,0,0.0,0.0,0,0.0
2020-03-07,0,0.0,0.0,0,0.0
2020-03-08,0,0.0,0.0,0,0.0
2020-03-09,0,0.0,0.0,0,0.0
2020-03-10,0,0.0,0.0,0,0.0
2020-03-11,0,0.0,0.0,0,0.0
2020-03-12,0,0.0,0.0,0,0.0
2020-03-13,0,0.0,0.0,0,0.0
2020-03-14,0,0.0,0.0,0,0.0
2020-03-15,0,0.0,0.0,0,0.0
2020-03-16,0,0.0,0.0,0,0.0
2020-03-17,0,0.0,0.0,0,0.0
2020-03-18,0,0.0,0.0,0,0.0
2020-03-19,0,0.0,0.0,0,0.0
2020-03-20,0,0.0,0.0,0,0.0
2020-03-21,0,0.0,0.0,0,0.0
2020-03-22,0,0.0,0.0,0,0.0
2020-03-23,0,0.0,0.0,0,0.0
2020-03-24,0,0.0,0.0,0,0.0
2020-03-25,0,0.0,0.0,0,0.0
2020-03-26,0,0.0,0.0,0,0.0
2020-03-27,0,0.0,0.0,0,0.0
2020-03-28,0,0.0,0.0,0,0.0
2020-03-29,0,0.0,0.5,0,0.0
2020-03-30,0,1.0,0.0,0,1.0
2020-03-31,2,0.0,-0.75,2,0.0
2020-04-01,0,-0.5,0.0,0,-0.5
2020-04-02,1,0.0,0.0,1,0.0
2020-04-03,0,-0.5,0.0,0,-0.5
2020-04-04,0,0.0,0.25,0,0.0
2020-04-05,0,0.0,0.0,0,0.0
2020-04-06,0,0.0,0.0,0,0.0
2020-04-07,0,0.0,0.0,0,0.0
2020-04-08,0,0.0,0.0,0,0.0
2020-04-09,0,0.0,0.5,0,0.0
2020-04-10,0,1.0,0.0,0,1.0
2020-04-11,2,0.0,-1.0,2,0.0
2020-04-12,0,-1.0,0.0,0,-1.0
2020-04-13,0,0.0,0.5,0,0.0
2020-04-14,0,0.0,0.0,0,0.0
2020-04-15,0,0.0,0.0,0,0.0
2020-04-16,0,0.0,0.0,0,0.0
2020-04-17,0,0.0,0.0,0,0.0
2020-04-18,0,0.0,0.0,0,0.0
2020-04-19,0,0.0,0.0,0,0.0
2020-04-20,0,0.0,1.5,0,0.0
2020-04-21,0,3.0,0.0,0,3.0
2020-04-22,6,0.0,-3.0,6,0.0
2020-04-23,0,-3.0,0.0,0,-3.0
2020-04-24,0,0.0,1.5,0,0.0
2020-04-25,0,0.0,0.0,0,0.0
2020-04-26,0,0.0,0.0,0,0.0
2020-04-27,0,0.0,0.0,0,0.0
2020-04-28,0,0.0,0.0,0,0.0
2020-04-29,0,0.0,0.0,0,0.0
2020-04-30,0,0.0,1.0,0,0.0
2020-05-01,0,2.0,0.0,0,2.0
2020-05-02,4,0.0,-2.0,4,0.0
2020-05-03,0,-2.0,0.0,0,-2.0
2020-05-04,0,0.0,1.0,0,0.0
2020-05-05,0,0.0,0.0,0,0.0
2020-05-06,0,0.0,0.0,0,0.0
2020-05-07,0,0.0,0.0,0,0.0
2020-05-08,0,0.0,0.0,0,0.0
2020-05-09,0,0.0,0.0,0,0.0
2020-05-10,0,0.0,0.0,0,0.0
2020-05-11,0,0.0,0.0,0,0.0
2020-05-12,0,0.0,0.0,0,0.0
2020-05-13,0,0.0,0.0,0,0.0
2020-05-14,0,0.0,0.0,0,0.0
2020-05-15,0,0.0,2.0,0,0.0
2020-05-16,0,4.0,4.75,0,4.0
2020-05-17,8,9.5,-4.0,8,9.5
2020-05-18,19,-4.0,-9.5,19,-4.0
2020-05-19,0,-9.5,2.0,0,-9.5
2020-05-20,0,0.0,4.75,0,0.0
2020-05-21,0,0.0,0.0,0,0.0
2020-05-22,0,0.0,0.0,0,0.0
2020-05-23,0,0.0,0.0,0,0.0
2020-05-24,0,0.0,0.0,0,0.0
2020-05-25,0,0.0,0.0,0,0.0
2020-05-26,0,0.0,0.0,0,0.0
2020-05-27,0,0.0,0.0,0,0.0
2020-05-28,0,0.0,5.25,0,0.0
2020-05-29,0,10.5,0.0,0,10.5
2020-05-30,21,0.0,-10.5,21,0.0
2020-05-31,0,-10.5,0.0,0,-10.5
2020-06-01,0,0.0,5.25,0,0.0
2020-06-02,0,0.0,0.0,0,0.0
2020-06-03,0,0.0,0.0,0,0.0
2020-06-04,0,0.0,5.0,0,0.0
2020-06-05,0,10.0,0.0,0,10.0
2020-06-06,20,0.0,-10.0,20,0.0
2020-06-07,0,-10.0,0.0,0,-10.0
2020-06-08,0,0.0,5.0,0,0.0
2020-06-09,0,0.0,0.5,0,0.0
2020-06-10,0,1.0,0.0,0,1.0
2020-06-11,2,0.0,-1.0,2,0.0
2020-06-12,0,-1.0,0.0,0,-1.0
2020-06-13,0,0.0,0.5,0,0.0
2020-06-14,0,0.0,4.75,0,0.0
2020-06-15,0,9.5,0.0,0,9.5
2020-06-16,19,0.0,-9.5,19,0.0
2020-06-17,0,-9.5,0.0,0,-9.5
2020-06-18,0,0.0,4.75,0,0.0
2020-06-19,0,0.0,10.0,0,0.0
2020-06-20,0,20.0,0.0,0,20.0
2020-06-21,40,0.0,-20.0,40,0.0
2020-06-22,0,-20.0,0.0,0,-20.0
2020-06-23,0,0.0,10.0,0,0.0
2020-06-24,0,0.0,0.0,0,0.0
2020-06-25,0,0.0,6.5,0,0.0
2020-06-26,0,13.0,0.0,0,13.0
2020-06-27,26,0.0,-13.0,26,0.0
2020-06-28,0,-13.0,0.0,0,-13.0
2020-06-29,0,0.0,6.5,0,0.0
2020-06-30,0,0.0,0.0,0,0.0
2020-07-01,0,0.0,5.25,0,0.0
2020-07-02,0,10.5,0.0,0,10.5
2020-07-03,21,0.0,-10.5,21,0.0
2020-07-04,0,-10.5,0.0,0,-10.5
2020-07-05,0,0.0,5.25,0,0.0
2020-07-06,0,0.0,0.0,0,0.0
2020-07-07,0,0.0,0.0,0,0.0
2020-07-08,0,0.0,0.0,0,0.0
2020-07-09,0,0.0,0.0,0,0.0
2020-07-10,0,0.0,0.0,0,0.0
2020-07-11,0,0.0,19.5,0,0.0
2020-07-12,0,39.0,0.0,0,39.0
2020-07-13,78,0.0,-39.0,78,0.0
2020-07-14,0,-39.0,8.5,0,-39.0
2020-07-15,0,17.0,21.25,0,17.0
2020-07-16,34,3.5,-17.0,34,3.5
2020-07-17,7,-17.0,-3.5,7,-17.0
2020-07-18,0,-3.5,11.5,0,-3.5
2020-07-19,0,6.0,3.25,0,6.0
2020-07-20,12,3.0,-6.0,12,3.0
2020-07-21,6,-6.0,1.25,6,-6.0
2020-07-22,0,5.5,3.0,0,5.5
2020-07-23,17,0.0,-3.0,17,0.0
2020-07-24,0,-0.5,0.0,0,-0.5
2020-07-25,16,0.0,0.5,16,0.0
2020-07-26,0,0.5,0.0,0,0.5
2020-07-27,17,0.0,-2.25,17,0.0
2020-07-28,0,-4.0,0.0,0,-4.0
2020-07-29,9,0.0,-0.25,9,0.0
2020-07-30,0,-4.5,2.0,0,-4.5
2020-07-31,0,4.0,2.25,0,4.0
2020-08-01,8,0.0,-4.0,8,0.0
2020-08-02,0,-4.0,0.0,0,-4.0
2020-08-03,0,0.0,2.0,0,0.0
2020-08-04,0,0.0,1.25,0,0.0
2020-08-05,0,2.5,0.0,0,2.5
2020-08-06,5,0.0,-1.25,5,0.0
2020-08-07,0,0.0,0.75,0,0.0
2020-08-08,5,1.5,-1.25,5,1.5
2020-08-09,3,-2.5,-1.5,3,-2.5
2020-08-10,0,-1.5,1.5,0,-1.5
2020-08-11,0,0.5,1.0,0,0.5
2020-08-12,1,0.5,0.0,1,0.5
2020-08-13,1,0.5,-0.5,1,0.5
2020-08-14,2,-0.5,-0.5,2,-0.5
2020-08-15,0,-0.5,0.25,0,-0.5
2020-08-16,1,0.0,0.75,1,0.0
2020-08-17,0,1.0,1.5,0,1.0
2020-08-18,3,3.0,-1.25,3,3.0
2020-08-19,6,-1.5,-2.0,6,-1.5
2020-08-20,0,-1.0,1.5,0,-1.0
2020-08-21,4,1.5,-0.25,4,1.5
2020-08-22,3,-1.5,-1.5,3,-1.5
2020-08-23,1,-1.5,0.5,1,-1.5
2020-08-24,0,-0.5,0.75,0,-0.5
2020-08-25,0,0.0,0.5,0,0.0
2020-08-26,0,0.5,0.5,0,0.5
2020-08-27,1,1.0,2.5,1,1.0
2020-08-28,2,5.5,-1.0,2,5.5
2020-08-29,12,-1.0,-5.75,12,-1.0
2020-08-30,0,-6.0,0.5,0,-6.0
2020-08-31,0,0.0,3.75,0,0.0
2020-09-01,0,1.5,0.0,0,1.5
2020-09-02,3,0.0,-0.75,3,0.0
2020-09-03,0,0.0,2.25,0,0.0
2020-09-04,3,4.5,-0.25,3,4.5
2020-09-05,9,-0.5,-3.5,9,-0.5
2020-09-06,2,-2.5,-0.25,2,-2.5
2020-09-07,4,-1.0,0.25,4,-1.0
2020-09-08,0,-2.0,1.25,0,-2.0
2020-09-09,0,1.5,1.0,0,1.5
2020-09-10,3,0.0,-1.0,3,0.0
2020-09-11,0,-0.5,0.25,0,-0.5
2020-09-12,2,0.5,-0.25,2,0.5
2020-09-13,1,-1.0,-0.5,1,-1.0
2020-09-14,0,-0.5,0.5,0,-0.5
2020-09-15,0,0.0,0.5,0,0.0
2020-09-16,0,0.5,0.0,0,0.5
2020-09-17,1,0.0,-0.5,1,0.0
2020-09-18,0,-0.5,0.0,0,-0.5
2020-09-19,0,0.0,0.5,0,0.0
2020-09-20,0,0.5,0.0,0,0.5
2020-09-21,1,0.0,0.0,1,0.0
2020-09-22,0,0.5,0.25,0,0.5
2020-09-23,2,0.5,0.75,2,0.5
2020-09-24,1,2.0,0.0,1,2.0
2020-09-25,6,0.5,-2.5,6,0.5
2020-09-26,2,-3.0,3.5,2,-3.0
2020-09-27,0,7.5,2.5,0,7.5
2020-09-28,17,2.0,-7.5,17,2.0
2020-09-29,4,-7.5,-1.5,4,-7.5
2020-09-30,2,-1.0,4.0,2,-1.0
2020-10-01,2,0.5,0.0,2,0.5
2020-10-02,3,-1.0,-1.0,3,-1.0
2020-10-03,0,-1.5,0.75,0,-1.5
2020-10-04,0,0.5,0.75,0,0.5
2020-10-05,1,0.0,-0.25,1,0.0
2020-10-06,0,0.0,0.0,0,0.0
2020-10-07,1,0.0,-0.25,1,0.0
2020-10-08,0,-0.5,0.5,0,-0.5
2020-10-09,0,1.0,2.0,0,1.0
2020-10-10,2,3.5,-0.75,2,3.5
2020-10-11,7,-0.5,-2.5,7,-0.5
2020-10-12,1,-1.5,0.0,1,-1.5
2020-10-13,4,-0.5,-0.25,4,-0.5
2020-10-14,0,-2.0,0.75,0,-2.0
2020-10-15,0,1.0,2.25,0,1.0
2020-10-16,2,2.5,0.5,2,2.5
2020-10-17,5,2.0,-0.75,5,2.0
2020-10-18,6,1.0,-2.25,6,1.0
2020-10-19,7,-2.5,-2.25,7,-2.5
2020-10-20,1,-3.5,1.25,1,-3.5
2020-10-21,0,0.0,2.25,0,0.0
2020-10-22,1,1.0,0.25,1,1.0
2020-10-23,2,0.5,-0.5,2,0.5
2020-10-24,2,0.0,-0.75,2,0.0
2020-10-25,2,-1.0,-0.25,2,-1.0
2020-10-26,0,-0.5,0.75,0,-0.5
2020-10-27,1,0.5,0.25,1,0.5
2020-10-28,1,0.0,5.0,1,0.0
2020-10-29,1,10.5,0.5,1,10.5
2020-10-30,22,1.0,-9.75,22,1.0
2020-10-31,3,-9.0,-1.25,3,-9.0
2020-11-01,4,-1.5,5.5,4,-1.5
2020-11-02,0,2.0,3.0,0,2.0
2020-11-03,8,4.5,-3.0,8,4.5
2020-11-04,9,-4.0,-4.5,9,-4.0
2020-11-05,0,-4.5,3.5,0,-4.5
2020-11-06,0,3.0,2.25,0,3.0
2020-11-07,6,0.0,-2.5,6,0.0
2020-11-08,0,-2.0,0.25,0,-2.0
2020-11-09,2,0.5,1.75,2,0.5
2020-11-10,1,1.5,0.25,1,1.5
2020-11-11,5,1.0,-1.75,5,1.0
2020-11-12,3,-2.0,-0.5,3,-2.0
2020-11-13,1,0.0,1.0,1,0.0
2020-11-14,3,0.0,-0.25,3,0.0
2020-11-15,1,-0.5,0.0,1,-0.5
2020-11-16,2,0.0,2.25,2,0.0
2020-11-17,1,4.0,-0.25,1,4.0
2020-11-18,10,-0.5,-2.5,10,-0.5
2020-11-19,0,-1.0,2.0,0,-1.0
2020-11-20,8,3.5,0.0,8,3.5
2020-11-21,7,-1.0,-3.0,7,-1.0
2020-11-22,6,-2.5,1.25,6,-2.5
2020-11-23,2,1.5,0.75,2,1.5
2020-11-24,9,-1.0,-2.0,9,-1.0
2020-11-25,0,-2.5,1.5,0,-2.5
2020-11-26,4,2.0,0.25,4,2.0
2020-11-27,4,-2.0,-2.0,4,-2.0
2020-11-28,0,-2.0,2.75,0,-2.0
2020-11-29,0,3.5,1.25,0,3.5
2020-11-30,7,0.5,-3.5,7,0.5
2020-12-01,1,-3.5,0.25,1,-3.5
2020-12-02,0,1.0,1.75,0,1.0
2020-12-03,3,0.0,-0.75,3,0.0
2020-12-04,0,-0.5,0.0,0,-0.5
2020-12-05,2,0.0,0.75,2,0.0
2020-12-06,0,1.0,4.5,0,1.0
2020-12-07,4,9.0,-0.5,4,9.0
2020-12-08,18,0.0,-9.0,18,0.0
2020-12-09,4,-9.0,-0.25,4,-9.0
2020-12-10,0,-0.5,5.75,0,-0.5
2020-12-11,3,2.5,-0.25,3,2.5
2020-12-12,5,-1.0,-2.5,5,-1.0
2020-12-13,1,-2.5,1.75,1,-2.5
2020-12-14,0,2.5,2.75,0,2.5
2020-12-15,6,3.0,-0.25,6,3.0
2020-12-16,6,2.0,-3.0,6,2.0
2020-12-17,10,-3.0,-1.0,10,-3.0
2020-12-18,0,0.0,1.5,0,0.0
2020-12-19,10,0.0,-5.0,10,0.0
2020-12-20,0,-10.0,-10.0,0,-10.0
