date, confirmed_daily_cases, first_order,second_order, confirmed_daily_cases_outlier_removed,first_order_outlier_removed,second_order_outlier_removed
2020-01-01,0,0.0,0.0,0,0.0
2020-01-02,0,0.0,0.0,0,0.0
2020-01-03,0,0.0,0.0,0,0.0
2020-01-04,0,0.0,0.0,0,0.0
2020-01-05,0,0.0,0.0,0,0.0
2020-01-06,0,0.0,0.0,0,0.0
2020-01-07,0,0.0,0.0,0,0.0
2020-01-08,0,0.0,0.0,0,0.0
2020-01-09,0,0.0,0.0,0,0.0
2020-01-10,0,0.0,0.0,0,0.0
2020-01-11,0,0.0,0.0,0,0.0
2020-01-12,0,0.0,0.0,0,0.0
2020-01-13,0,0.0,0.0,0,0.0
2020-01-14,0,0.0,0.0,0,0.0
2020-01-15,0,0.0,0.0,0,0.0
2020-01-16,0,0.0,0.0,0,0.0
2020-01-17,0,0.0,0.0,0,0.0
2020-01-18,0,0.0,0.0,0,0.0
2020-01-19,0,0.0,0.0,0,0.0
2020-01-20,0,0.0,136.75,0,0.0
2020-01-21,0,273.5,23.0,0,273.5
2020-01-22,547,46.0,-204.25,547,46.0
2020-01-23,92,-135.0,74.75,92,-135.0
2020-01-24,277,195.5,164.0,277,195.5
2020-01-25,483,193.0,-18.25,483,193.0
2020-01-26,663,159.0,395.5,663,159.0
2020-01-27,801,984.0,-135.75,801,984.0
2020-01-28,2631,-112.5,-636.25,2631,-112.5
2020-01-29,576,-288.5,327.0,576,-288.5
2020-01-30,2054,541.5,152.75,2054,541.5
2020-01-31,1659,17.0,498.5,1659,17.0
2020-02-01,2088,1538.5,241.0,2088,1538.5
2020-02-02,4736,499.0,-956.5,4736,499.0
2020-02-03,3086,-374.5,-88.75,3086,-374.5
2020-02-04,3987,321.5,-23.5,3987,321.5
2020-02-05,3729,-421.5,-212.5,3729,-421.5
2020-02-06,3144,-103.5,100.5,3144,-103.5
2020-02-07,3522,-220.5,-75.75,3522,-220.5
2020-02-08,2703,-255.0,63.5,2703,-255.0
2020-02-09,3012,-93.5,-120.25,3012,-93.5
2020-02-10,2516,-495.5,-489.25,2516,-495.5
2020-02-11,2021,-1072.0,3525.75,2021,-1072.0
2020-02-12,372,6556.0,2058.0,372,6556.0
2020-02-13,15133,3044.0,-6547.5,3416,3044.0
2020-02-14,6460,-6539.0,-2612.25,6460,-6539.0
2020-02-15,2055,-2180.5,3235.25,2055,-2180.5
2020-02-16,2099,-68.5,1009.25,2099,-68.5
2020-02-17,1918,-162.0,-343.5,1918,-162.0
2020-02-18,1775,-755.5,-249.5,1775,-755.5
2020-02-19,407,-661.0,394.25,407,-661.0
2020-02-20,453,33.0,579.75,453,33.0
2020-02-21,473,498.5,-130.75,473,498.5
2020-02-22,1450,-228.5,-558.25,1450,-228.5
2020-02-23,16,-618.0,237.25,16,-618.0
2020-02-24,214,246.0,356.75,214,246.0
2020-02-25,508,95.5,-141.75,508,95.5
2020-02-26,405,-37.5,-67.5,405,-37.5
2020-02-27,433,-39.5,17.25,433,-39.5
2020-02-28,326,-3.0,82.0,326,-3.0
2020-02-29,427,124.5,-55.25,427,124.5
2020-03-01,575,-113.5,-174.75,575,-113.5
2020-03-02,200,-225.0,36.75,200,-225.0
2020-03-03,125,-40.0,119.0,125,-40.0
2020-03-04,120,13.0,27.75,120,13.0
2020-03-05,151,15.5,-24.5,151,15.5
2020-03-06,151,-36.0,-33.75,151,-36.0
2020-03-07,79,-52.0,7.25,79,-52.0
2020-03-08,47,-21.5,19.75,47,-21.5
2020-03-09,36,-12.5,8.75,36,-12.5
2020-03-10,22,-4.0,2.75,22,-4.0
2020-03-11,28,-7.0,-3.0,28,-7.0
2020-03-12,8,-10.0,8.0,8,-10.0
2020-03-13,8,9.0,8.25,8,9.0
2020-03-14,26,6.5,-6.25,26,6.5
2020-03-15,21,-3.5,-4.25,21,-3.5
2020-03-16,19,-2.0,2.5,19,-2.0
2020-03-17,17,1.5,3.0,17,1.5
2020-03-18,22,4.0,5.25,22,4.0
2020-03-19,25,12.0,1.0,25,12.0
2020-03-20,46,6.0,2.5,46,6.0
2020-03-21,37,17.0,-6.25,37,17.0
2020-03-22,80,-6.5,-13.0,80,-6.5
2020-03-23,24,-9.0,7.5,24,-9.0
2020-03-24,62,8.5,8.25,62,8.5
2020-03-25,41,7.5,-2.75,41,7.5
2020-03-26,77,3.0,-9.0,77,3.0
2020-03-27,47,-10.5,-2.5,47,-10.5
2020-03-28,56,-2.0,-0.25,56,-2.0
2020-03-29,43,-11.0,1.75,43,-11.0
2020-03-30,34,1.5,4.75,34,1.5
2020-03-31,46,-1.5,-3.75,46,-1.5
2020-04-01,31,-6.0,1.5,31,-6.0
2020-04-02,34,1.5,-1.75,34,1.5
2020-04-03,34,-9.5,-1.75,34,-9.5
2020-04-04,15,-2.0,10.75,15,-2.0
2020-04-05,30,12.0,1.5,30,12.0
2020-04-06,39,1.0,0.5,39,1.0
2020-04-07,32,13.0,6.75,32,13.0
2020-04-08,65,14.5,-12.25,65,14.5
2020-04-09,61,-11.5,-7.0,61,-11.5
2020-04-10,42,0.5,24.25,42,0.5
2020-04-11,62,37.0,2.75,62,37.0
2020-04-12,116,6.0,-25.0,116,6.0
2020-04-13,74,-13.0,-10.25,74,-13.0
2020-04-14,90,-14.5,-4.25,90,-14.5
2020-04-15,45,-21.5,84.25,45,-21.5
2020-04-16,47,154.0,5.0,47,154.0
2020-04-17,353,-11.5,-161.0,35,-11.5
2020-04-18,24,-168.0,2.75,24,-168.0
2020-04-19,17,-6.0,87.75,17,-6.0
2020-04-20,12,7.5,2.75,12,7.5
2020-04-21,32,-0.5,-8.25,32,-0.5
2020-04-22,11,-9.0,1.25,11,-9.0
2020-04-23,14,2.0,3.0,14,2.0
2020-04-24,15,-3.0,-4.0,15,-3.0
2020-04-25,8,-6.0,1.0,8,-6.0
2020-04-26,3,-1.0,7.75,3,-1.0
2020-04-27,6,9.5,0.0,6,9.5
2020-04-28,22,-1.0,-7.25,22,-1.0
2020-04-29,4,-5.0,-0.25,4,-5.0
2020-04-30,12,-1.5,-0.5,12,-1.5
2020-05-01,1,-6.0,1.75,1,-6.0
2020-05-02,0,2.0,3.25,0,2.0
2020-05-03,5,0.5,-1.75,5,0.5
2020-05-04,1,-1.5,0.0,1,-1.5
2020-05-05,2,0.5,0.5,2,0.5
2020-05-06,2,-0.5,-0.5,2,-0.5
2020-05-07,1,-0.5,3.5,1,-0.5
2020-05-08,1,6.5,4.25,1,6.5
2020-05-09,14,8.0,-6.5,14,8.0
2020-05-10,17,-6.5,-6.5,17,-6.5
2020-05-11,1,-5.0,3.75,1,-5.0
2020-05-12,7,1.0,1.75,7,1.0
2020-05-13,3,-1.5,0.75,3,-1.5
2020-05-14,4,2.5,1.25,4,2.5
2020-05-15,8,1.0,-1.5,8,1.0
2020-05-16,6,-0.5,0.25,6,-0.5
2020-05-17,7,1.5,-1.5,7,1.5
2020-05-18,9,-3.5,-3.0,9,-3.5
2020-05-19,0,-4.5,1.75,0,-4.5
2020-05-20,0,0.0,4.25,0,0.0
2020-05-21,0,4.0,0.75,0,4.0
2020-05-22,8,1.5,-1.25,8,1.5
2020-05-23,3,1.5,0.25,3,1.5
2020-05-24,11,2.0,-3.25,11,2.0
2020-05-25,7,-5.0,-2.25,7,-5.0
2020-05-26,1,-2.5,2.25,1,-2.5
2020-05-27,2,-0.5,1.75,2,-0.5
2020-05-28,0,1.0,0.75,0,1.0
2020-05-29,4,1.0,2.5,4,1.0
2020-05-30,2,6.0,0.25,2,6.0
2020-05-31,16,1.5,-6.75,16,1.5
2020-06-01,5,-7.5,-2.0,5,-7.5
2020-06-02,1,-2.5,4.75,1,-2.5
2020-06-03,0,2.0,2.0,0,2.0
2020-06-04,5,1.5,-0.75,5,1.5
2020-06-05,3,0.5,-0.5,3,0.5
2020-06-06,6,0.5,-1.0,6,0.5
2020-06-07,4,-1.5,-0.5,4,-1.5
2020-06-08,3,-0.5,2.75,3,-0.5
2020-06-09,3,4.0,1.25,3,4.0
2020-06-10,11,2.0,-2.0,11,2.0
2020-06-11,7,0.0,11.5,7,0.0
2020-06-12,11,25.0,9.5,11,25.0
2020-06-13,57,19.0,-16.75,57,19.0
2020-06-14,49,-8.5,-10.75,49,-8.5
2020-06-15,40,-2.5,1.25,40,-2.5
2020-06-16,44,-6.0,-1.75,44,-6.0
2020-06-17,28,-6.0,-4.0,28,-6.0
2020-06-18,32,-14.0,8.75,32,-14.0
2020-06-19,0,11.5,11.0,0,11.5
2020-06-20,55,8.0,-14.0,55,8.0
2020-06-21,16,-16.5,-4.75,16,-16.5
2020-06-22,22,-1.5,7.25,22,-1.5
2020-06-23,13,-2.0,0.75,13,-2.0
2020-06-24,18,0.0,1.75,18,0.0
2020-06-25,13,1.5,1.0,13,1.5
2020-06-26,21,2.0,-3.0,21,2.0
2020-06-27,17,-4.5,-0.5,17,-4.5
2020-06-28,12,1.0,0.0,12,1.0
2020-06-29,19,-4.5,-4.5,19,-4.5
2020-06-30,3,-8.0,2.75,3,-8.0
2020-07-01,3,1.0,4.0,3,1.0
2020-07-02,5,0.0,0.25,5,0.0
2020-07-03,3,1.5,0.25,3,1.5
2020-07-04,8,0.5,-2.5,8,0.5
2020-07-05,4,-3.5,2.25,4,-3.5
2020-07-06,1,5.0,3.75,1,5.0
2020-07-07,14,4.0,-6.0,14,4.0
2020-07-08,9,-7.0,-4.25,9,-7.0
2020-07-09,0,-4.5,6.75,0,-4.5
2020-07-10,0,6.5,4.25,0,6.5
2020-07-11,13,4.0,-6.5,13,4.0
2020-07-12,8,-6.5,-1.75,8,-6.5
2020-07-13,0,0.5,3.5,0,0.5
2020-07-14,9,0.5,1.0,9,0.5
2020-07-15,1,2.5,3.75,1,2.5
2020-07-16,14,8.0,-0.75,14,8.0
2020-07-17,17,1.0,-3.0,17,1.0
2020-07-18,16,2.0,-1.75,16,2.0
2020-07-19,21,-2.5,-3.0,21,-2.5
2020-07-20,11,-4.0,4.75,11,-4.0
2020-07-21,13,7.0,4.0,13,7.0
2020-07-22,25,4.0,-1.25,25,4.0
2020-07-23,21,4.5,4.25,21,4.5
2020-07-24,34,12.5,4.5,34,12.5
2020-07-25,46,13.5,-0.75,46,13.5
2020-07-26,61,11.0,3.25,61,11.0
2020-07-27,68,20.0,3.75,68,20.0
2020-07-28,101,18.5,-3.5,101,18.5
2020-07-29,105,13.0,-24.25,105,13.0
2020-07-30,127,-30.0,-26.25,127,-30.0
2020-07-31,45,-39.5,14.5,45,-39.5
2020-08-01,48,-1.0,16.75,48,-1.0
2020-08-02,43,-6.0,-3.5,43,-6.0
2020-08-03,36,-8.0,3.25,36,-8.0
2020-08-04,27,0.5,6.5,27,0.5
2020-08-05,37,5.0,-1.75,37,5.0
2020-08-06,37,-3.0,-6.0,37,-3.0
2020-08-07,31,-7.0,6.0,31,-7.0
2020-08-08,23,9.0,8.75,23,9.0
2020-08-09,49,10.5,-12.0,49,10.5
2020-08-10,44,-15.0,-10.0,44,-15.0
2020-08-11,19,-9.5,10.25,19,-9.5
2020-08-12,25,5.5,4.0,25,5.5
2020-08-13,30,-1.5,-5.5,30,-1.5
2020-08-14,22,-5.5,0.75,22,-5.5
2020-08-15,19,0.0,3.5,19,0.0
2020-08-16,22,1.5,-1.25,22,1.5
2020-08-17,22,-2.5,-4.5,22,-2.5
2020-08-18,17,-7.5,2.5,17,-7.5
2020-08-19,7,2.5,7.5,7,2.5
2020-08-20,22,7.5,-3.75,22,7.5
2020-08-21,22,-5.0,-5.25,22,-5.0
2020-08-22,12,-3.0,3.0,12,-3.0
2020-08-23,16,1.0,1.25,16,1.0
2020-08-24,14,-0.5,-2.0,14,-0.5
2020-08-25,15,-3.0,-1.25,15,-3.0
2020-08-26,8,-3.0,1.75,8,-3.0
2020-08-27,9,0.5,1.5,9,0.5
2020-08-28,9,0.0,1.75,9,0.0
2020-08-29,9,4.0,0.25,9,4.0
2020-08-30,17,0.5,-4.5,17,0.5
2020-08-31,10,-5.0,0.25,10,-5.0
2020-09-01,7,1.0,7.0,7,1.0
2020-09-02,12,9.0,-1.0,12,9.0
2020-09-03,25,-1.0,-8.25,25,-1.0
2020-09-04,10,-7.5,1.0,10,-7.5
2020-09-05,10,1.0,3.5,10,1.0
2020-09-06,12,-0.5,-2.75,12,-0.5
2020-09-07,9,-4.5,-0.25,9,-4.5
2020-09-08,3,-1.0,5.25,3,-1.0
2020-09-09,7,6.0,0.25,7,6.0
2020-09-10,15,-0.5,-4.25,15,-0.5
2020-09-11,6,-2.5,1.25,6,-2.5
2020-09-12,10,2.0,0.75,10,2.0
2020-09-13,10,-1.0,-0.5,10,-1.0
2020-09-14,8,1.0,0.75,8,1.0
2020-09-15,12,0.5,4.5,12,0.5
2020-09-16,9,10.0,1.0,9,10.0
2020-09-17,32,2.5,-10.5,32,2.5
2020-09-18,14,-11.0,-1.75,14,-11.0
2020-09-19,10,-1.0,4.5,10,-1.0
2020-09-20,12,-2.0,0.0,12,-2.0
2020-09-21,6,-1.0,1.25,6,-1.0
2020-09-22,10,0.5,0.0,10,0.5
2020-09-23,7,-1.0,1.75,7,-1.0
2020-09-24,8,4.0,2.0,8,4.0
2020-09-25,15,3.0,-0.5,15,3.0
2020-09-26,14,3.0,-2.0,14,3.0
2020-09-27,21,-1.0,-2.0,21,-1.0
2020-09-28,12,-1.0,-0.25,12,-1.0
2020-09-29,19,-1.5,-1.25,19,-1.5
2020-09-30,9,-3.5,1.0,9,-3.5
2020-10-01,12,0.5,2.75,12,0.5
2020-10-02,10,2.0,2.25,10,2.0
2020-10-03,16,5.0,-2.0,16,5.0
2020-10-04,20,-2.0,-5.75,20,-2.0
2020-10-05,12,-6.5,0.25,12,-6.5
2020-10-06,7,-1.5,7.25,7,-1.5
2020-10-07,9,8.0,2.25,9,8.0
2020-10-08,23,3.0,-4.5,23,3.0
2020-10-09,15,-1.0,1.5,15,-1.0
2020-10-10,21,6.0,-3.0,21,6.0
2020-10-11,27,-7.0,-4.75,27,-7.0
2020-10-12,7,-3.5,4.5,7,-3.5
2020-10-13,20,2.0,2.75,20,2.0
2020-10-14,11,2.0,-0.5,11,2.0
2020-10-15,24,1.0,-3.75,24,1.0
2020-10-16,13,-5.5,-0.5,13,-5.5
2020-10-17,13,0.0,4.25,13,0.0
2020-10-18,13,3.0,-0.5,13,3.0
2020-10-19,19,-1.0,-2.75,19,-1.0
2020-10-20,11,-2.5,2.25,11,-2.5
2020-10-21,14,3.5,5.5,14,3.5
2020-10-22,18,8.5,-2.5,18,8.5
2020-10-23,31,-1.5,-7.75,31,-1.5
2020-10-24,15,-7.0,1.0,15,-7.0
2020-10-25,17,0.5,9.75,17,0.5
2020-10-26,16,12.5,7.5,16,12.5
2020-10-27,42,15.5,-10.5,42,15.5
2020-10-28,47,-8.5,-11.25,47,-8.5
2020-10-29,25,-7.0,4.0,25,-7.0
2020-10-30,33,-0.5,1.25,33,-0.5
2020-10-31,24,-4.5,6.5,24,-4.5
2020-11-01,24,12.5,0.5,24,12.5
2020-11-02,49,-3.5,-11.5,49,-3.5
2020-11-03,17,-10.5,6.5,17,-10.5
2020-11-04,28,9.5,6.5,28,9.5
2020-11-05,36,2.5,-6.75,36,2.5
2020-11-06,33,-4.0,-1.25,33,-4.0
2020-11-07,28,0.0,0.5,28,0.0
2020-11-08,33,-3.0,-4.0,33,-3.0
2020-11-09,22,-8.0,-0.25,22,-8.0
2020-11-10,17,-3.5,1.75,17,-3.5
2020-11-11,15,-4.5,2.5,15,-4.5
2020-11-12,8,1.5,3.5,8,1.5
2020-11-13,18,2.5,-3.25,18,2.5
2020-11-14,13,-5.0,-1.0,13,-5.0
2020-11-15,8,0.5,2.75,8,0.5
2020-11-16,14,0.5,-0.75,14,0.5
2020-11-17,9,-1.0,1.75,9,-1.0
2020-11-18,12,4.0,1.5,12,4.0
2020-11-19,17,2.0,-2.0,17,2.0
2020-11-20,16,0.0,-2.25,16,0.0
2020-11-21,17,-2.5,1.25,17,-2.5
2020-11-22,11,2.5,-0.25,11,2.5
2020-11-23,22,-3.0,-1.5,22,-3.0
2020-11-24,5,-0.5,1.5,5,-0.5
2020-11-25,21,0.0,-3.5,21,0.0
2020-11-26,5,-7.5,1.5,5,-7.5
2020-11-27,6,3.0,6.75,6,3.0
2020-11-28,11,6.0,-1.25,11,6.0
2020-11-29,18,0.5,-5.25,18,0.5
2020-11-30,12,-4.5,1.0,12,-4.5
2020-12-01,9,2.5,4.5,9,2.5
2020-12-02,17,4.5,-1.75,17,4.5
2020-12-03,18,-1.0,-2.25,18,-1.0
2020-12-04,15,0.0,0.5,15,0.0
2020-12-05,18,0.0,-0.75,18,0.0
2020-12-06,15,-1.5,-0.75,15,-1.5
2020-12-07,15,-1.5,0.0,15,-1.5
2020-12-08,12,-1.5,1.5,12,-1.5
2020-12-09,12,1.5,1.0,12,1.5
2020-12-10,15,0.5,1.5,15,0.5
2020-12-11,13,4.5,0.5,13,4.5
2020-12-12,24,1.5,-4.0,24,1.5
2020-12-13,16,-3.5,-1.75,16,-3.5
2020-12-14,17,-2.0,-0.75,17,-2.0
2020-12-15,12,-5.0,1.0,12,-5.0
2020-12-16,7,0.0,5.0,7,0.0
2020-12-17,12,5.0,2.75,12,5.0
2020-12-18,17,5.5,-6.75,17,5.5
2020-12-19,23,-8.5,-14.25,23,-8.5
2020-12-20,0,-23.0,-14.5,0,-23.0
