date, confirmed_daily_cases, first_order,second_order, confirmed_daily_cases_outlier_removed,first_order_outlier_removed,second_order_outlier_removed
2020-01-01,0,0.0,0.0,0,0.0
2020-01-02,0,0.0,0.0,0,0.0
2020-01-03,0,0.0,0.0,0,0.0
2020-01-04,0,0.0,0.0,0,0.0
2020-01-05,0,0.0,0.0,0,0.0
2020-01-06,0,0.0,0.0,0,0.0
2020-01-07,0,0.0,0.0,0,0.0
2020-01-08,0,0.0,0.0,0,0.0
2020-01-09,0,0.0,0.0,0,0.0
2020-01-10,0,0.0,0.0,0,0.0
2020-01-11,0,0.0,0.0,0,0.0
2020-01-12,0,0.0,0.0,0,0.0
2020-01-13,0,0.0,0.0,0,0.0
2020-01-14,0,0.0,0.0,0,0.0
2020-01-15,0,0.0,0.0,0,0.0
2020-01-16,0,0.0,0.0,0,0.0
2020-01-17,0,0.0,0.0,0,0.0
2020-01-18,0,0.0,0.0,0,0.0
2020-01-19,0,0.0,0.0,0,0.0
2020-01-20,0,0.0,0.0,0,0.0
2020-01-21,0,0.0,0.0,0,0.0
2020-01-22,0,0.0,0.0,0,0.0
2020-01-23,0,0.0,0.0,0,0.0
2020-01-24,0,0.0,0.0,0,0.0
2020-01-25,0,0.0,0.0,0,0.0
2020-01-26,0,0.0,0.0,0,0.0
2020-01-27,0,0.0,0.0,0,0.0
2020-01-28,0,0.0,0.0,0,0.0
2020-01-29,0,0.0,0.0,0,0.0
2020-01-30,0,0.0,0.0,0,0.0
2020-01-31,0,0.0,0.0,0,0.0
2020-02-01,0,0.0,0.0,0,0.0
2020-02-02,0,0.0,0.0,0,0.0
2020-02-03,0,0.0,0.0,0,0.0
2020-02-04,0,0.0,0.0,0,0.0
2020-02-05,0,0.0,0.0,0,0.0
2020-02-06,0,0.0,0.0,0,0.0
2020-02-07,0,0.0,0.0,0,0.0
2020-02-08,0,0.0,0.0,0,0.0
2020-02-09,0,0.0,0.0,0,0.0
2020-02-10,0,0.0,0.0,0,0.0
2020-02-11,0,0.0,0.0,0,0.0
2020-02-12,0,0.0,0.0,0,0.0
2020-02-13,0,0.0,0.0,0,0.0
2020-02-14,0,0.0,0.0,0,0.0
2020-02-15,0,0.0,0.0,0,0.0
2020-02-16,0,0.0,0.0,0,0.0
2020-02-17,0,0.0,0.0,0,0.0
2020-02-18,0,0.0,0.0,0,0.0
2020-02-19,0,0.0,0.0,0,0.0
2020-02-20,0,0.0,0.0,0,0.0
2020-02-21,0,0.0,0.0,0,0.0
2020-02-22,0,0.0,0.0,0,0.0
2020-02-23,0,0.0,0.25,0,0.0
2020-02-24,0,0.5,0.5,0,0.5
2020-02-25,1,1.0,-0.5,1,1.0
2020-02-26,2,-0.5,-0.5,2,-0.5
2020-02-27,0,0.0,0.5,0,0.0
2020-02-28,2,0.5,-0.25,2,0.5
2020-02-29,1,-0.5,-0.5,1,-0.5
2020-03-01,1,-0.5,0.5,1,-0.5
2020-03-02,0,0.5,0.5,0,0.5
2020-03-03,2,0.5,-0.75,2,0.5
2020-03-04,1,-1.0,-0.25,1,-1.0
2020-03-05,0,0.0,0.75,0,0.0
2020-03-06,1,0.5,-0.25,1,0.5
2020-03-07,1,-0.5,-0.5,1,-0.5
2020-03-08,0,-0.5,0.75,0,-0.5
2020-03-09,0,1.0,1.5,0,1.0
2020-03-10,2,2.5,-1.0,2,2.5
2020-03-11,5,-1.0,0.75,5,-1.0
2020-03-12,0,4.0,2.0,0,4.0
2020-03-13,13,3.0,-2.5,13,3.0
2020-03-14,6,-1.0,-1.0,6,-1.0
2020-03-15,11,1.0,-0.25,11,1.0
2020-03-16,8,-1.5,1.5,8,-1.5
2020-03-17,8,4.0,4.75,8,4.0
2020-03-18,16,8.0,-0.25,16,8.0
2020-03-19,24,3.5,9.5,24,3.5
2020-03-20,23,27.0,4.5,23,27.0
2020-03-21,78,12.5,-17.75,78,12.5
2020-03-22,48,-8.5,-1.5,48,-8.5
2020-03-23,61,9.5,4.0,61,9.5
2020-03-24,67,-0.5,-8.25,67,-0.5
2020-03-25,60,-7.0,8.0,60,-7.0
2020-03-26,53,15.5,8.0,53,15.5
2020-03-27,91,9.0,-16.5,91,9.0
2020-03-28,71,-17.5,-3.0,71,-17.5
2020-03-29,56,3.0,14.0,56,3.0
2020-03-30,77,10.5,3.25,77,10.5
2020-03-31,77,9.5,-12.5,77,9.5
2020-04-01,96,-14.5,-11.75,96,-14.5
2020-04-02,48,-14.0,7.0,48,-14.0
2020-04-03,68,-0.5,4.0,68,-0.5
2020-04-04,47,-6.0,-1.5,47,-6.0
2020-04-05,56,-3.5,4.0,56,-3.5
2020-04-06,40,2.0,7.0,40,2.0
2020-04-07,60,10.5,0.0,60,10.5
2020-04-08,61,2.0,1.5,61,2.0
2020-04-09,64,13.5,-7.25,64,13.5
2020-04-10,88,-12.5,-12.25,88,-12.5
2020-04-11,39,-11.0,9.0,39,-11.0
2020-04-12,66,5.5,2.5,66,5.5
2020-04-13,50,-6.0,-6.0,50,-6.0
2020-04-14,54,-6.5,2.0,54,-6.5
2020-04-15,37,-2.0,-0.25,37,-2.0
2020-04-16,50,-7.0,-7.0,50,-7.0
2020-04-17,23,-16.0,7.5,23,-16.0
2020-04-18,18,8.0,6.0,18,8.0
2020-04-19,39,-4.0,-7.0,39,-4.0
2020-04-20,10,-6.0,10.0,10,-6.0
2020-04-21,27,16.0,4.0,27,16.0
2020-04-22,42,2.0,-11.5,42,2.0
2020-04-23,31,-7.0,-7.0,31,-7.0
2020-04-24,28,-12.0,0.0,28,-12.0
2020-04-25,7,-7.0,6.5,7,-7.0
2020-04-26,14,1.0,2.0,14,1.0
2020-04-27,9,-3.0,1.0,9,-3.0
2020-04-28,8,3.0,3.0,8,3.0
2020-04-29,15,3.0,-3.0,15,3.0
2020-04-30,14,-3.0,-4.25,14,-3.0
2020-05-01,9,-5.5,1.25,9,-5.5
2020-05-02,3,-0.5,3.25,3,-0.5
2020-05-03,8,1.0,1.0,8,1.0
2020-05-04,5,1.5,0.0,5,1.5
2020-05-05,11,1.0,-2.0,11,1.0
2020-05-06,7,-2.5,6.75,7,-2.5
2020-05-07,6,14.5,3.5,6,14.5
2020-05-08,36,4.5,-13.5,36,4.5
2020-05-09,15,-12.5,-3.75,15,-12.5
2020-05-10,11,-3.0,6.25,11,-3.0
2020-05-11,9,0.0,0.75,9,0.0
2020-05-12,11,-1.5,-0.75,11,-1.5
2020-05-13,6,-1.5,-0.5,6,-1.5
2020-05-14,8,-2.5,-0.75,8,-2.5
2020-05-15,1,-3.0,1.5,1,-3.0
2020-05-16,2,0.5,1.5,2,0.5
2020-05-17,2,0.0,0.25,2,0.0
2020-05-18,2,1.0,0.0,2,1.0
2020-05-19,4,0.0,-0.75,4,0.0
2020-05-20,2,-0.5,1.0,2,-0.5
2020-05-21,3,2.0,-0.5,3,2.0
2020-05-22,6,-1.5,-2.25,6,-1.5
2020-05-23,0,-2.5,0.75,0,-2.5
2020-05-24,1,0.0,1.0,1,0.0
2020-05-25,0,-0.5,0.0,0,-0.5
2020-05-26,0,0.0,0.5,0,0.0
2020-05-27,0,0.5,0.0,0,0.5
2020-05-28,1,0.0,-0.25,1,0.0
2020-05-29,0,0.0,0.0,0,0.0
2020-05-30,1,0.0,-0.25,1,0.0
2020-05-31,0,-0.5,0.0,0,-0.5
2020-06-01,0,0.0,0.25,0,0.0
2020-06-02,0,0.0,0.25,0,0.0
2020-06-03,0,0.5,0.0,0,0.5
2020-06-04,1,0.0,-0.5,1,0.0
2020-06-05,0,-0.5,0.0,0,-0.5
2020-06-06,0,0.0,0.25,0,0.0
2020-06-07,0,0.0,0.0,0,0.0
2020-06-08,0,0.0,0.5,0,0.0
2020-06-09,0,1.0,0.0,0,1.0
2020-06-10,2,0.0,-1.0,2,0.0
2020-06-11,0,-1.0,0.5,0,-1.0
2020-06-12,0,1.0,0.75,0,1.0
2020-06-13,2,0.5,-0.5,2,0.5
2020-06-14,1,0.0,-0.25,1,0.0
2020-06-15,2,0.0,0.25,2,0.0
2020-06-16,1,0.5,2.5,1,0.5
2020-06-17,3,5.0,1.75,3,5.0
2020-06-18,11,4.0,-0.5,11,4.0
2020-06-19,11,4.0,-0.25,11,4.0
2020-06-20,19,3.5,-2.0,19,3.5
2020-06-21,18,0.0,1.25,18,0.0
2020-06-22,19,6.0,0.75,19,6.0
2020-06-23,30,1.5,13.25,30,1.5
2020-06-24,22,32.5,7.75,22,32.5
2020-06-25,95,17.0,-18.75,95,17.0
2020-06-26,56,-5.0,-5.75,56,-5.0
2020-06-27,85,5.5,-10.25,85,5.5
2020-06-28,67,-25.5,-6.5,67,-25.5
2020-06-29,34,-7.5,17.75,34,-7.5
2020-06-30,52,10.0,11.0,52,10.0
2020-07-01,54,14.5,5.5,54,14.5
2020-07-02,81,21.0,-6.0,81,21.0
2020-07-03,96,2.5,-20.25,96,2.5
2020-07-04,86,-19.5,-5.5,86,-19.5
2020-07-05,57,-8.5,8.5,57,-8.5
2020-07-06,69,-2.5,0.25,69,-2.5
2020-07-07,52,-8.0,11.0,52,-8.0
2020-07-08,53,19.5,19.75,53,19.5
2020-07-09,91,31.5,2.5,91,31.5
2020-07-10,116,24.5,-32.25,116,24.5
2020-07-11,140,-33.0,-34.0,140,-33.0
2020-07-12,50,-43.5,17.0,50,-43.5
2020-07-13,53,1.0,40.0,53,1.0
2020-07-14,52,36.5,8.0,52,36.5
2020-07-15,126,17.0,-25.25,126,17.0
2020-07-16,86,-14.0,-1.0,86,-14.0
2020-07-17,98,15.0,5.5,98,15.0
2020-07-18,116,-3.0,-30.25,116,-3.0
2020-07-19,92,-45.5,-8.5,92,-45.5
2020-07-20,25,-20.0,43.5,25,-20.0
2020-07-21,52,41.5,23.0,52,41.5
2020-07-22,108,26.0,-27.5,108,26.0
2020-07-23,104,-13.5,-19.75,104,-13.5
2020-07-24,81,-13.5,2.75,81,-13.5
2020-07-25,77,-8.0,-6.5,77,-8.0
2020-07-26,65,-26.5,-1.75,65,-26.5
2020-07-27,24,-11.5,24.75,24,-11.5
2020-07-28,42,23.0,14.75,42,23.0
2020-07-29,70,18.0,-12.0,70,18.0
2020-07-30,78,-1.0,-7.25,78,-1.0
2020-07-31,68,3.5,-7.5,68,3.5
2020-08-01,85,-16.0,-14.5,85,-16.0
2020-08-02,36,-25.5,5.0,36,-25.5
2020-08-03,34,-6.0,18.75,34,-6.0
2020-08-04,24,12.0,4.0,24,12.0
2020-08-05,58,2.0,-5.0,58,2.0
2020-08-06,28,2.0,11.25,28,2.0
2020-08-07,62,24.5,-1.25,62,24.5
2020-08-08,77,-0.5,-20.25,77,-0.5
2020-08-09,61,-16.0,7.75,61,-16.0
2020-08-10,45,15.0,29.25,45,15.0
2020-08-11,91,42.5,14.75,91,42.5
2020-08-12,130,44.5,-1.75,130,44.5
2020-08-13,180,39.0,-26.75,180,39.0
2020-08-14,208,-9.0,-33.75,208,-9.0
2020-08-15,162,-28.5,-14.75,162,-28.5
2020-08-16,151,-38.5,26.25,151,-38.5
2020-08-17,85,24.0,52.75,85,24.0
2020-08-18,199,67.0,2.0,199,67.0
2020-08-19,219,28.0,-22.0,219,28.0
2020-08-20,255,23.0,-1.25,255,23.0
2020-08-21,265,25.5,-9.0,265,25.5
2020-08-22,306,5.0,-55.25,306,5.0
2020-08-23,275,-85.0,-16.5,275,-85.0
2020-08-24,136,-28.0,98.0,136,-28.0
2020-08-25,219,111.0,35.25,219,111.0
2020-08-26,358,42.5,-55.75,358,42.5
2020-08-27,304,-0.5,-19.25,304,-0.5
2020-08-28,357,4.0,-23.5,357,4.0
2020-08-29,312,-47.5,-43.5,312,-47.5
2020-08-30,262,-83.0,-5.5,262,-83.0
2020-08-31,146,-58.5,82.75,146,-58.5
2020-09-01,145,82.5,85.25,145,82.5
2020-09-02,311,112.0,-35.5,311,112.0
2020-09-03,369,11.5,-70.5,369,11.5
2020-09-04,334,-29.0,-33.0,334,-29.0
2020-09-05,311,-54.5,-34.0,311,-54.5
2020-09-06,225,-97.0,22.0,225,-97.0
2020-09-07,117,-10.5,104.5,117,-10.5
2020-09-08,204,112.0,27.0,204,112.0
2020-09-09,341,43.5,-93.75,341,43.5
2020-09-10,291,-75.5,-29.25,291,-75.5
2020-09-11,190,-15.0,31.5,190,-15.0
2020-09-12,261,-12.5,-41.5,261,-12.5
2020-09-13,165,-98.0,2.75,165,-98.0
2020-09-14,65,-7.0,102.75,65,-7.0
2020-09-15,151,107.5,28.25,151,107.5
2020-09-16,280,49.5,-65.25,280,49.5
2020-09-17,250,-23.0,-34.25,250,-23.0
2020-09-18,234,-19.0,2.25,234,-19.0
2020-09-19,212,-18.5,-26.0,212,-18.5
2020-09-20,197,-71.0,-4.0,197,-71.0
2020-09-21,70,-26.5,69.0,70,-26.5
2020-09-22,144,67.0,35.25,144,67.0
2020-09-23,204,44.0,-28.75,204,44.0
2020-09-24,232,9.5,-27.0,232,9.5
2020-09-25,223,-10.0,-13.0,223,-10.0
2020-09-26,212,-16.5,-36.0,212,-16.5
2020-09-27,190,-82.0,-5.5,190,-82.0
2020-09-28,48,-27.5,82.25,48,-27.5
2020-09-29,135,82.5,38.5,135,82.5
2020-09-30,213,49.5,-11.25,213,49.5
2020-10-01,234,60.0,-23.0,234,60.0
2020-10-02,333,3.5,-48.75,333,3.5
2020-10-03,241,-37.5,-27.5,241,-37.5
2020-10-04,258,-51.5,26.0,258,-51.5
2020-10-05,138,14.5,82.0,138,14.5
2020-10-06,287,112.5,56.5,287,112.5
2020-10-07,363,127.5,-32.75,363,127.5
2020-10-08,542,47.0,-77.75,542,47.0
2020-10-09,457,-28.0,-10.75,457,-28.0
2020-10-10,486,25.5,-62.25,486,25.5
2020-10-11,508,-152.5,-46.75,508,-152.5
2020-10-12,181,-68.0,218.0,181,-68.0
2020-10-13,372,283.5,139.25,372,283.5
2020-10-14,748,210.5,-46.0,748,210.5
2020-10-15,793,191.5,-29.5,793,191.5
2020-10-16,1131,151.5,-173.75,1131,151.5
2020-10-17,1096,-156.0,-251.5,1096,-156.0
2020-10-18,819,-351.5,95.75,819,-351.5
2020-10-19,393,35.5,433.5,393,35.5
2020-10-20,890,515.5,150.5,890,515.5
2020-10-21,1424,336.5,-147.0,1424,336.5
2020-10-22,1563,221.5,1.5,1563,221.5
2020-10-23,1867,339.5,27.75,1867,339.5
2020-10-24,2242,277.0,-523.25,2242,277.0
2020-10-25,2421,-707.0,-390.5,2421,-707.0
2020-10-26,828,-504.0,741.0,828,-504.0
2020-10-27,1413,775.0,592.75,1413,775.0
2020-10-28,2378,681.5,-289.0,2378,681.5
2020-10-29,2776,197.0,-342.5,2776,197.0
2020-10-30,2772,-3.5,-246.75,2772,-3.5
2020-10-31,2769,-296.5,-399.25,2769,-296.5
2020-11-01,2179,-802.0,-39.75,2179,-802.0
2020-11-02,1165,-376.0,729.75,1165,-376.0
2020-11-03,1427,657.5,543.25,1427,657.5
2020-11-04,2480,710.5,-226.25,2480,710.5
2020-11-05,2848,205.0,-467.5,2848,205.0
2020-11-06,2890,-224.5,-189.25,2890,-224.5
2020-11-07,2399,-173.5,-105.25,2399,-173.5
2020-11-08,2543,-435.0,-182.25,2543,-435.0
2020-11-09,1529,-538.0,484.5,1529,-538.0
2020-11-10,1467,534.0,672.75,1467,534.0
2020-11-11,2597,807.5,-152.25,2597,807.5
2020-11-12,3082,229.5,-457.75,3082,229.5
2020-11-13,3056,-108.0,-288.25,3056,-108.0
2020-11-14,2866,-347.0,-334.25,2866,-347.0
2020-11-15,2362,-776.5,69.25,2362,-776.5
2020-11-16,1313,-208.5,872.75,1313,-208.5
2020-11-17,1945,969.0,409.0,1945,969.0
2020-11-18,3251,609.5,-557.75,3251,609.5
2020-11-19,3164,-146.5,-202.5,3164,-146.5
2020-11-20,2958,204.5,160.75,2958,204.5
2020-11-21,3573,175.0,-502.25,3573,175.0
2020-11-22,3308,-800.0,-333.75,3308,-800.0
2020-11-23,1973,-492.5,807.5,1973,-492.5
2020-11-24,2323,815.0,667.75,2323,815.0
2020-11-25,3603,843.0,-288.25,3603,843.0
2020-11-26,4009,238.5,-427.0,4009,238.5
2020-11-27,4080,-11.0,-409.5,4080,-11.0
2020-11-28,3987,-580.5,-533.75,3987,-580.5
2020-11-29,2919,-1078.5,285.5,2919,-1078.5
2020-11-30,1830,-9.5,966.5,1830,-9.5
2020-12-01,2900,854.5,413.25,2900,854.5
2020-12-02,3539,817.0,-323.25,3539,817.0
2020-12-03,4534,208.0,-521.0,4534,208.0
2020-12-04,3955,-225.0,-368.0,3955,-225.0
2020-12-05,4084,-528.0,-437.0,4084,-528.0
2020-12-06,2899,-1099.0,192.5,2899,-1099.0
2020-12-07,1886,-143.0,1208.0,1886,-143.0
2020-12-08,2613,1317.0,573.25,2613,1317.0
2020-12-09,4520,1003.5,-689.5,4520,1003.5
2020-12-10,4620,-62.0,-623.0,4620,-62.0
2020-12-11,4396,-242.5,-227.25,4396,-242.5
2020-12-12,4135,-516.5,-544.5,4135,-516.5
2020-12-13,3363,-1331.5,7.5,3363,-1331.5
2020-12-14,1472,-501.5,1129.5,1472,-501.5
2020-12-15,2360,927.5,640.25,2360,927.5
2020-12-16,3327,779.0,-477.5,3327,779.0
2020-12-17,3918,-27.5,-681.0,3918,-27.5
2020-12-18,3272,-583.0,-804.25,3272,-583.0
2020-12-19,2752,-1636.0,-1084.5,2752,-1636.0
2020-12-20,0,-2752.0,-1116.0,0,-2752.0
