date, confirmed_daily_cases, first_order,second_order, confirmed_daily_cases_outlier_removed,first_order_outlier_removed,second_order_outlier_removed
2020-01-01,0,0.0,0.0,0,0.0
2020-01-02,0,0.0,0.0,0,0.0
2020-01-03,0,0.0,0.0,0,0.0
2020-01-04,0,0.0,0.0,0,0.0
2020-01-05,0,0.0,0.0,0,0.0
2020-01-06,0,0.0,0.0,0,0.0
2020-01-07,0,0.0,0.0,0,0.0
2020-01-08,0,0.0,0.0,0,0.0
2020-01-09,0,0.0,0.0,0,0.0
2020-01-10,0,0.0,0.0,0,0.0
2020-01-11,0,0.0,0.0,0,0.0
2020-01-12,0,0.0,0.0,0,0.0
2020-01-13,0,0.0,0.0,0,0.0
2020-01-14,0,0.0,0.0,0,0.0
2020-01-15,0,0.0,0.0,0,0.0
2020-01-16,0,0.0,0.0,0,0.0
2020-01-17,0,0.0,0.0,0,0.0
2020-01-18,0,0.0,0.0,0,0.0
2020-01-19,0,0.0,0.0,0,0.0
2020-01-20,0,0.0,0.0,0,0.0
2020-01-21,0,0.0,0.0,0,0.0
2020-01-22,0,0.0,0.0,0,0.0
2020-01-23,0,0.0,0.0,0,0.0
2020-01-24,0,0.0,0.0,0,0.0
2020-01-25,0,0.0,0.0,0,0.0
2020-01-26,0,0.0,0.0,0,0.0
2020-01-27,0,0.0,0.0,0,0.0
2020-01-28,0,0.0,0.0,0,0.0
2020-01-29,0,0.0,0.0,0,0.0
2020-01-30,0,0.0,0.0,0,0.0
2020-01-31,0,0.0,0.0,0,0.0
2020-02-01,0,0.0,0.0,0,0.0
2020-02-02,0,0.0,0.0,0,0.0
2020-02-03,0,0.0,0.0,0,0.0
2020-02-04,0,0.0,0.0,0,0.0
2020-02-05,0,0.0,0.0,0,0.0
2020-02-06,0,0.0,0.0,0,0.0
2020-02-07,0,0.0,0.0,0,0.0
2020-02-08,0,0.0,0.0,0,0.0
2020-02-09,0,0.0,0.0,0,0.0
2020-02-10,0,0.0,0.0,0,0.0
2020-02-11,0,0.0,0.0,0,0.0
2020-02-12,0,0.0,0.0,0,0.0
2020-02-13,0,0.0,0.0,0,0.0
2020-02-14,0,0.0,0.0,0,0.0
2020-02-15,0,0.0,0.0,0,0.0
2020-02-16,0,0.0,0.0,0,0.0
2020-02-17,0,0.0,0.0,0,0.0
2020-02-18,0,0.0,0.0,0,0.0
2020-02-19,0,0.0,0.0,0,0.0
2020-02-20,0,0.0,0.0,0,0.0
2020-02-21,0,0.0,0.0,0,0.0
2020-02-22,0,0.0,0.0,0,0.0
2020-02-23,0,0.0,0.0,0,0.0
2020-02-24,0,0.0,0.0,0,0.0
2020-02-25,0,0.0,0.0,0,0.0
2020-02-26,0,0.0,0.0,0,0.0
2020-02-27,0,0.0,0.0,0,0.0
2020-02-28,0,0.0,0.0,0,0.0
2020-02-29,0,0.0,0.0,0,0.0
2020-03-01,0,0.0,0.0,0,0.0
2020-03-02,0,0.0,0.0,0,0.0
2020-03-03,0,0.0,0.0,0,0.0
2020-03-04,0,0.0,0.0,0,0.0
2020-03-05,0,0.0,0.0,0,0.0
2020-03-06,0,0.0,0.0,0,0.0
2020-03-07,0,0.0,0.5,0,0.0
2020-03-08,0,1.0,0.25,0,1.0
2020-03-09,2,0.5,-0.25,2,0.5
2020-03-10,1,0.5,-0.5,1,0.5
2020-03-11,3,-0.5,1.0,3,-0.5
2020-03-12,0,2.5,3.25,0,2.5
2020-03-13,8,6.0,-3.25,8,6.0
2020-03-14,12,-4.0,-4.25,12,-4.0
2020-03-15,0,-2.5,5.25,0,-2.5
2020-03-16,7,6.5,0.25,7,6.5
2020-03-17,13,-2.0,-2.0,13,-2.0
2020-03-18,3,2.5,0.25,3,2.5
2020-03-19,18,-1.5,-1.5,18,-1.5
2020-03-20,0,-0.5,3.5,0,-0.5
2020-03-21,17,5.5,1.25,17,5.5
2020-03-22,11,2.0,-3.5,11,2.0
2020-03-23,21,-1.5,-4.25,21,-1.5
2020-03-24,8,-6.5,2.25,8,-6.5
2020-03-25,8,3.0,5.25,8,3.0
2020-03-26,14,4.0,-0.75,14,4.0
2020-03-27,16,1.5,2.75,16,1.5
2020-03-28,17,9.5,-1.0,17,9.5
2020-03-29,35,-0.5,-5.5,35,-0.5
2020-03-30,16,-1.5,10.75,16,-1.5
2020-03-31,32,21.0,1.75,32,21.0
2020-04-01,58,2.0,-15.0,58,2.0
2020-04-02,36,-9.0,-2.5,36,-9.0
2020-04-03,40,-3.0,-0.5,40,-3.0
2020-04-04,30,-10.0,-1.25,30,-10.0
2020-04-05,20,-5.5,7.25,20,-5.5
2020-04-06,19,4.5,6.0,19,4.5
2020-04-07,29,6.5,0.0,29,6.5
2020-04-08,32,4.5,-3.5,32,4.5
2020-04-09,38,-0.5,-6.5,38,-0.5
2020-04-10,31,-8.5,-3.25,31,-8.5
2020-04-11,21,-7.0,6.25,21,-7.0
2020-04-12,17,4.0,7.5,17,4.0
2020-04-13,29,8.0,-4.25,29,8.0
2020-04-14,33,-4.5,-7.25,33,-4.5
2020-04-15,20,-6.5,1.0,20,-6.5
2020-04-16,20,-2.5,1.0,20,-2.5
2020-04-17,15,-4.5,-1.0,15,-4.5
2020-04-18,11,-4.5,0.75,11,-4.5
2020-04-19,6,-3.0,3.75,6,-3.0
2020-04-20,5,3.0,1.75,5,3.0
2020-04-21,12,0.5,-3.25,12,0.5
2020-04-22,6,-3.5,0.5,6,-3.5
2020-04-23,5,1.5,2.0,5,1.5
2020-04-24,9,0.5,-1.25,9,0.5
2020-04-25,6,-1.0,-0.5,6,-1.0
2020-04-26,7,-0.5,2.5,7,-0.5
2020-04-27,5,4.0,0.5,5,4.0
2020-04-28,15,0.5,-4.0,15,0.5
2020-04-29,6,-4.0,0.0,6,-4.0
2020-04-30,7,0.5,2.0,7,0.5
2020-05-01,7,0.0,0.0,7,0.0
2020-05-02,7,0.5,-1.25,7,0.5
2020-05-03,8,-2.5,-1.25,8,-2.5
2020-05-04,2,-2.0,2.0,2,-2.0
2020-05-05,4,1.5,1.5,4,1.5
2020-05-06,5,1.0,-1.5,5,1.0
2020-05-07,6,-1.5,-1.75,6,-1.5
2020-05-08,2,-2.5,1.75,2,-2.5
2020-05-09,1,2.0,1.75,1,2.0
2020-05-10,6,1.0,-2.0,6,1.0
2020-05-11,3,-2.0,-0.75,3,-2.0
2020-05-12,2,-0.5,1.0,2,-0.5
2020-05-13,2,0.0,0.5,2,0.0
2020-05-14,2,0.5,0.5,2,0.5
2020-05-15,3,1.0,-0.5,3,1.0
2020-05-16,4,-0.5,-1.25,4,-0.5
2020-05-17,2,-1.5,0.0,2,-1.5
2020-05-18,1,-0.5,1.5,1,-0.5
2020-05-19,1,1.5,0.25,1,1.5
2020-05-20,4,0.0,-0.75,4,0.0
2020-05-21,1,0.0,-0.25,1,0.0
2020-05-22,4,-0.5,1.0,4,-0.5
2020-05-23,0,2.0,0.75,0,2.0
2020-05-24,8,1.0,-2.5,8,1.0
2020-05-25,2,-3.0,-1.0,2,-3.0
2020-05-26,2,-1.0,1.5,2,-1.0
2020-05-27,0,0.0,0.75,0,0.0
2020-05-28,2,0.5,0.0,2,0.5
2020-05-29,1,0.0,-0.5,1,0.0
2020-05-30,2,-0.5,0.75,2,-0.5
2020-05-31,0,1.5,1.0,0,1.5
2020-06-01,5,1.5,-0.5,5,1.5
2020-06-02,3,0.5,-1.5,3,0.5
2020-06-03,6,-1.5,-1.25,6,-1.5
2020-06-04,0,-2.0,0.75,0,-2.0
2020-06-05,2,0.0,1.5,2,0.0
2020-06-06,0,1.0,1.5,0,1.0
2020-06-07,4,3.0,-1.0,4,3.0
2020-06-08,6,-1.0,-2.5,6,-1.0
2020-06-09,2,-2.0,0.25,2,-2.0
2020-06-10,2,-0.5,1.75,2,-0.5
2020-06-11,1,1.5,0.0,1,1.5
2020-06-12,5,-0.5,-1.25,5,-0.5
2020-06-13,0,-1.0,0.75,0,-1.0
2020-06-14,3,1.0,-0.25,3,1.0
2020-06-15,2,-1.5,-1.0,2,-1.5
2020-06-16,0,-1.0,0.75,0,-1.0
2020-06-17,0,0.0,0.5,0,0.0
2020-06-18,0,0.0,0.0,0,0.0
2020-06-19,0,0.0,0.25,0,0.0
2020-06-20,0,0.5,0.5,0,0.5
2020-06-21,1,1.0,0.0,1,1.0
2020-06-22,2,0.5,-0.75,2,0.5
2020-06-23,2,-0.5,-0.5,2,-0.5
2020-06-24,1,-0.5,0.0,1,-0.5
2020-06-25,1,-0.5,0.5,1,-0.5
2020-06-26,0,0.5,0.25,0,0.5
2020-06-27,2,0.0,-0.25,2,0.0
2020-06-28,0,0.0,0.5,0,0.0
2020-06-29,2,1.0,-0.25,2,1.0
2020-06-30,2,-0.5,-1.0,2,-0.5
2020-07-01,1,-1.0,0.0,1,-1.0
2020-07-02,0,-0.5,1.25,0,-0.5
2020-07-03,0,1.5,0.5,0,1.5
2020-07-04,3,0.5,-1.25,3,0.5
2020-07-05,1,-1.0,-0.25,1,-1.0
2020-07-06,1,0.0,1.0,1,0.0
2020-07-07,1,1.0,0.25,1,1.0
2020-07-08,3,0.5,-0.5,3,0.5
2020-07-09,2,0.0,-0.5,2,0.0
2020-07-10,3,-0.5,1.0,3,-0.5
2020-07-11,1,2.0,0.25,1,2.0
2020-07-12,7,0.0,-2.5,7,0.0
2020-07-13,1,-3.0,0.25,1,-3.0
2020-07-14,1,0.5,2.75,1,0.5
2020-07-15,2,2.5,-0.25,2,2.5
2020-07-16,6,0.0,-1.75,6,0.0
2020-07-17,2,-1.0,-0.25,2,-1.0
2020-07-18,4,-0.5,-0.5,4,-0.5
2020-07-19,1,-2.0,0.5,1,-2.0
2020-07-20,0,0.5,1.0,0,0.5
2020-07-21,2,0.0,0.5,2,0.0
2020-07-22,0,1.5,0.5,0,1.5
2020-07-23,5,1.0,-0.5,5,1.0
2020-07-24,2,0.5,0.0,2,0.5
2020-07-25,6,1.0,-1.0,6,1.0
2020-07-26,4,-1.5,0.25,4,-1.5
2020-07-27,3,1.5,3.25,3,1.5
2020-07-28,7,5.0,0.0,7,5.0
2020-07-29,13,1.5,0.25,13,1.5
2020-07-30,10,5.5,-0.75,10,5.5
2020-07-31,24,0.0,-2.25,24,0.0
2020-08-01,10,1.0,-1.25,10,1.0
2020-08-02,26,-2.5,-0.75,26,-2.5
2020-08-03,5,-0.5,3.75,5,-0.5
2020-08-04,25,5.0,-2.75,25,5.0
2020-08-05,15,-6.0,-2.75,15,-6.0
2020-08-06,13,-0.5,2.5,13,-0.5
2020-08-07,14,-1.0,-1.0,14,-1.0
2020-08-08,11,-2.5,0.25,11,-2.5
2020-08-09,9,-0.5,5.25,9,-0.5
2020-08-10,10,8.0,1.25,10,8.0
2020-08-11,25,2.0,-6.75,25,2.0
2020-08-12,14,-5.5,-1.25,14,-5.5
2020-08-13,14,-0.5,2.75,14,-0.5
2020-08-14,13,0.0,-1.25,13,0.0
2020-08-15,14,-3.0,-0.5,14,-3.0
2020-08-16,7,-1.0,1.75,7,-1.0
2020-08-17,12,0.5,4.0,12,0.5
2020-08-18,8,7.0,0.25,8,7.0
2020-08-19,26,1.0,-7.25,26,1.0
2020-08-20,10,-7.5,-0.25,10,-7.5
2020-08-21,11,0.5,2.0,11,0.5
2020-08-22,11,-3.5,4.5,11,-3.5
2020-08-23,4,9.5,6.5,4,9.5
2020-08-24,30,9.5,-9.75,30,9.5
2020-08-25,23,-10.0,-10.5,23,-10.0
2020-08-26,10,-11.5,6.0,10,-11.5
2020-08-27,0,2.0,6.25,0,2.0
2020-08-28,14,1.0,-3.5,14,1.0
2020-08-29,2,-5.0,-0.75,2,-5.0
2020-08-30,4,-0.5,2.0,4,-0.5
2020-08-31,1,-1.0,1.25,1,-1.0
2020-09-01,2,2.0,0.75,2,2.0
2020-09-02,5,0.5,-1.25,5,0.5
2020-09-03,3,-0.5,0.25,3,-0.5
2020-09-04,4,1.0,-0.25,4,1.0
2020-09-05,5,-1.0,-1.5,5,-1.0
2020-09-06,2,-2.0,0.25,2,-2.0
2020-09-07,1,-0.5,1.5,1,-0.5
2020-09-08,1,1.0,0.75,1,1.0
2020-09-09,3,1.0,-0.5,3,1.0
2020-09-10,3,0.0,-0.5,3,0.0
2020-09-11,3,0.0,0.0,3,0.0
2020-09-12,3,0.0,1.25,3,0.0
2020-09-13,3,2.5,0.75,3,2.5
2020-09-14,8,1.5,-1.25,8,1.5
2020-09-15,6,0.0,0.25,6,0.0
2020-09-16,8,2.0,-0.25,8,2.0
2020-09-17,10,-0.5,2.75,10,-0.5
2020-09-18,7,7.5,1.0,7,7.5
2020-09-19,25,1.5,-9.25,25,1.5
2020-09-20,10,-11.0,0.5,10,-11.0
2020-09-21,3,2.5,13.75,3,2.5
2020-09-22,15,16.5,-2.75,15,16.5
2020-09-23,36,-3.0,-15.25,36,-3.0
2020-09-24,9,-14.0,2.5,9,-14.0
2020-09-25,8,2.0,8.0,8,2.0
2020-09-26,13,2.0,0.0,13,2.0
2020-09-27,12,2.0,3.5,12,2.0
2020-09-28,17,9.0,-2.25,17,9.0
2020-09-29,30,-2.5,-7.75,30,-2.5
2020-09-30,12,-6.5,2.5,12,-6.5
2020-10-01,17,2.5,4.5,17,2.5
2020-10-02,17,2.5,-2.25,17,2.5
2020-10-03,22,-2.0,-1.0,22,-2.0
2020-10-04,13,0.5,5.0,13,0.5
2020-10-05,23,8.0,-0.75,23,8.0
2020-10-06,29,-1.0,-6.0,29,-1.0
2020-10-07,21,-4.0,3.5,21,-4.0
2020-10-08,21,6.0,5.5,21,6.0
2020-10-09,33,7.0,-6.25,33,7.0
2020-10-10,35,-6.5,-2.0,35,-6.5
2020-10-11,20,3.0,19.0,20,3.0
2020-10-12,41,31.5,1.0,41,31.5
2020-10-13,83,5.0,-10.5,83,5.0
2020-10-14,51,10.5,8.25,51,10.5
2020-10-15,104,21.5,19.25,104,21.5
2020-10-16,94,49.0,-18.5,94,49.0
2020-10-17,202,-15.5,-64.25,202,-15.5
2020-10-18,63,-79.5,30.0,63,-79.5
2020-10-19,43,44.5,60.75,43,44.5
2020-10-20,152,42.0,-13.25,152,42.0
2020-10-21,127,18.0,-12.75,127,18.0
2020-10-22,188,16.5,-23.5,188,16.5
2020-10-23,160,-29.0,-23.0,160,-29.0
2020-10-24,130,-29.5,4.75,130,-29.5
2020-10-25,101,-19.5,34.75,101,-19.5
2020-10-26,91,40.0,15.25,91,40.0
2020-10-27,181,11.0,-35.0,181,11.0
2020-10-28,113,-30.0,7.75,113,-30.0
2020-10-29,121,26.5,22.0,121,26.5
2020-10-30,166,14.0,-5.5,166,14.0
2020-10-31,149,15.5,5.0,149,15.5
2020-11-01,197,24.0,-13.5,197,24.0
2020-11-02,197,-11.5,-19.75,197,-11.5
2020-11-03,174,-15.5,20.5,174,-15.5
2020-11-04,166,29.5,22.25,166,29.5
2020-11-05,233,29.0,5.5,233,29.0
2020-11-06,224,40.5,-41.5,224,40.5
2020-11-07,314,-54.0,-71.0,314,-54.0
2020-11-08,116,-101.5,47.5,116,-101.5
2020-11-09,111,41.0,64.25,111,41.0
2020-11-10,198,27.0,-23.75,198,27.0
2020-11-11,165,-6.5,-3.0,165,-6.5
2020-11-12,185,21.0,6.5,185,21.0
2020-11-13,207,6.5,-30.5,207,6.5
2020-11-14,198,-40.0,-26.0,198,-40.0
2020-11-15,127,-45.5,45.25,127,-45.5
2020-11-16,107,50.5,45.5,107,50.5
2020-11-17,228,45.5,-15.25,228,45.5
2020-11-18,198,20.0,-14.25,198,20.0
2020-11-19,268,17.0,-15.75,268,17.0
2020-11-20,232,-11.5,-19.75,232,-11.5
2020-11-21,245,-22.5,20.5,245,-22.5
2020-11-22,187,29.5,27.5,187,29.5
2020-11-23,304,32.5,-27.25,304,32.5
2020-11-24,252,-25.0,-24.25,252,-25.0
2020-11-25,254,-16.0,26.5,254,-16.0
2020-11-26,220,28.0,15.0,220,28.0
2020-11-27,310,14.0,-53.5,310,14.0
2020-11-28,248,-79.0,-23.5,248,-79.0
2020-11-29,152,-33.0,81.0,152,-33.0
2020-11-30,182,83.0,44.0,182,83.0
2020-12-01,318,55.0,-34.0,318,55.0
2020-12-02,292,15.0,-28.25,292,15.0
2020-12-03,348,-1.5,-2.25,348,-1.5
2020-12-04,289,10.5,-4.0,289,10.5
2020-12-05,369,-9.5,6.5,369,-9.5
2020-12-06,270,23.5,42.0,270,23.5
2020-12-07,416,74.5,-115.75,416,74.5
2020-12-08,419,-208.0,-51.25,419,-208.0
2020-12-09,0,-28.0,104.0,0,-28.0
2020-12-10,363,0.0,130.0,363,0.0
2020-12-11,0,232.0,156.25,0,232.0
2020-12-12,827,312.5,-235.5,827,312.5
2020-12-13,625,-239.0,-227.75,625,-239.0
2020-12-14,349,-143.0,132.5,349,-143.0
2020-12-15,339,26.0,-13.25,339,26.0
2020-12-16,401,-169.5,1.0,401,-169.5
2020-12-17,0,28.0,292.0,0,28.0
2020-12-18,457,414.5,-128.25,457,414.5
2020-12-19,829,-228.5,-621.75,829,-228.5
2020-12-20,0,-829.0,-600.5,0,-829.0
