date, confirmed_daily_cases, first_order,second_order, confirmed_daily_cases_outlier_removed,first_order_outlier_removed,second_order_outlier_removed
2020-01-01,0,0.0,0.0,0,0.0
2020-01-02,0,0.0,0.0,0,0.0
2020-01-03,0,0.0,0.0,0,0.0
2020-01-04,0,0.0,0.0,0,0.0
2020-01-05,0,0.0,0.0,0,0.0
2020-01-06,0,0.0,0.0,0,0.0
2020-01-07,0,0.0,0.0,0,0.0
2020-01-08,0,0.0,0.0,0,0.0
2020-01-09,0,0.0,0.0,0,0.0
2020-01-10,0,0.0,0.0,0,0.0
2020-01-11,0,0.0,0.0,0,0.0
2020-01-12,0,0.0,0.0,0,0.0
2020-01-13,0,0.0,0.0,0,0.0
2020-01-14,0,0.0,0.0,0,0.0
2020-01-15,0,0.0,0.0,0,0.0
2020-01-16,0,0.0,0.0,0,0.0
2020-01-17,0,0.0,0.0,0,0.0
2020-01-18,0,0.0,0.0,0,0.0
2020-01-19,0,0.0,0.0,0,0.0
2020-01-20,0,0.0,0.0,0,0.0
2020-01-21,0,0.0,0.0,0,0.0
2020-01-22,0,0.0,0.0,0,0.0
2020-01-23,0,0.0,0.0,0,0.0
2020-01-24,0,0.0,0.0,0,0.0
2020-01-25,0,0.0,0.0,0,0.0
2020-01-26,0,0.0,0.0,0,0.0
2020-01-27,0,0.0,0.0,0,0.0
2020-01-28,0,0.0,0.0,0,0.0
2020-01-29,0,0.0,0.0,0,0.0
2020-01-30,0,0.0,0.0,0,0.0
2020-01-31,0,0.0,0.0,0,0.0
2020-02-01,0,0.0,0.0,0,0.0
2020-02-02,0,0.0,0.0,0,0.0
2020-02-03,0,0.0,0.0,0,0.0
2020-02-04,0,0.0,0.0,0,0.0
2020-02-05,0,0.0,0.0,0,0.0
2020-02-06,0,0.0,0.0,0,0.0
2020-02-07,0,0.0,0.0,0,0.0
2020-02-08,0,0.0,0.0,0,0.0
2020-02-09,0,0.0,0.0,0,0.0
2020-02-10,0,0.0,0.0,0,0.0
2020-02-11,0,0.0,0.0,0,0.0
2020-02-12,0,0.0,0.0,0,0.0
2020-02-13,0,0.0,0.0,0,0.0
2020-02-14,0,0.0,0.0,0,0.0
2020-02-15,0,0.0,0.0,0,0.0
2020-02-16,0,0.0,0.0,0,0.0
2020-02-17,0,0.0,0.0,0,0.0
2020-02-18,0,0.0,0.0,0,0.0
2020-02-19,0,0.0,0.0,0,0.0
2020-02-20,0,0.0,0.0,0,0.0
2020-02-21,0,0.0,0.0,0,0.0
2020-02-22,0,0.0,0.0,0,0.0
2020-02-23,0,0.0,0.0,0,0.0
2020-02-24,0,0.0,0.0,0,0.0
2020-02-25,0,0.0,0.0,0,0.0
2020-02-26,0,0.0,0.0,0,0.0
2020-02-27,0,0.0,0.0,0,0.0
2020-02-28,0,0.0,0.25,0,0.0
2020-02-29,0,0.5,0.0,0,0.5
2020-03-01,1,0.0,-0.5,1,0.0
2020-03-02,0,-0.5,0.0,0,-0.5
2020-03-03,0,0.0,0.25,0,0.0
2020-03-04,0,0.0,0.25,0,0.0
2020-03-05,0,0.5,0.0,0,0.5
2020-03-06,1,0.0,0.25,1,0.0
2020-03-07,0,1.0,0.0,0,1.0
2020-03-08,3,0.0,-1.25,3,0.0
2020-03-09,0,-1.5,0.0,0,-1.5
2020-03-10,0,0.0,0.75,0,0.0
2020-03-11,0,0.0,0.0,0,0.0
2020-03-12,0,0.0,1.5,0,0.0
2020-03-13,0,3.0,0.0,0,3.0
2020-03-14,6,0.0,-3.0,6,0.0
2020-03-15,0,-3.0,2.5,0,-3.0
2020-03-16,0,5.0,1.5,0,5.0
2020-03-17,10,0.0,-1.75,10,0.0
2020-03-18,0,1.5,9.5,0,1.5
2020-03-19,13,19.0,6.0,13,19.0
2020-03-20,38,13.5,3.5,38,13.5
2020-03-21,40,26.0,-6.0,40,26.0
2020-03-22,90,1.5,-18.75,90,1.5
2020-03-23,43,-11.5,8.5,43,-11.5
2020-03-24,67,18.5,13.0,67,18.5
2020-03-25,80,14.5,-6.0,80,14.5
2020-03-26,96,6.5,3.25,96,6.5
2020-03-27,93,21.0,8.5,93,21.0
2020-03-28,138,23.5,-34.5,138,23.5
2020-03-29,140,-48.0,5.25,140,-48.0
2020-03-30,42,34.0,57.25,42,34.0
2020-03-31,208,66.5,-45.0,208,66.5
2020-04-01,175,-56.0,-50.0,175,-56.0
2020-04-02,96,-33.5,4.0,96,-33.5
2020-04-03,108,-48.0,54.0,108,-48.0
2020-04-04,0,74.5,44.75,0,74.5
2020-04-05,257,41.5,-69.5,257,41.5
2020-04-06,83,-64.5,-2.75,83,-64.5
2020-04-07,128,36.0,59.75,128,36.0
2020-04-08,155,55.0,11.0,155,55.0
2020-04-09,238,58.0,-52.25,238,58.0
2020-04-10,271,-49.5,-44.75,271,-49.5
2020-04-11,139,-31.5,40.0,139,-31.5
2020-04-12,208,30.5,-6.5,208,30.5
2020-04-13,200,-44.5,16.75,200,-44.5
2020-04-14,119,64.0,27.75,119,64.0
2020-04-15,328,11.0,-21.25,328,11.0
2020-04-16,141,21.5,11.5,141,21.5
2020-04-17,371,34.0,-17.25,371,34.0
2020-04-18,209,-13.0,1.75,209,-13.0
2020-04-19,345,37.5,-59.75,345,37.5
2020-04-20,284,-132.5,-25.75,284,-132.5
2020-04-21,80,-14.0,107.0,80,-14.0
2020-04-22,256,81.5,-5.5,256,81.5
2020-04-23,243,-25.0,-57.25,243,-25.0
2020-04-24,206,-33.0,13.25,206,-33.0
2020-04-25,177,1.5,11.75,177,1.5
2020-04-26,209,-9.5,-22.25,209,-9.5
2020-04-27,158,-43.0,24.25,158,-43.0
2020-04-28,123,39.0,70.75,123,39.0
2020-04-29,236,98.5,0.5,236,98.5
2020-04-30,320,40.0,-56.75,320,40.0
2020-05-01,316,-15.0,-5.0,316,-15.0
2020-05-02,290,30.0,5.25,290,30.0
2020-05-03,376,-4.5,-47.75,376,-4.5
2020-05-04,281,-65.5,13.75,281,-65.5
2020-05-05,245,23.0,43.5,245,23.0
2020-05-06,327,21.5,-23.0,327,21.5
2020-05-07,288,-23.0,43.75,288,-23.0
2020-05-08,281,109.0,57.5,281,109.0
2020-05-09,506,92.0,-109.25,506,92.0
2020-05-10,465,-109.5,-95.75,465,-109.5
2020-05-11,287,-99.5,57.0,287,-99.5
2020-05-12,266,4.5,14.25,266,4.5
2020-05-13,296,-71.0,28.5,296,-71.0
2020-05-14,124,61.5,97.25,124,61.5
2020-05-15,419,123.5,-84.5,419,123.5
2020-05-16,371,-107.5,-51.75,371,-107.5
2020-05-17,204,20.0,127.25,204,20.0
2020-05-18,411,147.0,-49.25,411,147.0
2020-05-19,498,-78.5,-153.0,498,-78.5
2020-05-20,254,-159.0,58.75,254,-159.0
2020-05-21,180,39.0,142.75,180,39.0
2020-05-22,332,126.5,-7.75,332,126.5
2020-05-23,433,23.5,-103.5,433,23.5
2020-05-24,379,-80.5,-58.75,379,-80.5
2020-05-25,272,-94.0,87.0,272,-94.0
2020-05-26,191,93.5,85.5,191,93.5
2020-05-27,459,77.0,-45.75,459,77.0
2020-05-28,345,2.0,-30.5,345,2.0
2020-05-29,463,16.0,-22.5,463,16.0
2020-05-30,377,-43.0,-30.5,377,-43.0
2020-05-31,377,-45.0,-27.75,377,-45.0
2020-06-01,287,-98.5,22.75,287,-98.5
2020-06-02,180,0.5,74.0,180,0.5
2020-06-03,288,49.5,25.0,288,49.5
2020-06-04,279,50.5,27.25,279,50.5
2020-06-05,389,104.0,-21.25,389,104.0
2020-06-06,487,8.0,-42.25,487,8.0
2020-06-07,405,19.5,-33.0,405,19.5
2020-06-08,526,-58.0,-43.0,526,-58.0
2020-06-09,289,-66.5,114.0,289,-66.5
2020-06-10,393,170.0,77.75,393,170.0
2020-06-11,629,89.0,-101.25,629,89.0
2020-06-12,571,-32.5,-89.75,571,-32.5
2020-06-13,564,-90.5,-47.5,564,-90.5
2020-06-14,390,-127.5,51.5,390,-127.5
2020-06-15,309,12.5,91.25,309,12.5
2020-06-16,415,55.0,25.0,415,55.0
2020-06-17,419,62.5,-26.5,419,62.5
2020-06-18,540,2.0,11.25,540,2.0
2020-06-19,423,85.0,118.0,423,85.0
2020-06-20,710,238.0,-46.75,710,238.0
2020-06-21,899,-8.5,-202.25,899,-8.5
2020-06-22,693,-166.5,4.75,693,-166.5
2020-06-23,566,1.0,69.25,566,1.0
2020-06-24,695,-28.0,-18.5,695,-28.0
2020-06-25,510,-36.0,100.25,510,-36.0
2020-06-26,623,172.5,50.75,623,172.5
2020-06-27,855,65.5,-189.25,855,65.5
2020-06-28,754,-206.0,-33.25,754,-206.0
2020-06-29,443,-1.0,197.0,443,-1.0
2020-06-30,752,188.0,15.0,752,188.0
2020-07-01,819,29.0,-61.0,819,29.0
2020-07-02,810,66.0,42.0,810,66.0
2020-07-03,951,113.0,39.5,951,113.0
2020-07-04,1036,145.0,-139.75,1036,145.0
2020-07-05,1241,-166.5,-307.25,1241,-166.5
2020-07-06,703,-469.5,197.0,703,-469.5
2020-07-07,302,227.5,459.75,302,227.5
2020-07-08,1158,450.0,-122.0,1158,450.0
2020-07-09,1202,-16.5,-225.75,1202,-16.5
2020-07-10,1125,-1.5,81.5,1125,-1.5
2020-07-11,1199,146.5,-55.5,1199,146.5
2020-07-12,1418,-112.5,-228.0,1418,-112.5
2020-07-13,974,-309.5,154.25,974,-309.5
2020-07-14,799,196.0,223.0,799,196.0
2020-07-15,1366,136.5,-97.0,1366,136.5
2020-07-16,1072,2.0,15.25,1072,2.0
2020-07-17,1370,167.0,-9.5,1370,167.0
2020-07-18,1406,-17.0,-159.75,1406,-17.0
2020-07-19,1336,-152.5,-115.25,1336,-152.5
2020-07-20,1101,-247.5,112.5,1101,-247.5
2020-07-21,841,72.5,306.5,841,72.5
2020-07-22,1246,365.5,17.75,1246,365.5
2020-07-23,1572,108.0,-121.0,1572,108.0
2020-07-24,1462,123.5,83.5,1462,123.5
2020-07-25,1819,275.0,-204.5,1819,275.0
2020-07-26,2012,-285.5,-507.0,2012,-285.5
2020-07-27,1248,-739.0,203.75,1248,-739.0
2020-07-28,534,122.0,669.25,534,122.0
2020-07-29,1492,599.5,-0.5,1492,599.5
2020-07-30,1733,121.0,-291.5,1733,121.0
2020-07-31,1734,16.5,-287.0,1734,16.5
2020-08-01,1766,-453.0,-231.25,1766,-453.0
2020-08-02,828,-446.0,314.0,828,-446.0
2020-08-03,874,175.0,345.75,874,175.0
2020-08-04,1178,245.5,-163.0,1178,245.5
2020-08-05,1365,-151.0,-170.75,1365,-151.0
2020-08-06,876,-96.0,123.75,876,-96.0
2020-08-07,1173,96.5,-6.75,1173,96.5
2020-08-08,1069,-109.5,-123.75,1069,-109.5
2020-08-09,954,-151.0,-35.0,954,-151.0
2020-08-10,767,-179.5,166.25,767,-179.5
2020-08-11,595,181.5,168.5,595,181.5
2020-08-12,1130,157.5,-34.75,1130,157.5
2020-08-13,910,112.0,-42.0,910,112.0
2020-08-14,1354,73.5,-203.5,1354,73.5
2020-08-15,1057,-295.0,-194.0,1057,-295.0
2020-08-16,764,-314.5,53.0,764,-314.5
2020-08-17,428,-189.0,301.25,428,-189.0
2020-08-18,386,288.0,218.75,386,288.0
2020-08-19,1004,248.5,-180.75,1004,248.5
2020-08-20,883,-73.5,-171.5,883,-73.5
2020-08-21,857,-94.5,-27.5,857,-94.5
2020-08-22,694,-128.5,-14.5,694,-128.5
2020-08-23,600,-123.5,66.5,600,-123.5
2020-08-24,447,4.5,35.0,447,4.5
2020-08-25,609,-53.5,-52.75,609,-53.5
2020-08-26,340,-101.0,48.25,340,-101.0
2020-08-27,407,43.0,34.25,407,43.0
2020-08-28,426,-32.5,-0.75,426,-32.5
2020-08-29,342,41.5,49.25,342,41.5
2020-08-30,509,66.0,-82.0,509,66.0
2020-08-31,474,-122.5,10.5,474,-122.5
2020-09-01,264,87.0,245.75,264,87.0
2020-09-02,648,369.0,-205.5,648,369.0
2020-09-03,1002,-324.0,101.75,1002,-324.0
2020-09-04,0,572.5,301.25,0,572.5
2020-09-05,2147,278.5,-681.75,2147,278.5
2020-09-06,557,-791.0,-220.25,557,-791.0
2020-09-07,565,-162.0,455.75,565,-162.0
2020-09-08,233,120.5,217.5,233,120.5
2020-09-09,806,273.0,-132.75,806,273.0
2020-09-10,779,-145.0,-116.25,779,-145.0
2020-09-11,516,40.5,85.5,516,40.5
2020-09-12,860,26.0,-122.75,860,26.0
2020-09-13,568,-205.0,18.25,568,-205.0
2020-09-14,450,62.5,169.5,450,62.5
2020-09-15,693,134.0,-50.75,693,134.0
2020-09-16,718,-39.0,-97.5,718,-39.0
2020-09-17,615,-61.0,107.75,615,-61.0
2020-09-18,596,176.5,28.75,596,176.5
2020-09-19,968,-3.5,-206.75,968,-3.5
2020-09-20,589,-237.0,-24.0,589,-237.0
2020-09-21,494,-51.5,112.0,494,-51.5
2020-09-22,486,-13.0,0.5,486,-13.0
2020-09-23,468,-50.5,8.25,468,-50.5
2020-09-24,385,3.5,19.0,385,3.5
2020-09-25,475,-12.5,-13.25,475,-12.5
2020-09-26,360,-23.0,-13.75,360,-23.0
2020-09-27,429,-40.0,-37.25,429,-40.0
2020-09-28,280,-97.5,27.25,280,-97.5
2020-09-29,234,14.5,120.0,234,14.5
2020-09-30,309,142.5,71.0,309,142.5
2020-10-01,519,156.5,-57.0,519,156.5
2020-10-02,622,28.5,-95.25,622,28.5
2020-10-03,576,-34.0,-14.75,576,-34.0
2020-10-04,554,-1.0,-42.25,554,-1.0
2020-10-05,574,-118.5,51.25,574,-118.5
2020-10-06,317,101.5,161.0,317,101.5
2020-10-07,777,203.5,-98.75,777,203.5
2020-10-08,724,-96.0,-143.5,724,-96.0
2020-10-09,585,-83.5,17.5,585,-83.5
2020-10-10,557,-61.0,-6.0,557,-61.0
2020-10-11,463,-95.5,-44.0,463,-95.5
2020-10-12,366,-149.0,119.75,366,-149.0
2020-10-13,165,144.0,134.25,165,144.0
2020-10-14,654,119.5,-139.5,654,119.5
2020-10-15,404,-135.0,-42.0,404,-135.0
2020-10-16,384,35.5,77.0,384,35.5
2020-10-17,475,19.0,-56.5,475,19.0
2020-10-18,422,-77.5,-38.5,422,-77.5
2020-10-19,320,-58.0,65.0,320,-58.0
2020-10-20,306,52.5,71.25,306,52.5
2020-10-21,425,84.5,-132.5,425,84.5
2020-10-22,475,-212.5,125.25,475,-212.5
2020-10-23,0,335.0,233.5,0,335.0
2020-10-24,1145,254.5,-374.75,1145,254.5
2020-10-25,509,-414.5,-213.25,509,-414.5
2020-10-26,316,-172.0,268.75,316,-172.0
2020-10-27,165,123.0,130.5,165,123.0
2020-10-28,562,89.0,-97.25,562,89.0
2020-10-29,343,-71.5,41.25,343,-71.5
2020-10-30,419,171.5,9.5,419,171.5
2020-10-31,686,-52.5,-192.5,686,-52.5
2020-11-01,314,-213.5,12.0,314,-213.5
2020-11-02,259,-28.5,149.5,259,-28.5
2020-11-03,257,85.5,86.5,257,85.5
2020-11-04,430,144.5,-31.25,430,144.5
2020-11-05,546,23.0,-122.5,546,23.0
2020-11-06,476,-100.5,3.75,476,-100.5
2020-11-07,345,30.5,69.25,345,30.5
2020-11-08,537,38.0,-17.5,537,38.0
2020-11-09,421,-4.5,-90.75,421,-4.5
2020-11-10,528,-143.5,-37.0,528,-143.5
2020-11-11,134,-78.5,267.75,134,-78.5
2020-11-12,371,392.0,114.25,371,392.0
2020-11-13,918,150.0,-300.75,918,150.0
2020-11-14,671,-209.5,-123.0,671,-209.5
2020-11-15,499,-96.0,103.5,499,-96.0
2020-11-16,479,-2.5,43.25,479,-2.5
2020-11-17,494,-9.5,134.25,494,-9.5
2020-11-18,460,266.0,40.0,460,266.0
2020-11-19,1026,70.5,-143.0,1026,70.5
2020-11-20,601,-20.0,-25.5,601,-20.0
2020-11-21,986,19.5,-131.75,986,19.5
2020-11-22,640,-283.5,-99.25,640,-283.5
2020-11-23,419,-179.0,108.25,419,-179.0
2020-11-24,282,-67.0,400.5,282,-67.0
2020-11-25,285,622.0,176.0,285,622.0
2020-11-26,1526,285.0,-473.5,1526,285.0
2020-11-27,855,-325.0,-151.25,855,-325.0
2020-11-28,876,-17.5,72.25,876,-17.5
2020-11-29,820,-180.5,-117.75,820,-180.5
2020-11-30,515,-253.0,185.25,515,-253.0
2020-12-01,314,190.0,251.0,314,190.0
2020-12-02,895,249.0,-151.0,895,249.0
2020-12-03,812,-112.0,-83.75,812,-112.0
2020-12-04,671,81.5,87.75,671,81.5
2020-12-05,975,63.5,-113.25,975,63.5
2020-12-06,798,-145.0,-108.25,798,-145.0
2020-12-07,685,-153.0,34.0,685,-153.0
2020-12-08,492,-77.0,343.5,492,-77.0
2020-12-09,531,534.0,88.5,531,534.0
2020-12-10,1560,100.0,-373.75,1560,100.0
2020-12-11,731,-213.5,44.0,731,-213.5
2020-12-12,1133,188.0,-53.5,1133,188.0
2020-12-13,1107,-320.5,-217.5,1107,-320.5
2020-12-14,492,-247.0,234.25,492,-247.0
2020-12-15,613,148.0,150.25,613,148.0
2020-12-16,788,53.5,-115.0,788,53.5
2020-12-17,720,-82.0,77.0,720,-82.0
2020-12-18,624,207.5,-115.0,624,207.5
2020-12-19,1135,-312.0,-671.25,1135,-312.0
2020-12-20,0,-1135.0,-823.0,0,-1135.0
