date, confirmed_daily_cases, first_order,second_order, confirmed_daily_cases_outlier_removed,first_order_outlier_removed,second_order_outlier_removed
2020-01-01,0,0.0,0.0,0,0.0
2020-01-02,0,0.0,0.0,0,0.0
2020-01-03,0,0.0,0.0,0,0.0
2020-01-04,0,0.0,0.0,0,0.0
2020-01-05,0,0.0,0.0,0,0.0
2020-01-06,0,0.0,0.0,0,0.0
2020-01-07,0,0.0,0.0,0,0.0
2020-01-08,0,0.0,0.0,0,0.0
2020-01-09,0,0.0,0.0,0,0.0
2020-01-10,0,0.0,0.0,0,0.0
2020-01-11,0,0.0,0.0,0,0.0
2020-01-12,0,0.0,0.0,0,0.0
2020-01-13,0,0.0,0.0,0,0.0
2020-01-14,0,0.0,0.0,0,0.0
2020-01-15,0,0.0,0.0,0,0.0
2020-01-16,0,0.0,0.0,0,0.0
2020-01-17,0,0.0,0.0,0,0.0
2020-01-18,0,0.0,0.0,0,0.0
2020-01-19,0,0.0,0.0,0,0.0
2020-01-20,0,0.0,0.0,0,0.0
2020-01-21,0,0.0,0.0,0,0.0
2020-01-22,0,0.0,0.0,0,0.0
2020-01-23,0,0.0,0.0,0,0.0
2020-01-24,0,0.0,0.0,0,0.0
2020-01-25,0,0.0,0.0,0,0.0
2020-01-26,0,0.0,0.0,0,0.0
2020-01-27,0,0.0,0.0,0,0.0
2020-01-28,0,0.0,0.0,0,0.0
2020-01-29,0,0.0,0.0,0,0.0
2020-01-30,0,0.0,0.0,0,0.0
2020-01-31,0,0.0,0.0,0,0.0
2020-02-01,0,0.0,0.0,0,0.0
2020-02-02,0,0.0,0.0,0,0.0
2020-02-03,0,0.0,0.0,0,0.0
2020-02-04,0,0.0,0.0,0,0.0
2020-02-05,0,0.0,0.0,0,0.0
2020-02-06,0,0.0,0.0,0,0.0
2020-02-07,0,0.0,0.0,0,0.0
2020-02-08,0,0.0,0.0,0,0.0
2020-02-09,0,0.0,0.0,0,0.0
2020-02-10,0,0.0,0.0,0,0.0
2020-02-11,0,0.0,0.0,0,0.0
2020-02-12,0,0.0,0.0,0,0.0
2020-02-13,0,0.0,0.0,0,0.0
2020-02-14,0,0.0,0.0,0,0.0
2020-02-15,0,0.0,0.0,0,0.0
2020-02-16,0,0.0,0.0,0,0.0
2020-02-17,0,0.0,0.0,0,0.0
2020-02-18,0,0.0,0.0,0,0.0
2020-02-19,0,0.0,0.0,0,0.0
2020-02-20,0,0.0,0.0,0,0.0
2020-02-21,0,0.0,0.0,0,0.0
2020-02-22,0,0.0,0.0,0,0.0
2020-02-23,0,0.0,0.0,0,0.0
2020-02-24,0,0.0,0.0,0,0.0
2020-02-25,0,0.0,0.0,0,0.0
2020-02-26,0,0.0,0.0,0,0.0
2020-02-27,0,0.0,0.0,0,0.0
2020-02-28,0,0.0,1.5,0,0.0
2020-02-29,0,3.0,0.0,0,3.0
2020-03-01,6,0.0,-2.75,6,0.0
2020-03-02,0,-2.5,0.75,0,-2.5
2020-03-03,1,1.5,1.75,1,1.5
2020-03-04,3,1.0,-1.5,3,1.0
2020-03-05,3,-1.5,-1.25,3,-1.5
2020-03-06,0,-1.5,1.0,0,-1.5
2020-03-07,0,0.5,1.0,0,0.5
2020-03-08,1,0.5,-0.5,1,0.5
2020-03-09,1,-0.5,0.0,1,-0.5
2020-03-10,0,0.5,0.25,0,0.5
2020-03-11,2,0.0,-0.75,2,0.0
2020-03-12,0,-1.0,2.75,0,-1.0
2020-03-13,0,5.5,0.5,0,5.5
2020-03-14,11,0.0,-3.25,11,0.0
2020-03-15,0,-1.0,5.25,0,-1.0
2020-03-16,9,10.5,11.5,9,10.5
2020-03-17,21,22.0,11.5,21,22.0
2020-03-18,53,33.5,17.75,53,33.5
2020-03-19,88,57.5,-4.0,88,57.5
2020-03-20,168,25.5,0.0,168,25.5
2020-03-21,139,57.5,0.5,139,57.5
2020-03-22,283,26.5,-74.25,283,26.5
2020-03-23,192,-91.0,-38.5,192,-91.0
2020-03-24,101,-50.5,77.75,101,-50.5
2020-03-25,91,64.5,50.5,91,64.5
2020-03-26,230,50.5,-32.75,230,50.5
2020-03-27,192,-1.0,-48.0,192,-1.0
2020-03-28,228,-45.5,-47.0,228,-45.5
2020-03-29,101,-95.0,67.0,101,-95.0
2020-03-30,38,88.5,165.0,38,88.5
2020-03-31,278,235.0,-10.0,278,235.0
2020-04-01,508,68.5,-193.25,508,68.5
2020-04-02,415,-151.5,-113.75,415,-151.5
2020-04-03,205,-159.0,69.75,205,-159.0
2020-04-04,97,-12.0,80.5,97,-12.0
2020-04-05,181,2.0,-39.25,181,2.0
2020-04-06,101,-90.5,149.5,101,-90.5
2020-04-07,0,301.0,174.0,0,301.0
2020-04-08,703,257.5,222.75,703,257.5
2020-04-09,515,746.5,-233.5,515,746.5
2020-04-10,2196,-209.5,-870.0,2196,-209.5
2020-04-11,96,-993.5,96.5,96,-993.5
2020-04-12,209,-16.5,463.0,209,-16.5
2020-04-13,63,-67.5,56.25,63,-67.5
2020-04-14,74,96.0,107.0,74,96.0
2020-04-15,255,146.5,-55.5,255,146.5
2020-04-16,367,-15.0,-22.0,367,-15.0
2020-04-17,225,102.5,62.75,225,102.5
2020-04-18,572,110.5,-29.25,572,110.5
2020-04-19,446,44.0,-99.25,446,44.0
2020-04-20,660,-88.0,-74.0,660,-88.0
2020-04-21,270,-104.0,59.75,270,-104.0
2020-04-22,452,31.5,2823.0,452,31.5
2020-04-23,333,5542.0,-99.0,333,5542.0
2020-04-24,11536,-166.5,-5655.0,166,-166.5
2020-04-25,0,-5768.0,213.5,0,-5768.0
2020-04-26,0,260.5,3138.5,0,260.5
2020-04-27,521,509.0,-156.25,521,509.0
2020-04-28,1018,-52.0,-444.25,1018,-52.0
2020-04-29,417,-379.5,272.25,417,-379.5
2020-04-30,259,492.5,407.0,259,492.5
2020-05-01,1402,434.5,-78.25,1402,434.5
2020-05-02,1128,336.0,86.5,1128,336.0
2020-05-03,2074,607.5,-686.5,2074,607.5
2020-05-04,2343,-1037.0,-889.5,2343,-1037.0
2020-05-05,0,-1171.5,518.5,0,-1171.5
2020-05-06,0,0.0,585.75,0,0.0
2020-05-07,0,0.0,63.25,0,0.0
2020-05-08,0,126.5,122.0,0,126.5
2020-05-09,253,244.0,-126.5,253,244.0
2020-05-10,488,-126.5,-16.5,488,-126.5
2020-05-11,0,211.0,80.0,0,211.0
2020-05-12,910,33.5,-329.0,910,33.5
2020-05-13,67,-447.0,207.75,67,-447.0
2020-05-14,16,449.0,543.5,16,449.0
2020-05-15,965,640.0,-361.0,965,640.0
2020-05-16,1296,-273.0,-544.0,1296,-273.0
2020-05-17,419,-448.0,174.0,419,-448.0
2020-05-18,400,75.0,299.75,400,75.0
2020-05-19,569,151.5,-66.75,569,151.5
2020-05-20,703,-58.5,-121.0,703,-58.5
2020-05-21,452,-90.5,23.75,452,-90.5
2020-05-22,522,-11.0,39.25,522,-11.0
2020-05-23,430,-12.0,47.75,430,-12.0
2020-05-24,498,84.5,-118.5,498,84.5
2020-05-25,599,-249.0,-5.0,599,-249.0
2020-05-26,0,74.5,216.5,0,74.5
2020-05-27,748,184.0,-199.25,748,184.0
2020-05-28,368,-324.0,-184.0,368,-324.0
2020-05-29,100,-184.0,268.75,100,-184.0
2020-05-30,0,213.5,92.0,0,213.5
2020-05-31,527,0.0,90.5,527,0.0
2020-06-01,0,394.5,138.0,0,394.5
2020-06-02,1316,276.0,-526.25,1316,276.0
2020-06-03,552,-658.0,-123.75,552,-658.0
2020-06-04,0,28.5,617.25,0,28.5
2020-06-05,609,576.5,-68.5,609,576.5
2020-06-06,1153,-108.5,-512.0,1153,-108.5
2020-06-07,392,-447.5,91.0,392,-447.5
2020-06-08,258,73.5,290.0,258,73.5
2020-06-09,539,132.5,-171.5,539,132.5
2020-06-10,523,-269.5,137.5,523,-269.5
2020-06-11,0,407.5,279.25,0,407.5
2020-06-12,1338,289.0,-439.5,1338,289.0
2020-06-13,578,-471.5,-146.25,578,-471.5
2020-06-14,395,-3.5,292.25,395,-3.5
2020-06-15,571,113.0,-4.25,571,113.0
2020-06-16,621,-12.0,-60.0,621,-12.0
2020-06-17,547,-7.0,27.75,547,-7.0
2020-06-18,607,43.5,-148.25,607,43.5
2020-06-19,634,-303.5,47.0,634,-303.5
2020-06-20,0,137.5,151.75,0,137.5
2020-06-21,909,0.0,-45.25,909,0.0
2020-06-22,0,47.0,0.0,0,47.0
2020-06-23,1003,0.0,104.0,1003,0.0
2020-06-24,0,255.0,175.0,0,255.0
2020-06-25,1513,350.0,-326.25,1513,350.0
2020-06-26,700,-397.5,-179.75,700,-397.5
2020-06-27,718,-9.5,121.75,718,-9.5
2020-06-28,681,-154.0,26.25,681,-154.0
2020-06-29,410,43.0,430.75,410,43.0
2020-06-30,767,707.5,89.5,767,707.5
2020-07-01,1825,222.0,-512.75,1825,222.0
2020-07-02,1211,-318.0,-194.25,1211,-318.0
2020-07-03,1189,-166.5,-32.5,1189,-166.5
2020-07-04,878,-383.0,-30.75,878,-383.0
2020-07-05,423,-228.0,302.0,423,-228.0
2020-07-06,422,221.0,8.5,422,221.0
2020-07-07,865,-211.0,-82.75,865,-211.0
2020-07-08,0,55.5,304.75,0,55.5
2020-07-09,976,398.5,276.0,976,398.5
2020-07-10,797,607.5,-233.25,797,607.5
2020-07-11,2191,-68.0,-704.25,2191,-68.0
2020-07-12,661,-801.0,146.5,661,-801.0
2020-07-13,589,225.0,443.0,589,225.0
2020-07-14,1111,85.0,-131.25,1111,85.0
2020-07-15,759,-37.5,37.5,759,-37.5
2020-07-16,1036,160.0,-5.75,1036,160.0
2020-07-17,1079,-49.0,-192.0,1079,-49.0
2020-07-18,938,-224.0,-58.25,938,-224.0
2020-07-19,631,-165.5,353.5,631,-165.5
2020-07-20,607,483.0,191.0,607,483.0
2020-07-21,1597,216.5,-418.0,1597,216.5
2020-07-22,1040,-353.0,-143.0,1040,-353.0
2020-07-23,891,-69.5,200.5,891,-69.5
2020-07-24,901,48.0,-26.0,901,48.0
2020-07-25,987,-121.5,-154.0,987,-121.5
2020-07-26,658,-260.0,175.75,658,-260.0
2020-07-27,467,230.0,241.75,467,230.0
2020-07-28,1118,223.5,-100.25,1118,223.5
2020-07-29,914,29.5,-94.0,914,29.5
2020-07-30,1177,35.5,-89.75,1177,35.5
2020-07-31,985,-150.0,-264.0,985,-150.0
2020-08-01,877,-492.5,58.0,877,-492.5
2020-08-02,0,-34.0,476.75,0,-34.0
2020-08-03,809,461.0,40.5,809,461.0
2020-08-04,922,47.0,-43.25,922,47.0
2020-08-05,903,374.5,108.75,903,374.5
2020-08-06,1671,264.5,-204.25,1671,264.5
2020-08-07,1432,-34.0,-268.5,1432,-34.0
2020-08-08,1603,-272.5,-323.25,1603,-272.5
2020-08-09,887,-680.5,130.0,887,-680.5
2020-08-10,242,-12.5,666.5,242,-12.5
2020-08-11,862,652.5,99.0,862,652.5
2020-08-12,1547,185.5,-446.5,1547,185.5
2020-08-13,1233,-240.5,-81.25,1233,-240.5
2020-08-14,1066,23.0,67.25,1066,23.0
2020-08-15,1279,-106.0,-279.0,1279,-106.0
2020-08-16,854,-535.0,137.0,854,-535.0
2020-08-17,209,168.0,598.75,209,168.0
2020-08-18,1190,662.5,-123.25,1190,662.5
2020-08-19,1534,-78.5,-471.5,1534,-78.5
2020-08-20,1033,-280.5,-67.0,1033,-280.5
2020-08-21,973,-212.5,67.0,973,-212.5
2020-08-22,608,-146.5,84.25,608,-146.5
2020-08-23,680,-44.0,88.5,680,-44.0
2020-08-24,520,30.5,271.75,520,30.5
2020-08-25,741,499.5,-33.0,741,499.5
2020-08-26,1519,-35.5,-399.0,1519,-35.5
2020-08-27,670,-298.5,41.5,670,-298.5
2020-08-28,922,47.5,104.25,922,47.5
2020-08-29,765,-90.0,-185.25,765,-90.0
2020-08-30,742,-323.0,-5.0,742,-323.0
2020-08-31,119,-100.0,418.75,119,-100.0
2020-09-01,542,514.5,140.25,542,514.5
2020-09-02,1148,180.5,-340.5,1148,180.5
2020-09-03,903,-166.5,-98.5,903,-166.5
2020-09-04,815,-16.5,-120.5,815,-16.5
2020-09-05,870,-407.5,-209.25,870,-407.5
2020-09-06,0,-435.0,370.0,0,-435.0
2020-09-07,0,332.5,569.75,0,332.5
2020-09-08,665,704.5,-72.5,665,704.5
2020-09-09,1409,187.5,-323.0,1409,187.5
2020-09-10,1040,58.5,76.0,1040,58.5
2020-09-11,1526,339.5,125.0,1526,339.5
2020-09-12,1719,308.5,-520.25,1719,308.5
2020-09-13,2143,-701.0,-529.5,2143,-701.0
2020-09-14,317,-750.5,764.25,317,-750.5
2020-09-15,642,827.5,397.75,642,827.5
2020-09-16,1972,45.0,-438.75,1972,45.0
2020-09-17,732,-50.0,167.25,732,-50.0
2020-09-18,1872,379.5,-243.25,1872,379.5
2020-09-19,1491,-536.5,-489.5,1491,-536.5
2020-09-20,799,-599.5,301.5,799,-599.5
2020-09-21,292,66.5,789.0,292,66.5
2020-09-22,932,978.5,47.25,932,978.5
2020-09-23,2249,161.0,-719.25,2249,161.0
2020-09-24,1254,-460.0,-17.5,1254,-460.0
2020-09-25,1329,126.0,89.25,1329,126.0
2020-09-26,1506,-281.5,-385.0,1506,-281.5
2020-09-27,766,-644.0,145.25,766,-644.0
2020-09-28,218,9.0,592.0,218,9.0
2020-09-29,784,540.0,183.75,784,540.0
2020-09-30,1298,376.5,-357.0,1298,376.5
2020-10-01,1537,-174.0,-368.25,1537,-174.0
2020-10-02,950,-360.0,20.25,950,-360.0
2020-10-03,817,-133.5,52.0,817,-133.5
2020-10-04,683,-256.0,75.25,683,-256.0
2020-10-05,305,17.0,420.5,305,17.0
2020-10-06,717,585.0,190.75,717,585.0
2020-10-07,1475,398.5,-460.5,1475,398.5
2020-10-08,1514,-336.0,-332.75,1514,-336.0
2020-10-09,803,-267.0,18.5,803,-267.0
2020-10-10,980,-299.0,-41.0,980,-299.0
2020-10-11,205,-349.0,312.25,205,-349.0
2020-10-12,282,325.5,332.0,282,325.5
2020-10-13,856,315.0,-57.5,856,315.0
2020-10-14,912,210.5,-60.75,912,210.5
2020-10-15,1277,193.5,-233.75,1277,193.5
2020-10-16,1299,-257.0,-204.75,1299,-257.0
2020-10-17,763,-216.0,-28.75,763,-216.0
2020-10-18,867,-314.5,64.25,867,-314.5
2020-10-19,134,-87.5,501.25,134,-87.5
2020-10-20,692,688.0,77.25,692,688.0
2020-10-21,1510,67.0,-266.75,1510,67.0
2020-10-22,826,154.5,96.0,826,154.5
2020-10-23,1819,259.0,-26.75,1819,259.0
2020-10-24,1344,101.0,-329.75,1344,101.0
2020-10-25,2021,-400.5,-302.25,2021,-400.5
2020-10-26,543,-503.5,493.5,543,-503.5
2020-10-27,1014,586.5,346.75,1014,586.5
2020-10-28,1716,190.0,-511.0,1716,190.0
2020-10-29,1394,-435.5,-182.25,1394,-435.5
2020-10-30,845,-174.5,257.0,845,-174.5
2020-10-31,1045,78.5,-82.0,1045,78.5
2020-11-01,1002,-338.5,-152.75,1002,-338.5
2020-11-02,368,-227.0,408.0,368,-227.0
2020-11-03,548,477.5,64.0,548,477.5
2020-11-04,1323,-99.0,-388.25,1323,-99.0
2020-11-05,350,-299.0,206.5,350,-299.0
2020-11-06,725,314.0,323.5,725,314.0
2020-11-07,978,348.0,-311.0,978,348.0
2020-11-08,1421,-308.0,-418.75,1421,-308.0
2020-11-09,362,-489.5,293.25,362,-489.5
2020-11-10,442,278.5,355.0,442,278.5
2020-11-11,919,220.5,-78.75,919,220.5
2020-11-12,883,121.0,-92.75,883,121.0
2020-11-13,1161,35.0,-183.75,1161,35.0
2020-11-14,953,-246.5,-160.5,953,-246.5
2020-11-15,668,-286.0,63.25,668,-286.0
2020-11-16,381,-120.0,334.25,381,-120.0
2020-11-17,428,382.5,202.0,428,382.5
2020-11-18,1146,284.0,-329.25,1146,284.0
2020-11-19,996,-276.0,-132.0,996,-276.0
2020-11-20,594,20.0,181.25,594,20.0
2020-11-21,1036,86.5,-193.75,1036,86.5
2020-11-22,767,-367.5,-112.0,767,-367.5
2020-11-23,301,-137.5,307.0,301,-137.5
2020-11-24,492,246.5,172.75,492,246.5
2020-11-25,794,208.0,27.25,794,208.0
2020-11-26,908,301.0,12.75,908,301.0
2020-11-27,1396,233.5,-197.5,1396,233.5
2020-11-28,1375,-94.0,-318.5,1375,-94.0
2020-11-29,1208,-403.5,-8.0,1208,-403.5
2020-11-30,568,-110.0,360.5,568,-110.0
2020-12-01,988,317.5,60.0,988,317.5
2020-12-02,1203,10.0,-310.0,1203,10.0
2020-12-03,1008,-302.5,-29.75,1008,-302.5
2020-12-04,598,-49.5,153.5,598,-49.5
2020-12-05,909,4.5,-141.0,909,4.5
2020-12-06,607,-331.5,-27.0,607,-331.5
2020-12-07,246,-49.5,223.25,246,-49.5
2020-12-08,508,115.0,185.5,508,115.0
2020-12-09,476,321.5,-80.0,476,321.5
2020-12-10,1151,-45.0,-258.75,1151,-45.0
2020-12-11,386,-196.0,72.5,386,-196.0
2020-12-12,759,100.0,-74.25,759,100.0
2020-12-13,586,-344.5,-152.5,586,-344.5
2020-12-14,70,-205.0,431.0,70,-205.0
2020-12-15,176,517.5,255.5,176,517.5
2020-12-16,1105,306.0,-346.5,482,306.0
2020-12-17,788,-175.5,-120.75,788,-175.5
2020-12-18,754,64.5,-100.75,754,64.5
2020-12-19,917,-377.0,-490.75,917,-377.0
2020-12-20,0,-917.0,-540.0,0,-917.0
