date, confirmed_daily_cases, first_order,second_order, confirmed_daily_cases_outlier_removed,first_order_outlier_removed,second_order_outlier_removed
2020-01-01,0,0.0,0.0,0,0.0
2020-01-02,0,0.0,0.0,0,0.0
2020-01-03,0,0.0,0.0,0,0.0
2020-01-04,0,0.0,0.0,0,0.0
2020-01-05,0,0.0,0.0,0,0.0
2020-01-06,0,0.0,0.0,0,0.0
2020-01-07,0,0.0,0.0,0,0.0
2020-01-08,0,0.0,0.0,0,0.0
2020-01-09,0,0.0,0.0,0,0.0
2020-01-10,0,0.0,0.0,0,0.0
2020-01-11,0,0.0,0.0,0,0.0
2020-01-12,0,0.0,0.0,0,0.0
2020-01-13,0,0.0,0.0,0,0.0
2020-01-14,0,0.0,0.0,0,0.0
2020-01-15,0,0.0,0.0,0,0.0
2020-01-16,0,0.0,0.0,0,0.0
2020-01-17,0,0.0,0.0,0,0.0
2020-01-18,0,0.0,0.0,0,0.0
2020-01-19,0,0.0,0.0,0,0.0
2020-01-20,0,0.0,0.0,0,0.0
2020-01-21,0,0.0,0.0,0,0.0
2020-01-22,0,0.0,0.0,0,0.0
2020-01-23,0,0.0,0.0,0,0.0
2020-01-24,0,0.0,0.0,0,0.0
2020-01-25,0,0.0,0.0,0,0.0
2020-01-26,0,0.0,0.0,0,0.0
2020-01-27,0,0.0,0.0,0,0.0
2020-01-28,0,0.0,0.0,0,0.0
2020-01-29,0,0.0,0.0,0,0.0
2020-01-30,0,0.0,0.0,0,0.0
2020-01-31,0,0.0,0.0,0,0.0
2020-02-01,0,0.0,0.0,0,0.0
2020-02-02,0,0.0,0.0,0,0.0
2020-02-03,0,0.0,0.0,0,0.0
2020-02-04,0,0.0,0.0,0,0.0
2020-02-05,0,0.0,0.0,0,0.0
2020-02-06,0,0.0,0.0,0,0.0
2020-02-07,0,0.0,0.0,0,0.0
2020-02-08,0,0.0,0.0,0,0.0
2020-02-09,0,0.0,0.0,0,0.0
2020-02-10,0,0.0,0.0,0,0.0
2020-02-11,0,0.0,0.0,0,0.0
2020-02-12,0,0.0,0.0,0,0.0
2020-02-13,0,0.0,0.0,0,0.0
2020-02-14,0,0.0,0.0,0,0.0
2020-02-15,0,0.0,0.0,0,0.0
2020-02-16,0,0.0,0.0,0,0.0
2020-02-17,0,0.0,0.0,0,0.0
2020-02-18,0,0.0,0.0,0,0.0
2020-02-19,0,0.0,0.0,0,0.0
2020-02-20,0,0.0,0.0,0,0.0
2020-02-21,0,0.0,0.0,0,0.0
2020-02-22,0,0.0,0.0,0,0.0
2020-02-23,0,0.0,0.0,0,0.0
2020-02-24,0,0.0,0.0,0,0.0
2020-02-25,0,0.0,0.0,0,0.0
2020-02-26,0,0.0,0.0,0,0.0
2020-02-27,0,0.0,0.0,0,0.0
2020-02-28,0,0.0,0.0,0,0.0
2020-02-29,0,0.0,0.0,0,0.0
2020-03-01,0,0.0,0.0,0,0.0
2020-03-02,0,0.0,0.0,0,0.0
2020-03-03,0,0.0,0.0,0,0.0
2020-03-04,0,0.0,0.0,0,0.0
2020-03-05,0,0.0,0.0,0,0.0
2020-03-06,0,0.0,0.0,0,0.0
2020-03-07,0,0.0,0.0,0,0.0
2020-03-08,0,0.0,0.0,0,0.0
2020-03-09,0,0.0,0.0,0,0.0
2020-03-10,0,0.0,0.0,0,0.0
2020-03-11,0,0.0,0.0,0,0.0
2020-03-12,0,0.0,0.25,0,0.0
2020-03-13,0,0.5,0.0,0,0.5
2020-03-14,1,0.0,-0.5,1,0.0
2020-03-15,0,-0.5,0.0,0,-0.5
2020-03-16,0,0.0,0.25,0,0.0
2020-03-17,0,0.0,0.0,0,0.0
2020-03-18,0,0.0,0.0,0,0.0
2020-03-19,0,0.0,0.0,0,0.0
2020-03-20,0,0.0,0.75,0,0.0
2020-03-21,0,1.5,0.0,0,1.5
2020-03-22,3,0.0,-1.5,3,0.0
2020-03-23,0,-1.5,0.0,0,-1.5
2020-03-24,0,0.0,1.25,0,0.0
2020-03-25,0,1.0,0.75,0,1.0
2020-03-26,2,1.5,-1.0,2,1.5
2020-03-27,3,-1.0,-1.5,3,-1.0
2020-03-28,0,-1.5,0.5,0,-1.5
2020-03-29,0,0.0,0.75,0,0.0
2020-03-30,0,0.0,0.0,0,0.0
2020-03-31,0,0.0,0.0,0,0.0
2020-04-01,0,0.0,0.0,0,0.0
2020-04-02,0,0.0,0.0,0,0.0
2020-04-03,0,0.0,0.0,0,0.0
2020-04-04,0,0.0,0.25,0,0.0
2020-04-05,0,0.5,0.0,0,0.5
2020-04-06,1,0.0,0.0,1,0.0
2020-04-07,0,0.5,0.0,0,0.5
2020-04-08,2,0.0,-0.75,2,0.0
2020-04-09,0,-1.0,0.0,0,-1.0
2020-04-10,0,0.0,1.0,0,0.0
2020-04-11,0,1.0,0.25,0,1.0
2020-04-12,2,0.5,-1.0,2,0.5
2020-04-13,1,-1.0,-0.5,1,-1.0
2020-04-14,0,-0.5,0.75,0,-0.5
2020-04-15,0,0.5,0.25,0,0.5
2020-04-16,1,0.0,1.0,1,0.0
2020-04-17,0,2.5,0.0,0,2.5
2020-04-18,6,0.0,-2.25,6,0.0
2020-04-19,0,-2.0,1.75,0,-2.0
2020-04-20,2,3.5,0.5,2,3.5
2020-04-21,7,-1.0,-3.5,7,-1.0
2020-04-22,0,-3.5,1.75,0,-3.5
2020-04-23,0,2.5,6.75,0,2.5
2020-04-24,5,10.0,-1.75,5,10.0
2020-04-25,20,-1.0,-8.5,20,-1.0
2020-04-26,3,-7.0,1.25,3,-7.0
2020-04-27,6,1.5,7.0,6,1.5
2020-04-28,6,7.0,0.0,6,7.0
2020-04-29,20,1.5,-7.0,20,1.5
2020-04-30,9,-7.0,-2.5,9,-7.0
2020-05-01,6,-3.5,3.0,6,-3.5
2020-05-02,2,-1.0,2.25,2,-1.0
2020-05-03,4,1.0,0.25,4,1.0
2020-05-04,4,-0.5,-0.5,4,-0.5
2020-05-05,3,0.0,7.0,3,0.0
2020-05-06,4,13.5,0.5,4,13.5
2020-05-07,30,1.0,-13.25,30,1.0
2020-05-08,6,-13.0,0.25,6,-13.0
2020-05-09,4,1.5,6.25,4,1.5
2020-05-10,9,-0.5,-0.75,9,-0.5
2020-05-11,3,0.0,0.25,3,0.0
2020-05-12,9,0.0,-2.25,9,0.0
2020-05-13,3,-4.5,0.0,3,-4.5
2020-05-14,0,0.0,5.25,0,0.0
2020-05-15,3,6.0,-0.5,3,6.0
2020-05-16,12,-1.0,-5.5,12,-1.0
2020-05-17,1,-5.0,1.0,1,-5.0
2020-05-18,2,1.0,4.25,2,1.0
2020-05-19,3,3.5,-0.5,3,3.5
2020-05-20,9,0.0,-2.75,9,0.0
2020-05-21,3,-2.0,2.5,3,-2.0
2020-05-22,5,5.0,2.75,5,5.0
2020-05-23,13,3.5,-4.25,13,3.5
2020-05-24,12,-3.5,-3.5,12,-3.5
2020-05-25,6,-3.5,3.0,6,-3.5
2020-05-26,5,2.5,2.25,5,2.5
2020-05-27,11,1.0,-4.0,11,1.0
2020-05-28,7,-5.5,-1.25,7,-5.5
2020-05-29,0,-1.5,3.25,0,-1.5
2020-05-30,4,1.0,1.75,4,1.0
2020-05-31,2,2.0,-0.75,2,2.0
2020-06-01,8,-0.5,-2.75,8,-0.5
2020-06-02,1,-3.5,1.25,1,-3.5
2020-06-03,1,2.0,2.75,1,2.0
2020-06-04,5,2.0,2.0,5,2.0
2020-06-05,5,6.0,0.5,5,6.0
2020-06-06,17,3.0,-5.5,17,3.0
2020-06-07,11,-5.0,3.5,11,-5.0
2020-06-08,7,10.0,7.5,7,10.0
2020-06-09,31,10.0,0.0,31,10.0
2020-06-10,27,10.0,-6.0,27,10.0
2020-06-11,51,-2.0,-14.25,51,-2.0
2020-06-12,23,-18.5,-3.75,23,-18.5
2020-06-13,14,-9.5,9.75,14,-9.5
2020-06-14,4,1.0,7.25,4,1.0
2020-06-15,16,5.0,6.25,16,5.0
2020-06-16,14,13.5,-0.25,14,13.5
2020-06-17,43,4.5,-8.25,43,4.5
2020-06-18,23,-3.0,-7.0,23,-3.0
2020-06-19,37,-9.5,-5.75,37,-9.5
2020-06-20,4,-14.5,5.75,4,-14.5
2020-06-21,8,2.0,13.0,8,2.0
2020-06-22,8,11.5,1.0,8,11.5
2020-06-23,31,4.0,-9.5,31,4.0
2020-06-24,16,-7.5,-0.5,16,-7.5
2020-06-25,16,3.0,4.0,16,3.0
2020-06-26,22,0.5,2.0,22,0.5
2020-06-27,17,7.0,-1.0,17,7.0
2020-06-28,36,-1.5,-8.25,36,-1.5
2020-06-29,14,-9.5,4.25,14,-9.5
2020-06-30,17,7.0,8.75,17,7.0
2020-07-01,28,8.0,-1.5,28,8.0
2020-07-02,33,4.0,-1.0,33,4.0
2020-07-03,36,6.0,-2.5,36,6.0
2020-07-04,45,-1.0,-8.5,45,-1.0
2020-07-05,34,-11.0,3.25,34,-11.0
2020-07-06,23,5.5,20.25,23,5.5
2020-07-07,45,29.5,4.75,45,29.5
2020-07-08,82,15.0,-24.25,82,15.0
2020-07-09,75,-19.0,-12.75,75,-19.0
2020-07-10,44,-10.5,8.5,44,-10.5
2020-07-11,54,-2.0,1.25,54,-2.0
2020-07-12,40,-8.0,2.25,40,-8.0
2020-07-13,38,2.5,8.25,38,2.5
2020-07-14,45,8.5,3.25,45,8.5
2020-07-15,55,9.0,-1.25,55,9.0
2020-07-16,63,6.0,7.25,63,6.0
2020-07-17,67,23.5,-3.75,67,23.5
2020-07-18,110,-1.5,-31.0,110,-1.5
2020-07-19,64,-38.5,1.75,64,-38.5
2020-07-20,33,2.0,22.0,33,2.0
2020-07-21,68,5.5,2.75,68,5.5
2020-07-22,44,7.5,-0.75,44,7.5
2020-07-23,83,4.0,-7.25,83,4.0
2020-07-24,52,-7.0,1.25,52,-7.0
2020-07-25,69,6.5,13.5,69,6.5
2020-07-26,65,20.0,2.5,65,20.0
2020-07-27,109,11.5,-0.5,109,11.5
2020-07-28,88,19.0,-21.25,88,19.0
2020-07-29,147,-31.0,-28.5,147,-31.0
2020-07-30,26,-38.0,23.5,26,-38.0
2020-07-31,71,16.0,18.5,71,16.0
2020-08-01,58,-1.0,-6.75,58,-1.0
2020-08-02,69,2.5,-12.25,69,2.5
2020-08-03,63,-25.5,-3.75,63,-25.5
2020-08-04,18,-5.0,23.0,18,-5.0
2020-08-05,53,20.5,6.25,53,20.5
2020-08-06,59,7.5,-2.0,59,7.5
2020-08-07,68,16.5,6.25,68,16.5
2020-08-08,92,20.0,-13.0,92,20.0
2020-08-09,108,-9.5,-11.75,108,-9.5
2020-08-10,73,-3.5,15.25,73,-3.5
2020-08-11,101,21.0,-5.0,101,21.0
2020-08-12,115,-13.5,-21.5,115,-13.5
2020-08-13,74,-22.0,7.0,74,-22.0
2020-08-14,71,0.5,16.75,71,0.5
2020-08-15,75,11.5,-5.25,75,11.5
2020-08-16,94,-10.0,-5.5,94,-10.0
2020-08-17,55,0.5,8.5,55,0.5
2020-08-18,95,7.0,-11.0,95,7.0
2020-08-19,69,-21.5,-16.25,69,-21.5
2020-08-20,52,-25.5,13.0,52,-25.5
2020-08-21,18,4.5,17.25,18,4.5
2020-08-22,61,9.0,2.25,61,9.0
2020-08-23,36,9.0,-7.75,36,9.0
2020-08-24,79,-6.5,-9.25,79,-6.5
2020-08-25,23,-9.5,9.0,23,-9.5
2020-08-26,60,11.5,-3.25,60,11.5
2020-08-27,46,-16.0,-5.0,46,-16.0
2020-08-28,28,1.5,13.75,28,1.5
2020-08-29,49,11.5,-9.0,49,11.5
2020-08-30,51,-16.5,-8.25,51,-16.5
2020-08-31,16,-5.0,16.75,16,-5.0
2020-09-01,41,17.0,5.25,41,17.0
2020-09-02,50,5.5,-6.0,50,5.5
2020-09-03,52,5.0,-6.0,52,5.0
2020-09-04,60,-6.5,-9.0,60,-6.5
2020-09-05,39,-13.0,1.25,39,-13.0
2020-09-06,34,-4.0,3.0,34,-4.0
2020-09-07,31,-7.0,2.25,31,-7.0
2020-09-08,20,0.5,13.0,20,0.5
2020-09-09,32,19.0,-0.5,32,19.0
2020-09-10,58,-0.5,-17.75,58,-0.5
2020-09-11,31,-16.5,-1.25,31,-16.5
2020-09-12,25,-3.0,9.25,25,-3.0
2020-09-13,25,2.0,1.25,25,2.0
2020-09-14,29,-0.5,-1.5,29,-0.5
2020-09-15,24,-1.0,3.25,24,-1.0
2020-09-16,27,6.0,-0.25,27,6.0
2020-09-17,36,-1.5,-4.5,36,-1.5
2020-09-18,24,-3.0,0.75,24,-3.0
2020-09-19,30,0.0,-2.75,30,0.0
2020-09-20,24,-8.5,0.25,24,-8.5
2020-09-21,13,0.5,10.0,13,0.5
2020-09-22,25,11.5,1.5,25,11.5
2020-09-23,36,3.5,-8.75,36,3.5
2020-09-24,32,-6.0,-4.75,32,-6.0
2020-09-25,24,-6.0,0.0,24,-6.0
2020-09-26,20,-6.0,3.25,20,-6.0
2020-09-27,12,0.5,2.5,12,0.5
2020-09-28,21,-1.0,-0.5,21,-1.0
2020-09-29,10,-0.5,2.5,10,-0.5
2020-09-30,20,4.0,0.5,20,4.0
2020-10-01,18,0.5,-4.25,18,0.5
2020-10-02,21,-4.5,4.25,21,-4.5
2020-10-03,9,9.0,2.5,9,9.0
2020-10-04,39,0.5,-9.5,39,0.5
2020-10-05,10,-10.0,2.0,10,-10.0
2020-10-06,19,4.5,4.0,19,4.5
2020-10-07,19,-2.0,-4.0,19,-2.0
2020-10-08,15,-3.5,1.25,15,-3.5
2020-10-09,12,0.5,1.0,12,0.5
2020-10-10,16,-1.5,-0.75,16,-1.5
2020-10-11,9,-1.0,1.75,9,-1.0
2020-10-12,14,2.0,1.75,14,2.0
2020-10-13,13,2.5,0.25,13,2.5
2020-10-14,19,2.5,-2.75,19,2.5
2020-10-15,18,-3.0,-1.0,18,-3.0
2020-10-16,13,0.5,2.0,13,0.5
2020-10-17,19,1.0,-3.0,19,1.0
2020-10-18,15,-5.5,-1.25,15,-5.5
2020-10-19,8,-1.5,2.0,8,-1.5
2020-10-20,12,-1.5,0.0,12,-1.5
2020-10-21,5,-1.5,3.75,5,-1.5
2020-10-22,9,6.0,2.5,9,6.0
2020-10-23,17,3.5,-5.5,17,3.5
2020-10-24,16,-5.0,-3.5,16,-5.0
2020-10-25,7,-3.5,3.75,7,-3.5
2020-10-26,9,2.5,2.25,9,2.5
2020-10-27,12,1.0,-1.0,12,1.0
2020-10-28,11,0.5,-0.75,11,0.5
2020-10-29,13,-0.5,-1.5,13,-0.5
2020-10-30,10,-2.5,-0.25,10,-2.5
2020-10-31,8,-1.0,0.25,8,-1.0
2020-11-01,8,-2.0,1.75,8,-2.0
2020-11-02,4,2.5,3.25,4,2.5
2020-11-03,13,4.5,-1.5,13,4.5
2020-11-04,13,-0.5,-3.25,13,-0.5
2020-11-05,12,-2.0,0.5,12,-2.0
2020-11-06,9,0.5,2.25,9,0.5
2020-11-07,13,2.5,-1.0,13,2.5
2020-11-08,14,-1.5,-2.0,14,-1.5
2020-11-09,10,-1.5,3.25,10,-1.5
2020-11-10,11,5.0,2.0,11,5.0
2020-11-11,20,2.5,-3.5,20,2.5
2020-11-12,16,-2.0,-1.0,16,-2.0
2020-11-13,16,0.5,-2.5,16,0.5
2020-11-14,17,-7.0,-2.0,17,-7.0
2020-11-15,2,-3.5,7.75,2,-3.5
2020-11-16,10,8.5,4.25,10,8.5
2020-11-17,19,5.0,-6.0,19,5.0
2020-11-18,20,-3.5,-0.25,20,-3.5
2020-11-19,12,4.5,3.75,12,4.5
2020-11-20,29,4.0,-6.0,29,4.0
2020-11-21,20,-7.5,-3.5,20,-7.5
2020-11-22,14,-3.0,3.75,14,-3.0
2020-11-23,14,0.0,4.25,14,0.0
2020-11-24,14,5.5,10.75,14,5.5
2020-11-25,25,21.5,-0.75,25,21.5
2020-11-26,57,4.0,-14.0,57,4.0
2020-11-27,33,-6.5,-9.25,33,-6.5
2020-11-28,44,-14.5,-5.5,44,-14.5
2020-11-29,4,-17.5,12.0,4,-17.5
2020-11-30,9,9.5,9.75,9,9.5
2020-12-01,23,2.0,-5.75,23,2.0
2020-12-02,13,-2.0,-2.75,13,-2.0
2020-12-03,19,-3.5,0.0,19,-3.5
2020-12-04,6,-2.0,1.75,6,-2.0
2020-12-05,15,0.0,4.25,15,0.0
2020-12-06,6,6.5,7.0,6,6.5
2020-12-07,28,14.0,2.0,28,14.0
2020-12-08,34,10.5,-10.25,34,10.5
2020-12-09,49,-6.5,-4.5,49,-6.5
2020-12-10,21,1.5,5.25,21,1.5
2020-12-11,52,4.0,-0.25,52,4.0
2020-12-12,29,1.0,5.0,29,1.0
2020-12-13,54,14.0,7.75,54,14.0
2020-12-14,57,16.5,7.25,57,16.5
2020-12-15,87,28.5,-13.25,87,28.5
2020-12-16,114,-10.0,-15.5,114,-10.0
2020-12-17,67,-2.5,14.0,67,-2.5
2020-12-18,109,18.0,-26.0,109,18.0
2020-12-19,103,-54.5,-60.5,103,-54.5
2020-12-20,0,-103.0,-48.5,0,-103.0
