date, confirmed_daily_cases, first_order,second_order, confirmed_daily_cases_outlier_removed,first_order_outlier_removed,second_order_outlier_removed
2020-01-01,0,0.0,0.0,0,0.0
2020-01-02,0,0.0,0.0,0,0.0
2020-01-03,0,0.0,0.0,0,0.0
2020-01-04,0,0.0,0.0,0,0.0
2020-01-05,0,0.0,0.0,0,0.0
2020-01-06,0,0.0,0.0,0,0.0
2020-01-07,0,0.0,0.0,0,0.0
2020-01-08,0,0.0,0.0,0,0.0
2020-01-09,0,0.0,0.0,0,0.0
2020-01-10,0,0.0,0.0,0,0.0
2020-01-11,0,0.0,0.0,0,0.0
2020-01-12,0,0.0,0.0,0,0.0
2020-01-13,0,0.0,0.0,0,0.0
2020-01-14,0,0.0,0.0,0,0.0
2020-01-15,0,0.0,0.0,0,0.0
2020-01-16,0,0.0,0.0,0,0.0
2020-01-17,0,0.0,0.0,0,0.0
2020-01-18,0,0.0,0.0,0,0.0
2020-01-19,0,0.0,0.0,0,0.0
2020-01-20,0,0.0,0.0,0,0.0
2020-01-21,0,0.0,0.0,0,0.0
2020-01-22,0,0.0,0.0,0,0.0
2020-01-23,0,0.0,0.0,0,0.0
2020-01-24,0,0.0,0.0,0,0.0
2020-01-25,0,0.0,0.0,0,0.0
2020-01-26,0,0.0,0.0,0,0.0
2020-01-27,0,0.0,0.25,0,0.0
2020-01-28,0,0.5,0.0,0,0.5
2020-01-29,1,0.0,-0.5,1,0.0
2020-01-30,0,-0.5,0.0,0,-0.5
2020-01-31,0,0.0,0.25,0,0.0
2020-02-01,0,0.0,0.0,0,0.0
2020-02-02,0,0.0,0.0,0,0.0
2020-02-03,0,0.0,0.0,0,0.0
2020-02-04,0,0.0,0.0,0,0.0
2020-02-05,0,0.0,0.0,0,0.0
2020-02-06,0,0.0,0.0,0,0.0
2020-02-07,0,0.0,0.0,0,0.0
2020-02-08,0,0.0,0.0,0,0.0
2020-02-09,0,0.0,0.0,0,0.0
2020-02-10,0,0.0,0.0,0,0.0
2020-02-11,0,0.0,0.0,0,0.0
2020-02-12,0,0.0,0.0,0,0.0
2020-02-13,0,0.0,0.0,0,0.0
2020-02-14,0,0.0,0.0,0,0.0
2020-02-15,0,0.0,0.0,0,0.0
2020-02-16,0,0.0,0.0,0,0.0
2020-02-17,0,0.0,0.0,0,0.0
2020-02-18,0,0.0,0.0,0,0.0
2020-02-19,0,0.0,0.0,0,0.0
2020-02-20,0,0.0,0.0,0,0.0
2020-02-21,0,0.0,0.0,0,0.0
2020-02-22,0,0.0,0.0,0,0.0
2020-02-23,0,0.0,0.0,0,0.0
2020-02-24,0,0.0,0.25,0,0.0
2020-02-25,0,0.5,0.0,0,0.5
2020-02-26,1,0.0,-0.5,1,0.0
2020-02-27,0,-0.5,0.25,0,-0.5
2020-02-28,0,0.5,1.0,0,0.5
2020-02-29,1,1.5,-0.5,1,1.5
2020-03-01,3,-0.5,-1.5,3,-0.5
2020-03-02,0,-1.5,0.25,0,-1.5
2020-03-03,0,0.0,2.25,0,0.0
2020-03-04,0,3.0,0.75,0,3.0
2020-03-05,6,1.5,-3.0,6,1.5
2020-03-06,3,-3.0,0.5,3,-3.0
2020-03-07,0,2.5,3.25,0,2.5
2020-03-08,8,3.5,-0.75,8,3.5
2020-03-09,7,1.0,1.25,7,1.0
2020-03-10,10,6.0,-3.0,10,6.0
2020-03-11,19,-5.0,16.25,19,-5.0
2020-03-12,0,38.5,20.0,0,38.5
2020-03-13,96,35.0,-38.5,96,35.0
2020-03-14,70,-38.5,-26.75,70,-38.5
2020-03-15,19,-18.5,25.5,19,-18.5
2020-03-16,33,12.5,4.75,33,12.5
2020-03-17,44,-9.0,-1.25,44,-9.0
2020-03-18,15,10.0,13.25,15,10.0
2020-03-19,64,17.5,-2.75,64,17.5
2020-03-20,50,4.5,4.5,50,4.5
2020-03-21,73,26.5,-2.0,73,26.5
2020-03-22,103,0.5,-16.0,103,0.5
2020-03-23,74,-5.5,3.25,74,-5.5
2020-03-24,92,7.0,-0.75,92,7.0
2020-03-25,88,-7.0,-4.75,88,-7.0
2020-03-26,78,-2.5,15.5,78,-2.5
2020-03-27,83,24.0,-1.25,83,24.0
2020-03-28,126,-5.0,-15.5,126,-5.0
2020-03-29,73,-7.0,0.75,73,-7.0
2020-03-30,112,-3.5,-17.5,112,-3.5
2020-03-31,66,-42.0,3.25,66,-42.0
2020-04-01,28,3.0,38.25,28,3.0
2020-04-02,72,34.5,47.25,72,34.5
2020-04-03,97,97.5,-30.25,97,97.5
2020-04-04,267,-26.0,-53.25,267,-26.0
2020-04-05,45,-9.0,34.75,45,-9.0
2020-04-06,249,43.5,-13.0,249,43.5
2020-04-07,132,-35.0,-25.25,132,-35.0
2020-04-08,179,-7.0,13.75,179,-7.0
2020-04-09,118,-7.5,8.0,118,-7.5
2020-04-10,164,9.0,-20.0,164,9.0
2020-04-11,136,-47.5,-16.0,136,-47.5
2020-04-12,69,-23.0,30.75,69,-23.0
2020-04-13,90,14.0,8.0,90,14.0
2020-04-14,97,-7.0,1.75,97,-7.0
2020-04-15,76,17.5,14.5,76,17.5
2020-04-16,132,22.0,6.25,132,22.0
2020-04-17,120,30.0,-15.5,120,30.0
2020-04-18,192,-9.0,-41.75,192,-9.0
2020-04-19,102,-53.5,15.5,102,-53.5
2020-04-20,85,22.0,34.25,85,22.0
2020-04-21,146,15.0,-8.75,146,15.0
2020-04-22,115,4.5,-8.5,115,4.5
2020-04-23,155,-2.0,-21.0,155,-2.0
2020-04-24,111,-37.5,-1.5,111,-37.5
2020-04-25,80,-5.0,28.5,80,-5.0
2020-04-26,101,19.5,-11.5,101,19.5
2020-04-27,119,-28.0,2.0,119,-28.0
2020-04-28,45,23.5,25.0,45,23.5
2020-04-29,166,22.0,-39.25,166,22.0
2020-04-30,89,-55.0,-2.0,89,-55.0
2020-05-01,56,18.0,33.0,56,18.0
2020-05-02,125,11.0,-22.0,125,11.0
2020-05-03,78,-26.0,-3.75,78,-26.0
2020-05-04,73,3.5,35.0,73,3.5
2020-05-05,85,44.0,2.0,85,44.0
2020-05-06,161,7.5,-46.0,161,7.5
2020-05-07,100,-48.0,6.75,100,-48.0
2020-05-08,65,21.0,28.25,65,21.0
2020-05-09,142,8.5,-40.5,142,8.5
2020-05-10,82,-60.0,-20.0,82,-60.0
2020-05-11,22,-31.5,37.25,22,-31.5
2020-05-12,19,14.5,33.75,19,14.5
2020-05-13,51,36.0,0.75,51,36.0
2020-05-14,91,16.0,-26.25,91,16.0
2020-05-15,83,-16.5,-13.5,83,-16.5
2020-05-16,58,-11.0,2.0,58,-11.0
2020-05-17,61,-12.5,-5.0,61,-12.5
2020-05-18,33,-21.0,9.0,33,-21.0
2020-05-19,19,5.5,18.25,19,5.5
2020-05-20,44,15.5,-2.75,44,15.5
2020-05-21,50,0.0,-12.5,50,0.0
2020-05-22,44,-9.5,-8.25,44,-9.5
2020-05-23,31,-16.5,2.0,31,-16.5
2020-05-24,11,-5.5,12.75,11,-5.5
2020-05-25,20,9.0,13.75,20,9.0
2020-05-26,29,22.0,1.0,29,22.0
2020-05-27,64,11.0,-18.75,64,11.0
2020-05-28,51,-15.5,-5.75,51,-15.5
2020-05-29,33,-0.5,7.75,33,-0.5
2020-05-30,50,0.0,-5.75,50,0.0
2020-05-31,33,-12.0,-7.75,33,-12.0
2020-06-01,26,-15.5,5.5,26,-15.5
2020-06-02,2,-1.0,7.25,2,-1.0
2020-06-03,24,-1.0,2.0,24,-1.0
2020-06-04,0,3.0,6.25,0,3.0
2020-06-05,30,11.5,-4.75,30,11.5
2020-06-06,23,-6.5,-6.5,23,-6.5
2020-06-07,17,-1.5,5.0,17,-1.5
2020-06-08,20,3.5,-0.5,20,3.5
2020-06-09,24,-2.5,-1.75,24,-2.5
2020-06-10,15,0.0,-0.25,15,0.0
2020-06-11,24,-3.0,-2.5,24,-3.0
2020-06-12,9,-5.0,3.5,9,-5.0
2020-06-13,14,4.0,0.0,14,4.0
2020-06-14,17,-5.0,-5.25,17,-5.0
2020-06-15,4,-6.5,2.75,4,-6.5
2020-06-16,4,0.5,2.75,4,0.5
2020-06-17,5,-1.0,2.0,5,-1.0
2020-06-18,2,4.5,2.25,2,4.5
2020-06-19,14,3.5,-5.5,14,3.5
2020-06-20,9,-6.5,-3.75,9,-6.5
2020-06-21,1,-4.0,5.75,1,-4.0
2020-06-22,1,5.0,4.75,1,5.0
2020-06-23,11,5.5,-4.0,11,5.5
2020-06-24,12,-3.0,-1.0,12,-3.0
2020-06-25,5,3.5,2.0,5,3.5
2020-06-26,19,1.0,-6.5,19,1.0
2020-06-27,7,-9.5,0.5,7,-9.5
2020-06-28,0,2.0,6.0,0,2.0
2020-06-29,11,2.5,1.75,11,2.5
2020-06-30,5,5.5,-1.25,5,5.5
2020-07-01,22,0.0,-8.0,22,0.0
2020-07-02,5,-10.5,0.25,5,-10.5
2020-07-03,1,0.5,6.25,1,0.5
2020-07-04,6,2.0,-0.75,6,2.0
2020-07-05,5,-1.0,-1.0,5,-1.0
2020-07-06,4,0.0,0.25,4,0.0
2020-07-07,5,-0.5,0.75,5,-0.5
2020-07-08,3,1.5,1.0,3,1.5
2020-07-09,8,1.5,0.25,8,1.5
2020-07-10,6,2.0,-1.5,6,2.0
2020-07-11,12,-1.5,-3.75,12,-1.5
2020-07-12,3,-5.5,1.5,3,-5.5
2020-07-13,1,1.5,2.5,1,1.5
2020-07-14,6,-0.5,-2.25,6,-0.5
2020-07-15,0,-3.0,2.25,0,-3.0
2020-07-16,0,4.0,5.75,0,4.0
2020-07-17,8,8.5,0.25,8,8.5
2020-07-18,17,4.5,-7.25,17,4.5
2020-07-19,17,-6.0,-3.75,17,-6.0
2020-07-20,5,-3.0,4.5,5,-3.0
2020-07-21,11,3.0,1.25,11,3.0
2020-07-22,11,-0.5,-2.25,11,-0.5
2020-07-23,10,-1.5,-0.25,10,-1.5
2020-07-24,8,-1.0,0.0,8,-1.0
2020-07-25,8,-1.5,-0.25,8,-1.5
2020-07-26,5,-1.5,1.0,5,-1.5
2020-07-27,5,0.5,2.0,5,0.5
2020-07-28,6,2.5,0.5,6,2.5
2020-07-29,10,1.5,-1.5,10,1.5
2020-07-30,9,-0.5,-0.25,9,-0.5
2020-07-31,9,1.0,0.5,9,1.0
2020-08-01,11,0.5,0.0,11,0.5
2020-08-02,10,1.0,1.5,10,1.0
2020-08-03,13,3.5,3.5,13,3.5
2020-08-04,17,8.0,-1.0,17,8.0
2020-08-05,29,1.5,-5.75,29,1.5
2020-08-06,20,-3.5,-2.25,20,-3.5
2020-08-07,22,-3.0,0.25,22,-3.0
2020-08-08,14,-3.0,2.25,14,-3.0
2020-08-09,16,1.5,3.0,16,1.5
2020-08-10,17,3.0,-0.25,17,3.0
2020-08-11,22,1.0,3.25,22,1.0
2020-08-12,19,9.5,-1.0,19,9.5
2020-08-13,41,-1.0,-10.0,41,-1.0
2020-08-14,17,-10.5,-1.0,17,-10.5
2020-08-15,20,-3.0,5.5,20,-3.0
2020-08-16,11,0.5,4.75,11,0.5
2020-08-17,21,6.5,1.75,21,6.5
2020-08-18,24,4.0,0.0,24,4.0
2020-08-19,29,6.5,-2.0,29,6.5
2020-08-20,37,0.0,-3.75,37,0.0
2020-08-21,29,-1.0,-3.75,29,-1.0
2020-08-22,35,-7.5,-3.75,35,-7.5
2020-08-23,14,-8.5,11.0,14,-8.5
2020-08-24,18,14.5,5.0,18,14.5
2020-08-25,43,1.5,-13.75,43,1.5
2020-08-26,21,-13.0,-0.25,21,-13.0
2020-08-27,17,1.0,4.0,17,1.0
2020-08-28,23,-5.0,0.75,23,-5.0
2020-08-29,7,2.5,3.0,7,2.5
2020-08-30,28,1.0,5.75,28,1.0
2020-08-31,9,14.0,2.0,9,14.0
2020-09-01,56,5.0,-11.25,14,5.0
2020-09-02,19,-8.5,-1.0,19,-8.5
2020-09-03,39,3.0,3.5,39,3.0
2020-09-04,25,-1.5,-0.25,25,-1.5
2020-09-05,36,2.5,0.75,36,2.5
2020-09-06,30,0.0,-6.25,30,0.0
2020-09-07,36,-10.0,14.25,36,-10.0
2020-09-08,10,28.5,12.25,10,28.5
2020-09-09,93,14.5,-26.75,24,14.5
2020-09-10,39,-25.0,-5.75,39,-25.0
2020-09-11,43,3.0,7.5,43,3.0
2020-09-12,45,-10.0,-1.0,45,-10.0
2020-09-13,23,1.0,23.75,23,1.0
2020-09-14,47,37.5,-6.0,47,37.5
2020-09-15,98,-11.0,-31.0,98,-11.0
2020-09-16,25,-24.5,14.0,25,-24.5
2020-09-17,49,17.0,16.0,49,17.0
2020-09-18,59,7.5,-8.75,59,7.5
2020-09-19,64,-0.5,-3.25,64,-0.5
2020-09-20,58,1.0,23.0,58,1.0
2020-09-21,66,45.5,6.25,66,45.5
2020-09-22,149,13.5,-37.25,149,13.5
2020-09-23,93,-29.0,-3.75,93,-29.0
2020-09-24,91,6.0,15.0,91,6.0
2020-09-25,105,1.0,-3.0,105,1.0
2020-09-26,93,0.0,-8.5,93,0.0
2020-09-27,105,-16.0,11.0,105,-16.0
2020-09-28,61,22.0,17.75,61,22.0
2020-09-29,149,19.5,-20.5,149,19.5
2020-09-30,100,-19.0,0.5,100,-19.0
2020-10-01,111,20.5,18.5,111,20.5
2020-10-02,141,18.0,-8.75,141,18.0
2020-10-03,147,3.0,-4.75,147,3.0
2020-10-04,147,8.5,18.5,147,8.5
2020-10-05,164,40.0,-15.25,164,40.0
2020-10-06,227,-22.0,-2.75,227,-22.0
2020-10-07,120,34.5,39.75,120,34.5
2020-10-08,296,57.5,-24.0,296,57.5
2020-10-09,235,-13.5,-50.25,235,-13.5
2020-10-10,269,-43.0,-7.0,269,-43.0
2020-10-11,149,-27.5,56.0,149,-27.5
2020-10-12,214,69.0,11.25,214,69.0
2020-10-13,287,-5.0,-46.0,287,-5.0
2020-10-14,204,-23.0,-1.25,204,-23.0
2020-10-15,241,-7.5,-8.75,241,-7.5
2020-10-16,189,-40.5,-10.75,189,-40.5
2020-10-17,160,-29.0,13.0,160,-29.0
2020-10-18,131,-14.5,55.25,131,-14.5
2020-10-19,131,81.5,30.0,131,81.5
2020-10-20,294,45.5,-68.25,294,45.5
2020-10-21,222,-55.0,-23.5,222,-55.0
2020-10-22,184,-1.5,26.0,184,-1.5
2020-10-23,219,-3.0,-5.0,219,-3.0
2020-10-24,178,-11.5,-12.5,178,-11.5
2020-10-25,196,-28.0,5.0,196,-28.0
2020-10-26,122,-1.5,37.25,122,-1.5
2020-10-27,193,46.5,-0.5,193,46.5
2020-10-28,215,-2.5,9.0,215,-2.5
2020-10-29,188,64.5,5.0,188,64.5
2020-10-30,344,7.5,-73.75,344,7.5
2020-10-31,203,-83.0,-27.25,203,-83.0
2020-11-01,178,-47.0,56.25,178,-47.0
2020-11-02,109,29.5,69.5,109,29.5
2020-11-03,237,92.0,-26.75,237,92.0
2020-11-04,293,-24.0,-52.75,293,-24.0
2020-11-05,189,-13.5,-35.25,189,-13.5
2020-11-06,266,-94.5,43.25,266,-94.5
2020-11-07,0,73.0,69.75,0,73.0
2020-11-08,412,45.0,-84.5,412,45.0
2020-11-09,90,-96.0,14.5,90,-96.0
2020-11-10,220,74.0,42.25,220,74.0
2020-11-11,238,-11.5,-17.5,238,-11.5
2020-11-12,197,39.0,17.5,197,39.0
2020-11-13,316,23.5,-45.25,316,23.5
2020-11-14,244,-51.5,-46.75,244,-51.5
2020-11-15,213,-70.0,29.5,213,-70.0
2020-11-16,104,7.5,81.0,104,7.5
2020-11-17,228,92.0,27.0,228,92.0
2020-11-18,288,61.5,-2.75,288,61.5
2020-11-19,351,86.5,-1.25,351,86.5
2020-11-20,461,59.0,-52.75,461,59.0
2020-11-21,469,-19.0,-72.5,469,-19.0
2020-11-22,423,-86.0,-8.0,423,-86.0
2020-11-23,297,-35.0,59.5,297,-35.0
2020-11-24,353,33.0,53.25,353,33.0
2020-11-25,363,71.5,47.25,363,71.5
2020-11-26,496,127.5,-24.5,496,127.5
2020-11-27,618,22.5,-137.75,618,22.5
2020-11-28,541,-148.0,-75.75,541,-148.0
2020-11-29,322,-129.0,131.0,322,-129.0
2020-11-30,283,114.0,98.75,283,114.0
2020-12-01,550,68.5,-59.5,550,68.5
2020-12-02,420,-5.0,-55.25,420,-5.0
2020-12-03,540,-42.0,-17.5,540,-42.0
2020-12-04,336,-40.0,40.25,336,-40.0
2020-12-05,460,38.5,-32.5,460,38.5
2020-12-06,413,-105.0,-32.25,413,-105.0
2020-12-07,250,-26.0,112.5,250,-26.0
2020-12-08,361,120.0,132.75,361,120.0
2020-12-09,490,239.5,-57.25,490,239.5
2020-12-10,840,5.5,-235.5,840,5.5
2020-12-11,501,-231.5,-38.0,501,-231.5
2020-12-12,377,-70.5,96.5,377,-70.5
2020-12-13,360,-38.5,32.5,360,-38.5
2020-12-14,300,-5.5,47.0,300,-5.5
2020-12-15,349,55.5,5.0,349,55.5
2020-12-16,411,4.5,-42.0,411,4.5
2020-12-17,358,-28.5,-24.0,358,-28.5
2020-12-18,354,-43.5,-74.25,354,-43.5
2020-12-19,271,-177.0,-113.75,271,-177.0
2020-12-20,0,-271.0,-94.0,0,-271.0
