date, confirmed_daily_cases, first_order,second_order, confirmed_daily_cases_outlier_removed,first_order_outlier_removed,second_order_outlier_removed
2020-01-01,0,0.0,0.0,0,0.0
2020-01-02,0,0.0,0.0,0,0.0
2020-01-03,0,0.0,0.0,0,0.0
2020-01-04,0,0.0,0.0,0,0.0
2020-01-05,0,0.0,0.0,0,0.0
2020-01-06,0,0.0,0.0,0,0.0
2020-01-07,0,0.0,0.0,0,0.0
2020-01-08,0,0.0,0.0,0,0.0
2020-01-09,0,0.0,0.0,0,0.0
2020-01-10,0,0.0,0.0,0,0.0
2020-01-11,0,0.0,0.0,0,0.0
2020-01-12,0,0.0,0.0,0,0.0
2020-01-13,0,0.0,0.0,0,0.0
2020-01-14,0,0.0,0.0,0,0.0
2020-01-15,0,0.0,0.0,0,0.0
2020-01-16,0,0.0,0.0,0,0.0
2020-01-17,0,0.0,0.0,0,0.0
2020-01-18,0,0.0,0.0,0,0.0
2020-01-19,0,0.0,0.0,0,0.0
2020-01-20,0,0.0,0.0,0,0.0
2020-01-21,0,0.0,0.0,0,0.0
2020-01-22,0,0.0,0.0,0,0.0
2020-01-23,0,0.0,0.0,0,0.0
2020-01-24,0,0.0,0.0,0,0.0
2020-01-25,0,0.0,0.0,0,0.0
2020-01-26,0,0.0,0.0,0,0.0
2020-01-27,0,0.0,0.0,0,0.0
2020-01-28,0,0.0,0.0,0,0.0
2020-01-29,0,0.0,0.0,0,0.0
2020-01-30,0,0.0,0.0,0,0.0
2020-01-31,0,0.0,0.0,0,0.0
2020-02-01,0,0.0,0.0,0,0.0
2020-02-02,0,0.0,0.0,0,0.0
2020-02-03,0,0.0,0.0,0,0.0
2020-02-04,0,0.0,0.0,0,0.0
2020-02-05,0,0.0,0.0,0,0.0
2020-02-06,0,0.0,0.0,0,0.0
2020-02-07,0,0.0,0.0,0,0.0
2020-02-08,0,0.0,0.0,0,0.0
2020-02-09,0,0.0,0.0,0,0.0
2020-02-10,0,0.0,0.0,0,0.0
2020-02-11,0,0.0,0.0,0,0.0
2020-02-12,0,0.0,0.0,0,0.0
2020-02-13,0,0.0,0.0,0,0.0
2020-02-14,0,0.0,0.0,0,0.0
2020-02-15,0,0.0,0.0,0,0.0
2020-02-16,0,0.0,0.0,0,0.0
2020-02-17,0,0.0,0.0,0,0.0
2020-02-18,0,0.0,0.0,0,0.0
2020-02-19,0,0.0,0.0,0,0.0
2020-02-20,0,0.0,0.0,0,0.0
2020-02-21,0,0.0,0.0,0,0.0
2020-02-22,0,0.0,0.0,0,0.0
2020-02-23,0,0.0,0.0,0,0.0
2020-02-24,0,0.0,0.25,0,0.0
2020-02-25,0,0.5,0.5,0,0.5
2020-02-26,1,1.0,-0.25,1,1.0
2020-02-27,2,0.0,-1.0,2,0.0
2020-02-28,1,-1.0,0.5,1,-1.0
2020-02-29,0,1.0,0.5,0,1.0
2020-03-01,3,0.0,-1.25,3,0.0
2020-03-02,0,-1.5,0.5,0,-1.5
2020-03-03,0,1.0,6.25,0,1.0
2020-03-04,2,11.0,2.5,2,11.0
2020-03-05,22,6.0,-10.75,22,6.0
2020-03-06,14,-10.5,0.25,14,-10.5
2020-03-07,1,6.5,5.0,1,6.5
2020-03-08,27,-0.5,-6.0,27,-0.5
2020-03-09,0,-5.5,2.75,0,-5.5
2020-03-10,16,5.0,-1.25,16,5.0
2020-03-11,10,-8.0,17.75,10,-8.0
2020-03-12,0,40.5,13.5,0,40.5
2020-03-13,91,19.0,-17.25,91,19.0
2020-03-14,38,6.0,-19.0,38,6.0
2020-03-15,103,-19.0,-14.75,103,-19.0
2020-03-16,0,-23.5,17.25,0,-23.5
2020-03-17,56,15.5,-2.25,56,15.5
2020-03-18,31,-28.0,3.75,31,-28.0
2020-03-19,0,23.0,22.75,0,23.0
2020-03-20,77,17.5,-7.25,77,17.5
2020-03-21,35,8.5,0.25,35,8.5
2020-03-22,94,18.0,-15.75,94,18.0
2020-03-23,71,-23.0,-7.25,71,-23.0
2020-03-24,48,3.5,17.25,48,3.5
2020-03-25,78,11.5,-2.75,78,11.5
2020-03-26,71,-2.0,0.25,71,-2.0
2020-03-27,74,12.0,6.25,74,12.0
2020-03-28,95,10.5,-15.75,95,10.5
2020-03-29,95,-19.5,-3.5,95,-19.5
2020-03-30,56,3.5,21.0,56,3.5
2020-03-31,102,22.5,5.0,102,22.5
2020-04-01,101,13.5,-19.25,101,13.5
2020-04-02,129,-16.0,-24.0,129,-16.0
2020-04-03,69,-34.5,6.25,69,-34.5
2020-04-04,60,-3.5,7.25,60,-3.5
2020-04-05,62,-20.0,5.5,62,-20.0
2020-04-06,20,7.5,18.0,20,7.5
2020-04-07,77,16.0,-5.25,77,16.0
2020-04-08,52,-3.0,-7.0,52,-3.0
2020-04-09,71,2.0,1.25,71,2.0
2020-04-10,56,-0.5,-6.75,56,-0.5
2020-04-11,70,-11.5,-9.5,70,-11.5
2020-04-12,33,-19.5,3.75,33,-19.5
2020-04-13,31,-4.0,7.5,31,-4.0
2020-04-14,25,-4.5,-0.5,25,-4.5
2020-04-15,22,-5.0,1.0,22,-5.0
2020-04-16,15,-2.5,1.5,15,-2.5
2020-04-17,17,-2.0,-3.0,17,-2.0
2020-04-18,11,-8.5,0.75,11,-8.5
2020-04-19,0,-0.5,43.25,0,-0.5
2020-04-20,10,78.0,-0.5,10,78.0
2020-04-21,156,-1.5,-64.25,8,-1.5
2020-04-22,7,-50.5,5.75,7,-50.5
2020-04-23,55,10.0,15.5,17,10.0
2020-04-24,27,-19.5,-9.0,27,-19.5
2020-04-25,16,-8.0,10.0,16,-8.0
2020-04-26,11,0.5,9.25,11,0.5
2020-04-27,17,10.5,-2.0,17,10.5
2020-04-28,32,-3.5,-9.5,32,-3.5
2020-04-29,10,-8.5,4.5,10,-8.5
2020-04-30,15,5.5,2.5,15,5.5
2020-05-01,21,-3.5,-6.5,21,-3.5
2020-05-02,8,-7.5,1.25,8,-7.5
2020-05-03,6,-1.0,4.75,6,-1.0
2020-05-04,6,2.0,4.25,6,2.0
2020-05-05,10,7.5,0.25,10,7.5
2020-05-06,21,2.5,-5.75,21,2.5
2020-05-07,15,-4.0,-0.25,15,-4.0
2020-05-08,13,2.0,0.25,13,2.0
2020-05-09,19,-3.5,-3.25,19,-3.5
2020-05-10,6,-4.5,4.75,6,-4.5
2020-05-11,10,6.0,3.75,10,6.0
2020-05-12,18,3.0,-5.0,18,3.0
2020-05-13,16,-4.0,4.5,16,-4.0
2020-05-14,10,12.0,1.75,10,12.0
2020-05-15,40,-0.5,-12.25,40,-0.5
2020-05-16,9,-12.5,-1.5,9,-12.5
2020-05-17,15,-3.5,3.5,15,-3.5
2020-05-18,2,-5.5,3.75,2,-5.5
2020-05-19,4,4.0,2.5,4,4.0
2020-05-20,10,-0.5,0.75,10,-0.5
2020-05-21,3,5.5,0.0,3,5.5
2020-05-22,21,-0.5,-7.5,21,-0.5
2020-05-23,2,-9.5,0.75,2,-9.5
2020-05-24,2,1.0,6.75,2,1.0
2020-05-25,4,4.0,1.25,4,4.0
2020-05-26,10,3.5,-3.75,10,3.5
2020-05-27,11,-3.5,-3.75,11,-3.5
2020-05-28,3,-4.0,2.5,3,-4.0
2020-05-29,3,1.5,1.75,3,1.5
2020-05-30,6,-0.5,-2.0,6,-0.5
2020-05-31,2,-2.5,4.5,2,-2.5
2020-06-01,1,8.5,1.0,1,8.5
2020-06-02,19,-0.5,-5.25,19,-0.5
2020-06-03,0,-2.0,4.0,0,-2.0
2020-06-04,15,7.5,0.5,15,7.5
2020-06-05,15,-1.0,-3.25,15,-1.0
2020-06-06,13,1.0,10.25,13,1.0
2020-06-07,17,19.5,-2.5,17,19.5
2020-06-08,52,-4.0,-20.25,52,-4.0
2020-06-09,9,-21.0,4.75,9,-21.0
2020-06-10,10,5.5,13.0,10,5.5
2020-06-11,20,5.0,-6.75,20,5.0
2020-06-12,20,-8.0,-5.25,20,-8.0
2020-06-13,4,-5.5,6.25,4,-5.5
2020-06-14,9,4.5,4.0,9,4.5
2020-06-15,13,2.5,8.25,13,2.5
2020-06-16,14,21.0,1.25,14,21.0
2020-06-17,55,5.0,-21.75,55,5.0
2020-06-18,24,-22.5,-3.75,24,-22.5
2020-06-19,10,-2.5,11.25,10,-2.5
2020-06-20,19,0.0,1.75,19,0.0
2020-06-21,10,1.0,1.25,10,1.0
2020-06-22,21,2.5,-3.75,21,2.5
2020-06-23,15,-6.5,-2.25,15,-6.5
2020-06-24,8,-2.0,6.75,8,-2.0
2020-06-25,11,7.0,4.0,11,7.0
2020-06-26,22,6.0,-6.5,22,6.0
2020-06-27,23,-6.0,-5.25,23,-6.0
2020-06-28,10,-4.5,5.25,10,-4.5
2020-06-29,14,4.5,4.5,14,4.5
2020-06-30,19,4.5,-0.5,19,4.5
2020-07-01,23,3.5,-1.0,23,3.5
2020-07-02,26,2.5,-2.0,26,2.5
2020-07-03,28,-0.5,-6.25,28,-0.5
2020-07-04,25,-10.0,4.75,25,-10.0
2020-07-05,8,9.0,9.75,8,9.0
2020-07-06,43,9.5,-7.0,43,9.5
2020-07-07,27,-5.0,1.0,27,-5.0
2020-07-08,33,11.5,9.25,33,11.5
2020-07-09,50,13.5,-8.25,50,13.5
2020-07-10,60,-5.0,-14.0,60,-5.0
2020-07-11,40,-14.5,-1.75,40,-14.5
2020-07-12,31,-8.5,13.75,31,-8.5
2020-07-13,23,13.0,5.25,23,13.0
2020-07-14,57,2.0,-13.5,57,2.0
2020-07-15,27,-14.0,-1.5,27,-14.0
2020-07-16,29,-1.0,4.5,29,-1.0
2020-07-17,25,-5.0,0.25,25,-5.0
2020-07-18,19,-0.5,-1.0,19,-0.5
2020-07-19,24,-7.0,3.25,24,-7.0
2020-07-20,5,6.0,9.5,5,6.0
2020-07-21,36,12.0,-3.75,36,12.0
2020-07-22,29,-1.5,-7.0,29,-1.5
2020-07-23,33,-2.0,0.25,33,-2.0
2020-07-24,25,-1.0,1.5,25,-1.0
2020-07-25,31,1.0,1.25,31,1.0
2020-07-26,27,1.5,5.75,27,1.5
2020-07-27,34,12.5,5.0,34,12.5
2020-07-28,52,11.5,-3.0,52,11.5
2020-07-29,57,6.5,-1.0,57,6.5
2020-07-30,65,9.5,8.0,65,9.5
2020-07-31,76,22.5,-5.0,76,22.5
2020-08-01,110,-0.5,-20.0,110,-0.5
2020-08-02,75,-17.5,11.0,75,-17.5
2020-08-03,75,21.5,19.75,75,21.5
2020-08-04,118,22.0,-3.0,118,22.0
2020-08-05,119,15.5,-4.0,119,15.5
2020-08-06,149,14.0,-7.25,149,14.0
2020-08-07,147,1.0,6.75,147,1.0
2020-08-08,151,27.5,-6.75,151,27.5
2020-08-09,202,-12.5,-16.0,202,-12.5
2020-08-10,126,-4.5,33.5,126,-4.5
2020-08-11,193,54.5,5.0,193,54.5
2020-08-12,235,5.5,-23.25,235,5.5
2020-08-13,204,8.0,2.75,204,8.0
2020-08-14,251,11.0,-12.5,251,11.0
2020-08-15,226,-17.0,-25.25,226,-17.0
2020-08-16,217,-39.5,16.75,217,-39.5
2020-08-17,147,16.5,36.0,147,16.5
2020-08-18,250,32.5,-8.25,250,32.5
2020-08-19,212,0.0,-18.25,212,0.0
2020-08-20,250,-4.0,-1.75,250,-4.0
2020-08-21,204,-3.5,21.75,204,-3.5
2020-08-22,243,39.5,-20.25,243,39.5
2020-08-23,283,-44.0,-48.5,283,-44.0
2020-08-24,155,-57.5,56.5,155,-57.5
2020-08-25,168,69.0,49.5,168,69.0
2020-08-26,293,41.5,-40.5,293,41.5
2020-08-27,251,-12.0,-39.25,251,-12.0
2020-08-28,269,-37.0,-22.0,269,-37.0
2020-08-29,177,-56.0,20.0,177,-56.0
2020-08-30,157,3.0,40.5,157,3.0
2020-08-31,183,25.0,11.0,183,25.0
2020-09-01,207,25.0,-4.0,207,25.0
2020-09-02,233,17.0,-20.25,233,17.0
2020-09-03,241,-15.5,-22.25,241,-15.5
2020-09-04,202,-27.5,-8.25,202,-27.5
2020-09-05,186,-32.0,2.0,186,-32.0
2020-09-06,138,-23.5,23.75,138,-23.5
2020-09-07,139,15.5,39.0,139,15.5
2020-09-08,169,54.5,43.0,169,54.5
2020-09-09,248,101.5,-18.75,248,101.5
2020-09-10,372,17.0,-68.25,372,17.0
2020-09-11,282,-35.0,-28.0,282,-35.0
2020-09-12,302,-39.0,-13.0,302,-39.0
2020-09-13,204,-61.0,46.0,204,-61.0
2020-09-14,180,53.0,63.25,180,53.0
2020-09-15,310,65.5,-14.25,310,65.5
2020-09-16,311,24.5,-26.0,311,24.5
2020-09-17,359,13.5,-42.0,359,13.5
2020-09-18,338,-59.5,-50.25,338,-59.5
2020-09-19,240,-87.0,83.0,240,-87.0
2020-09-20,164,106.5,85.75,164,106.5
2020-09-21,453,84.5,-77.0,453,84.5
2020-09-22,333,-47.5,-40.25,333,-47.5
2020-09-23,358,4.0,5.75,358,4.0
2020-09-24,341,-36.0,-8.5,341,-36.0
2020-09-25,286,-13.0,0.5,286,-13.0
2020-09-26,315,-35.0,-6.5,315,-35.0
2020-09-27,216,-26.0,67.5,216,-26.0
2020-09-28,263,100.0,35.25,263,100.0
2020-09-29,416,44.5,-51.25,416,44.5
2020-09-30,352,-2.5,4.75,352,-2.5
2020-10-01,411,54.0,-34.75,411,54.0
2020-10-02,460,-72.0,-84.75,460,-72.0
2020-10-03,267,-115.5,44.25,267,-115.5
2020-10-04,229,16.5,100.25,229,16.5
2020-10-05,300,85.0,18.25,300,85.0
2020-10-06,399,53.0,-33.75,399,53.0
2020-10-07,406,17.5,-30.25,406,17.5
2020-10-08,434,-7.5,-40.75,434,-7.5
2020-10-09,391,-64.0,-24.0,391,-64.0
2020-10-10,306,-55.5,29.0,306,-55.5
2020-10-11,280,-6.0,59.75,280,-6.0
2020-10-12,294,64.0,38.25,294,64.0
2020-10-13,408,70.5,-21.0,408,70.5
2020-10-14,435,22.0,-18.25,435,22.0
2020-10-15,452,34.0,-3.5,452,34.0
2020-10-16,503,15.0,-33.25,503,15.0
2020-10-17,482,-32.5,-20.0,482,-32.5
2020-10-18,438,-25.0,73.5,438,-25.0
2020-10-19,432,114.5,120.75,432,114.5
2020-10-20,667,216.5,-3.5,667,216.5
2020-10-21,865,107.5,-114.25,865,107.5
2020-10-22,882,-12.0,-40.5,882,-12.0
2020-10-23,841,26.5,-6.75,841,26.5
2020-10-24,935,-25.5,-68.5,935,-25.5
2020-10-25,790,-110.5,129.25,790,-110.5
2020-10-26,714,233.0,263.5,714,233.0
2020-10-27,1256,416.5,-127.75,1256,416.5
2020-10-28,1547,-22.5,-173.5,1547,-22.5
2020-10-29,1211,69.5,222.25,1211,69.5
2020-10-30,1686,422.0,-36.75,1686,422.0
2020-10-31,2055,-4.0,-437.0,2055,-4.0
2020-11-01,1678,-452.0,124.0,1678,-452.0
2020-11-02,1151,244.0,599.75,1151,244.0
2020-11-03,2166,747.5,65.25,2166,747.5
2020-11-04,2646,374.5,-423.5,2646,374.5
2020-11-05,2915,-99.5,-277.25,2915,-99.5
2020-11-06,2447,-180.0,-89.75,2447,-180.0
2020-11-07,2555,-279.0,-176.5,2555,-279.0
2020-11-08,1889,-533.0,263.0,1889,-533.0
2020-11-09,1489,247.0,582.0,1489,247.0
2020-11-10,2383,631.0,109.75,2383,631.0
2020-11-11,2751,466.5,-243.75,2751,466.5
2020-11-12,3316,143.5,-353.5,3316,143.5
2020-11-13,3038,-240.5,-407.5,3038,-240.5
2020-11-14,2835,-671.5,-39.0,2835,-671.5
2020-11-15,1695,-318.5,517.5,1695,-318.5
2020-11-16,2198,363.5,412.0,2198,363.5
2020-11-17,2422,505.5,19.5,2422,505.5
2020-11-18,3209,402.5,-417.25,3209,402.5
2020-11-19,3227,-329.0,-430.75,3227,-329.0
2020-11-20,2551,-459.0,-98.75,2551,-459.0
2020-11-21,2309,-526.5,-1.0,2309,-526.5
2020-11-22,1498,-461.0,421.5,1498,-461.0
2020-11-23,1387,316.5,421.5,1387,316.5
2020-11-24,2131,382.0,-186.5,2131,382.0
2020-11-25,2151,-56.5,-233.5,2151,-56.5
2020-11-26,2018,-85.0,-39.5,2018,-85.0
2020-11-27,1981,-135.5,-154.5,1981,-135.5
2020-11-28,1747,-394.0,-108.0,1747,-394.0
2020-11-29,1193,-351.5,448.5,1193,-351.5
2020-11-30,1044,503.0,461.0,1044,503.0
2020-12-01,2199,570.5,-330.75,2199,570.5
2020-12-02,2185,-158.5,-419.5,2185,-158.5
2020-12-03,1882,-268.5,-45.5,1882,-268.5
2020-12-04,1648,-249.5,-52.0,1648,-249.5
2020-12-05,1383,-372.5,91.5,1383,-372.5
2020-12-06,903,-66.5,291.5,903,-66.5
2020-12-07,1250,210.5,139.5,1250,210.5
2020-12-08,1324,212.5,-53.0,1324,212.5
2020-12-09,1675,104.5,-176.25,1675,104.5
2020-12-10,1533,-140.0,-137.0,1533,-140.0
2020-12-11,1395,-169.5,-105.75,1395,-169.5
2020-12-12,1194,-351.5,-54.0,1194,-351.5
2020-12-13,692,-277.5,302.5,692,-277.5
2020-12-14,639,253.5,275.25,639,253.5
2020-12-15,1199,273.0,-138.25,1199,273.0
2020-12-16,1185,-23.0,-214.25,1185,-23.0
2020-12-17,1153,-155.5,-51.5,1153,-155.5
2020-12-18,874,-126.0,-140.75,874,-126.0
2020-12-19,901,-437.0,-387.5,901,-437.0
2020-12-20,0,-901.0,-464.0,0,-901.0
