date, confirmed_daily_cases, first_order,second_order, confirmed_daily_cases_outlier_removed,first_order_outlier_removed,second_order_outlier_removed
2020-01-01,0,0.0,0.0,0,0.0
2020-01-02,0,0.0,0.0,0,0.0
2020-01-03,0,0.0,0.0,0,0.0
2020-01-04,0,0.0,0.0,0,0.0
2020-01-05,0,0.0,0.0,0,0.0
2020-01-06,0,0.0,0.0,0,0.0
2020-01-07,0,0.0,0.0,0,0.0
2020-01-08,0,0.0,0.0,0,0.0
2020-01-09,0,0.0,0.0,0,0.0
2020-01-10,0,0.0,0.0,0,0.0
2020-01-11,0,0.0,0.0,0,0.0
2020-01-12,0,0.0,0.0,0,0.0
2020-01-13,0,0.0,0.0,0,0.0
2020-01-14,0,0.0,0.0,0,0.0
2020-01-15,0,0.0,0.0,0,0.0
2020-01-16,0,0.0,0.0,0,0.0
2020-01-17,0,0.0,0.0,0,0.0
2020-01-18,0,0.0,0.0,0,0.0
2020-01-19,0,0.0,0.0,0,0.0
2020-01-20,0,0.0,0.0,0,0.0
2020-01-21,0,0.0,0.0,0,0.0
2020-01-22,0,0.0,0.0,0,0.0
2020-01-23,0,0.0,0.0,0,0.0
2020-01-24,0,0.0,0.0,0,0.0
2020-01-25,0,0.0,0.0,0,0.0
2020-01-26,0,0.0,0.0,0,0.0
2020-01-27,0,0.0,0.0,0,0.0
2020-01-28,0,0.0,0.0,0,0.0
2020-01-29,0,0.0,0.0,0,0.0
2020-01-30,0,0.0,0.0,0,0.0
2020-01-31,0,0.0,0.0,0,0.0
2020-02-01,0,0.0,0.0,0,0.0
2020-02-02,0,0.0,0.0,0,0.0
2020-02-03,0,0.0,0.0,0,0.0
2020-02-04,0,0.0,0.0,0,0.0
2020-02-05,0,0.0,0.0,0,0.0
2020-02-06,0,0.0,0.0,0,0.0
2020-02-07,0,0.0,0.0,0,0.0
2020-02-08,0,0.0,0.0,0,0.0
2020-02-09,0,0.0,0.0,0,0.0
2020-02-10,0,0.0,0.0,0,0.0
2020-02-11,0,0.0,0.0,0,0.0
2020-02-12,0,0.0,0.0,0,0.0
2020-02-13,0,0.0,0.0,0,0.0
2020-02-14,0,0.0,0.0,0,0.0
2020-02-15,0,0.0,0.0,0,0.0
2020-02-16,0,0.0,0.0,0,0.0
2020-02-17,0,0.0,0.0,0,0.0
2020-02-18,0,0.0,0.0,0,0.0
2020-02-19,0,0.0,0.0,0,0.0
2020-02-20,0,0.0,0.0,0,0.0
2020-02-21,0,0.0,0.0,0,0.0
2020-02-22,0,0.0,0.0,0,0.0
2020-02-23,0,0.0,0.0,0,0.0
2020-02-24,0,0.0,0.0,0,0.0
2020-02-25,0,0.0,0.0,0,0.0
2020-02-26,0,0.0,0.0,0,0.0
2020-02-27,0,0.0,0.0,0,0.0
2020-02-28,0,0.0,0.0,0,0.0
2020-02-29,0,0.0,0.0,0,0.0
2020-03-01,0,0.0,0.0,0,0.0
2020-03-02,0,0.0,0.0,0,0.0
2020-03-03,0,0.0,0.0,0,0.0
2020-03-04,0,0.0,0.0,0,0.0
2020-03-05,0,0.0,0.0,0,0.0
2020-03-06,0,0.0,0.0,0,0.0
2020-03-07,0,0.0,0.0,0,0.0
2020-03-08,0,0.0,0.0,0,0.0
2020-03-09,0,0.0,0.0,0,0.0
2020-03-10,0,0.0,0.0,0,0.0
2020-03-11,0,0.0,0.0,0,0.0
2020-03-12,0,0.0,0.25,0,0.0
2020-03-13,0,0.5,0.0,0,0.5
2020-03-14,1,0.0,-0.25,1,0.0
2020-03-15,0,0.0,1.0,0,0.0
2020-03-16,1,2.0,-0.25,1,2.0
2020-03-17,4,-0.5,-1.25,4,-0.5
2020-03-18,0,-0.5,1.0,0,-0.5
2020-03-19,3,1.5,0.75,3,1.5
2020-03-20,3,1.0,-1.0,3,1.0
2020-03-21,5,-0.5,-1.5,5,-0.5
2020-03-22,2,-2.0,0.0,2,-2.0
2020-03-23,1,-0.5,1.5,1,-0.5
2020-03-24,1,1.0,0.25,1,1.0
2020-03-25,3,0.0,-0.5,3,0.0
2020-03-26,1,0.0,1.25,1,0.0
2020-03-27,3,2.5,-0.75,3,2.5
2020-03-28,6,-1.5,-2.25,6,-1.5
2020-03-29,0,-2.0,1.25,0,-2.0
2020-03-30,2,1.0,0.75,2,1.0
2020-03-31,2,-0.5,1.0,2,-0.5
2020-04-01,1,3.0,0.75,1,3.0
2020-04-02,8,1.0,-0.75,8,1.0
2020-04-03,3,1.5,-1.25,3,1.5
2020-04-04,11,-1.5,-1.25,11,-1.5
2020-04-05,0,-1.0,2.5,0,-1.0
2020-04-06,9,3.5,0.75,9,3.5
2020-04-07,7,0.5,-1.5,7,0.5
2020-04-08,10,0.5,5.0,10,0.5
2020-04-09,8,10.5,0.5,8,10.5
2020-04-10,31,1.5,-8.5,31,1.5
2020-04-11,11,-6.5,-3.25,11,-6.5
2020-04-12,18,-5.0,1.5,18,-5.0
2020-04-13,1,-3.5,5.5,1,-3.5
2020-04-14,11,6.0,3.0,11,6.0
2020-04-15,13,2.5,-1.75,13,2.5
2020-04-16,16,2.5,0.0,16,2.5
2020-04-17,18,2.5,-0.25,18,2.5
2020-04-18,21,2.0,1.5,21,2.0
2020-04-19,22,5.5,-5.25,22,5.5
2020-04-20,32,-8.5,-5.25,32,-8.5
2020-04-21,5,-5.0,20.0,5,-5.0
2020-04-22,22,31.5,8.5,22,31.5
2020-04-23,68,12.0,-22.0,68,12.0
2020-04-24,46,-12.5,-10.75,46,-12.5
2020-04-25,43,-9.5,3.0,43,-9.5
2020-04-26,27,-6.5,-2.0,27,-6.5
2020-04-27,30,-13.5,2.5,30,-13.5
2020-04-28,0,-1.5,17.25,0,-1.5
2020-04-29,27,21.0,5.25,27,21.0
2020-04-30,42,9.0,-10.0,42,9.0
2020-05-01,45,1.0,-12.0,45,1.0
2020-05-02,44,-15.0,-4.75,44,-15.0
2020-05-03,15,-8.5,12.0,15,-8.5
2020-05-04,27,9.0,6.25,27,9.0
2020-05-05,33,4.0,-4.25,33,4.0
2020-05-06,35,0.5,6.25,35,0.5
2020-05-07,34,16.5,8.0,34,16.5
2020-05-08,68,16.5,-4.0,68,16.5
2020-05-09,67,8.5,-9.5,67,8.5
2020-05-10,85,-2.5,-4.25,85,-2.5
2020-05-11,62,0.0,21.5,62,0.0
2020-05-12,85,40.5,22.75,85,40.5
2020-05-13,143,45.5,-24.75,143,45.5
2020-05-14,176,-9.0,-36.75,176,-9.0
2020-05-15,125,-28.0,-26.75,125,-28.0
2020-05-16,120,-62.5,21.25,120,-62.5
2020-05-17,0,14.5,86.5,0,14.5
2020-05-18,149,110.5,-11.5,149,110.5
2020-05-19,221,-8.5,-48.75,221,-8.5
2020-05-20,132,13.0,29.0,132,13.0
2020-05-21,247,49.5,9.5,247,49.5
2020-05-22,231,32.0,10.0,231,32.0
2020-05-23,311,69.5,-9.75,311,69.5
2020-05-24,370,12.5,-78.75,370,12.5
2020-05-25,336,-88.0,-42.5,336,-88.0
2020-05-26,194,-72.5,46.25,194,-72.5
2020-05-27,191,4.5,53.25,191,4.5
2020-05-28,203,34.0,-20.0,203,34.0
2020-05-29,259,-35.5,5.25,259,-35.5
2020-05-30,132,44.5,47.0,132,44.5
2020-05-31,348,58.5,-46.75,348,58.5
2020-06-01,249,-49.0,-48.0,249,-49.0
2020-06-02,250,-37.5,60.5,250,-37.5
2020-06-03,174,72.0,58.0,174,72.0
2020-06-04,394,78.5,-57.75,394,78.5
2020-06-05,331,-43.5,-56.25,331,-43.5
2020-06-06,307,-34.0,56.75,307,-34.0
2020-06-07,263,70.0,42.25,263,70.0
2020-06-08,447,50.5,-58.0,447,50.5
2020-06-09,364,-46.0,-31.25,364,-46.0
2020-06-10,355,-12.0,39.5,355,-12.0
2020-06-11,340,33.0,48.25,340,33.0
2020-06-12,421,84.5,-33.25,421,84.5
2020-06-13,509,-33.5,-62.75,509,-33.5
2020-06-14,354,-41.0,36.75,354,-41.0
2020-06-15,427,40.0,50.0,427,40.0
2020-06-16,434,59.0,25.75,434,59.0
2020-06-17,545,91.5,-5.5,545,91.5
2020-06-18,617,48.0,-138.5,617,48.0
2020-06-19,641,-185.5,-86.75,641,-185.5
2020-06-20,246,-125.5,187.25,246,-125.5
2020-06-21,390,189.0,158.0,390,189.0
2020-06-22,624,190.5,-180.75,624,190.5
2020-06-23,771,-172.5,-88.0,771,-172.5
2020-06-24,279,14.5,68.75,279,14.5
2020-06-25,800,-35.0,-65.0,800,-35.0
2020-06-26,209,-115.5,98.5,209,-115.5
2020-06-27,569,162.0,35.25,569,162.0
2020-06-28,533,-45.0,-42.5,533,-45.0
2020-06-29,479,77.0,131.5,479,77.0
2020-06-30,687,218.0,55.0,687,218.0
2020-07-01,915,187.0,-32.5,915,187.0
2020-07-02,1061,153.0,-56.75,1061,153.0
2020-07-03,1221,73.5,-195.0,1221,73.5
2020-07-04,1208,-237.0,-157.75,1208,-237.0
2020-07-05,747,-242.0,135.5,747,-242.0
2020-07-06,724,34.0,96.0,724,34.0
2020-07-07,815,-50.0,91.0,815,-50.0
2020-07-08,624,216.0,109.25,624,216.0
2020-07-09,1247,168.5,-175.0,1247,168.5
2020-07-10,961,-134.0,-135.25,961,-134.0
2020-07-11,979,-102.0,-81.0,979,-102.0
2020-07-12,757,-296.0,144.25,757,-296.0
2020-07-13,387,186.5,351.75,387,186.5
2020-07-14,1130,407.5,-159.5,1130,407.5
2020-07-15,1202,-132.5,-286.75,1202,-132.5
2020-07-16,865,-166.0,908.25,865,-166.0
2020-07-17,870,1684.0,24.25,870,1684.0
2020-07-18,4233,-117.5,-1809.75,4233,-117.5
2020-07-19,635,-1935.5,197.5,635,-1935.5
2020-07-20,362,277.5,1103.75,362,277.5
2020-07-21,1190,272.0,-172.0,1190,272.0
2020-07-22,906,-66.5,-89.75,906,-66.5
2020-07-23,1057,92.5,71.25,1057,92.5
2020-07-24,1091,76.0,-178.75,1091,76.0
2020-07-25,1209,-265.0,-276.25,1209,-265.0
2020-07-26,561,-476.5,277.75,561,-476.5
2020-07-27,256,290.5,462.75,256,290.5
2020-07-28,1142,449.0,-125.5,1142,449.0
2020-07-29,1154,39.5,-272.25,1154,39.5
2020-07-30,1221,-95.5,-27.5,1221,-95.5
2020-07-31,963,-15.5,-111.25,963,-15.5
2020-08-01,1190,-318.0,-230.75,1190,-318.0
2020-08-02,327,-477.0,283.0,327,-477.0
2020-08-03,236,248.0,465.5,236,248.0
2020-08-04,823,454.0,-122.25,823,454.0
2020-08-05,1144,3.5,-280.25,1144,3.5
2020-08-06,830,-106.5,20.5,830,-106.5
2020-08-07,931,44.5,-75.5,931,44.5
2020-08-08,919,-257.5,-156.5,919,-257.5
2020-08-09,416,-268.5,269.5,416,-268.5
2020-08-10,382,281.5,319.5,382,281.5
2020-08-11,979,370.5,-86.75,979,370.5
2020-08-12,1123,108.0,-180.0,1123,108.0
2020-08-13,1195,10.5,-131.5,1195,10.5
2020-08-14,1144,-155.0,-229.0,1144,-155.0
2020-08-15,885,-447.5,-48.25,885,-447.5
2020-08-16,249,-251.5,387.25,249,-251.5
2020-08-17,382,327.0,288.75,382,327.0
2020-08-18,903,326.0,-113.75,903,326.0
2020-08-19,1034,99.5,-182.0,1034,99.5
2020-08-20,1102,-38.0,-96.5,1102,-38.0
2020-08-21,958,-93.5,-137.5,958,-93.5
2020-08-22,915,-313.0,-95.75,915,-313.0
2020-08-23,332,-285.0,353.0,332,-285.0
2020-08-24,345,393.0,322.0,345,393.0
2020-08-25,1118,359.0,-190.5,1118,359.0
2020-08-26,1063,12.0,-179.0,1063,12.0
2020-08-27,1142,1.0,-102.0,1142,1.0
2020-08-28,1065,-192.0,-208.5,1065,-192.0
2020-08-29,758,-416.0,-53.0,758,-416.0
2020-08-30,233,-298.0,354.5,233,-298.0
2020-08-31,162,293.0,296.25,162,293.0
2020-09-01,819,294.5,-172.75,819,294.5
2020-09-02,751,-52.5,-164.5,751,-52.5
2020-09-03,714,-34.5,-42.0,714,-34.5
2020-09-04,682,-136.5,-102.75,682,-136.5
2020-09-05,441,-240.0,-5.75,441,-240.0
2020-09-06,202,-148.0,292.75,202,-148.0
2020-09-07,145,345.5,263.0,145,345.5
2020-09-08,893,378.0,-225.0,893,378.0
2020-09-09,901,-104.5,-238.5,901,-104.5
2020-09-10,684,-99.0,43.5,684,-99.0
2020-09-11,703,-17.5,-63.5,703,-17.5
2020-09-12,649,-226.0,-87.75,649,-226.0
2020-09-13,251,-193.0,178.25,251,-193.0
2020-09-14,263,130.5,90.75,263,130.5
2020-09-15,512,-11.5,-8.25,512,-11.5
2020-09-16,240,114.0,115.75,240,114.0
2020-09-17,740,220.0,-40.0,740,220.0
2020-09-18,680,34.0,-207.0,680,34.0
2020-09-19,808,-194.0,-159.75,808,-194.0
2020-09-20,292,-285.5,259.5,292,-285.5
2020-09-21,237,325.0,288.25,237,325.0
2020-09-22,942,291.0,-275.25,942,291.0
2020-09-23,819,-225.5,-114.0,819,-225.5
2020-09-24,491,63.0,196.0,491,63.0
2020-09-25,945,166.5,-170.25,945,166.5
2020-09-26,824,-277.5,-246.5,824,-277.5
2020-09-27,390,-326.5,217.5,390,-326.5
2020-09-28,171,157.5,315.0,171,157.5
2020-09-29,705,303.5,-89.25,705,303.5
2020-09-30,778,-21.0,-176.0,778,-21.0
2020-10-01,663,-48.5,9.25,663,-48.5
2020-10-02,681,-2.5,-92.25,681,-2.5
2020-10-03,658,-233.0,-108.5,658,-233.0
2020-10-04,215,-219.5,234.75,215,-219.5
2020-10-05,219,236.5,263.5,219,236.5
2020-10-06,688,307.5,-96.25,688,307.5
2020-10-07,834,44.0,-248.5,834,44.0
2020-10-08,776,-189.5,-63.75,776,-189.5
2020-10-09,455,-83.5,23.75,455,-83.5
2020-10-10,609,-142.0,-82.75,609,-142.0
2020-10-11,171,-249.0,166.75,171,-249.0
2020-10-12,111,191.5,275.25,111,191.5
2020-10-13,554,301.5,-66.5,554,301.5
2020-10-14,714,58.5,-162.75,714,58.5
2020-10-15,671,-24.0,-47.75,671,-24.0
2020-10-16,666,-37.0,-71.5,666,-37.0
2020-10-17,597,-167.0,-71.0,597,-167.0
2020-10-18,332,-179.0,155.5,332,-179.0
2020-10-19,239,144.0,78.75,239,144.0
2020-10-20,620,-21.5,-37.75,620,-21.5
2020-10-21,196,68.5,144.25,196,68.5
2020-10-22,757,267.0,-41.0,757,267.0
2020-10-23,730,-13.5,-277.25,730,-13.5
2020-10-24,730,-287.5,-149.0,730,-287.5
2020-10-25,155,-311.5,274.25,155,-311.5
2020-10-26,107,261.0,316.25,107,261.0
2020-10-27,677,321.0,-182.25,677,321.0
2020-10-28,749,-103.5,-210.5,749,-103.5
2020-10-29,470,-100.0,84.25,470,-100.0
2020-10-30,549,65.0,-46.0,549,65.0
2020-10-31,600,-192.0,-182.5,600,-192.0
2020-11-01,165,-300.0,149.5,165,-300.0
2020-11-02,0,107.0,316.0,0,107.0
2020-11-03,379,332.0,27.25,379,332.0
2020-11-04,664,161.5,-168.75,664,161.5
2020-11-05,702,-5.5,-119.25,702,-5.5
2020-11-06,653,-77.0,-107.5,653,-77.0
2020-11-07,548,-220.5,-74.0,548,-220.5
2020-11-08,212,-225.0,249.5,212,-225.0
2020-11-09,98,278.5,258.5,98,278.5
2020-11-10,769,292.0,-148.5,390,292.0
2020-11-11,682,-18.5,-171.5,682,-18.5
2020-11-12,732,-51.0,-24.75,732,-51.0
2020-11-13,580,-68.0,-78.0,580,-68.0
2020-11-14,596,-207.0,-78.25,596,-207.0
2020-11-15,166,-224.5,236.5,166,-224.5
2020-11-16,147,266.0,238.25,147,266.0
2020-11-17,698,252.0,-136.25,698,252.0
2020-11-18,651,-6.5,-116.0,651,-6.5
2020-11-19,685,20.0,-3.0,685,20.0
2020-11-20,691,-12.5,-129.75,691,-12.5
2020-11-21,660,-239.5,-135.5,660,-239.5
2020-11-22,212,-283.5,223.5,212,-283.5
2020-11-23,93,207.5,278.5,93,207.5
2020-11-24,627,273.5,-86.5,627,273.5
2020-11-25,640,34.5,-185.0,640,34.5
2020-11-26,696,-96.5,-24.75,696,-96.5
2020-11-27,447,-15.0,-20.25,447,-15.0
2020-11-28,666,-137.0,-136.25,666,-137.0
2020-11-29,173,-287.5,203.25,173,-287.5
2020-11-30,91,269.5,292.5,91,269.5
2020-12-01,712,297.5,-164.5,388,297.5
2020-12-02,686,-59.5,-132.25,686,-59.5
2020-12-03,593,33.0,18.25,593,33.0
2020-12-04,752,-23.0,-155.0,752,-23.0
2020-12-05,547,-277.0,-94.25,547,-277.0
2020-12-06,198,-211.5,288.75,198,-211.5
2020-12-07,124,300.5,238.25,124,300.5
2020-12-08,799,265.0,-185.25,389,265.0
2020-12-09,654,-70.0,-107.25,654,-70.0
2020-12-10,659,50.5,9.75,659,50.5
2020-12-11,755,-50.5,-168.25,755,-50.5
2020-12-12,558,-286.0,-83.5,558,-286.0
2020-12-13,183,-217.5,266.5,183,-217.5
2020-12-14,123,247.0,264.5,123,247.0
2020-12-15,677,311.5,-141.0,677,311.5
2020-12-16,746,-35.0,-185.5,746,-35.0
2020-12-17,607,-59.5,-1.0,607,-59.5
2020-12-18,627,-37.0,-127.0,627,-37.0
2020-12-19,533,-313.5,-248.0,533,-313.5
2020-12-20,0,-533.0,-219.5,0,-533.0
