date, confirmed_daily_cases, first_order,second_order, confirmed_daily_cases_outlier_removed,first_order_outlier_removed,second_order_outlier_removed
2020-01-01,0,0.0,0.0,0,0.0
2020-01-02,0,0.0,0.0,0,0.0
2020-01-03,0,0.0,0.0,0,0.0
2020-01-04,0,0.0,0.0,0,0.0
2020-01-05,0,0.0,0.0,0,0.0
2020-01-06,0,0.0,0.0,0,0.0
2020-01-07,0,0.0,0.0,0,0.0
2020-01-08,0,0.0,0.0,0,0.0
2020-01-09,0,0.0,0.0,0,0.0
2020-01-10,0,0.0,0.0,0,0.0
2020-01-11,0,0.0,0.0,0,0.0
2020-01-12,0,0.0,0.0,0,0.0
2020-01-13,0,0.0,0.0,0,0.0
2020-01-14,0,0.0,0.0,0,0.0
2020-01-15,0,0.0,0.0,0,0.0
2020-01-16,0,0.0,0.0,0,0.0
2020-01-17,0,0.0,0.0,0,0.0
2020-01-18,0,0.0,0.0,0,0.0
2020-01-19,0,0.0,0.0,0,0.0
2020-01-20,0,0.0,0.0,0,0.0
2020-01-21,0,0.0,0.0,0,0.0
2020-01-22,0,0.0,0.0,0,0.0
2020-01-23,0,0.0,0.0,0,0.0
2020-01-24,0,0.0,0.0,0,0.0
2020-01-25,0,0.0,0.0,0,0.0
2020-01-26,0,0.0,0.0,0,0.0
2020-01-27,0,0.0,0.0,0,0.0
2020-01-28,0,0.0,0.0,0,0.0
2020-01-29,0,0.0,0.0,0,0.0
2020-01-30,0,0.0,0.0,0,0.0
2020-01-31,0,0.0,0.0,0,0.0
2020-02-01,0,0.0,0.0,0,0.0
2020-02-02,0,0.0,0.0,0,0.0
2020-02-03,0,0.0,0.0,0,0.0
2020-02-04,0,0.0,0.0,0,0.0
2020-02-05,0,0.0,0.0,0,0.0
2020-02-06,0,0.0,0.0,0,0.0
2020-02-07,0,0.0,0.0,0,0.0
2020-02-08,0,0.0,0.0,0,0.0
2020-02-09,0,0.0,0.0,0,0.0
2020-02-10,0,0.0,0.0,0,0.0
2020-02-11,0,0.0,0.0,0,0.0
2020-02-12,0,0.0,0.0,0,0.0
2020-02-13,0,0.0,0.0,0,0.0
2020-02-14,0,0.0,0.0,0,0.0
2020-02-15,0,0.0,0.0,0,0.0
2020-02-16,0,0.0,0.0,0,0.0
2020-02-17,0,0.0,0.0,0,0.0
2020-02-18,0,0.0,0.0,0,0.0
2020-02-19,0,0.0,0.0,0,0.0
2020-02-20,0,0.0,0.0,0,0.0
2020-02-21,0,0.0,0.0,0,0.0
2020-02-22,0,0.0,0.0,0,0.0
2020-02-23,0,0.0,0.0,0,0.0
2020-02-24,0,0.0,0.0,0,0.0
2020-02-25,0,0.0,0.0,0,0.0
2020-02-26,0,0.0,0.0,0,0.0
2020-02-27,0,0.0,0.0,0,0.0
2020-02-28,0,0.0,0.0,0,0.0
2020-02-29,0,0.0,0.0,0,0.0
2020-03-01,0,0.0,0.0,0,0.0
2020-03-02,0,0.0,0.0,0,0.0
2020-03-03,0,0.0,0.0,0,0.0
2020-03-04,0,0.0,0.0,0,0.0
2020-03-05,0,0.0,0.0,0,0.0
2020-03-06,0,0.0,0.0,0,0.0
2020-03-07,0,0.0,0.0,0,0.0
2020-03-08,0,0.0,0.0,0,0.0
2020-03-09,0,0.0,0.0,0,0.0
2020-03-10,0,0.0,0.0,0,0.0
2020-03-11,0,0.0,0.0,0,0.0
2020-03-12,0,0.0,0.0,0,0.0
2020-03-13,0,0.0,0.0,0,0.0
2020-03-14,0,0.0,0.0,0,0.0
2020-03-15,0,0.0,0.0,0,0.0
2020-03-16,0,0.0,0.0,0,0.0
2020-03-17,0,0.0,0.0,0,0.0
2020-03-18,0,0.0,0.5,0,0.0
2020-03-19,0,1.0,0.0,0,1.0
2020-03-20,2,0.0,-1.0,2,0.0
2020-03-21,0,-1.0,1.0,0,-1.0
2020-03-22,0,2.0,0.75,0,2.0
2020-03-23,4,0.5,-1.75,4,0.5
2020-03-24,1,-1.5,-0.5,1,-1.5
2020-03-25,1,-0.5,0.5,1,-0.5
2020-03-26,0,-0.5,0.25,0,-0.5
2020-03-27,0,0.0,2.0,0,0.0
2020-03-28,0,3.5,0.0,0,3.5
2020-03-29,7,0.0,-3.5,7,0.0
2020-03-30,0,-3.5,0.25,0,-3.5
2020-03-31,0,0.5,1.75,0,0.5
2020-04-01,1,0.0,0.0,1,0.0
2020-04-02,0,0.5,0.5,0,0.5
2020-04-03,2,1.0,-0.5,2,1.0
2020-04-04,2,-0.5,-0.25,2,-0.5
2020-04-05,1,0.5,0.25,1,0.5
2020-04-06,3,0.0,-0.5,3,0.0
2020-04-07,1,-0.5,0.5,1,-0.5
2020-04-08,2,1.0,0.0,2,1.0
2020-04-09,3,-0.5,-0.75,3,-0.5
2020-04-10,1,-0.5,0.0,1,-0.5
2020-04-11,2,-0.5,1.5,2,-0.5
2020-04-12,0,2.5,0.25,0,2.5
2020-04-13,7,0.0,-2.75,7,0.0
2020-04-14,0,-3.0,0.0,0,-3.0
2020-04-15,1,0.0,1.75,1,0.0
2020-04-16,0,0.5,0.25,0,0.5
2020-04-17,2,0.5,0.0,2,0.5
2020-04-18,1,0.5,2.0,1,0.5
2020-04-19,3,4.5,-1.0,3,4.5
2020-04-20,10,-1.5,-3.5,10,-1.5
2020-04-21,0,-2.5,3.25,0,-2.5
2020-04-22,5,5.0,0.0,5,5.0
2020-04-23,10,-2.5,-5.0,10,-2.5
2020-04-24,0,-5.0,1.75,0,-5.0
2020-04-25,0,1.0,3.0,0,1.0
2020-04-26,2,1.0,-1.0,2,1.0
2020-04-27,2,-1.0,-1.0,2,-1.0
2020-04-28,0,-1.0,1.75,0,-1.0
2020-04-29,0,2.5,1.5,0,2.5
2020-04-30,5,2.0,-2.5,5,2.0
2020-05-01,4,-2.5,-1.25,4,-2.5
2020-05-02,0,-0.5,4.25,0,-0.5
2020-05-03,3,6.0,-0.25,3,6.0
2020-05-04,12,-1.0,-6.0,12,-1.0
2020-05-05,1,-6.0,7.25,1,-6.0
2020-05-06,0,13.5,7.25,0,13.5
2020-05-07,28,8.5,-12.5,28,8.5
2020-05-08,17,-11.5,-0.75,17,-11.5
2020-05-09,5,7.0,11.25,5,7.0
2020-05-10,31,11.0,-11.25,31,11.0
2020-05-11,27,-15.5,-6.0,27,-15.5
2020-05-12,0,-1.0,17.5,0,-1.0
2020-05-13,25,19.5,3.5,25,19.5
2020-05-14,39,6.0,-7.5,39,6.0
2020-05-15,37,4.5,12.25,37,4.5
2020-05-16,48,30.5,5.0,48,30.5
2020-05-17,98,14.5,-39.75,98,14.5
2020-05-18,77,-49.0,-10.75,77,-49.0
2020-05-19,0,-7.0,59.0,0,-7.0
2020-05-20,63,69.0,7.25,63,69.0
2020-05-21,138,7.5,-55.75,138,7.5
2020-05-22,78,-42.5,-23.25,78,-42.5
2020-05-23,53,-39.0,31.25,53,-39.0
2020-05-24,0,20.0,73.5,0,20.0
2020-05-25,93,108.0,3.25,93,108.0
2020-05-26,216,26.5,-108.0,216,26.5
2020-05-27,146,-108.0,16.25,146,-108.0
2020-05-28,0,59.0,124.25,0,59.0
2020-05-29,264,140.5,-30.75,264,140.5
2020-05-30,281,-2.5,-115.0,281,-2.5
2020-05-31,259,-89.5,-63.5,259,-89.5
2020-06-01,102,-129.5,89.5,102,-129.5
2020-06-02,0,89.5,98.0,0,89.5
2020-06-03,281,66.5,-90.0,281,66.5
2020-06-04,133,-90.5,16.5,133,-90.5
2020-06-05,100,99.5,85.75,100,99.5
2020-06-06,332,81.0,-81.75,332,81.0
2020-06-07,262,-64.0,-75.0,262,-64.0
2020-06-08,204,-69.0,14.5,204,-69.0
2020-06-09,124,-35.0,39.75,124,-35.0
2020-06-10,134,10.5,-16.0,134,10.5
2020-06-11,145,-67.0,14.5,145,-67.0
2020-06-12,0,39.5,33.5,0,39.5
2020-06-13,224,0.0,-6.75,224,0.0
2020-06-14,0,26.0,26.5,0,26.0
2020-06-15,276,53.0,-46.75,276,53.0
2020-06-16,106,-67.5,4.0,106,-67.5
2020-06-17,141,61.0,14.5,141,61.0
2020-06-18,228,-38.5,-63.25,228,-38.5
2020-06-19,64,-65.5,3.25,64,-65.5
2020-06-20,97,-32.0,42.0,97,-32.0
2020-06-21,0,18.5,44.25,0,18.5
2020-06-22,134,56.5,-16.5,134,56.5
2020-06-23,113,-14.5,-28.0,113,-14.5
2020-06-24,105,0.5,25.75,105,0.5
2020-06-25,114,37.0,-15.0,114,37.0
2020-06-26,179,-29.5,-63.25,179,-29.5
2020-06-27,55,-89.5,40.0,55,-89.5
2020-06-28,0,50.5,55.25,0,50.5
2020-06-29,156,21.0,-48.0,156,21.0
2020-06-30,42,-45.5,-5.75,42,-45.5
2020-07-01,65,9.5,38.75,65,9.5
2020-07-02,61,32.0,-4.0,61,32.0
2020-07-03,129,1.5,-38.5,129,1.5
2020-07-04,64,-45.0,-7.25,64,-45.0
2020-07-05,39,-13.0,28.0,39,-13.0
2020-07-06,38,11.0,10.5,38,11.0
2020-07-07,61,8.0,-20.75,61,8.0
2020-07-08,54,-30.5,15.25,54,-30.5
2020-07-09,0,38.5,33.5,0,38.5
2020-07-10,131,36.5,-42.75,131,36.5
2020-07-11,73,-47.0,-36.5,73,-47.0
2020-07-12,37,-36.5,14.25,37,-36.5
2020-07-13,0,-18.5,44.25,0,-18.5
2020-07-14,0,52.0,38.5,0,52.0
2020-07-15,104,58.5,-45.25,104,58.5
2020-07-16,117,-38.5,-39.0,117,-38.5
2020-07-17,27,-19.5,12.5,27,-19.5
2020-07-18,78,-13.5,-9.75,78,-13.5
2020-07-19,0,-39.0,18.5,0,-39.0
2020-07-20,0,23.5,36.25,0,23.5
2020-07-21,47,33.5,-16.0,47,33.5
2020-07-22,67,-8.5,-17.75,67,-8.5
2020-07-23,30,-2.0,6.0,30,-2.0
2020-07-24,63,3.5,-10.25,63,3.5
2020-07-25,37,-22.5,-4.75,37,-22.5
2020-07-26,18,-6.0,6.75,18,-6.0
2020-07-27,25,-9.0,6.25,25,-9.0
2020-07-28,0,6.5,13.0,0,6.5
2020-07-29,38,17.0,-9.75,38,17.0
2020-07-30,34,-13.0,-6.0,34,-13.0
2020-07-31,12,5.0,3.5,12,5.0
2020-08-01,44,-6.0,-2.75,44,-6.0
2020-08-02,0,-0.5,3.0,0,-0.5
2020-08-03,43,0.0,-2.25,43,0.0
2020-08-04,0,-5.0,9.5,0,-5.0
2020-08-05,33,19.0,-1.5,33,19.0
2020-08-06,38,-8.0,-16.0,38,-8.0
2020-08-07,17,-13.0,5.5,17,-13.0
2020-08-08,12,3.0,3.5,12,3.0
2020-08-09,23,-6.0,-3.5,23,-6.0
2020-08-10,0,-4.0,26.5,0,-4.0
2020-08-11,15,47.0,7.75,15,47.0
2020-08-12,94,11.5,-39.75,26,11.5
2020-08-13,38,-32.5,-10.0,38,-32.5
2020-08-14,29,-8.5,21.0,29,-8.5
2020-08-15,21,9.5,3.5,21,9.5
2020-08-16,48,-1.5,-10.75,48,-1.5
2020-08-17,18,-12.0,3.25,18,-12.0
2020-08-18,24,5.0,12.0,24,5.0
2020-08-19,28,12.0,-4.75,28,12.0
2020-08-20,48,-4.5,-9.5,48,-4.5
2020-08-21,19,-7.0,5.5,19,-7.0
2020-08-22,34,6.5,2.0,34,6.5
2020-08-23,32,-3.0,-10.75,32,-3.0
2020-08-24,28,-15.0,-3.0,28,-15.0
2020-08-25,2,-9.0,14.25,2,-9.0
2020-08-26,10,13.5,4.5,10,13.5
2020-08-27,29,0.0,-10.75,29,0.0
2020-08-28,10,-8.0,6.25,10,-8.0
2020-08-29,13,12.5,4.5,13,12.5
2020-08-30,35,1.0,-13.5,35,1.0
2020-08-31,15,-14.5,2.75,15,-14.5
2020-09-01,6,6.5,16.5,6,6.5
2020-09-02,28,18.5,-4.0,28,18.5
2020-09-03,43,-1.5,-17.5,43,-1.5
2020-09-04,25,-16.5,0.5,25,-16.5
2020-09-05,10,-0.5,9.75,10,-0.5
2020-09-06,24,3.0,-5.75,24,3.0
2020-09-07,16,-12.0,-3.5,16,-12.0
2020-09-08,0,-4.0,17.25,0,-4.0
2020-09-09,8,22.5,7.0,8,22.5
2020-09-10,45,10.0,-17.25,45,10.0
2020-09-11,28,-12.0,-8.25,28,-12.0
2020-09-12,21,-6.5,2.25,21,-6.5
2020-09-13,15,-7.5,7.25,15,-7.5
2020-09-14,6,8.0,5.0,6,8.0
2020-09-15,31,2.5,-8.0,31,2.5
2020-09-16,11,-8.0,7.0,11,-8.0
2020-09-17,15,16.5,0.25,15,16.5
2020-09-18,44,-7.5,-14.5,44,-7.5
2020-09-19,0,-12.5,5.0,0,-12.5
2020-09-20,19,2.5,3.75,19,2.5
2020-09-21,5,-5.0,0.75,5,-5.0
2020-09-22,9,4.0,5.75,9,4.0
2020-09-23,13,6.5,-1.25,13,6.5
2020-09-24,22,1.5,1.0,22,1.5
2020-09-25,16,8.5,-0.5,16,8.5
2020-09-26,39,0.5,-14.0,39,0.5
2020-09-27,17,-19.5,-4.5,17,-19.5
2020-09-28,0,-8.5,16.25,0,-8.5
2020-09-29,0,13.0,8.0,0,13.0
2020-09-30,26,7.5,-10.25,26,7.5
2020-10-01,15,-7.5,-2.75,15,-7.5
2020-10-02,11,2.0,3.0,11,2.0
2020-10-03,19,-1.5,-3.75,19,-1.5
2020-10-04,8,-5.5,1.5,8,-5.5
2020-10-05,8,1.5,0.75,8,1.5
2020-10-06,11,-4.0,0.5,11,-4.0
2020-10-07,0,2.5,2.0,0,2.5
2020-10-08,16,0.0,-3.75,16,0.0
2020-10-09,0,-5.0,5.5,0,-5.0
2020-10-10,6,11.0,1.0,6,11.0
2020-10-11,22,-3.0,-9.75,22,-3.0
2020-10-12,0,-8.5,6.75,0,-8.5
2020-10-13,5,10.5,7.25,5,10.5
2020-10-14,21,6.0,-10.5,21,6.0
2020-10-15,17,-10.5,0.5,17,-10.5
2020-10-16,0,7.0,7.25,0,7.0
2020-10-17,31,4.0,-8.25,31,4.0
2020-10-18,8,-9.5,-4.0,8,-9.5
2020-10-19,12,-4.0,2.5,12,-4.0
2020-10-20,0,-4.5,9.0,0,-4.5
2020-10-21,3,14.0,3.5,3,14.0
2020-10-22,28,2.5,-14.0,28,2.5
2020-10-23,8,-14.0,-0.5,8,-14.0
2020-10-24,0,1.5,7.0,0,1.5
2020-10-25,11,0.0,0.0,11,0.0
2020-10-26,0,1.5,1.5,0,1.5
2020-10-27,14,3.0,-1.5,14,3.0
2020-10-28,6,-1.5,-3.0,6,-1.5
2020-10-29,11,-3.0,-2.0,11,-3.0
2020-10-30,0,-5.5,1.5,0,-5.5
2020-10-31,0,0.0,2.75,0,0.0
2020-11-01,0,0.0,0.0,0,0.0
2020-11-02,0,0.0,10.75,0,0.0
2020-11-03,0,21.5,2.25,0,21.5
2020-11-04,43,4.5,-17.0,43,4.5
2020-11-05,9,-12.5,-4.5,9,-12.5
2020-11-06,18,-4.5,1.75,18,-4.5
2020-11-07,0,-9.0,4.75,0,-9.0
2020-11-08,0,5.0,4.5,0,5.0
2020-11-09,10,0.0,-1.25,10,0.0
2020-11-10,0,2.5,2.0,0,2.5
2020-11-11,15,4.0,-3.0,15,4.0
2020-11-12,8,-3.5,-4.0,8,-3.5
2020-11-13,8,-4.0,-0.25,8,-4.0
2020-11-14,0,-4.0,7.0,0,-4.0
2020-11-15,0,10.0,2.75,0,10.0
2020-11-16,20,1.5,-10.0,20,1.5
2020-11-17,3,-10.0,2.75,3,-10.0
2020-11-18,0,7.0,5.75,0,7.0
2020-11-19,17,1.5,-7.0,17,1.5
2020-11-20,3,-7.0,-1.5,3,-7.0
2020-11-21,3,-1.5,5.25,3,-1.5
2020-11-22,0,3.5,2.0,0,3.5
2020-11-23,10,2.5,0.5,10,2.5
2020-11-24,5,4.5,-0.5,5,4.5
2020-11-25,19,1.5,-5.0,19,1.5
2020-11-26,8,-5.5,-0.75,8,-5.5
2020-11-27,8,0.0,0.75,8,0.0
2020-11-28,8,-4.0,3.5,8,-4.0
2020-11-29,0,7.0,2.5,0,7.0
2020-11-30,22,1.0,-4.75,22,1.0
2020-12-01,2,-2.5,3.5,2,-2.5
2020-12-02,17,8.0,1.0,17,8.0
2020-12-03,18,-0.5,-2.75,18,-0.5
2020-12-04,16,2.5,-3.75,16,2.5
2020-12-05,23,-8.0,0.25,23,-8.0
2020-12-06,0,3.0,4.0,0,3.0
2020-12-07,29,0.0,0.0,29,0.0
2020-12-08,0,3.0,0.0,0,3.0
2020-12-09,35,0.0,-2.5,35,0.0
2020-12-10,0,-2.0,6.5,0,-2.0
2020-12-11,31,13.0,-6.75,31,13.0
2020-12-12,26,-15.5,11.25,26,-15.5
2020-12-13,0,35.5,10.0,0,35.5
2020-12-14,97,4.5,-42.0,97,4.5
2020-12-15,9,-48.5,3.0,9,-48.5
2020-12-16,0,10.5,29.5,0,10.5
2020-12-17,30,10.5,-6.25,30,10.5
2020-12-18,21,-2.0,-10.5,21,-2.0
2020-12-19,26,-10.5,-12.0,26,-10.5
2020-12-20,0,-26.0,-15.5,0,-26.0
