date, confirmed_daily_cases, first_order,second_order, confirmed_daily_cases_outlier_removed,first_order_outlier_removed,second_order_outlier_removed
2020-01-01,0,0.0,0.0,0,0.0
2020-01-02,0,0.0,0.0,0,0.0
2020-01-03,0,0.0,0.0,0,0.0
2020-01-04,0,0.0,0.0,0,0.0
2020-01-05,0,0.0,0.0,0,0.0
2020-01-06,0,0.0,0.0,0,0.0
2020-01-07,0,0.0,0.0,0,0.0
2020-01-08,0,0.0,0.0,0,0.0
2020-01-09,0,0.0,0.0,0,0.0
2020-01-10,0,0.0,0.0,0,0.0
2020-01-11,0,0.0,0.0,0,0.0
2020-01-12,0,0.0,0.0,0,0.0
2020-01-13,0,0.0,0.0,0,0.0
2020-01-14,0,0.0,0.0,0,0.0
2020-01-15,0,0.0,0.0,0,0.0
2020-01-16,0,0.0,0.0,0,0.0
2020-01-17,0,0.0,0.0,0,0.0
2020-01-18,0,0.0,0.0,0,0.0
2020-01-19,0,0.0,0.0,0,0.0
2020-01-20,0,0.0,0.0,0,0.0
2020-01-21,0,0.0,0.0,0,0.0
2020-01-22,0,0.0,0.0,0,0.0
2020-01-23,0,0.0,0.0,0,0.0
2020-01-24,0,0.0,0.0,0,0.0
2020-01-25,0,0.0,0.0,0,0.0
2020-01-26,0,0.0,0.0,0,0.0
2020-01-27,0,0.0,0.0,0,0.0
2020-01-28,0,0.0,0.0,0,0.0
2020-01-29,0,0.0,0.0,0,0.0
2020-01-30,0,0.0,0.0,0,0.0
2020-01-31,0,0.0,0.0,0,0.0
2020-02-01,0,0.0,0.0,0,0.0
2020-02-02,0,0.0,0.0,0,0.0
2020-02-03,0,0.0,0.0,0,0.0
2020-02-04,0,0.0,0.0,0,0.0
2020-02-05,0,0.0,0.0,0,0.0
2020-02-06,0,0.0,0.0,0,0.0
2020-02-07,0,0.0,0.0,0,0.0
2020-02-08,0,0.0,0.0,0,0.0
2020-02-09,0,0.0,0.0,0,0.0
2020-02-10,0,0.0,0.0,0,0.0
2020-02-11,0,0.0,0.0,0,0.0
2020-02-12,0,0.0,0.0,0,0.0
2020-02-13,0,0.0,0.0,0,0.0
2020-02-14,0,0.0,0.0,0,0.0
2020-02-15,0,0.0,0.0,0,0.0
2020-02-16,0,0.0,0.0,0,0.0
2020-02-17,0,0.0,0.0,0,0.0
2020-02-18,0,0.0,0.0,0,0.0
2020-02-19,0,0.0,0.0,0,0.0
2020-02-20,0,0.0,0.0,0,0.0
2020-02-21,0,0.0,0.0,0,0.0
2020-02-22,0,0.0,0.0,0,0.0
2020-02-23,0,0.0,0.0,0,0.0
2020-02-24,0,0.0,0.0,0,0.0
2020-02-25,0,0.0,0.0,0,0.0
2020-02-26,0,0.0,0.0,0,0.0
2020-02-27,0,0.0,0.0,0,0.0
2020-02-28,0,0.0,0.0,0,0.0
2020-02-29,0,0.0,0.0,0,0.0
2020-03-01,0,0.0,0.0,0,0.0
2020-03-02,0,0.0,0.5,0,0.0
2020-03-03,0,1.0,0.0,0,1.0
2020-03-04,2,0.0,-1.0,2,0.0
2020-03-05,0,-1.0,0.5,0,-1.0
2020-03-06,0,1.0,1.25,0,1.0
2020-03-07,2,1.5,-0.5,2,1.5
2020-03-08,3,0.0,-1.5,3,0.0
2020-03-09,2,-1.5,0.5,2,-1.5
2020-03-10,0,1.0,0.75,0,1.0
2020-03-11,4,0.0,0.0,4,0.0
2020-03-12,0,1.0,2.75,0,1.0
2020-03-13,6,5.5,-1.5,6,5.5
2020-03-14,11,-2.0,-3.75,11,-2.0
2020-03-15,2,-2.0,3.25,2,-2.0
2020-03-16,7,4.5,1.25,7,4.5
2020-03-17,11,0.5,-1.25,11,0.5
2020-03-18,8,2.0,0.75,8,2.0
2020-03-19,15,2.0,-0.25,15,2.0
2020-03-20,12,1.5,3.0,12,1.5
2020-03-21,18,8.0,3.75,18,8.0
2020-03-22,28,9.0,-6.0,28,9.0
2020-03-23,36,-4.0,-3.75,36,-4.0
2020-03-24,20,1.5,5.75,20,1.5
2020-03-25,39,7.5,-0.75,39,7.5
2020-03-26,35,0.0,-1.75,35,0.0
2020-03-27,39,4.0,6.5,39,4.0
2020-03-28,43,13.0,-3.0,43,13.0
2020-03-29,65,-2.0,-11.5,65,-2.0
2020-03-30,39,-10.0,-0.5,39,-10.0
2020-03-31,45,-3.0,8.75,45,-3.0
2020-04-01,33,7.5,2.75,33,7.5
2020-04-02,60,2.5,-5.0,60,2.5
2020-04-03,38,-2.5,3.0,38,-2.5
2020-04-04,55,8.5,-9.75,55,8.5
2020-04-05,55,-22.0,0.25,55,-22.0
2020-04-06,11,9.0,27.75,11,9.0
2020-04-07,73,33.5,-1.5,73,33.5
2020-04-08,78,6.0,16.25,78,6.0
2020-04-09,85,66.0,5.75,85,66.0
2020-04-10,210,17.5,-60.5,210,17.5
2020-04-11,120,-55.0,-26.75,120,-55.0
2020-04-12,100,-36.0,16.0,100,-36.0
2020-04-13,48,-23.0,22.75,48,-23.0
2020-04-14,54,9.5,16.25,54,9.5
2020-04-15,67,9.5,6.25,67,9.5
2020-04-16,73,22.0,-5.25,73,22.0
2020-04-17,111,-1.0,-18.25,111,-1.0
2020-04-18,71,-14.5,-0.25,71,-14.5
2020-04-19,82,-1.5,15.25,82,-1.5
2020-04-20,68,16.0,1.25,68,16.0
2020-04-21,114,1.0,-7.5,114,1.0
2020-04-22,70,1.0,21.75,70,1.0
2020-04-23,116,44.5,-29.5,116,44.5
2020-04-24,159,-58.0,-47.75,159,-58.0
2020-04-25,0,-51.0,49.75,0,-51.0
2020-04-26,57,41.5,27.75,57,41.5
2020-04-27,83,4.5,-22.0,83,4.5
2020-04-28,66,-2.5,-6.75,66,-2.5
2020-04-29,78,-9.0,3.75,78,-9.0
2020-04-30,48,5.0,12.25,48,5.0
2020-05-01,88,15.5,-10.5,88,15.5
2020-05-02,79,-16.0,-18.25,79,-16.0
2020-05-03,56,-21.0,1.5,56,-21.0
2020-05-04,37,-13.0,12.75,37,-13.0
2020-05-05,30,4.5,8.75,30,4.5
2020-05-06,46,4.5,-6.75,46,4.5
2020-05-07,39,-9.0,-3.25,39,-9.0
2020-05-08,28,-2.0,10.0,28,-2.0
2020-05-09,35,11.0,-2.5,35,11.0
2020-05-10,50,-7.0,-10.75,50,-7.0
2020-05-11,21,-10.5,5.25,21,-10.5
2020-05-12,29,3.5,7.75,29,3.5
2020-05-13,28,5.0,0.5,28,5.0
2020-05-14,39,4.5,1.75,39,4.5
2020-05-15,37,8.5,-2.5,37,8.5
2020-05-16,56,-0.5,-11.75,56,-0.5
2020-05-17,36,-15.0,-3.5,36,-15.0
2020-05-18,26,-7.5,11.5,26,-7.5
2020-05-19,21,8.0,9.25,21,8.0
2020-05-20,42,11.0,-5.25,42,11.0
2020-05-21,43,-2.5,-7.5,43,-2.5
2020-05-22,37,-4.0,-1.0,37,-4.0
2020-05-23,35,-4.5,-3.0,35,-4.5
2020-05-24,28,-10.0,-1.0,28,-10.0
2020-05-25,15,-6.5,6.75,15,-6.5
2020-05-26,15,3.5,5.25,15,3.5
2020-05-27,22,4.0,-1.0,22,4.0
2020-05-28,23,1.5,-1.25,23,1.5
2020-05-29,25,1.5,-4.75,25,1.5
2020-05-30,26,-8.0,-3.25,26,-8.0
2020-05-31,9,-5.0,9.0,9,-5.0
2020-06-01,16,10.0,1.0,16,10.0
2020-06-02,29,-3.0,-6.5,29,-3.0
2020-06-03,10,-3.0,3.0,10,-3.0
2020-06-04,23,3.0,0.75,23,3.0
2020-06-05,16,-1.5,-1.0,16,-1.5
2020-06-06,20,1.0,-2.75,20,1.0
2020-06-07,18,-7.0,-4.25,18,-7.0
2020-06-08,6,-7.5,4.5,6,-7.5
2020-06-09,3,2.0,6.0,3,2.0
2020-06-10,10,4.5,0.0,10,4.5
2020-06-11,12,2.0,-2.5,12,2.0
2020-06-12,14,-0.5,-3.25,14,-0.5
2020-06-13,11,-4.5,-0.75,11,-4.5
2020-06-14,5,-2.0,1.25,5,-2.0
2020-06-15,7,-2.0,-0.5,7,-2.0
2020-06-16,1,-3.0,1.0,1,-3.0
2020-06-17,1,0.0,1.75,1,0.0
2020-06-18,1,0.5,1.0,1,0.5
2020-06-19,2,2.0,1.25,2,2.0
2020-06-20,5,3.0,-0.25,5,3.0
2020-06-21,8,1.5,-2.25,8,1.5
2020-06-22,8,-1.5,-1.0,8,-1.5
2020-06-23,5,-0.5,1.75,5,-0.5
2020-06-24,7,2.0,-0.5,7,2.0
2020-06-25,9,-1.5,-0.5,9,-1.5
2020-06-26,4,1.0,0.75,4,1.0
2020-06-27,11,0.0,-2.5,11,0.0
2020-06-28,4,-4.0,1.5,4,-4.0
2020-06-29,3,3.0,1.75,3,3.0
2020-06-30,10,-0.5,-1.75,10,-0.5
2020-07-01,2,-0.5,1.25,2,-0.5
2020-07-02,9,2.0,-1.5,9,2.0
2020-07-03,6,-3.5,-0.25,6,-3.5
2020-07-04,2,1.5,2.75,2,1.5
2020-07-05,9,2.0,1.0,9,2.0
2020-07-06,6,3.5,-1.25,6,3.5
2020-07-07,16,-0.5,-3.25,16,-0.5
2020-07-08,5,-3.0,-0.25,5,-3.0
2020-07-09,10,-1.0,0.5,10,-1.0
2020-07-10,3,-2.0,1.0,3,-2.0
2020-07-11,6,1.0,2.75,6,1.0
2020-07-12,5,3.5,1.0,5,3.5
2020-07-13,13,3.0,-3.75,13,3.0
2020-07-14,11,-4.0,-0.25,11,-4.0
2020-07-15,5,2.5,4.25,5,2.5
2020-07-16,16,4.5,0.25,16,4.5
2020-07-17,14,3.0,-1.25,14,3.0
2020-07-18,22,2.0,-5.5,22,2.0
2020-07-19,18,-8.0,-3.5,18,-8.0
2020-07-20,6,-5.0,7.25,6,-5.0
2020-07-21,8,6.5,4.0,8,6.5
2020-07-22,19,3.0,-3.5,19,3.0
2020-07-23,14,-0.5,1.5,14,-0.5
2020-07-24,18,6.0,-1.5,18,6.0
2020-07-25,26,-3.5,-6.25,26,-3.5
2020-07-26,11,-6.5,1.0,11,-6.5
2020-07-27,13,-1.5,2.25,13,-1.5
2020-07-28,8,-2.0,3.5,8,-2.0
2020-07-29,9,5.5,4.0,9,5.5
2020-07-30,19,6.0,-2.25,19,6.0
2020-07-31,21,1.0,-6.0,21,1.0
2020-08-01,21,-6.0,-3.5,21,-6.0
2020-08-02,9,-6.0,3.0,9,-6.0
2020-08-03,9,0.0,3.5,9,0.0
2020-08-04,9,1.0,6.0,9,1.0
2020-08-05,11,12.0,2.75,11,12.0
2020-08-06,33,6.5,-6.25,33,6.5
2020-08-07,24,-0.5,1.5,24,-0.5
2020-08-08,32,9.5,1.0,32,9.5
2020-08-09,43,1.5,-11.75,43,1.5
2020-08-10,35,-14.0,-4.0,35,-14.0
2020-08-11,15,-6.5,14.5,15,-6.5
2020-08-12,22,15.0,7.75,22,15.0
2020-08-13,45,9.0,-12.75,45,9.0
2020-08-14,40,-10.5,-4.75,40,-10.5
2020-08-15,24,-0.5,6.75,24,-0.5
2020-08-16,39,3.0,-3.5,39,3.0
2020-08-17,30,-7.5,-1.0,30,-7.5
2020-08-18,24,1.0,8.75,24,1.0
2020-08-19,32,10.0,4.5,32,10.0
2020-08-20,44,10.0,-7.25,44,10.0
2020-08-21,52,-4.5,-12.5,52,-4.5
2020-08-22,35,-15.0,2.5,35,-15.0
2020-08-23,22,0.5,8.0,22,0.5
2020-08-24,36,1.0,9.0,36,1.0
2020-08-25,24,18.5,16.25,24,18.5
2020-08-26,73,33.5,5.5,73,33.5
2020-08-27,91,29.5,0.0,91,29.5
2020-08-28,132,33.5,25.25,132,33.5
2020-08-29,158,80.0,-11.75,158,80.0
2020-08-30,292,10.0,-83.5,292,10.0
2020-08-31,178,-87.0,41.75,178,-87.0
2020-09-01,118,93.5,89.25,118,93.5
2020-09-02,365,91.5,-23.25,365,91.5
2020-09-03,301,47.0,6.5,301,47.0
2020-09-04,459,104.5,-14.5,459,104.5
2020-09-05,510,18.0,-35.75,510,18.0
2020-09-06,495,33.0,-47.5,495,33.0
2020-09-07,576,-77.0,-57.75,576,-77.0
2020-09-08,341,-82.5,72.25,341,-82.5
2020-09-09,411,67.5,118.0,411,67.5
2020-09-10,476,153.5,76.25,476,153.5
2020-09-11,718,220.0,-135.25,718,220.0
2020-09-12,916,-117.0,-128.0,916,-117.0
2020-09-13,484,-36.0,119.0,484,-36.0
2020-09-14,844,121.0,-47.75,844,121.0
2020-09-15,726,-131.5,-64.5,726,-131.5
2020-09-16,581,-8.0,155.75,581,-8.0
2020-09-17,710,180.0,28.75,710,180.0
2020-09-18,941,49.5,-57.75,941,49.5
2020-09-19,809,64.5,-8.0,809,64.5
2020-09-20,1070,33.5,-141.5,1070,33.5
2020-09-21,876,-218.5,2.0,876,-218.5
2020-09-22,633,37.5,138.5,633,37.5
2020-09-23,951,58.5,-24.75,951,58.5
2020-09-24,750,-12.0,20.75,750,-12.0
2020-09-25,927,100.0,8.5,927,100.0
2020-09-26,950,5.0,-112.0,950,5.0
2020-09-27,937,-124.0,-24.0,937,-124.0
2020-09-28,702,-43.0,110.0,702,-43.0
2020-09-29,851,96.0,20.75,851,96.0
2020-09-30,894,-1.5,59.0,894,-1.5
2020-10-01,848,214.0,60.25,848,214.0
2020-10-02,1322,119.0,-223.0,1322,119.0
2020-10-03,1086,-232.0,-104.75,1086,-232.0
2020-10-04,858,-90.5,106.0,858,-90.5
2020-10-05,905,-20.0,23.0,905,-20.0
2020-10-06,818,-44.5,38.5,818,-44.5
2020-10-07,816,57.0,112.25,816,57.0
2020-10-08,932,180.0,82.0,932,180.0
2020-10-09,1176,221.0,-117.0,1176,221.0
2020-10-10,1374,-54.0,-160.75,1374,-54.0
2020-10-11,1068,-100.5,16.25,1068,-100.5
2020-10-12,1173,-21.5,-13.0,1173,-21.5
2020-10-13,1025,-126.5,-8.0,1025,-126.5
2020-10-14,920,-37.5,156.5,920,-37.5
2020-10-15,950,186.5,229.0,950,186.5
2020-10-16,1293,420.5,-48.0,1293,420.5
2020-10-17,1791,90.5,-288.5,1791,90.5
2020-10-18,1474,-156.5,-166.5,1474,-156.5
2020-10-19,1478,-242.5,64.5,1478,-242.5
2020-10-20,989,-27.5,382.0,989,-27.5
2020-10-21,1423,521.5,174.5,1423,521.5
2020-10-22,2032,321.5,-313.75,2032,321.5
2020-10-23,2066,-106.0,110.0,2066,-106.0
2020-10-24,1820,541.5,177.0,1820,541.5
2020-10-25,3149,248.0,-538.25,3149,248.0
2020-10-26,2316,-535.0,-130.25,2316,-535.0
2020-10-27,2079,-12.5,296.25,2079,-12.5
2020-10-28,2291,57.5,255.0,2291,57.5
2020-10-29,2194,497.5,399.75,2194,497.5
2020-10-30,3286,857.0,-100.75,3286,857.0
2020-10-31,3908,296.0,-510.25,3908,296.0
2020-11-01,3878,-163.5,-120.25,3878,-163.5
2020-11-02,3581,55.5,241.25,3581,55.5
2020-11-03,3989,319.0,-43.0,3989,319.0
2020-11-04,4219,-30.5,-37.0,4219,-30.5
2020-11-05,3928,245.0,362.75,3928,245.0
2020-11-06,4709,695.0,-131.5,4709,695.0
2020-11-07,5318,-18.0,-386.5,5318,-18.0
2020-11-08,4673,-78.0,-124.25,4673,-78.0
2020-11-09,5162,-266.5,-265.25,5162,-266.5
2020-11-10,4140,-608.5,80.0,4140,-608.5
2020-11-11,3945,-106.5,592.25,3945,-106.5
2020-11-12,3927,576.0,280.5,3927,576.0
2020-11-13,5097,454.5,-502.75,5097,454.5
2020-11-14,4836,-429.5,187.5,4836,-429.5
2020-11-15,4238,829.5,456.0,4238,829.5
2020-11-16,6495,482.5,-966.0,6495,482.5
2020-11-17,5203,-1102.5,-414.0,5203,-1102.5
2020-11-18,4290,-345.5,588.75,4290,-345.5
2020-11-19,4512,75.0,144.0,4512,75.0
2020-11-20,4440,-57.5,-67.5,4440,-57.5
2020-11-21,4397,-60.0,-237.0,4397,-60.0
2020-11-22,4320,-531.5,-67.75,4320,-531.5
2020-11-23,3334,-195.5,383.75,3334,-195.5
2020-11-24,3929,236.0,705.5,3929,236.0
2020-11-25,3806,1215.5,528.75,3806,1215.5
2020-11-26,6360,1293.5,-630.75,6360,1293.5
2020-11-27,6393,-46.0,-540.25,6393,-46.0
2020-11-28,6268,213.0,-145.25,6268,213.0
2020-11-29,6819,-336.5,-823.5,6819,-336.5
2020-11-30,5595,-1434.0,-196.5,5595,-1434.0
2020-12-01,3951,-729.5,1388.0,3951,-729.5
2020-12-02,4136,1342.0,883.75,4136,1342.0
2020-12-03,6635,1038.0,-948.5,6635,1038.0
2020-12-04,6212,-555.0,-397.75,6212,-555.0
2020-12-05,5525,242.5,-136.25,5525,242.5
2020-12-06,6697,-827.5,-1240.75,6697,-827.5
2020-12-07,3870,-2239.0,251.5,3870,-2239.0
2020-12-08,2219,-324.5,1918.5,2219,-324.5
2020-12-09,3221,1598.0,906.25,3221,1598.0
2020-12-10,5415,1488.0,-891.0,5415,1488.0
2020-12-11,6197,-184.0,-1255.0,6197,-184.0
2020-12-12,5047,-1022.0,-302.25,5047,-1022.0
2020-12-13,4153,-788.5,-54.0,4153,-788.5
2020-12-14,3470,-1130.0,227.75,3470,-1130.0
2020-12-15,1893,-333.0,837.25,1893,-333.0
2020-12-16,2804,544.5,572.5,2804,544.5
2020-12-17,2982,812.0,-6.5,2982,812.0
2020-12-18,4428,531.5,-1513.0,4428,531.5
2020-12-19,4045,-2214.0,-2288.25,4045,-2214.0
2020-12-20,0,-4045.0,-1831.0,0,-4045.0
