date, confirmed_daily_cases, first_order,second_order, confirmed_daily_cases_outlier_removed,first_order_outlier_removed,second_order_outlier_removed
2020-01-01,0,0.0,0.0,0,0.0
2020-01-02,0,0.0,0.0,0,0.0
2020-01-03,0,0.0,0.0,0,0.0
2020-01-04,0,0.0,0.0,0,0.0
2020-01-05,0,0.0,0.0,0,0.0
2020-01-06,0,0.0,0.0,0,0.0
2020-01-07,0,0.0,0.0,0,0.0
2020-01-08,0,0.0,0.0,0,0.0
2020-01-09,0,0.0,0.0,0,0.0
2020-01-10,0,0.0,0.0,0,0.0
2020-01-11,0,0.0,0.0,0,0.0
2020-01-12,0,0.0,0.0,0,0.0
2020-01-13,0,0.0,0.0,0,0.0
2020-01-14,0,0.0,0.0,0,0.0
2020-01-15,0,0.0,0.0,0,0.0
2020-01-16,0,0.0,0.0,0,0.0
2020-01-17,0,0.0,0.0,0,0.0
2020-01-18,0,0.0,0.0,0,0.0
2020-01-19,0,0.0,0.0,0,0.0
2020-01-20,0,0.0,0.0,0,0.0
2020-01-21,0,0.0,0.0,0,0.0
2020-01-22,0,0.0,0.0,0,0.0
2020-01-23,0,0.0,0.0,0,0.0
2020-01-24,0,0.0,0.0,0,0.0
2020-01-25,0,0.0,0.0,0,0.0
2020-01-26,0,0.0,0.0,0,0.0
2020-01-27,0,0.0,0.0,0,0.0
2020-01-28,0,0.0,0.25,0,0.0
2020-01-29,0,0.5,0.0,0,0.5
2020-01-30,1,0.0,-0.5,1,0.0
2020-01-31,0,-0.5,0.25,0,-0.5
2020-02-01,0,0.5,0.5,0,0.5
2020-02-02,1,0.5,-0.5,1,0.5
2020-02-03,1,-0.5,-0.5,1,-0.5
2020-02-04,0,-0.5,0.25,0,-0.5
2020-02-05,0,0.0,0.25,0,0.0
2020-02-06,0,0.0,0.0,0,0.0
2020-02-07,0,0.0,0.0,0,0.0
2020-02-08,0,0.0,0.0,0,0.0
2020-02-09,0,0.0,0.0,0,0.0
2020-02-10,0,0.0,0.0,0,0.0
2020-02-11,0,0.0,0.0,0,0.0
2020-02-12,0,0.0,0.0,0,0.0
2020-02-13,0,0.0,0.0,0,0.0
2020-02-14,0,0.0,0.0,0,0.0
2020-02-15,0,0.0,0.0,0,0.0
2020-02-16,0,0.0,0.0,0,0.0
2020-02-17,0,0.0,0.0,0,0.0
2020-02-18,0,0.0,0.0,0,0.0
2020-02-19,0,0.0,0.0,0,0.0
2020-02-20,0,0.0,0.0,0,0.0
2020-02-21,0,0.0,0.0,0,0.0
2020-02-22,0,0.0,0.0,0,0.0
2020-02-23,0,0.0,0.0,0,0.0
2020-02-24,0,0.0,0.0,0,0.0
2020-02-25,0,0.0,0.0,0,0.0
2020-02-26,0,0.0,0.0,0,0.0
2020-02-27,0,0.0,0.0,0,0.0
2020-02-28,0,0.0,0.0,0,0.0
2020-02-29,0,0.0,0.5,0,0.0
2020-03-01,0,1.0,0.0,0,1.0
2020-03-02,2,0.0,4.75,2,0.0
2020-03-03,0,10.5,0.5,0,10.5
2020-03-04,23,1.0,-10.75,23,1.0
2020-03-05,2,-11.0,-0.25,2,-11.0
2020-03-06,1,0.5,6.5,1,0.5
2020-03-07,3,2.0,0.0,3,2.0
2020-03-08,5,0.5,1.0,5,0.5
2020-03-09,4,4.0,0.25,4,4.0
2020-03-10,13,1.0,-2.5,13,1.0
2020-03-11,6,-1.0,0.25,6,-1.0
2020-03-12,11,1.5,2.75,11,1.5
2020-03-13,9,4.5,-0.25,9,4.5
2020-03-14,20,1.0,-5.75,20,1.0
2020-03-15,11,-7.0,2.5,11,-7.0
2020-03-16,6,6.0,5.5,6,6.0
2020-03-17,23,4.0,0.75,23,4.0
2020-03-18,14,7.5,7.0,14,7.5
2020-03-19,38,18.0,8.25,38,18.0
2020-03-20,50,24.0,-5.0,50,24.0
2020-03-21,86,8.0,-7.75,86,8.0
2020-03-22,66,8.5,-11.25,66,8.5
2020-03-23,103,-14.5,0.25,103,-14.5
2020-03-24,37,9.0,15.5,37,9.0
2020-03-25,121,16.5,5.25,121,16.5
2020-03-26,70,19.5,-0.75,70,19.5
2020-03-27,160,15.0,-40.5,160,15.0
2020-03-28,100,-61.5,24.25,100,-61.5
2020-03-29,37,63.5,58.0,37,63.5
2020-03-30,227,54.5,61.75,91,54.5
2020-03-31,146,187.0,72.5,146,187.0
2020-04-01,601,199.5,-237.75,601,199.5
2020-04-02,545,-288.5,-107.25,545,-288.5
2020-04-03,24,-15.0,264.75,24,-15.0
2020-04-04,515,241.0,176.25,265,241.0
2020-04-05,506,337.5,-113.75,506,337.5
2020-04-06,1190,13.5,-315.0,1190,13.5
2020-04-07,533,-292.5,62.25,533,-292.5
2020-04-08,605,138.0,213.25,605,138.0
2020-04-09,809,134.0,-59.25,809,134.0
2020-04-10,873,19.5,-95.5,873,19.5
2020-04-11,848,-57.0,90.25,848,-57.0
2020-04-12,759,200.0,97.25,759,200.0
2020-04-13,1248,137.5,-203.25,1248,137.5
2020-04-14,1034,-206.5,-50.25,1034,-206.5
2020-04-15,835,37.0,125.0,835,37.0
2020-04-16,1108,43.5,47.0,1108,43.5
2020-04-17,922,131.0,221.0,922,131.0
2020-04-18,1370,485.5,-177.0,1370,485.5
2020-04-19,1893,-223.0,-330.75,1893,-223.0
2020-04-20,924,-176.0,203.0,924,-176.0
2020-04-21,1541,183.0,129.5,1541,183.0
2020-04-22,1290,83.0,-50.75,1290,83.0
2020-04-23,1707,81.5,-30.0,1707,81.5
2020-04-24,1453,23.0,-2.25,1453,23.0
2020-04-25,1753,77.0,-59.5,1753,77.0
2020-04-26,1607,-96.0,28.0,1607,-96.0
2020-04-27,1561,133.0,92.25,1561,133.0
2020-04-28,1873,88.5,-84.5,1873,88.5
2020-04-29,1738,-36.0,119.75,1738,-36.0
2020-04-30,1801,328.0,178.25,1801,328.0
2020-05-01,2394,320.5,-61.0,2394,320.5
2020-05-02,2442,206.0,212.25,2442,206.0
2020-05-03,2806,745.0,-63.75,2806,745.0
2020-05-04,3932,78.5,-458.75,3932,78.5
2020-05-05,2963,-172.5,61.0,2963,-172.5
2020-05-06,3587,200.5,25.5,3587,200.5
2020-05-07,3364,-121.5,-163.0,3364,-121.5
2020-05-08,3344,-125.5,313.0,3344,-125.5
2020-05-09,3113,504.5,186.25,3113,504.5
2020-05-10,4353,247.0,-459.5,4353,247.0
2020-05-11,3607,-414.5,-84.5,3607,-414.5
2020-05-12,3524,78.0,311.75,3524,78.0
2020-05-13,3763,209.0,-33.0,3763,209.0
2020-05-14,3942,12.0,126.0,3942,12.0
2020-05-15,3787,461.0,309.75,3787,461.0
2020-05-16,4864,631.5,-289.0,4864,631.5
2020-05-17,5050,-117.0,-41.5,5050,-117.0
2020-05-18,4630,548.5,289.25,4630,548.5
2020-05-19,6147,461.5,-261.5,6147,461.5
2020-05-20,5553,25.5,23.0,5553,25.5
2020-05-21,6198,507.5,95.0,6198,507.5
2020-05-22,6568,215.5,-117.5,6568,215.5
2020-05-23,6629,272.5,-161.5,6629,272.5
2020-05-24,7113,-107.5,-453.75,7113,-107.5
2020-05-25,6414,-635.0,273.5,6414,-635.0
2020-05-26,5843,439.5,681.75,5843,439.5
2020-05-27,7293,728.5,-16.75,7293,728.5
2020-05-28,7300,406.0,-105.25,7300,406.0
2020-05-29,8105,518.0,-33.75,8105,518.0
2020-05-30,8336,338.5,-402.75,8336,338.5
2020-05-31,8782,-287.5,-159.5,8782,-287.5
2020-06-01,7761,19.5,611.75,7761,19.5
2020-06-02,8821,936.0,257.25,8821,936.0
2020-06-03,9633,534.0,-508.5,9633,534.0
2020-06-04,9889,-81.0,-129.75,9889,-81.0
2020-06-05,9471,274.5,388.75,9471,274.5
2020-06-06,10438,696.5,-636.25,10438,696.5
2020-06-07,10864,-998.0,-509.75,10864,-998.0
2020-06-08,8442,-323.0,1003.25,8442,-323.0
2020-06-09,10218,1008.5,339.5,10218,1008.5
2020-06-10,10459,356.0,-254.5,10459,356.0
2020-06-11,10930,499.5,71.75,10930,499.5
2020-06-12,11458,499.5,-238.75,11458,499.5
2020-06-13,11929,22.0,-565.25,11929,22.0
2020-06-14,11502,-631.0,-143.0,11502,-631.0
2020-06-15,10667,-264.0,869.0,10667,-264.0
2020-06-16,10974,1107.0,785.0,10974,1107.0
2020-06-17,12881,1306.0,-144.75,12881,1306.0
2020-06-18,13586,817.5,-198.75,13586,817.5
2020-06-19,14516,908.5,-330.0,14516,908.5
2020-06-20,15403,157.5,-571.75,15403,157.5
2020-06-21,14831,-235.0,205.5,14831,-235.0
2020-06-22,14933,568.5,614.75,14933,568.5
2020-06-23,15968,994.5,47.75,15968,994.5
2020-06-24,16922,664.0,-89.75,16922,664.0
2020-06-25,17296,815.0,320.5,17296,815.0
2020-06-26,18552,1305.0,-180.75,18552,1305.0
2020-06-27,19906,453.5,-998.5,19906,453.5
2020-06-28,19459,-692.0,-431.25,19459,-692.0
2020-06-29,18522,-409.0,505.5,18522,-409.0
2020-06-30,18641,319.0,770.0,18641,319.0
2020-07-01,19160,1131.0,743.25,19160,1131.0
2020-07-02,20903,1805.5,421.25,20903,1805.5
2020-07-03,22771,1973.5,-533.5,22771,1973.5
2020-07-04,24850,738.5,-1636.5,24850,738.5
2020-07-05,24248,-1299.5,-743.0,24248,-1299.5
2020-07-06,22251,-747.5,1306.75,22251,-747.5
2020-07-07,22753,1314.0,1312.0,22753,1314.0
2020-07-08,24879,1876.5,-98.25,24879,1876.5
2020-07-09,26506,1117.5,-413.25,26506,1117.5
2020-07-10,27114,1050.0,-154.25,27114,1050.0
2020-07-11,28606,809.0,-552.0,28606,809.0
2020-07-12,28732,-54.0,-230.25,28732,-54.0
2020-07-13,28498,348.5,1071.5,28498,348.5
2020-07-14,29429,2089.0,1212.25,29429,2089.0
2020-07-15,32676,2773.0,-400.5,32676,2773.0
2020-07-16,34975,1288.0,-456.0,34975,1288.0
2020-07-17,35252,1861.0,649.25,35252,1861.0
2020-07-18,38697,2586.5,-1321.75,38697,2586.5
2020-07-19,40425,-782.5,-1964.5,40425,-782.5
2020-07-20,37132,-1342.5,2538.25,37132,-1342.5
2020-07-21,37740,4294.0,3563.75,37740,4294.0
2020-07-22,45720,5785.0,-1348.0,45720,5785.0
2020-07-23,49310,1598.0,-3067.25,49310,1598.0
2020-07-24,48916,-349.5,-532.75,48916,-349.5
2020-07-25,48611,532.5,-863.75,48611,532.5
2020-07-26,49981,-2077.0,137.5,49981,-2077.0
2020-07-27,44457,807.5,2497.75,44457,807.5
2020-07-28,51596,2918.5,-107.0,51596,2918.5
2020-07-29,50294,593.5,1277.75,50294,593.5
2020-07-30,52783,5474.0,191.25,52783,5474.0
2020-07-31,61242,976.0,-4804.5,61242,976.0
2020-08-01,54735,-4135.0,-1159.25,54735,-4135.0
2020-08-02,52972,-1342.5,1951.75,52972,-1342.5
2020-08-03,52050,-231.5,1729.25,52050,-231.5
2020-08-04,52509,2116.0,2623.0,52509,2116.0
2020-08-05,56282,5014.5,255.75,56282,5014.5
2020-08-06,62538,2627.5,-2042.0,62538,2627.5
2020-08-07,61537,930.5,-1182.0,61537,930.5
2020-08-08,64399,263.5,-3164.75,64399,263.5
2020-08-09,62064,-5399.0,-407.0,62064,-5399.0
2020-08-10,53601,-550.5,6049.0,53601,-550.5
2020-08-11,60963,6699.0,1172.75,60963,6699.0
2020-08-12,66999,1795.0,-3916.25,66999,1795.0
2020-08-13,64553,-1133.5,-1028.25,64553,-1133.5
2020-08-14,64732,-261.5,-1188.5,64732,-261.5
2020-08-15,64030,-3510.5,-2122.25,64030,-3510.5
2020-08-16,57711,-4506.0,3470.5,57711,-4506.0
2020-08-17,55018,3430.5,5916.5,55018,3430.5
2020-08-18,64572,7327.0,-633.25,64572,7327.0
2020-08-19,69672,2164.0,-3612.5,69672,2164.0
2020-08-20,68900,102.0,-997.25,68900,102.0
2020-08-21,69876,169.5,-2168.0,69876,169.5
2020-08-22,69239,-4234.0,-2150.75,69239,-4234.0
2020-08-23,61408,-4132.0,1071.0,61408,-4132.0
2020-08-24,60975,-2092.0,8244.0,60975,-2092.0
2020-08-25,57224,12356.0,6056.5,57224,12356.0
2020-08-26,85687,10021.0,-8481.75,85687,10021.0
2020-08-27,77266,-4607.5,-4636.75,77266,-4607.5
2020-08-28,76472,747.5,2813.75,76472,747.5
2020-08-29,78761,1020.0,-2583.75,78761,1020.0
2020-08-30,78512,-4420.0,-548.75,78512,-4420.0
2020-08-31,69921,-77.5,5700.5,69921,-77.5
2020-09-01,78357,6981.0,1284.75,78357,6981.0
2020-09-02,83883,2492.0,-2853.25,83883,2492.0
2020-09-03,83341,1274.5,576.75,83341,1274.5
2020-09-04,86432,3645.5,455.25,86432,3645.5
2020-09-05,90632,2185.0,-5528.5,90632,2185.0
2020-09-06,90802,-7411.5,-1366.5,90802,-7411.5
2020-09-07,75809,-548.0,8687.25,75809,-548.0
2020-09-08,89706,9963.0,1985.25,89706,9963.0
2020-09-09,95735,3422.5,-4522.75,95735,3422.5
2020-09-10,96551,917.5,-2256.0,96551,917.5
2020-09-11,97570,-1089.5,-1833.5,97570,-1089.5
2020-09-12,94372,-2749.5,-2096.0,94372,-2749.5
2020-09-13,92071,-5281.5,887.75,92071,-5281.5
2020-09-14,83809,-974.0,6162.0,83809,-974.0
2020-09-15,90123,7042.5,2062.25,90123,7042.5
2020-09-16,97894,3150.5,-4660.5,97894,3150.5
2020-09-17,96424,-2278.5,-2530.0,96424,-2278.5
2020-09-18,93337,-1909.5,-454.75,93337,-1909.5
2020-09-19,92605,-3188.0,-3425.75,92605,-3188.0
2020-09-20,86961,-8761.0,690.5,86961,-8761.0
2020-09-21,75083,-1807.0,7236.75,75083,-1807.0
2020-09-22,83347,5712.5,1579.75,83347,5712.5
2020-09-23,86508,1352.5,-3142.75,86508,1352.5
2020-09-24,86052,-573.0,-39.25,86052,-573.0
2020-09-25,85362,1274.0,-511.5,85362,1274.0
2020-09-26,88600,-1596.0,-5139.75,88600,-1596.0
2020-09-27,82170,-9005.5,373.5,82170,-9005.5
2020-09-28,70589,-849.0,8560.75,70589,-849.0
2020-09-29,80472,8116.0,677.5,80472,8116.0
2020-09-30,86821,506.0,-5894.25,86821,506.0
2020-10-01,81484,-3672.5,-1666.75,81484,-3672.5
2020-10-02,79476,-2827.5,577.75,79476,-2827.5
2020-10-03,75829,-2517.0,-2226.75,75829,-2517.0
2020-10-04,74442,-7281.0,660.25,74442,-7281.0
2020-10-05,61267,-1196.5,7954.75,61267,-1196.5
2020-10-06,72049,8628.5,210.0,72049,8628.5
2020-10-07,78524,-776.5,-5627.25,78524,-776.5
2020-10-08,70496,-2626.0,1360.0,70496,-2626.0
2020-10-09,73272,1943.5,-322.0,73272,1943.5
2020-10-10,74383,-3270.0,-5732.0,74383,-3270.0
2020-10-11,66732,-9520.5,829.25,66732,-9520.5
2020-10-12,55342,-1611.5,7851.75,55342,-1611.5
2020-10-13,63509,6183.0,771.25,63509,6183.0
2020-10-14,67708,-69.0,-4465.5,67708,-69.0
2020-10-15,63371,-2748.0,-340.5,63371,-2748.0
2020-10-16,62212,-750.0,-248.5,62212,-750.0
2020-10-17,61871,-3245.0,-3395.25,61871,-3245.0
2020-10-18,55722,-7540.5,1203.0,55722,-7540.5
2020-10-19,46790,-839.0,6032.5,46790,-839.0
2020-10-20,54044,4524.5,500.0,54044,4524.5
2020-10-21,55839,161.0,-2879.5,55839,161.0
2020-10-22,54366,-1234.5,-1139.75,54366,-1234.5
2020-10-23,53370,-2118.5,-1438.25,53370,-2118.5
2020-10-24,50129,-4111.0,-2355.5,50129,-4111.0
2020-10-25,45148,-6829.5,1741.75,45148,-6829.5
2020-10-26,36470,-627.5,6767.5,36470,-627.5
2020-10-27,43893,6705.5,1502.5,43893,6705.5
2020-10-28,49881,2377.5,-3756.0,49881,2377.5
2020-10-29,48648,-806.5,-1610.0,48648,-806.5
2020-10-30,48268,-842.5,-356.0,48268,-842.5
2020-10-31,46963,-1518.5,-1742.0,46963,-1518.5
2020-11-01,45231,-4326.5,1014.75,45231,-4326.5
2020-11-02,38310,511.0,5138.25,38310,511.0
2020-11-03,46253,5950.0,90.75,46253,5950.0
2020-11-04,50210,692.5,-2938.5,50210,692.5
2020-11-05,47638,73.0,-837.25,47638,73.0
2020-11-06,50356,-982.0,-1149.75,50356,-982.0
2020-11-07,45674,-2226.5,-1409.25,45674,-2226.5
2020-11-08,45903,-3800.5,707.75,45903,-3800.5
2020-11-09,38073,-811.0,4358.25,38073,-811.0
2020-11-10,44281,4916.0,555.0,44281,4916.0
2020-11-11,47905,299.0,-3263.25,47905,299.0
2020-11-12,44879,-1610.5,-1094.25,44879,-1610.5
2020-11-13,44684,-1889.5,-2728.75,44684,-1889.5
2020-11-14,41100,-7068.0,-2039.5,41100,-7068.0
2020-11-15,30548,-5968.5,5551.25,30548,-5968.5
2020-11-16,29163,4034.5,7087.5,29163,4034.5
2020-11-17,38617,8206.5,-201.0,38617,8206.5
2020-11-18,45576,3632.5,-3939.25,45576,3632.5
2020-11-19,45882,328.0,-1984.5,45882,328.0
2020-11-20,46232,-336.5,-707.25,46232,-336.5
2020-11-21,45209,-1086.5,-1640.25,45209,-1086.5
2020-11-22,44059,-3617.0,622.5,44059,-3617.0
2020-11-23,37975,158.5,3437.0,37975,158.5
2020-11-24,44376,3257.0,-402.75,44376,3257.0
2020-11-25,44489,-647.0,-2420.25,44489,-647.0
2020-11-26,43082,-1583.5,5.5,43082,-1583.5
2020-11-27,41322,-636.0,154.25,41322,-636.0
2020-11-28,41810,-1275.0,-2355.0,41810,-1275.0
2020-11-29,38772,-5346.0,95.5,38772,-5346.0
2020-11-30,31118,-1084.0,3781.25,31118,-1084.0
2020-12-01,36604,2216.5,539.75,36604,2216.5
2020-12-02,35551,-4.5,-833.0,35551,-4.5
2020-12-03,36595,550.5,-143.75,36595,550.5
2020-12-04,36652,-292.0,-1193.0,36652,-292.0
2020-12-05,36011,-1835.5,-2215.0,36011,-1835.5
2020-12-06,32981,-4722.0,692.5,32981,-4722.0
2020-12-07,26567,-450.5,3599.5,26567,-450.5
2020-12-08,32080,2477.0,-451.5,32080,2477.0
2020-12-09,31521,-1353.5,-1611.0,31521,-1353.5
2020-12-10,29373,-745.0,897.0,29373,-745.0
2020-12-11,30031,440.5,-367.5,30031,440.5
2020-12-12,30254,-1480.0,-2267.5,30254,-1480.0
2020-12-13,27071,-4094.5,567.75,27071,-4094.5
2020-12-14,22065,-344.5,2533.5,22065,-344.5
2020-12-15,26382,972.5,-700.75,26382,972.5
2020-12-16,24010,-1746.0,-200.75,24010,-1746.0
2020-12-17,22890,571.0,1806.5,22890,571.0
2020-12-18,25152,1867.0,-6573.5,25152,1867.0
2020-12-19,26624,-12576.0,-14245.5,26624,-12576.0
2020-12-20,0,-26624.0,-14048.0,0,-26624.0
