date, confirmed_daily_cases, first_order,second_order, confirmed_daily_cases_outlier_removed,first_order_outlier_removed,second_order_outlier_removed
2020-01-01,0,0.0,0.0,0,0.0
2020-01-02,0,0.0,0.0,0,0.0
2020-01-03,0,0.0,0.0,0,0.0
2020-01-04,0,0.0,0.0,0,0.0
2020-01-05,0,0.0,0.0,0,0.0
2020-01-06,0,0.0,0.0,0,0.0
2020-01-07,0,0.0,0.0,0,0.0
2020-01-08,0,0.0,0.0,0,0.0
2020-01-09,0,0.0,0.0,0,0.0
2020-01-10,0,0.0,0.0,0,0.0
2020-01-11,0,0.0,0.0,0,0.0
2020-01-12,0,0.0,0.0,0,0.0
2020-01-13,0,0.0,0.0,0,0.0
2020-01-14,0,0.0,0.0,0,0.0
2020-01-15,0,0.0,0.0,0,0.0
2020-01-16,0,0.0,0.0,0,0.0
2020-01-17,0,0.0,0.0,0,0.0
2020-01-18,0,0.0,0.0,0,0.0
2020-01-19,0,0.0,0.0,0,0.0
2020-01-20,0,0.0,0.0,0,0.0
2020-01-21,0,0.0,0.0,0,0.0
2020-01-22,0,0.0,0.0,0,0.0
2020-01-23,0,0.0,0.0,0,0.0
2020-01-24,0,0.0,0.0,0,0.0
2020-01-25,0,0.0,0.0,0,0.0
2020-01-26,0,0.0,0.0,0,0.0
2020-01-27,0,0.0,0.0,0,0.0
2020-01-28,0,0.0,0.0,0,0.0
2020-01-29,0,0.0,0.0,0,0.0
2020-01-30,0,0.0,0.0,0,0.0
2020-01-31,0,0.0,0.0,0,0.0
2020-02-01,0,0.0,0.0,0,0.0
2020-02-02,0,0.0,0.0,0,0.0
2020-02-03,0,0.0,0.0,0,0.0
2020-02-04,0,0.0,0.0,0,0.0
2020-02-05,0,0.0,0.0,0,0.0
2020-02-06,0,0.0,0.0,0,0.0
2020-02-07,0,0.0,0.0,0,0.0
2020-02-08,0,0.0,0.0,0,0.0
2020-02-09,0,0.0,0.0,0,0.0
2020-02-10,0,0.0,0.0,0,0.0
2020-02-11,0,0.0,0.0,0,0.0
2020-02-12,0,0.0,0.0,0,0.0
2020-02-13,0,0.0,0.0,0,0.0
2020-02-14,0,0.0,0.0,0,0.0
2020-02-15,0,0.0,0.0,0,0.0
2020-02-16,0,0.0,0.0,0,0.0
2020-02-17,0,0.0,0.0,0,0.0
2020-02-18,0,0.0,0.0,0,0.0
2020-02-19,0,0.0,0.0,0,0.0
2020-02-20,0,0.0,0.0,0,0.0
2020-02-21,0,0.0,0.0,0,0.0
2020-02-22,0,0.0,0.0,0,0.0
2020-02-23,0,0.0,0.0,0,0.0
2020-02-24,0,0.0,0.0,0,0.0
2020-02-25,0,0.0,0.0,0,0.0
2020-02-26,0,0.0,0.0,0,0.0
2020-02-27,0,0.0,0.25,0,0.0
2020-02-28,0,0.5,0.0,0,0.5
2020-02-29,1,0.0,-0.5,1,0.0
2020-03-01,0,-0.5,0.25,0,-0.5
2020-03-02,0,0.5,1.25,0,0.5
2020-03-03,1,2.0,-0.5,1,2.0
2020-03-04,4,-0.5,1.0,4,-0.5
2020-03-05,0,4.0,0.25,0,4.0
2020-03-06,12,0.0,-4.75,12,0.0
2020-03-07,0,-5.5,0.5,0,-5.5
2020-03-08,1,1.0,5.75,1,1.0
2020-03-09,2,6.0,1.25,2,6.0
2020-03-10,13,3.5,-6.25,13,3.5
2020-03-11,9,-6.5,7.75,9,-6.5
2020-03-12,0,19.0,13.0,0,19.0
2020-03-13,47,19.5,-21.25,47,19.5
2020-03-14,39,-23.5,-9.5,39,-23.5
2020-03-15,0,0.5,25.25,0,0.5
2020-03-16,40,27.0,7.0,40,27.0
2020-03-17,54,14.5,39.25,54,14.5
2020-03-18,69,105.5,7.0,69,105.5
2020-03-19,265,28.5,-93.5,265,28.5
2020-03-20,126,-81.5,-15.5,126,-81.5
2020-03-21,102,-2.5,70.0,102,-2.5
2020-03-22,121,58.5,22.0,121,58.5
2020-03-23,219,41.5,-25.25,219,41.5
2020-03-24,204,8.0,-8.0,204,8.0
2020-03-25,235,25.5,12.75,235,25.5
2020-03-26,255,33.5,-3.0,255,33.5
2020-03-27,302,19.5,-42.25,302,19.5
2020-03-28,294,-51.0,-9.5,294,-51.0
2020-03-29,200,0.5,56.75,200,0.5
2020-03-30,295,62.5,-21.0,295,62.5
2020-03-31,325,-41.5,-12.0,325,-41.5
2020-04-01,212,38.5,73.75,212,38.5
2020-04-02,402,106.0,-37.0,402,106.0
2020-04-03,424,-35.5,-61.5,424,-35.5
2020-04-04,331,-17.0,27.5,331,-17.0
2020-04-05,390,19.5,-2.75,390,19.5
2020-04-06,370,-22.5,-11.0,370,-22.5
2020-04-07,345,-2.5,50.0,345,-2.5
2020-04-08,365,77.5,288.75,365,77.5
2020-04-09,500,575.0,46.0,500,575.0
2020-04-10,1515,169.5,-484.5,1515,169.5
2020-04-11,839,-394.0,-46.5,839,-394.0
2020-04-12,727,76.5,223.25,727,76.5
2020-04-13,992,52.5,-19.25,992,52.5
2020-04-14,832,38.0,-53.25,832,38.0
2020-04-15,1068,-54.0,-108.75,1068,-54.0
2020-04-16,724,-179.5,40.5,724,-179.5
2020-04-17,709,27.0,35.75,709,27.0
2020-04-18,778,-108.0,-107.75,778,-108.0
2020-04-19,493,-188.5,27.75,493,-188.5
2020-04-20,401,-52.5,151.75,401,-52.5
2020-04-21,388,115.0,163.25,388,115.0
2020-04-22,631,274.0,-71.0,631,274.0
2020-04-23,936,-27.0,-276.75,936,-27.0
2020-04-24,577,-279.5,44.5,577,-279.5
2020-04-25,377,62.0,142.0,377,62.0
2020-04-26,701,4.5,-149.0,701,4.5
2020-04-27,386,-236.0,-4.75,386,-236.0
2020-04-28,229,-5.0,150.5,229,-5.0
2020-04-29,376,65.0,-36.25,376,65.0
2020-04-30,359,-77.5,-36.5,359,-77.5
2020-05-01,221,-8.0,66.0,221,-8.0
2020-05-02,343,54.5,-15.25,343,54.5
2020-05-03,330,-38.5,-57.0,330,-38.5
2020-05-04,266,-59.5,19.0,266,-59.5
2020-05-05,211,-0.5,11.25,211,-0.5
2020-05-06,265,-37.0,-27.0,265,-37.0
2020-05-07,137,-54.5,39.0,137,-54.5
2020-05-08,156,41.0,47.25,156,41.0
2020-05-09,219,40.0,-40.5,219,40.0
2020-05-10,236,-40.0,-52.25,236,-40.0
2020-05-11,139,-64.5,25.0,139,-64.5
2020-05-12,107,10.0,112.0,107,10.0
2020-05-13,159,159.5,-12.5,159,159.5
2020-05-14,426,-15.0,-163.25,426,-15.0
2020-05-15,129,-167.0,-8.75,129,-167.0
2020-05-16,92,-32.5,82.5,92,-32.5
2020-05-17,64,-2.0,13.0,64,-2.0
2020-05-18,88,-6.5,-5.0,88,-6.5
2020-05-19,51,-12.0,9.5,51,-12.0
2020-05-20,64,12.5,18.75,64,12.5
2020-05-21,76,25.5,-6.25,76,25.5
2020-05-22,115,0.0,-27.25,115,0.0
2020-05-23,76,-29.0,-4.25,76,-29.0
2020-05-24,57,-8.5,9.5,57,-8.5
2020-05-25,59,-10.0,6.5,59,-10.0
2020-05-26,37,4.5,5.25,37,4.5
2020-05-27,68,0.5,-10.5,68,0.5
2020-05-28,38,-16.5,3.5,38,-16.5
2020-05-29,35,7.5,14.75,35,7.5
2020-05-30,53,13.0,1.0,53,13.0
2020-05-31,61,9.5,-20.75,61,9.5
2020-06-01,72,-28.5,-11.5,72,-28.5
2020-06-02,4,-13.5,21.0,4,-13.5
2020-06-03,45,13.5,0.75,45,13.5
2020-06-04,31,-12.0,-9.5,31,-12.0
2020-06-05,21,-5.5,5.25,21,-5.5
2020-06-06,20,-1.5,-0.75,20,-1.5
2020-06-07,18,-7.0,-1.75,18,-7.0
2020-06-08,6,-5.0,6.0,6,-5.0
2020-06-09,8,5.0,2.25,8,5.0
2020-06-10,16,-0.5,-3.5,16,-0.5
2020-06-11,7,-2.0,9.75,7,-2.0
2020-06-12,12,19.0,0.0,12,19.0
2020-06-13,45,-2.0,-16.25,45,-2.0
2020-06-14,8,-13.5,2.25,8,-13.5
2020-06-15,18,2.5,4.0,18,2.5
2020-06-16,13,-5.5,-1.0,13,-5.5
2020-06-17,7,0.5,4.25,7,0.5
2020-06-18,14,3.0,-2.25,14,3.0
2020-06-19,13,-4.0,-3.5,13,-4.0
2020-06-20,6,-4.0,1.5,6,-4.0
2020-06-21,5,-1.0,2.75,5,-1.0
2020-06-22,4,1.5,0.75,4,1.5
2020-06-23,8,0.5,-0.5,8,0.5
2020-06-24,5,0.5,0.75,5,0.5
2020-06-25,9,2.0,3.25,9,2.0
2020-06-26,9,7.0,-2.75,9,7.0
2020-06-27,23,-3.5,-3.5,23,-3.5
2020-06-28,2,0.0,4.0,2,0.0
2020-06-29,23,4.5,-4.75,23,4.5
2020-06-30,11,-9.5,-2.0,11,-9.5
2020-07-01,4,0.5,6.0,4,0.5
2020-07-02,12,2.5,-0.5,12,2.5
2020-07-03,9,-0.5,1.0,9,-0.5
2020-07-04,11,4.5,-1.5,11,4.5
2020-07-05,18,-3.5,-5.0,18,-3.5
2020-07-06,4,-5.5,1.75,4,-5.5
2020-07-07,7,0.0,6.75,7,0.0
2020-07-08,4,8.0,5.0,4,8.0
2020-07-09,23,10.0,-4.25,23,10.0
2020-07-10,24,-0.5,-6.75,24,-0.5
2020-07-11,22,-3.5,-2.75,22,-3.5
2020-07-12,17,-6.0,5.5,17,-6.0
2020-07-13,10,7.5,3.75,10,7.5
2020-07-14,32,1.5,-8.0,32,1.5
2020-07-15,13,-8.5,4.0,13,-8.5
2020-07-16,15,9.5,5.5,15,9.5
2020-07-17,32,2.5,-10.25,32,2.5
2020-07-18,20,-11.0,-4.75,20,-11.0
2020-07-19,10,-7.0,12.0,10,-7.0
2020-07-20,6,13.0,6.25,6,13.0
2020-07-21,36,5.5,-13.75,36,5.5
2020-07-22,17,-14.5,-2.25,17,-14.5
2020-07-23,7,1.0,11.5,7,1.0
2020-07-24,19,8.5,-2.25,19,8.5
2020-07-25,24,-3.5,-7.5,24,-3.5
2020-07-26,12,-6.5,8.0,12,-6.5
2020-07-27,11,12.5,3.75,11,12.5
2020-07-28,37,1.0,5.75,37,1.0
2020-07-29,13,24.0,5.75,13,24.0
2020-07-30,85,12.5,-22.25,25,12.5
2020-07-31,38,-20.5,-2.5,38,-20.5
2020-08-01,44,7.5,10.75,44,7.5
2020-08-02,53,1.0,-5.75,53,1.0
2020-08-03,46,-4.0,0.5,46,-4.0
2020-08-04,45,2.0,8.0,45,2.0
2020-08-05,50,12.0,11.0,50,12.0
2020-08-06,69,24.0,20.25,69,24.0
2020-08-07,98,52.5,-19.5,98,52.5
2020-08-08,174,-15.0,-55.75,174,-15.0
2020-08-09,68,-59.0,-1.25,68,-59.0
2020-08-10,56,-17.5,24.75,56,-17.5
2020-08-11,33,-9.5,23.25,33,-9.5
2020-08-12,37,29.0,12.0,37,29.0
2020-08-13,91,14.5,11.75,91,14.5
2020-08-14,66,52.5,-7.25,66,52.5
2020-08-15,196,0.0,-61.25,196,0.0
2020-08-16,66,-70.0,30.0,66,-70.0
2020-08-17,56,60.0,33.0,56,60.0
2020-08-18,186,-4.0,-44.25,186,-4.0
2020-08-19,48,-28.5,9.75,48,-28.5
2020-08-20,129,15.5,20.25,129,15.5
2020-08-21,79,12.0,-12.25,79,12.0
2020-08-22,153,-9.0,-7.5,153,-9.0
2020-08-23,61,-3.0,10.5,61,-3.0
2020-08-24,147,12.0,5.25,147,12.0
2020-08-25,85,7.5,-4.75,85,7.5
2020-08-26,162,2.5,-13.0,162,2.5
2020-08-27,90,-18.5,11.75,90,-18.5
2020-08-28,125,26.0,-12.0,125,26.0
2020-08-29,142,-42.5,-35.75,142,-42.5
2020-08-30,40,-45.5,64.75,40,-45.5
2020-08-31,51,87.0,32.25,51,87.0
2020-09-01,214,19.0,-74.0,214,19.0
2020-09-02,89,-61.0,-7.5,89,-61.0
2020-09-03,92,4.0,65.25,92,4.0
2020-09-04,97,69.5,8.25,97,69.5
2020-09-05,231,20.5,-67.0,231,20.5
2020-09-06,138,-64.5,31.75,138,-64.5
2020-09-07,102,84.0,27.75,102,84.0
2020-09-08,306,-9.0,-69.5,306,-9.0
2020-09-09,84,-55.0,36.25,84,-55.0
2020-09-10,196,63.5,18.25,196,63.5
2020-09-11,211,-18.5,-20.75,211,-18.5
2020-09-12,159,22.0,21.25,159,22.0
2020-09-13,255,24.0,14.5,255,24.0
2020-09-14,207,51.0,-1.25,207,51.0
2020-09-15,357,21.5,-58.75,357,21.5
2020-09-16,250,-66.5,-11.25,250,-66.5
2020-09-17,224,-1.0,44.0,224,-1.0
2020-09-18,248,21.5,37.25,248,21.5
2020-09-19,267,73.5,-30.5,267,73.5
2020-09-20,395,-39.5,-54.75,395,-39.5
2020-09-21,188,-36.0,30.5,188,-36.0
2020-09-22,323,21.5,17.0,323,21.5
2020-09-23,231,-2.0,11.75,231,-2.0
2020-09-24,319,45.0,-17.5,319,45.0
2020-09-25,321,-37.0,4.75,321,-37.0
2020-09-26,245,54.5,54.0,245,54.5
2020-09-27,430,71.0,-44.0,430,71.0
2020-09-28,387,-33.5,-28.5,387,-33.5
2020-09-29,363,14.0,36.5,363,14.0
2020-09-30,415,39.5,5.75,415,39.5
2020-10-01,442,25.5,21.0,442,25.5
2020-10-02,466,81.5,-38.25,466,81.5
2020-10-03,605,-51.0,-62.75,605,-51.0
2020-10-04,364,-44.0,40.5,364,-44.0
2020-10-05,517,30.0,45.5,517,30.0
2020-10-06,424,47.0,4.5,424,47.0
2020-10-07,611,39.0,-22.0,611,39.0
2020-10-08,502,3.0,107.75,502,3.0
2020-10-09,617,254.5,47.75,617,254.5
2020-10-10,1011,98.5,-174.25,1011,98.5
2020-10-11,814,-94.0,-50.75,814,-94.0
2020-10-12,823,-3.0,112.25,823,-3.0
2020-10-13,808,130.5,96.0,808,130.5
2020-10-14,1084,189.0,-86.75,1084,189.0
2020-10-15,1186,-43.0,-78.25,1186,-43.0
2020-10-16,998,32.5,93.0,998,32.5
2020-10-17,1251,143.0,-71.25,1251,143.0
2020-10-18,1284,-110.0,-76.75,1284,-110.0
2020-10-19,1031,-10.5,88.75,1031,-10.5
2020-10-20,1263,67.5,-47.0,1263,67.5
2020-10-21,1166,-104.5,-129.0,1166,-104.5
2020-10-22,1054,-190.5,0.5,1054,-190.5
2020-10-23,785,-103.5,154.0,785,-103.5
2020-10-24,847,117.5,74.75,847,117.5
2020-10-25,1020,46.0,-138.75,1020,46.0
2020-10-26,939,-160.0,-91.0,939,-160.0
2020-10-27,700,-136.0,120.75,700,-136.0
2020-10-28,667,81.5,91.75,667,81.5
2020-10-29,863,47.5,-157.25,863,47.5
2020-10-30,762,-233.0,-77.75,762,-233.0
2020-10-31,397,-108.0,204.25,397,-108.0
2020-11-01,546,175.5,-8.0,546,175.5
2020-11-02,748,-124.0,-166.0,748,-124.0
2020-11-03,298,-156.5,128.25,298,-156.5
2020-11-04,435,132.5,92.5,435,132.5
2020-11-05,563,28.5,-127.75,563,28.5
2020-11-06,492,-123.0,-2.5,492,-123.0
2020-11-07,317,23.5,48.5,317,23.5
2020-11-08,539,-26.0,-89.0,539,-26.0
2020-11-09,265,-154.5,36.25,265,-154.5
2020-11-10,230,46.5,116.0,230,46.5
2020-11-11,358,77.5,4.0,358,77.5
2020-11-12,385,54.5,-28.25,385,54.5
2020-11-13,467,21.0,-49.75,467,21.0
2020-11-14,427,-45.0,-4.0,427,-45.0
2020-11-15,377,13.0,10.75,377,13.0
2020-11-16,453,-23.5,-26.75,453,-23.5
2020-11-17,330,-40.5,33.0,330,-40.5
2020-11-18,372,42.5,9.5,372,42.5
2020-11-19,415,-21.5,-39.75,415,-21.5
2020-11-20,329,-37.0,8.0,329,-37.0
2020-11-21,341,-5.5,-4.25,341,-5.5
2020-11-22,318,-45.5,-22.0,318,-45.5
2020-11-23,250,-49.5,24.5,250,-49.5
2020-11-24,219,3.5,46.75,219,3.5
2020-11-25,257,44.0,-14.75,257,44.0
2020-11-26,307,-26.0,-38.0,307,-26.0
2020-11-27,205,-32.0,36.5,205,-32.0
2020-11-28,243,47.0,31.0,243,47.0
2020-11-29,299,30.0,-34.75,299,30.0
2020-11-30,303,-22.5,-23.75,303,-22.5
2020-12-01,254,-17.5,-11.75,254,-17.5
2020-12-02,268,-46.0,7.5,268,-46.0
2020-12-03,162,-2.5,96.75,162,-2.5
2020-12-04,263,147.5,10.0,263,147.5
2020-12-05,457,17.5,-132.5,457,17.5
2020-12-06,298,-117.5,-29.75,298,-117.5
2020-12-07,222,-42.0,57.75,222,-42.0
2020-12-08,214,-2.0,43.25,214,-2.0
2020-12-09,218,44.5,22.5,218,44.5
2020-12-10,303,43.0,-35.75,303,43.0
2020-12-11,304,-27.0,9.75,304,-27.0
2020-12-12,249,62.5,17.25,249,62.5
2020-12-13,429,7.5,-56.75,429,7.5
2020-12-14,264,-51.0,35.5,264,-51.0
2020-12-15,327,78.5,64.0,327,78.5
2020-12-16,421,77.0,-0.5,421,77.0
2020-12-17,481,77.5,-28.25,481,77.5
2020-12-18,576,20.5,-182.75,576,20.5
2020-12-19,522,-288.0,-271.25,522,-288.0
2020-12-20,0,-522.0,-234.0,0,-522.0
