date, confirmed_daily_cases, first_order,second_order, confirmed_daily_cases_outlier_removed,first_order_outlier_removed,second_order_outlier_removed
2020-01-01,0,0.0,0.0,0,0.0
2020-01-02,0,0.0,0.0,0,0.0
2020-01-03,0,0.0,0.0,0,0.0
2020-01-04,0,0.0,0.0,0,0.0
2020-01-05,0,0.0,0.0,0,0.0
2020-01-06,0,0.0,0.0,0,0.0
2020-01-07,0,0.0,0.0,0,0.0
2020-01-08,0,0.0,0.0,0,0.0
2020-01-09,0,0.0,0.0,0,0.0
2020-01-10,0,0.0,0.0,0,0.0
2020-01-11,0,0.0,0.0,0,0.0
2020-01-12,0,0.0,0.0,0,0.0
2020-01-13,0,0.0,0.0,0,0.0
2020-01-14,0,0.0,0.0,0,0.0
2020-01-15,0,0.0,0.0,0,0.0
2020-01-16,0,0.0,0.0,0,0.0
2020-01-17,0,0.0,0.0,0,0.0
2020-01-18,0,0.0,0.0,0,0.0
2020-01-19,0,0.0,0.0,0,0.0
2020-01-20,0,0.0,0.0,0,0.0
2020-01-21,0,0.0,0.0,0,0.0
2020-01-22,0,0.0,0.0,0,0.0
2020-01-23,0,0.0,0.0,0,0.0
2020-01-24,0,0.0,0.0,0,0.0
2020-01-25,0,0.0,0.0,0,0.0
2020-01-26,0,0.0,0.0,0,0.0
2020-01-27,0,0.0,0.0,0,0.0
2020-01-28,0,0.0,0.0,0,0.0
2020-01-29,0,0.0,0.0,0,0.0
2020-01-30,0,0.0,0.0,0,0.0
2020-01-31,0,0.0,0.0,0,0.0
2020-02-01,0,0.0,0.0,0,0.0
2020-02-02,0,0.0,0.0,0,0.0
2020-02-03,0,0.0,0.0,0,0.0
2020-02-04,0,0.0,0.0,0,0.0
2020-02-05,0,0.0,0.0,0,0.0
2020-02-06,0,0.0,0.0,0,0.0
2020-02-07,0,0.0,0.0,0,0.0
2020-02-08,0,0.0,0.0,0,0.0
2020-02-09,0,0.0,0.0,0,0.0
2020-02-10,0,0.0,0.0,0,0.0
2020-02-11,0,0.0,0.0,0,0.0
2020-02-12,0,0.0,0.0,0,0.0
2020-02-13,0,0.0,0.0,0,0.0
2020-02-14,0,0.0,0.0,0,0.0
2020-02-15,0,0.0,0.0,0,0.0
2020-02-16,0,0.0,0.0,0,0.0
2020-02-17,0,0.0,0.0,0,0.0
2020-02-18,0,0.0,0.0,0,0.0
2020-02-19,0,0.0,0.0,0,0.0
2020-02-20,0,0.0,0.0,0,0.0
2020-02-21,0,0.0,0.0,0,0.0
2020-02-22,0,0.0,0.25,0,0.0
2020-02-23,0,0.5,2.5,0,0.5
2020-02-24,1,5.0,3.25,1,5.0
2020-02-25,10,7.0,-0.75,10,7.0
2020-02-26,15,3.5,-6.75,15,3.5
2020-02-27,17,-6.5,-6.0,17,-6.5
2020-02-28,2,-8.5,2.75,2,-8.5
2020-02-29,0,-1.0,7.0,0,-1.0
2020-03-01,0,5.5,0.5,0,5.5
2020-03-02,11,0.0,-5.5,11,0.0
2020-03-03,0,-5.5,0.5,0,-5.5
2020-03-04,0,1.0,2.75,0,1.0
2020-03-05,2,0.0,-0.25,2,0.0
2020-03-06,0,0.5,0.75,0,0.5
2020-03-07,3,1.5,-1.0,3,1.5
2020-03-08,3,-1.5,-0.25,3,-1.5
2020-03-09,0,1.0,1.5,0,1.0
2020-03-10,5,1.5,0.25,5,1.5
2020-03-11,3,1.5,-1.5,3,1.5
2020-03-12,8,-1.5,3.25,8,-1.5
2020-03-13,0,8.0,2.75,0,8.0
2020-03-14,24,4.0,-7.25,24,4.0
2020-03-15,8,-6.5,-2.25,8,-6.5
2020-03-16,11,-0.5,3.5,11,-0.5
2020-03-17,7,0.5,0.0,7,0.5
2020-03-18,12,-0.5,-0.5,12,-0.5
2020-03-19,6,-0.5,3.0,6,-0.5
2020-03-20,11,5.5,0.5,11,5.5
2020-03-21,17,0.5,-6.75,17,0.5
2020-03-22,12,-8.0,-2.75,12,-8.0
2020-03-23,1,-5.0,4.75,1,-5.0
2020-03-24,2,1.5,5.25,2,1.5
2020-03-25,4,5.5,2.5,4,5.5
2020-03-26,13,6.5,-3.5,13,6.5
2020-03-27,17,-1.5,-2.5,17,-1.5
2020-03-28,10,1.5,1.0,10,1.5
2020-03-29,20,0.5,0.0,20,0.5
2020-03-30,11,1.5,4.0,11,1.5
2020-03-31,23,8.5,-0.25,23,8.5
2020-04-01,28,1.0,7.5,28,1.0
2020-04-02,25,23.5,8.75,25,23.5
2020-04-03,75,18.5,-11.25,75,18.5
2020-04-04,62,1.0,2.5,62,1.0
2020-04-05,77,23.5,-0.25,77,23.5
2020-04-06,109,0.5,-11.0,109,0.5
2020-04-07,78,1.5,-6.0,78,1.5
2020-04-08,112,-11.5,-8.0,112,-11.5
2020-04-09,55,-14.5,32.25,55,-14.5
2020-04-10,83,53.0,6.5,83,53.0
2020-04-11,161,-1.5,-50.25,161,-1.5
2020-04-12,80,-47.5,-5.5,80,-47.5
2020-04-13,66,-12.5,19.75,66,-12.5
2020-04-14,55,-8.0,22.25,55,-8.0
2020-04-15,50,32.0,25.0,50,32.0
2020-04-16,119,42.0,-22.5,119,42.0
2020-04-17,134,-13.0,-13.5,134,-13.0
2020-04-18,93,15.0,3.25,93,15.0
2020-04-19,164,-6.5,-27.25,164,-6.5
2020-04-20,80,-39.5,25.25,80,-39.5
2020-04-21,85,44.0,36.25,85,44.0
2020-04-22,168,33.0,-10.25,168,33.0
2020-04-23,151,23.5,15.25,151,23.5
2020-04-24,215,63.5,-19.75,215,63.5
2020-04-25,278,-16.0,-48.0,278,-16.0
2020-04-26,183,-32.5,0.25,183,-32.5
2020-04-27,213,-15.5,38.0,213,-15.5
2020-04-28,152,43.5,40.75,152,43.5
2020-04-29,300,66.0,-8.5,300,66.0
2020-04-30,284,26.5,-43.5,284,26.5
2020-05-01,353,-21.0,-10.5,353,-21.0
2020-05-02,242,5.5,23.75,242,5.5
2020-05-03,364,26.5,37.75,364,26.5
2020-05-04,295,81.0,34.25,295,81.0
2020-05-05,526,95.0,-102.5,526,95.0
2020-05-06,485,-124.0,-8.5,485,-124.0
2020-05-07,278,78.0,96.25,278,78.0
2020-05-08,641,68.5,67.0,641,68.5
2020-05-09,415,212.0,11.5,415,212.0
2020-05-10,1065,91.5,-124.5,1065,91.5
2020-05-11,598,-37.0,-7.5,598,-37.0
2020-05-12,991,76.5,7.5,991,76.5
2020-05-13,751,-22.0,-4.75,751,-22.0
2020-05-14,947,67.0,9.75,947,67.0
2020-05-15,885,-2.5,7.25,885,-2.5
2020-05-16,942,81.5,-24.0,942,81.5
2020-05-17,1048,-50.5,-34.5,1048,-50.5
2020-05-18,841,12.5,16.0,841,12.5
2020-05-19,1073,-18.5,-14.25,1073,-18.5
2020-05-20,804,-16.0,47.0,804,-16.0
2020-05-21,1041,75.5,-27.25,1041,75.5
2020-05-22,955,-70.5,-67.0,955,-70.5
2020-05-23,900,-58.5,-23.5,900,-58.5
2020-05-24,838,-117.5,-28.25,838,-117.5
2020-05-25,665,-115.0,65.5,665,-115.0
2020-05-26,608,13.5,116.75,608,13.5
2020-05-27,692,118.5,88.25,692,118.5
2020-05-28,845,190.0,-18.5,845,190.0
2020-05-29,1072,81.5,-150.25,1072,81.5
2020-05-30,1008,-110.5,-113.0,1008,-110.5
2020-05-31,851,-144.5,64.25,851,-144.5
2020-06-01,719,18.0,70.0,719,18.0
2020-06-02,887,-4.5,-90.25,887,-4.5
2020-06-03,710,-162.5,5.5,710,-162.5
2020-06-04,562,6.5,62.5,562,6.5
2020-06-05,723,-37.5,-4.75,723,-37.5
2020-06-06,487,-3.0,62.5,487,-3.0
2020-06-07,717,87.5,-20.25,717,87.5
2020-06-08,662,-43.5,-38.5,662,-43.5
2020-06-09,630,10.5,16.5,630,10.5
2020-06-10,683,-10.5,-46.0,683,-10.5
2020-06-11,609,-81.5,-18.5,609,-81.5
2020-06-12,520,-47.5,24.25,520,-47.5
2020-06-13,514,-33.0,23.0,514,-33.0
2020-06-14,454,-1.5,34.75,454,-1.5
2020-06-15,511,36.5,16.75,511,36.5
2020-06-16,527,32.0,-14.75,527,32.0
2020-06-17,575,7.0,-8.75,575,7.0
2020-06-18,541,14.5,-22.0,541,14.5
2020-06-19,604,-37.0,-32.0,604,-37.0
2020-06-20,467,-49.5,62.0,467,-49.5
2020-06-21,505,87.0,84.0,505,87.0
2020-06-22,641,118.5,7.75,641,118.5
2020-06-23,742,102.5,-17.5,742,102.5
2020-06-24,846,83.5,-34.0,846,83.5
2020-06-25,909,34.5,-97.0,909,34.5
2020-06-26,915,-110.5,-108.25,915,-110.5
2020-06-27,688,-182.0,28.75,688,-182.0
2020-06-28,551,-53.0,121.0,551,-53.0
2020-06-29,582,60.0,67.25,582,60.0
2020-06-30,671,81.5,32.0,671,81.5
2020-07-01,745,124.0,-23.75,745,124.0
2020-07-02,919,34.0,-134.0,919,34.0
2020-07-03,813,-144.0,-60.75,813,-144.0
2020-07-04,631,-87.5,90.0,631,-87.5
2020-07-05,638,36.0,34.5,638,36.0
2020-07-06,703,-18.5,-3.25,703,-18.5
2020-07-07,601,29.5,67.25,601,29.5
2020-07-08,762,116.0,-20.25,762,116.0
2020-07-09,833,-11.0,-146.75,833,-11.0
2020-07-10,740,-177.5,29.5,740,-177.5
2020-07-11,478,48.0,122.75,478,48.0
2020-07-12,836,68.0,-66.5,836,68.0
2020-07-13,614,-85.0,-11.75,614,-85.0
2020-07-14,666,44.5,73.75,666,44.5
2020-07-15,703,62.5,-59.75,703,62.5
2020-07-16,791,-75.0,-58.25,791,-75.0
2020-07-17,553,-54.0,-25.75,553,-54.0
2020-07-18,683,-126.5,-4.0,683,-126.5
2020-07-19,300,-62.0,156.0,300,-62.0
2020-07-20,559,185.5,79.0,559,185.5
2020-07-21,671,96.0,-88.75,671,96.0
2020-07-22,751,8.0,-47.5,751,8.0
2020-07-23,687,1.0,-4.75,687,1.0
2020-07-24,753,-1.5,-72.75,753,-1.5
2020-07-25,684,-144.5,-18.75,684,-144.5
2020-07-26,464,-39.0,148.75,464,-39.0
2020-07-27,606,153.0,56.5,606,153.0
2020-07-28,770,74.0,-112.5,770,74.0
2020-07-29,754,-72.0,-118.5,754,-72.0
2020-07-30,626,-163.0,2.25,626,-163.0
2020-07-31,428,-67.5,90.25,428,-67.5
2020-08-01,491,17.5,8.0,491,17.5
2020-08-02,463,-51.5,-5.75,463,-51.5
2020-08-03,388,6.0,91.5,388,6.0
2020-08-04,475,131.5,33.25,475,131.5
2020-08-05,651,72.5,-58.0,651,72.5
2020-08-06,620,15.5,-73.25,620,15.5
2020-08-07,682,-74.0,-49.75,682,-74.0
2020-08-08,472,-84.0,90.75,472,-84.0
2020-08-09,514,107.5,80.5,514,107.5
2020-08-10,687,77.0,-46.25,687,77.0
2020-08-11,668,15.0,-30.25,668,15.0
2020-08-12,717,16.5,-12.0,717,16.5
2020-08-13,701,-9.0,-55.5,701,-9.0
2020-08-14,699,-94.5,-43.25,699,-94.5
2020-08-15,512,-95.5,74.75,512,-95.5
2020-08-16,508,55.0,81.5,508,55.0
2020-08-17,622,67.5,-14.25,622,67.5
2020-08-18,643,26.5,-39.0,643,26.5
2020-08-19,675,-10.5,-56.5,675,-10.5
2020-08-20,622,-86.5,21.75,622,-86.5
2020-08-21,502,33.0,60.5,502,33.0
2020-08-22,688,34.5,-80.5,688,34.5
2020-08-23,571,-128.0,-6.75,571,-128.0
2020-08-24,432,21.0,130.5,432,21.0
2020-08-25,613,133.0,4.75,613,133.0
2020-08-26,698,30.5,-82.75,698,30.5
2020-08-27,674,-32.5,-22.25,674,-32.5
2020-08-28,633,-14.0,-39.0,633,-14.0
2020-08-29,646,-110.5,-36.25,646,-110.5
2020-08-30,412,-86.5,127.75,412,-86.5
2020-08-31,473,145.0,91.75,473,145.0
2020-09-01,702,97.0,-23.0,702,97.0
2020-09-02,667,99.0,1.0,667,99.0
2020-09-03,900,99.0,-94.5,900,99.0
2020-09-04,865,-90.0,-111.0,865,-90.0
2020-09-05,720,-123.0,66.25,720,-123.0
2020-09-06,619,42.5,121.0,619,42.5
2020-09-07,805,119.0,-13.0,805,119.0
2020-09-08,857,16.5,-88.75,857,16.5
2020-09-09,838,-58.5,-54.5,838,-58.5
2020-09-10,740,-92.5,28.25,740,-92.5
2020-09-11,653,-2.0,21.25,653,-2.0
2020-09-12,736,-50.0,-6.0,736,-50.0
2020-09-13,553,-14.0,94.0,553,-14.0
2020-09-14,708,138.0,4.5,708,138.0
2020-09-15,829,-5.0,-70.0,829,-5.0
2020-09-16,698,-2.0,4.0,698,-2.0
2020-09-17,825,3.0,-75.0,825,3.0
2020-09-18,704,-152.0,-81.25,704,-152.0
2020-09-19,521,-159.5,78.25,521,-159.5
2020-09-20,385,4.5,163.25,385,4.5
2020-09-21,530,167.0,19.25,530,167.0
2020-09-22,719,43.0,-125.25,719,43.0
2020-09-23,616,-83.5,-28.0,616,-83.5
2020-09-24,552,-13.0,93.25,552,-13.0
2020-09-25,590,103.0,-54.75,590,103.0
2020-09-26,758,-122.5,-131.75,758,-122.5
2020-09-27,345,-160.5,121.75,345,-160.5
2020-09-28,437,121.0,124.5,437,121.0
2020-09-29,587,88.5,-83.75,587,88.5
2020-09-30,614,-46.5,-95.0,614,-46.5
2020-10-01,494,-101.5,-7.5,494,-101.5
2020-10-02,411,-61.5,89.75,411,-61.5
2020-10-03,371,78.0,79.75,371,78.0
2020-10-04,567,98.0,-11.75,567,98.0
2020-10-05,567,54.5,-72.0,567,54.5
2020-10-06,676,-46.0,-21.75,676,-46.0
2020-10-07,475,11.0,63.0,475,11.0
2020-10-08,698,80.0,-57.0,698,80.0
2020-10-09,635,-103.0,-61.75,635,-103.0
2020-10-10,492,-43.5,122.75,492,-43.5
2020-10-11,548,142.5,95.75,548,142.5
2020-10-12,777,148.0,-132.5,777,148.0
2020-10-13,844,-122.5,-98.5,844,-122.5
2020-10-14,532,-49.0,110.5,532,-49.0
2020-10-15,746,98.5,22.75,746,98.5
2020-10-16,729,-3.5,-65.75,729,-3.5
2020-10-17,739,-33.0,-11.5,739,-33.0
2020-10-18,663,-26.5,72.25,663,-26.5
2020-10-19,686,111.5,45.0,686,111.5
2020-10-20,886,63.5,-55.0,886,63.5
2020-10-21,813,1.5,-32.0,813,1.5
2020-10-22,889,-0.5,-49.25,889,-0.5
2020-10-23,812,-97.0,-25.75,812,-97.0
2020-10-24,695,-52.0,45.25,695,-52.0
2020-10-25,708,-6.5,42.75,708,-6.5
2020-10-26,682,33.5,36.25,682,33.5
2020-10-27,775,66.0,-20.5,775,66.0
2020-10-28,814,-7.5,-68.75,814,-7.5
2020-10-29,760,-71.5,-39.0,760,-71.5
2020-10-30,671,-85.5,20.0,671,-85.5
2020-10-31,589,-31.5,85.25,589,-31.5
2020-11-01,608,85.0,60.5,608,85.0
2020-11-02,759,89.5,-41.5,759,89.5
2020-11-03,787,2.0,-42.75,787,2.0
2020-11-04,763,4.0,14.5,763,4.0
2020-11-05,795,31.0,-15.25,795,31.0
2020-11-06,825,-26.5,-87.25,825,-26.5
2020-11-07,742,-143.5,11.5,742,-143.5
2020-11-08,538,-3.5,163.0,538,-3.5
2020-11-09,735,182.5,12.5,735,182.5
2020-11-10,903,21.5,-123.75,903,21.5
2020-11-11,778,-65.0,-25.75,778,-65.0
2020-11-12,773,-30.0,12.0,773,-30.0
2020-11-13,718,-41.0,-39.75,718,-41.0
2020-11-14,691,-109.5,-30.0,691,-109.5
2020-11-15,499,-101.0,69.0,499,-101.0
2020-11-16,489,28.5,41.25,489,28.5
2020-11-17,556,-18.5,-32.0,556,-18.5
2020-11-18,452,-35.5,17.75,452,-35.5
2020-11-19,485,17.0,3.0,485,17.0
2020-11-20,486,-29.5,-49.5,486,-29.5
2020-11-21,426,-82.0,-7.5,426,-82.0
2020-11-22,322,-44.5,61.0,322,-44.5
2020-11-23,337,40.0,43.5,337,40.0
2020-11-24,402,42.5,-38.0,402,42.5
2020-11-25,422,-36.0,-44.5,422,-36.0
2020-11-26,330,-46.5,15.25,330,-46.5
2020-11-27,329,-5.5,-1.25,329,-5.5
2020-11-28,319,-49.0,-24.75,319,-49.0
2020-11-29,231,-55.0,56.0,231,-55.0
2020-11-30,209,63.0,42.25,209,63.0
2020-12-01,357,29.5,-42.25,357,29.5
2020-12-02,268,-21.5,4.0,268,-21.5
2020-12-03,314,37.5,-6.0,314,37.5
2020-12-04,343,-33.5,-53.25,343,-33.5
2020-12-05,247,-69.0,12.5,247,-69.0
2020-12-06,205,-8.5,58.5,205,-8.5
2020-12-07,230,48.0,22.75,230,48.0
2020-12-08,301,37.0,-26.5,301,37.0
2020-12-09,304,-5.0,-21.0,304,-5.0
2020-12-10,291,-5.0,-6.5,291,-5.0
2020-12-11,294,-18.0,-27.5,294,-18.0
2020-12-12,255,-60.0,3.0,255,-60.0
2020-12-13,174,-12.0,51.75,174,-12.0
2020-12-14,231,43.5,13.5,231,43.5
2020-12-15,261,15.0,-31.75,261,15.0
2020-12-16,261,-20.0,12.0,261,-20.0
2020-12-17,221,39.0,15.75,221,39.0
2020-12-18,339,11.5,-104.25,339,11.5
2020-12-19,244,-169.5,-127.75,244,-169.5
2020-12-20,0,-244.0,-74.5,0,-244.0
