date, confirmed_daily_cases, first_order,second_order, confirmed_daily_cases_outlier_removed,first_order_outlier_removed,second_order_outlier_removed
2020-01-01,0,0.0,0.0,0,0.0
2020-01-02,0,0.0,0.0,0,0.0
2020-01-03,0,0.0,0.0,0,0.0
2020-01-04,0,0.0,0.0,0,0.0
2020-01-05,0,0.0,0.0,0,0.0
2020-01-06,0,0.0,0.0,0,0.0
2020-01-07,0,0.0,0.0,0,0.0
2020-01-08,0,0.0,0.0,0,0.0
2020-01-09,0,0.0,0.0,0,0.0
2020-01-10,0,0.0,0.0,0,0.0
2020-01-11,0,0.0,0.0,0,0.0
2020-01-12,0,0.0,0.0,0,0.0
2020-01-13,0,0.0,0.0,0,0.0
2020-01-14,0,0.0,0.0,0,0.0
2020-01-15,0,0.0,0.0,0,0.0
2020-01-16,0,0.0,0.0,0,0.0
2020-01-17,0,0.0,0.0,0,0.0
2020-01-18,0,0.0,0.0,0,0.0
2020-01-19,0,0.0,0.0,0,0.0
2020-01-20,0,0.0,0.0,0,0.0
2020-01-21,0,0.0,0.0,0,0.0
2020-01-22,0,0.0,0.0,0,0.0
2020-01-23,0,0.0,0.0,0,0.0
2020-01-24,0,0.0,0.0,0,0.0
2020-01-25,0,0.0,0.0,0,0.0
2020-01-26,0,0.0,0.0,0,0.0
2020-01-27,0,0.0,0.0,0,0.0
2020-01-28,0,0.0,0.0,0,0.0
2020-01-29,0,0.0,0.0,0,0.0
2020-01-30,0,0.0,0.0,0,0.0
2020-01-31,0,0.0,0.0,0,0.0
2020-02-01,0,0.0,0.0,0,0.0
2020-02-02,0,0.0,0.0,0,0.0
2020-02-03,0,0.0,0.0,0,0.0
2020-02-04,0,0.0,0.0,0,0.0
2020-02-05,0,0.0,0.0,0,0.0
2020-02-06,0,0.0,0.0,0,0.0
2020-02-07,0,0.0,0.0,0,0.0
2020-02-08,0,0.0,0.0,0,0.0
2020-02-09,0,0.0,0.0,0,0.0
2020-02-10,0,0.0,0.0,0,0.0
2020-02-11,0,0.0,0.0,0,0.0
2020-02-12,0,0.0,0.0,0,0.0
2020-02-13,0,0.0,0.0,0,0.0
2020-02-14,0,0.0,0.0,0,0.0
2020-02-15,0,0.0,0.0,0,0.0
2020-02-16,0,0.0,0.0,0,0.0
2020-02-17,0,0.0,0.0,0,0.0
2020-02-18,0,0.0,0.0,0,0.0
2020-02-19,0,0.0,0.0,0,0.0
2020-02-20,0,0.0,0.0,0,0.0
2020-02-21,0,0.0,0.0,0,0.0
2020-02-22,0,0.0,0.0,0,0.0
2020-02-23,0,0.0,0.0,0,0.0
2020-02-24,0,0.0,0.0,0,0.0
2020-02-25,0,0.0,0.0,0,0.0
2020-02-26,0,0.0,0.0,0,0.0
2020-02-27,0,0.0,0.0,0,0.0
2020-02-28,0,0.0,0.0,0,0.0
2020-02-29,0,0.0,0.25,0,0.0
2020-03-01,0,0.5,0.0,0,0.5
2020-03-02,1,0.0,-0.5,1,0.0
2020-03-03,0,-0.5,0.0,0,-0.5
2020-03-04,0,0.0,0.25,0,0.0
2020-03-05,0,0.0,0.0,0,0.0
2020-03-06,0,0.0,0.25,0,0.0
2020-03-07,0,0.5,1.0,0,0.5
2020-03-08,1,2.0,0.0,1,2.0
2020-03-09,4,0.5,-1.5,4,0.5
2020-03-10,2,-1.0,-0.75,2,-1.0
2020-03-11,2,-1.0,1.75,2,-1.0
2020-03-12,0,2.5,2.75,0,2.5
2020-03-13,7,4.5,-2.0,7,4.5
2020-03-14,9,-1.5,-3.5,9,-1.5
2020-03-15,4,-2.5,3.5,4,-2.5
2020-03-16,4,5.5,5.75,4,5.5
2020-03-17,15,9.0,-2.75,15,9.0
2020-03-18,22,0.0,-3.75,22,0.0
2020-03-19,15,1.5,-0.5,15,1.5
2020-03-20,25,-1.0,-3.25,25,-1.0
2020-03-21,13,-5.0,7.5,13,-5.0
2020-03-22,15,14.0,3.0,15,14.0
2020-03-23,41,1.0,-11.25,41,1.0
2020-03-24,17,-8.5,1.0,17,-8.5
2020-03-25,24,3.0,7.25,24,3.0
2020-03-26,23,6.0,-1.0,23,6.0
2020-03-27,36,1.0,-1.5,36,1.0
2020-03-28,25,3.0,0.5,25,3.0
2020-03-29,42,2.0,-6.5,42,2.0
2020-03-30,29,-10.0,3.75,29,-10.0
2020-03-31,22,9.5,2.5,22,9.5
2020-04-01,48,-5.0,-8.0,48,-5.0
2020-04-02,12,-6.5,3.5,12,-6.5
2020-04-03,35,2.0,0.5,35,2.0
2020-04-04,16,-5.5,-2.75,16,-5.5
2020-04-05,24,-3.5,-1.75,24,-3.5
2020-04-06,9,-9.0,6.75,9,-9.0
2020-04-07,6,10.0,6.0,6,10.0
2020-04-08,29,3.0,-6.5,29,3.0
2020-04-09,12,-3.0,0.0,12,-3.0
2020-04-10,23,3.0,1.0,23,3.0
2020-04-11,18,-1.0,-5.0,18,-1.0
2020-04-12,21,-7.0,-4.25,21,-7.0
2020-04-13,4,-9.5,4.75,4,-9.5
2020-04-14,2,2.5,6.5,2,2.5
2020-04-15,9,3.5,-1.75,9,3.5
2020-04-16,9,-1.0,3.5,9,-1.0
2020-04-17,7,10.5,2.5,7,10.5
2020-04-18,30,4.0,-9.75,30,4.0
2020-04-19,15,-9.0,-3.5,15,-9.0
2020-04-20,12,-3.0,4.75,12,-3.0
2020-04-21,9,0.5,3.5,9,0.5
2020-04-22,13,4.0,-2.0,13,4.0
2020-04-23,17,-3.5,-1.25,17,-3.5
2020-04-24,6,1.5,2.25,6,1.5
2020-04-25,20,1.0,-4.25,20,1.0
2020-04-26,8,-7.0,2.0,8,-7.0
2020-04-27,6,5.0,5.25,6,5.0
2020-04-28,18,3.5,-4.75,18,3.5
2020-04-29,13,-4.5,-2.0,13,-4.5
2020-04-30,9,-0.5,0.25,9,-0.5
2020-05-01,12,-4.0,-0.75,12,-4.0
2020-05-02,1,-2.0,6.0,1,-2.0
2020-05-03,8,8.0,-1.0,8,8.0
2020-05-04,17,-4.0,-7.25,17,-4.0
2020-05-05,0,-6.5,4.25,0,-6.5
2020-05-06,4,4.5,7.0,4,4.5
2020-05-07,9,7.5,-4.0,9,7.5
2020-05-08,19,-3.5,-6.25,19,-3.5
2020-05-09,2,-5.0,3.0,2,-5.0
2020-05-10,9,2.5,1.25,9,2.5
2020-05-11,7,-2.5,-2.75,7,-2.5
2020-05-12,4,-3.0,3.0,4,-3.0
2020-05-13,1,3.5,3.25,1,3.5
2020-05-14,11,3.5,2.25,11,3.5
2020-05-15,8,8.0,-1.0,8,8.0
2020-05-16,27,1.5,-10.5,27,1.5
2020-05-17,11,-13.0,-2.75,11,-13.0
2020-05-18,1,-4.0,7.25,1,-4.0
2020-05-19,3,1.5,3.5,3,1.5
2020-05-20,4,3.0,-0.5,4,3.0
2020-05-21,9,0.5,0.25,9,0.5
2020-05-22,5,3.5,-1.25,5,3.5
2020-05-23,16,-2.0,-5.25,16,-2.0
2020-05-24,1,-7.0,1.75,1,-7.0
2020-05-25,2,1.5,4.0,2,1.5
2020-05-26,4,1.0,-0.75,4,1.0
2020-05-27,4,0.0,-0.75,4,0.0
2020-05-28,4,-0.5,-0.75,4,-0.5
2020-05-29,3,-1.5,-0.25,3,-1.5
2020-05-30,1,-1.0,0.5,1,-1.0
2020-05-31,1,-0.5,1.5,1,-0.5
2020-06-01,0,2.0,2.25,0,2.0
2020-06-02,5,4.0,-1.5,5,4.0
2020-06-03,8,-1.0,-3.25,8,-1.0
2020-06-04,3,-2.5,0.0,3,-2.5
2020-06-05,3,-1.0,1.0,3,-1.0
2020-06-06,1,-0.5,0.25,1,-0.5
2020-06-07,2,-0.5,0.0,2,-0.5
2020-06-08,0,-0.5,1.0,0,-0.5
2020-06-09,1,1.5,0.5,1,1.5
2020-06-10,3,0.5,-1.0,3,0.5
2020-06-11,2,-0.5,-0.5,2,-0.5
2020-06-12,2,-0.5,-0.25,2,-0.5
2020-06-13,1,-1.0,0.0,1,-1.0
2020-06-14,0,-0.5,0.75,0,-0.5
2020-06-15,0,0.5,1.75,0,0.5
2020-06-16,1,3.0,0.5,1,3.0
2020-06-17,6,1.5,-2.5,6,1.5
2020-06-18,4,-2.0,-1.5,4,-2.0
2020-06-19,2,-1.5,0.5,2,-1.5
2020-06-20,1,-1.0,0.5,1,-1.0
2020-06-21,0,-0.5,0.5,0,-0.5
2020-06-22,0,0.0,0.25,0,0.0
2020-06-23,0,0.0,0.0,0,0.0
2020-06-24,0,0.0,0.25,0,0.0
2020-06-25,0,0.5,0.75,0,0.5
2020-06-26,1,1.5,-0.25,1,1.5
2020-06-27,3,0.0,-1.25,3,0.0
2020-06-28,1,-1.0,0.0,1,-1.0
2020-06-29,1,0.0,1.0,1,0.0
2020-06-30,1,1.0,0.0,1,1.0
2020-07-01,3,0.0,-1.25,3,0.0
2020-07-02,1,-1.5,0.0,1,-1.5
2020-07-03,0,0.0,1.0,0,0.0
2020-07-04,1,0.5,0.5,1,0.5
2020-07-05,1,1.0,1.25,1,1.0
2020-07-06,3,3.0,0.5,3,3.0
2020-07-07,7,2.0,0.0,7,2.0
2020-07-08,7,3.0,0.0,7,3.0
2020-07-09,13,2.0,-2.75,13,2.0
2020-07-10,11,-2.5,-3.75,11,-2.5
2020-07-11,8,-5.5,-0.5,8,-5.5
2020-07-12,0,-3.5,2.75,0,-3.5
2020-07-13,1,0.0,2.5,1,0.0
2020-07-14,0,1.5,0.25,0,1.5
2020-07-15,4,0.5,-0.25,4,0.5
2020-07-16,1,1.0,0.5,1,1.0
2020-07-17,6,1.5,-1.25,6,1.5
2020-07-18,4,-1.5,-1.75,4,-1.5
2020-07-19,3,-2.0,0.25,3,-2.0
2020-07-20,0,-1.0,2.0,0,-1.0
2020-07-21,1,2.0,1.75,1,2.0
2020-07-22,4,2.5,-1.5,4,2.5
2020-07-23,6,-1.0,-2.5,6,-1.0
2020-07-24,2,-2.5,3.25,2,-2.5
2020-07-25,1,5.5,1.0,1,5.5
2020-07-26,13,-0.5,-5.75,13,-0.5
2020-07-27,0,-6.0,1.25,0,-6.0
2020-07-28,1,2.0,3.75,1,2.0
2020-07-29,4,1.5,-1.25,4,1.5
2020-07-30,4,-0.5,0.0,4,-0.5
2020-07-31,3,1.5,0.75,3,1.5
2020-08-01,7,1.0,-1.75,7,1.0
2020-08-02,5,-2.0,-1.0,5,-2.0
2020-08-03,3,-1.0,2.25,3,-1.0
2020-08-04,3,2.5,4.25,3,2.5
2020-08-05,8,7.5,-1.75,8,7.5
2020-08-06,18,-1.0,-6.5,18,-1.0
2020-08-07,6,-5.5,-0.5,6,-5.5
2020-08-08,7,-2.0,1.0,7,-2.0
2020-08-09,2,-3.5,1.25,2,-3.5
2020-08-10,0,0.5,4.25,0,0.5
2020-08-11,3,5.0,0.0,3,5.0
2020-08-12,10,0.5,-4.75,10,0.5
2020-08-13,4,-4.5,0.5,4,-4.5
2020-08-14,1,1.5,3.75,1,1.5
2020-08-15,7,3.0,-2.25,7,3.0
2020-08-16,7,-3.0,-3.25,7,-3.0
2020-08-17,1,-3.5,2.0,1,-3.5
2020-08-18,0,1.0,2.0,0,1.0
2020-08-19,3,0.5,-0.5,3,0.5
2020-08-20,1,0.0,0.25,1,0.0
2020-08-21,3,1.0,0.25,3,1.0
2020-08-22,3,0.5,-1.25,3,0.5
2020-08-23,4,-1.5,0.0,4,-1.5
2020-08-24,0,0.5,5.25,0,0.5
2020-08-25,5,9.0,0.0,5,9.0
2020-08-26,18,0.5,-6.75,18,0.5
2020-08-27,6,-4.5,-0.25,6,-4.5
2020-08-28,9,0.0,3.0,9,0.0
2020-08-29,6,1.5,-0.75,6,1.5
2020-08-30,12,-1.5,-1.75,12,-1.5
2020-08-31,3,-2.0,0.5,3,-2.0
2020-09-01,8,-0.5,0.0,8,-0.5
2020-09-02,2,-2.0,1.25,2,-2.0
2020-09-03,4,2.0,2.25,4,2.0
2020-09-04,6,2.5,-1.75,6,2.5
2020-09-05,9,-1.5,-3.25,9,-1.5
2020-09-06,3,-4.0,0.75,3,-4.0
2020-09-07,1,0.0,4.5,1,0.0
2020-09-08,3,5.0,0.5,3,5.0
2020-09-09,11,1.0,-2.5,11,1.0
2020-09-10,5,0.0,-0.5,5,0.0
2020-09-11,11,0.0,-0.25,11,0.0
2020-09-12,5,-0.5,-0.5,5,-0.5
2020-09-13,10,-1.0,-1.0,10,-1.0
2020-09-14,3,-2.5,0.75,3,-2.5
2020-09-15,5,0.5,2.0,5,0.5
2020-09-16,4,1.5,-0.25,4,1.5
2020-09-17,8,0.0,1.5,8,0.0
2020-09-18,4,4.5,1.5,4,4.5
2020-09-19,17,3.0,-6.25,17,3.0
2020-09-20,10,-8.0,4.5,10,-8.0
2020-09-21,1,12.0,6.75,1,12.0
2020-09-22,34,5.5,-9.0,34,5.5
2020-09-23,12,-6.0,2.0,12,-6.0
2020-09-24,22,9.5,4.75,22,9.5
2020-09-25,31,3.5,-7.0,31,3.5
2020-09-26,29,-4.5,-3.75,29,-4.5
2020-09-27,22,-4.0,4.75,22,-4.0
2020-09-28,21,5.0,20.5,21,5.0
2020-09-29,32,37.0,0.5,32,37.0
2020-09-30,95,6.0,-23.0,95,6.0
2020-10-01,44,-9.0,4.5,44,-9.0
2020-10-02,77,15.0,2.0,77,15.0
2020-10-03,74,-5.0,-16.0,74,-5.0
2020-10-04,67,-17.0,2.75,67,-17.0
2020-10-05,40,0.5,15.25,40,0.5
2020-10-06,68,13.5,10.0,68,13.5
2020-10-07,67,20.5,10.75,67,20.5
2020-10-08,109,35.0,-15.25,109,35.0
2020-10-09,137,-10.0,-33.25,137,-10.0
2020-10-10,89,-31.5,6.5,89,-31.5
2020-10-11,74,3.0,16.0,74,3.0
2020-10-12,95,0.5,0.25,95,0.5
2020-10-13,75,3.5,9.5,75,3.5
2020-10-14,102,19.5,9.75,102,19.5
2020-10-15,114,23.0,8.75,114,23.0
2020-10-16,148,37.0,-34.0,148,37.0
2020-10-17,188,-45.0,-54.5,188,-45.0
2020-10-18,58,-72.0,36.75,58,-72.0
2020-10-19,44,28.5,72.0,44,28.5
2020-10-20,115,72.0,-2.75,115,72.0
2020-10-21,188,23.0,-20.5,188,23.0
2020-10-22,161,31.0,13.0,161,31.0
2020-10-23,250,49.0,-25.25,250,49.0
2020-10-24,259,-19.5,-69.5,259,-19.5
2020-10-25,211,-90.0,-9.0,211,-90.0
2020-10-26,79,-37.5,88.0,79,-37.5
2020-10-27,136,86.0,47.5,136,86.0
2020-10-28,251,57.5,-34.75,251,57.5
2020-10-29,251,16.5,-37.75,251,16.5
2020-10-30,284,-18.0,-18.75,284,-18.0
2020-10-31,215,-21.0,-11.75,215,-21.0
2020-11-01,242,-41.5,-7.25,242,-41.5
2020-11-02,132,-35.5,66.0,132,-35.5
2020-11-03,171,90.5,66.75,171,90.5
2020-11-04,313,98.0,-34.25,313,98.0
2020-11-05,367,22.0,-39.75,367,22.0
2020-11-06,357,18.5,-46.5,357,18.5
2020-11-07,404,-71.0,-87.25,404,-71.0
2020-11-08,215,-156.0,33.75,215,-156.0
2020-11-09,92,-3.5,168.25,92,-3.5
2020-11-10,208,180.5,83.0,208,180.5
2020-11-11,453,162.5,-89.75,453,162.5
2020-11-12,533,1.0,-115.75,533,1.0
2020-11-13,455,-69.0,-35.25,455,-69.0
2020-11-14,395,-69.5,-42.0,395,-69.5
2020-11-15,316,-153.0,25.25,316,-153.0
2020-11-16,89,-19.0,164.75,89,-19.0
2020-11-17,278,176.5,31.5,278,176.5
2020-11-18,442,44.0,-103.75,442,44.0
2020-11-19,366,-31.0,47.0,366,-31.0
2020-11-20,380,138.0,14.5,380,138.0
2020-11-21,642,-2.0,-200.5,642,-2.0
2020-11-22,376,-263.0,21.25,376,-263.0
2020-11-23,116,40.5,247.5,116,40.5
2020-11-24,457,232.0,90.0,457,232.0
2020-11-25,580,220.5,-101.75,580,220.5
2020-11-26,898,28.5,-146.5,898,28.5
2020-11-27,637,-72.5,-70.0,637,-72.5
2020-11-28,753,-111.5,-127.0,753,-111.5
2020-11-29,414,-326.5,105.25,414,-326.5
2020-11-30,100,99.0,310.75,100,99.0
2020-12-01,612,295.0,30.0,612,295.0
2020-12-02,690,159.0,-148.5,690,159.0
2020-12-03,930,-2.0,-113.5,930,-2.0
2020-12-04,686,-68.0,-39.0,686,-68.0
2020-12-05,794,-80.0,-112.75,794,-80.0
2020-12-06,526,-293.5,54.5,526,-293.5
2020-12-07,207,29.0,273.0,207,29.0
2020-12-08,584,252.5,62.0,584,252.5
2020-12-09,712,153.0,-134.25,712,153.0
2020-12-10,890,-16.0,-134.0,890,-16.0
2020-12-11,680,-115.0,-4.75,680,-115.0
2020-12-12,660,-25.5,-55.0,660,-25.5
2020-12-13,629,-225.0,2.25,629,-225.0
2020-12-14,210,-21.0,315.75,210,-21.0
2020-12-15,587,406.5,123.75,587,406.5
2020-12-16,1023,226.5,-236.0,1023,226.5
2020-12-17,1040,-65.5,-155.75,1040,-65.5
2020-12-18,892,-85.0,-190.25,892,-85.0
2020-12-19,870,-446.0,-392.5,870,-446.0
2020-12-20,0,-870.0,-424.0,0,-870.0
