date, confirmed_daily_cases, first_order,second_order, confirmed_daily_cases_outlier_removed,first_order_outlier_removed,second_order_outlier_removed
2020-01-01,0,0.0,0.0,0,0.0
2020-01-02,0,0.0,0.0,0,0.0
2020-01-03,0,0.0,0.0,0,0.0
2020-01-04,0,0.0,0.0,0,0.0
2020-01-05,0,0.0,0.0,0,0.0
2020-01-06,0,0.0,0.0,0,0.0
2020-01-07,0,0.0,0.0,0,0.0
2020-01-08,0,0.0,0.0,0,0.0
2020-01-09,0,0.0,0.0,0,0.0
2020-01-10,0,0.0,0.0,0,0.0
2020-01-11,0,0.0,0.0,0,0.0
2020-01-12,0,0.0,0.0,0,0.0
2020-01-13,0,0.0,0.0,0,0.0
2020-01-14,0,0.0,0.0,0,0.0
2020-01-15,0,0.0,0.0,0,0.0
2020-01-16,0,0.0,0.0,0,0.0
2020-01-17,0,0.0,0.0,0,0.0
2020-01-18,0,0.0,0.0,0,0.0
2020-01-19,0,0.0,0.0,0,0.0
2020-01-20,0,0.0,0.0,0,0.0
2020-01-21,0,0.0,0.0,0,0.0
2020-01-22,0,0.0,0.0,0,0.0
2020-01-23,0,0.0,0.0,0,0.0
2020-01-24,0,0.0,0.0,0,0.0
2020-01-25,0,0.0,0.0,0,0.0
2020-01-26,0,0.0,0.0,0,0.0
2020-01-27,0,0.0,0.0,0,0.0
2020-01-28,0,0.0,0.0,0,0.0
2020-01-29,0,0.0,0.0,0,0.0
2020-01-30,0,0.0,0.0,0,0.0
2020-01-31,0,0.0,0.0,0,0.0
2020-02-01,0,0.0,0.0,0,0.0
2020-02-02,0,0.0,0.0,0,0.0
2020-02-03,0,0.0,0.0,0,0.0
2020-02-04,0,0.0,0.0,0,0.0
2020-02-05,0,0.0,0.0,0,0.0
2020-02-06,0,0.0,0.0,0,0.0
2020-02-07,0,0.0,0.0,0,0.0
2020-02-08,0,0.0,0.0,0,0.0
2020-02-09,0,0.0,0.0,0,0.0
2020-02-10,0,0.0,0.0,0,0.0
2020-02-11,0,0.0,0.0,0,0.0
2020-02-12,0,0.0,0.0,0,0.0
2020-02-13,0,0.0,0.0,0,0.0
2020-02-14,0,0.0,0.0,0,0.0
2020-02-15,0,0.0,0.0,0,0.0
2020-02-16,0,0.0,0.0,0,0.0
2020-02-17,0,0.0,0.0,0,0.0
2020-02-18,0,0.0,0.0,0,0.0
2020-02-19,0,0.0,0.0,0,0.0
2020-02-20,0,0.0,0.0,0,0.0
2020-02-21,0,0.0,0.0,0,0.0
2020-02-22,0,0.0,0.0,0,0.0
2020-02-23,0,0.0,0.0,0,0.0
2020-02-24,0,0.0,0.0,0,0.0
2020-02-25,0,0.0,0.0,0,0.0
2020-02-26,0,0.0,0.0,0,0.0
2020-02-27,0,0.0,0.0,0,0.0
2020-02-28,0,0.0,0.0,0,0.0
2020-02-29,0,0.0,0.0,0,0.0
2020-03-01,0,0.0,0.0,0,0.0
2020-03-02,0,0.0,0.0,0,0.0
2020-03-03,0,0.0,0.0,0,0.0
2020-03-04,0,0.0,0.0,0,0.0
2020-03-05,0,0.0,0.0,0,0.0
2020-03-06,0,0.0,0.0,0,0.0
2020-03-07,0,0.0,0.0,0,0.0
2020-03-08,0,0.0,0.0,0,0.0
2020-03-09,0,0.0,0.0,0,0.0
2020-03-10,0,0.0,0.0,0,0.0
2020-03-11,0,0.0,0.0,0,0.0
2020-03-12,0,0.0,0.0,0,0.0
2020-03-13,0,0.0,0.0,0,0.0
2020-03-14,0,0.0,0.0,0,0.0
2020-03-15,0,0.0,0.0,0,0.0
2020-03-16,0,0.0,0.0,0,0.0
2020-03-17,0,0.0,0.0,0,0.0
2020-03-18,0,0.0,0.0,0,0.0
2020-03-19,0,0.0,0.0,0,0.0
2020-03-20,0,0.0,0.0,0,0.0
2020-03-21,0,0.0,0.0,0,0.0
2020-03-22,0,0.0,0.0,0,0.0
2020-03-23,0,0.0,0.5,0,0.0
2020-03-24,0,1.0,0.5,0,1.0
2020-03-25,2,1.0,0.75,2,1.0
2020-03-26,2,2.5,0.75,2,2.5
2020-03-27,7,2.5,-3.0,7,2.5
2020-03-28,7,-3.5,-1.25,7,-3.5
2020-03-29,0,0.0,2.5,0,0.0
2020-03-30,7,1.5,-1.0,7,1.5
2020-03-31,3,-2.0,-0.25,3,-2.0
2020-04-01,3,1.0,1.0,3,1.0
2020-04-02,5,0.0,-1.25,5,0.0
2020-04-03,3,-1.5,0.25,3,-1.5
2020-04-04,2,0.5,0.75,2,0.5
2020-04-05,4,0.0,1.0,4,0.0
2020-04-06,2,2.5,0.25,2,2.5
2020-04-07,9,0.5,0.25,9,0.5
2020-04-08,3,3.0,2.25,3,3.0
2020-04-09,15,5.0,-5.25,15,5.0
2020-04-10,13,-7.5,-1.25,13,-7.5
2020-04-11,0,2.5,8.25,0,2.5
2020-04-12,18,9.0,-0.5,18,9.0
2020-04-13,18,1.5,-8.0,18,1.5
2020-04-14,21,-7.0,-0.25,21,-7.0
2020-04-15,4,1.0,2.5,4,1.0
2020-04-16,23,-2.0,5.0,23,-2.0
2020-04-17,0,11.0,3.0,0,11.0
2020-04-18,45,4.0,-11.25,45,4.0
2020-04-19,8,-11.5,-1.0,8,-11.5
2020-04-20,22,2.0,9.0,22,2.0
2020-04-21,12,6.5,0.0,12,6.5
2020-04-22,35,2.0,-8.0,35,2.0
2020-04-23,16,-9.5,6.25,16,-9.5
2020-04-24,16,14.5,5.5,16,14.5
2020-04-25,45,1.5,-13.75,45,1.5
2020-04-26,19,-13.0,-1.5,19,-13.0
2020-04-27,19,-1.5,16.25,19,-1.5
2020-04-28,16,19.5,-1.25,16,19.5
2020-04-29,58,-4.0,-19.75,58,-4.0
2020-04-30,8,-20.0,9.0,8,-20.0
2020-05-01,18,14.0,10.25,18,14.0
2020-05-02,36,0.5,-11.75,36,0.5
2020-05-03,19,-9.5,3.0,19,-9.5
2020-05-04,17,6.5,5.25,17,6.5
2020-05-05,32,1.0,-6.5,32,1.0
2020-05-06,19,-6.5,-0.75,19,-6.5
2020-05-07,19,-0.5,4.5,19,-0.5
2020-05-08,18,2.5,-1.25,18,2.5
2020-05-09,24,-3.0,-5.25,24,-3.0
2020-05-10,12,-8.0,3.0,12,-8.0
2020-05-11,8,3.0,9.0,8,3.0
2020-05-12,18,10.0,-0.75,18,10.0
2020-05-13,28,1.5,-5.25,28,1.5
2020-05-14,21,-0.5,1.25,21,-0.5
2020-05-15,27,4.0,-0.25,27,4.0
2020-05-16,29,-1.0,-5.75,29,-1.0
2020-05-17,25,-7.5,1.0,25,-7.5
2020-05-18,14,1.0,7.75,14,1.0
2020-05-19,27,8.0,-3.25,27,8.0
2020-05-20,30,-5.5,-6.0,30,-5.5
2020-05-21,16,-4.0,10.25,16,-4.0
2020-05-22,22,15.0,0.25,22,15.0
2020-05-23,46,-3.5,-11.75,46,-3.5
2020-05-24,15,-8.5,2.5,15,-8.5
2020-05-25,29,1.5,6.75,29,1.5
2020-05-26,18,5.0,14.25,18,5.0
2020-05-27,39,30.0,-4.25,39,30.0
2020-05-28,78,-3.5,-28.5,78,-3.5
2020-05-29,32,-27.0,-2.5,32,-27.0
2020-05-30,24,-8.5,20.0,24,-8.5
2020-05-31,15,13.0,9.5,15,13.0
2020-06-01,50,10.5,-10.25,50,10.5
2020-06-02,36,-7.5,4.5,36,-7.5
2020-06-03,35,19.5,1.0,35,19.5
2020-06-04,75,-5.5,-19.0,75,-5.5
2020-06-05,24,-18.5,-0.75,24,-18.5
2020-06-06,38,-7.0,3.25,38,-7.0
2020-06-07,10,-12.0,10.75,10,-12.0
2020-06-08,14,14.5,22.75,14,14.5
2020-06-09,39,33.5,-3.25,39,33.5
2020-06-10,81,8.0,-29.5,81,8.0
2020-06-11,55,-25.5,-11.75,55,-25.5
2020-06-12,30,-15.5,13.5,30,-15.5
2020-06-13,24,1.5,14.5,24,1.5
2020-06-14,33,13.5,-2.75,33,13.5
2020-06-15,51,-4.0,-18.25,51,-4.0
2020-06-16,25,-23.0,-0.25,25,-23.0
2020-06-17,5,-4.5,14.5,5,-4.5
2020-06-18,16,6.0,0.75,16,6.0
2020-06-19,17,-3.0,-7.25,17,-3.0
2020-06-20,10,-8.5,6.0,10,-8.5
2020-06-21,0,9.0,8.5,0,9.0
2020-06-22,28,8.5,-4.75,28,8.5
2020-06-23,17,-0.5,0.0,17,-0.5
2020-06-24,27,8.5,-1.25,27,8.5
2020-06-25,34,-3.0,1.75,34,-3.0
2020-06-26,21,12.0,3.5,21,12.0
2020-06-27,58,4.0,-14.0,58,4.0
2020-06-28,29,-16.0,-7.25,29,-16.0
2020-06-29,26,-10.5,6.75,26,-10.5
2020-06-30,8,-2.5,17.75,8,-2.5
2020-07-01,21,25.0,2.25,21,25.0
2020-07-02,58,2.0,-22.5,58,2.0
2020-07-03,25,-20.0,-0.5,25,-20.0
2020-07-04,18,1.0,5.75,18,1.0
2020-07-05,27,-8.5,-3.0,27,-8.5
2020-07-06,1,-5.0,6.5,1,-5.0
2020-07-07,17,4.5,1.25,17,4.5
2020-07-08,10,-2.5,3.75,10,-2.5
2020-07-09,12,12.0,-1.25,12,12.0
2020-07-10,34,-5.0,-13.25,34,-5.0
2020-07-11,2,-14.5,2.25,2,-14.5
2020-07-12,5,-0.5,8.75,5,-0.5
2020-07-13,1,3.0,2.5,1,3.0
2020-07-14,11,4.5,-2.5,11,4.5
2020-07-15,10,-2.0,2.0,10,-2.0
2020-07-16,7,8.5,0.5,7,8.5
2020-07-17,27,-1.0,-10.25,27,-1.0
2020-07-18,5,-12.0,-0.75,5,-12.0
2020-07-19,3,-2.5,5.75,3,-2.5
2020-07-20,0,-0.5,5.5,0,-0.5
2020-07-21,2,8.5,-0.25,2,8.5
2020-07-22,17,-1.0,-6.25,17,-1.0
2020-07-23,0,-4.0,0.5,0,-4.0
2020-07-24,9,0.0,1.5,9,0.0
2020-07-25,0,-1.0,0.75,0,-1.0
2020-07-26,7,1.5,0.5,7,1.5
2020-07-27,3,0.0,-1.25,3,0.0
2020-07-28,7,-1.0,-1.5,7,-1.0
2020-07-29,1,-3.0,3.5,1,-3.0
2020-07-30,1,6.0,1.25,1,6.0
2020-07-31,13,-0.5,-4.75,13,-0.5
2020-08-01,0,-3.5,0.75,0,-3.5
2020-08-02,6,1.0,0.25,6,1.0
2020-08-03,2,-3.0,-0.25,2,-3.0
2020-08-04,0,0.5,3.0,0,0.5
2020-08-05,3,3.0,1.25,3,3.0
2020-08-06,6,3.0,-2.0,6,3.0
2020-08-07,9,-1.0,-3.25,9,-1.0
2020-08-08,4,-3.5,1.0,4,-3.5
2020-08-09,2,1.0,2.25,2,1.0
2020-08-10,6,1.0,-0.75,6,1.0
2020-08-11,4,-0.5,2.25,4,-0.5
2020-08-12,5,5.5,-1.0,5,5.5
2020-08-13,15,-2.5,-2.25,15,-2.5
2020-08-14,0,1.0,7.75,0,1.0
2020-08-15,17,13.0,-4.75,17,13.0
2020-08-16,26,-8.5,-6.5,26,-8.5
2020-08-17,0,0.0,4.5,0,0.0
2020-08-18,26,0.5,-6.5,26,0.5
2020-08-19,1,-13.0,4.75,1,-13.0
2020-08-20,0,10.0,9.25,0,10.0
2020-08-21,21,5.5,-8.75,21,5.5
2020-08-22,11,-7.5,-4.75,11,-7.5
2020-08-23,6,-4.0,3.5,6,-4.0
2020-08-24,3,-0.5,2.25,3,-0.5
2020-08-25,5,0.5,2.25,5,0.5
2020-08-26,4,4.0,0.25,4,4.0
2020-08-27,13,1.0,0.0,13,1.0
2020-08-28,6,4.0,2.0,6,4.0
2020-08-29,21,5.0,-6.5,21,5.0
2020-08-30,16,-9.0,-6.25,16,-9.0
2020-08-31,3,-7.5,10.0,3,-7.5
2020-09-01,1,11.0,4.75,1,11.0
2020-09-02,25,2.0,-10.0,25,2.0
2020-09-03,5,-9.0,2.5,5,-9.0
2020-09-04,7,7.0,5.0,7,7.0
2020-09-05,19,1.0,-1.25,19,1.0
2020-09-06,9,4.5,0.25,9,4.5
2020-09-07,28,1.5,-5.25,28,1.5
2020-09-08,12,-6.0,-1.0,12,-6.0
2020-09-09,16,-0.5,-0.25,16,-0.5
2020-09-10,11,-6.5,-1.5,11,-6.5
2020-09-11,3,-3.5,4.5,3,-3.5
2020-09-12,4,2.5,3.5,4,2.5
2020-09-13,8,3.5,-2.0,8,3.5
2020-09-14,11,-1.5,2.0,11,-1.5
2020-09-15,5,7.5,-0.5,5,7.5
2020-09-16,26,-2.5,-4.0,26,-2.5
2020-09-17,0,-0.5,5.0,0,-0.5
2020-09-18,25,7.5,-4.25,25,7.5
2020-09-19,15,-9.0,-4.75,15,-9.0
2020-09-20,7,-2.0,4.25,7,-2.0
2020-09-21,11,-0.5,-0.75,11,-0.5
2020-09-22,6,-3.5,0.5,6,-3.5
2020-09-23,4,0.5,6.5,4,0.5
2020-09-24,7,9.5,2.0,7,9.5
2020-09-25,23,4.5,-9.0,23,4.5
2020-09-26,16,-8.5,-5.25,16,-8.5
2020-09-27,6,-6.0,5.5,6,-6.0
2020-09-28,4,2.5,6.25,4,2.5
2020-09-29,11,6.5,-0.75,11,6.5
2020-09-30,17,1.0,-1.25,17,1.0
2020-10-01,13,4.0,-0.25,13,4.0
2020-10-02,25,0.5,-4.75,25,0.5
2020-10-03,14,-5.5,-2.5,14,-5.5
2020-10-04,14,-4.5,0.75,14,-4.5
2020-10-05,5,-4.0,4.75,5,-4.0
2020-10-06,6,5.0,6.75,6,5.0
2020-10-07,15,9.5,-3.0,15,9.5
2020-10-08,25,-1.0,-4.75,25,-1.0
2020-10-09,13,0.0,0.5,13,0.0
2020-10-10,25,0.0,-3.75,25,0.0
2020-10-11,13,-7.5,-3.0,13,-7.5
2020-10-12,10,-6.0,15.0,10,-6.0
2020-10-13,1,22.5,6.75,1,22.5
2020-10-14,55,7.5,-22.5,8,7.5
2020-10-15,16,-22.5,-7.5,16,-22.5
2020-10-16,10,-7.5,11.0,10,-7.5
2020-10-17,1,-0.5,8.25,1,-0.5
2020-10-18,9,9.0,-1.0,9,9.0
2020-10-19,19,-2.5,-5.0,19,-2.5
2020-10-20,4,-1.0,3.25,4,-1.0
2020-10-21,17,4.0,-2.75,17,4.0
2020-10-22,12,-6.5,2.0,12,-6.5
2020-10-23,4,8.0,6.75,4,8.0
2020-10-24,28,7.0,-8.75,28,7.0
2020-10-25,18,-9.5,-4.0,18,-9.5
2020-10-26,9,-1.0,6.25,9,-1.0
2020-10-27,16,3.0,-1.75,16,3.0
2020-10-28,15,-4.5,-3.25,15,-4.5
2020-10-29,7,-3.5,2.75,7,-3.5
2020-10-30,8,1.0,2.5,8,1.0
2020-10-31,9,1.5,-0.75,9,1.5
2020-11-01,11,-0.5,-0.75,11,-0.5
2020-11-02,8,0.0,4.5,8,0.0
2020-11-03,11,8.5,3.25,11,8.5
2020-11-04,25,6.5,-4.5,25,6.5
2020-11-05,24,-0.5,-4.5,24,-0.5
2020-11-06,24,-2.5,1.75,24,-2.5
2020-11-07,19,3.0,-2.0,19,3.0
2020-11-08,30,-6.5,-0.75,30,-6.5
2020-11-09,6,1.5,3.75,6,1.5
2020-11-10,33,1.0,0.75,33,1.0
2020-11-11,8,3.0,1.0,8,3.0
2020-11-12,39,3.0,4.25,39,3.0
2020-11-13,14,11.5,3.0,14,11.5
2020-11-14,62,9.0,-9.25,62,9.0
2020-11-15,32,-7.0,-4.5,32,-7.0
2020-11-16,48,0.0,4.75,48,0.0
2020-11-17,32,2.5,7.0,32,2.5
2020-11-18,53,14.0,4.5,53,14.0
2020-11-19,60,11.5,-12.75,60,11.5
2020-11-20,76,-11.5,-12.5,76,-11.5
2020-11-21,37,-13.5,14.25,37,-13.5
2020-11-22,49,17.0,17.25,49,17.0
2020-11-23,71,21.0,-15.25,71,21.0
2020-11-24,91,-13.5,-22.25,91,-13.5
2020-11-25,44,-23.5,11.25,44,-23.5
2020-11-26,44,9.0,23.75,44,9.0
2020-11-27,62,24.0,-12.75,62,24.0
2020-11-28,92,-16.5,-29.5,92,-16.5
2020-11-29,29,-35.0,14.0,29,-35.0
2020-11-30,22,11.5,30.75,22,11.5
2020-12-01,52,26.5,-8.0,52,26.5
2020-12-02,75,-4.5,-17.5,75,-4.5
2020-12-03,43,-8.5,22.5,43,-8.5
2020-12-04,58,40.5,8.0,58,40.5
2020-12-05,124,7.5,-12.5,124,7.5
2020-12-06,73,15.5,16.0,73,15.5
2020-12-07,155,39.5,-39.75,155,39.5
2020-12-08,152,-64.0,-31.0,152,-64.0
2020-12-09,27,-22.5,43.5,27,-22.5
2020-12-10,107,23.0,2.5,107,23.0
2020-12-11,73,-17.5,-6.5,73,-17.5
2020-12-12,72,10.0,-3.75,72,10.0
2020-12-13,93,-25.0,-17.75,93,-25.0
2020-12-14,22,-25.5,29.75,22,-25.5
2020-12-15,42,34.5,22.25,42,34.5
2020-12-16,91,19.0,-22.25,91,19.0
2020-12-17,80,-10.0,-18.5,80,-10.0
2020-12-18,71,-18.0,-12.75,71,-18.0
2020-12-19,44,-35.5,-13.0,44,-35.5
2020-12-20,0,-44.0,-8.5,0,-44.0
