date, confirmed_daily_cases, first_order,second_order, confirmed_daily_cases_outlier_removed,first_order_outlier_removed,second_order_outlier_removed
2020-01-01,0,0.0,0.0,0,0.0
2020-01-02,0,0.0,0.0,0,0.0
2020-01-03,0,0.0,0.0,0,0.0
2020-01-04,0,0.0,0.0,0,0.0
2020-01-05,0,0.0,0.0,0,0.0
2020-01-06,0,0.0,0.0,0,0.0
2020-01-07,0,0.0,0.0,0,0.0
2020-01-08,0,0.0,0.0,0,0.0
2020-01-09,0,0.0,0.0,0,0.0
2020-01-10,0,0.0,0.0,0,0.0
2020-01-11,0,0.0,0.0,0,0.0
2020-01-12,0,0.0,0.0,0,0.0
2020-01-13,0,0.0,0.0,0,0.0
2020-01-14,0,0.0,0.0,0,0.0
2020-01-15,0,0.0,0.0,0,0.0
2020-01-16,0,0.0,0.0,0,0.0
2020-01-17,0,0.0,0.0,0,0.0
2020-01-18,0,0.0,0.0,0,0.0
2020-01-19,0,0.0,0.0,0,0.0
2020-01-20,0,0.0,0.0,0,0.0
2020-01-21,0,0.0,0.0,0,0.0
2020-01-22,0,0.0,0.0,0,0.0
2020-01-23,0,0.0,0.0,0,0.0
2020-01-24,0,0.0,0.0,0,0.0
2020-01-25,0,0.0,0.0,0,0.0
2020-01-26,0,0.0,0.0,0,0.0
2020-01-27,0,0.0,0.0,0,0.0
2020-01-28,0,0.0,0.0,0,0.0
2020-01-29,0,0.0,0.0,0,0.0
2020-01-30,0,0.0,0.0,0,0.0
2020-01-31,0,0.0,0.0,0,0.0
2020-02-01,0,0.0,0.0,0,0.0
2020-02-02,0,0.0,0.0,0,0.0
2020-02-03,0,0.0,0.0,0,0.0
2020-02-04,0,0.0,0.0,0,0.0
2020-02-05,0,0.0,0.0,0,0.0
2020-02-06,0,0.0,0.0,0,0.0
2020-02-07,0,0.0,0.0,0,0.0
2020-02-08,0,0.0,0.0,0,0.0
2020-02-09,0,0.0,0.0,0,0.0
2020-02-10,0,0.0,0.0,0,0.0
2020-02-11,0,0.0,0.0,0,0.0
2020-02-12,0,0.0,0.0,0,0.0
2020-02-13,0,0.0,0.0,0,0.0
2020-02-14,0,0.0,0.0,0,0.0
2020-02-15,0,0.0,0.0,0,0.0
2020-02-16,0,0.0,0.0,0,0.0
2020-02-17,0,0.0,0.0,0,0.0
2020-02-18,0,0.0,0.0,0,0.0
2020-02-19,0,0.0,0.0,0,0.0
2020-02-20,0,0.0,0.0,0,0.0
2020-02-21,0,0.0,0.0,0,0.0
2020-02-22,0,0.0,0.0,0,0.0
2020-02-23,0,0.0,0.0,0,0.0
2020-02-24,0,0.0,0.0,0,0.0
2020-02-25,0,0.0,0.0,0,0.0
2020-02-26,0,0.0,0.0,0,0.0
2020-02-27,0,0.0,0.0,0,0.0
2020-02-28,0,0.0,0.0,0,0.0
2020-02-29,0,0.0,0.0,0,0.0
2020-03-01,0,0.0,0.0,0,0.0
2020-03-02,0,0.0,0.0,0,0.0
2020-03-03,0,0.0,0.0,0,0.0
2020-03-04,0,0.0,0.0,0,0.0
2020-03-05,0,0.0,0.0,0,0.0
2020-03-06,0,0.0,0.0,0,0.0
2020-03-07,0,0.0,0.0,0,0.0
2020-03-08,0,0.0,0.0,0,0.0
2020-03-09,0,0.0,0.0,0,0.0
2020-03-10,0,0.0,0.0,0,0.0
2020-03-11,0,0.0,0.0,0,0.0
2020-03-12,0,0.0,0.25,0,0.0
2020-03-13,0,0.5,0.0,0,0.5
2020-03-14,1,0.0,-0.5,1,0.0
2020-03-15,0,-0.5,0.0,0,-0.5
2020-03-16,0,0.0,0.25,0,0.0
2020-03-17,0,0.0,0.25,0,0.0
2020-03-18,0,0.5,0.0,0,0.5
2020-03-19,1,0.0,-0.5,1,0.0
2020-03-20,0,-0.5,0.0,0,-0.5
2020-03-21,0,0.0,0.25,0,0.0
2020-03-22,0,0.0,0.0,0,0.0
2020-03-23,0,0.0,0.0,0,0.0
2020-03-24,0,0.0,0.25,0,0.0
2020-03-25,0,0.5,0.0,0,0.5
2020-03-26,1,0.0,0.0,1,0.0
2020-03-27,0,0.5,0.0,0,0.5
2020-03-28,2,0.0,-0.75,2,0.0
2020-03-29,0,-1.0,0.25,0,-1.0
2020-03-30,0,0.5,0.5,0,0.5
2020-03-31,1,0.0,-0.5,1,0.0
2020-04-01,0,-0.5,0.0,0,-0.5
2020-04-02,0,0.0,0.25,0,0.0
2020-04-03,0,0.0,0.0,0,0.0
2020-04-04,0,0.0,0.0,0,0.0
2020-04-05,0,0.0,0.0,0,0.0
2020-04-06,0,0.0,0.0,0,0.0
2020-04-07,0,0.0,0.25,0,0.0
2020-04-08,0,0.5,0.0,0,0.5
2020-04-09,1,0.0,-0.5,1,0.0
2020-04-10,0,-0.5,0.0,0,-0.5
2020-04-11,0,0.0,0.25,0,0.0
2020-04-12,0,0.0,0.0,0,0.0
2020-04-13,0,0.0,0.0,0,0.0
2020-04-14,0,0.0,0.0,0,0.0
2020-04-15,0,0.0,0.0,0,0.0
2020-04-16,0,0.0,0.0,0,0.0
2020-04-17,0,0.0,0.0,0,0.0
2020-04-18,0,0.0,0.0,0,0.0
2020-04-19,0,0.0,0.0,0,0.0
2020-04-20,0,0.0,0.0,0,0.0
2020-04-21,0,0.0,0.0,0,0.0
2020-04-22,0,0.0,0.0,0,0.0
2020-04-23,0,0.0,0.0,0,0.0
2020-04-24,0,0.0,0.0,0,0.0
2020-04-25,0,0.0,0.0,0,0.0
2020-04-26,0,0.0,0.0,0,0.0
2020-04-27,0,0.0,0.25,0,0.0
2020-04-28,0,0.5,0.0,0,0.5
2020-04-29,1,0.0,-0.5,1,0.0
2020-04-30,0,-0.5,0.0,0,-0.5
2020-05-01,0,0.0,0.25,0,0.0
2020-05-02,0,0.0,0.0,0,0.0
2020-05-03,0,0.0,0.0,0,0.0
2020-05-04,0,0.0,0.0,0,0.0
2020-05-05,0,0.0,0.0,0,0.0
2020-05-06,0,0.0,0.0,0,0.0
2020-05-07,0,0.0,0.0,0,0.0
2020-05-08,0,0.0,0.0,0,0.0
2020-05-09,0,0.0,0.0,0,0.0
2020-05-10,0,0.0,0.25,0,0.0
2020-05-11,0,0.5,1.5,0,0.5
2020-05-12,1,3.0,0.75,1,3.0
2020-05-13,6,2.0,-0.75,6,2.0
2020-05-14,5,1.5,0.5,5,1.5
2020-05-15,9,3.0,2.5,9,3.0
2020-05-16,11,6.5,0.5,11,6.5
2020-05-17,22,4.0,3.75,22,4.0
2020-05-18,19,14.0,-4.25,19,14.0
2020-05-19,50,-4.5,-11.5,50,-4.5
2020-05-20,10,-9.0,6.5,10,-9.0
2020-05-21,32,8.5,3.25,32,8.5
2020-05-22,27,-2.5,-8.5,27,-2.5
2020-05-23,27,-8.5,0.75,27,-8.5
2020-05-24,10,-1.0,3.25,10,-1.0
2020-05-25,25,-2.0,0.25,25,-2.0
2020-05-26,6,-0.5,13.0,6,-0.5
2020-05-27,24,24.0,13.5,24,24.0
2020-05-28,54,26.5,-10.5,54,26.5
2020-05-29,77,3.0,-20.75,77,3.0
2020-05-30,60,-15.0,-2.0,60,-15.0
2020-05-31,47,-1.0,15.75,47,-1.0
2020-06-01,58,16.5,5.25,58,16.5
2020-06-02,80,9.5,-18.5,80,9.5
2020-06-03,77,-20.5,0.75,77,-20.5
2020-06-04,39,11.0,16.5,39,11.0
2020-06-05,99,12.5,-4.75,99,12.5
2020-06-06,64,1.5,-8.5,64,1.5
2020-06-07,102,-4.5,-11.75,102,-4.5
2020-06-08,55,-22.0,18.75,55,-22.0
2020-06-09,58,33.0,35.5,58,33.0
2020-06-10,121,49.0,-13.5,121,49.0
2020-06-11,156,6.0,-36.0,156,6.0
2020-06-12,133,-23.0,-11.0,133,-23.0
2020-06-13,110,-16.0,10.0,110,-16.0
2020-06-14,101,-3.0,25.25,101,-3.0
2020-06-15,104,34.5,17.0,104,34.5
2020-06-16,170,31.0,-9.5,170,31.0
2020-06-17,166,15.5,-7.75,166,15.5
2020-06-18,201,15.5,-10.0,201,15.5
2020-06-19,197,-4.5,-14.25,197,-4.5
2020-06-20,192,-13.0,-11.5,192,-13.0
2020-06-21,171,-27.5,6.5,171,-27.5
2020-06-22,137,0.0,36.25,137,0.0
2020-06-23,171,45.0,12.25,171,45.0
2020-06-24,227,24.5,-37.25,227,24.5
2020-06-25,220,-29.5,-37.75,220,-29.5
2020-06-26,168,-51.0,3.75,168,-51.0
2020-06-27,118,-22.0,18.0,118,-22.0
2020-06-28,124,-15.0,11.5,124,-15.0
2020-06-29,88,1.0,12.75,88,1.0
2020-06-30,126,10.5,1.5,126,10.5
2020-07-01,109,4.0,-7.75,109,4.0
2020-07-02,134,-5.0,-5.0,134,-5.0
2020-07-03,99,-6.0,-9.25,99,-6.0
2020-07-04,122,-23.5,-10.25,122,-23.5
2020-07-05,52,-26.5,17.75,52,-26.5
2020-07-06,69,12.0,11.75,69,12.0
2020-07-07,76,-3.0,-15.25,76,-3.0
2020-07-08,63,-18.5,5.0,63,-18.5
2020-07-09,39,7.0,17.5,39,7.0
2020-07-10,77,16.5,-2.75,77,16.5
2020-07-11,72,1.5,-3.5,72,1.5
2020-07-12,80,9.5,-2.75,80,9.5
2020-07-13,91,-4.0,-16.0,91,-4.0
2020-07-14,72,-22.5,7.75,72,-22.5
2020-07-15,46,11.5,12.5,46,11.5
2020-07-16,95,2.5,-3.75,95,2.5
2020-07-17,51,4.0,1.0,51,4.0
2020-07-18,103,4.5,-15.25,103,4.5
2020-07-19,60,-26.5,-1.75,60,-26.5
2020-07-20,50,1.0,11.25,50,1.0
2020-07-21,62,-4.0,-6.0,62,-4.0
2020-07-22,42,-11.0,3.75,42,-11.0
2020-07-23,40,3.5,4.25,40,3.5
2020-07-24,49,-2.5,-9.0,49,-2.5
2020-07-25,35,-14.5,1.75,35,-14.5
2020-07-26,20,1.0,12.5,20,1.0
2020-07-27,37,10.5,-3.75,37,10.5
2020-07-28,41,-6.5,-10.0,41,-6.5
2020-07-29,24,-9.5,1.0,24,-9.5
2020-07-30,22,-4.5,1.5,22,-4.5
2020-07-31,15,-6.5,-0.5,15,-6.5
2020-08-01,9,-5.5,15.75,9,-5.5
2020-08-02,4,25.0,10.75,4,25.0
2020-08-03,59,16.0,-20.75,20,16.0
2020-08-04,36,-16.5,-17.0,36,-16.5
2020-08-05,26,-18.0,15.25,26,-18.0
2020-08-06,0,14.0,12.0,0,14.0
2020-08-07,54,6.0,-17.25,54,6.0
2020-08-08,12,-20.5,2.0,12,-20.5
2020-08-09,13,10.0,17.75,13,10.0
2020-08-10,32,15.0,-7.0,32,15.0
2020-08-11,43,-4.0,-10.5,43,-4.0
2020-08-12,24,-6.0,1.75,24,-6.0
2020-08-13,31,-0.5,-0.5,31,-0.5
2020-08-14,23,-7.0,-3.5,23,-7.0
2020-08-15,17,-7.5,14.5,17,-7.5
2020-08-16,8,22.0,8.5,8,22.0
2020-08-17,61,9.5,-16.25,17,9.5
2020-08-18,27,-10.5,-6.75,27,-10.5
2020-08-19,40,-4.0,4.5,40,-4.0
2020-08-20,19,-1.5,-0.5,19,-1.5
2020-08-21,37,-5.0,-5.75,37,-5.0
2020-08-22,9,-13.0,6.0,9,-13.0
2020-08-23,11,7.0,11.75,11,7.0
2020-08-24,23,10.5,-5.0,23,10.5
2020-08-25,32,-3.0,-9.25,32,-3.0
2020-08-26,17,-8.0,2.0,17,-8.0
2020-08-27,16,1.0,0.0,16,1.0
2020-08-28,19,-8.0,-4.25,19,-8.0
2020-08-29,0,-7.5,12.0,0,-7.5
2020-08-30,4,16.0,9.5,4,16.0
2020-08-31,32,11.5,-12.5,32,11.5
2020-09-01,27,-9.0,-8.25,27,-9.0
2020-09-02,14,-5.0,6.0,14,-5.0
2020-09-03,17,3.0,0.25,17,3.0
2020-09-04,20,-4.5,-4.5,20,-4.5
2020-09-05,8,-6.0,6.0,8,-6.0
2020-09-06,8,7.5,1.0,8,7.5
2020-09-07,23,-4.0,-3.0,23,-4.0
2020-09-08,0,1.5,9.75,0,1.5
2020-09-09,26,15.5,3.75,26,15.5
2020-09-10,31,9.0,-13.5,31,9.0
2020-09-11,44,-11.5,-15.0,44,-11.5
2020-09-12,8,-21.0,8.5,8,-21.0
2020-09-13,2,5.5,16.0,2,5.5
2020-09-14,19,11.0,-4.25,19,11.0
2020-09-15,24,-3.0,-8.0,24,-3.0
2020-09-16,13,-5.0,2.0,13,-5.0
2020-09-17,14,1.0,0.0,14,1.0
2020-09-18,15,-5.0,-3.5,15,-5.0
2020-09-19,4,-6.0,5.5,4,-6.0
2020-09-20,3,6.0,7.0,3,6.0
2020-09-21,16,8.0,-1.5,16,8.0
2020-09-22,19,3.0,-6.75,19,3.0
2020-09-23,22,-5.5,-1.0,22,-5.5
2020-09-24,8,1.0,2.0,8,1.0
2020-09-25,24,-1.5,-6.0,24,-1.5
2020-09-26,5,-11.0,2.0,5,-11.0
2020-09-27,2,2.5,8.5,2,2.5
2020-09-28,10,6.0,-0.25,10,6.0
2020-09-29,14,2.0,-5.75,14,2.0
2020-09-30,14,-5.5,-3.0,14,-5.5
2020-10-01,3,-4.0,3.5,3,-4.0
2020-10-02,6,1.5,1.25,6,1.5
2020-10-03,6,-1.5,-1.5,6,-1.5
2020-10-04,3,-1.5,1.5,3,-1.5
2020-10-05,3,1.5,1.5,3,1.5
2020-10-06,6,1.5,-1.0,6,1.5
2020-10-07,6,-0.5,-0.25,6,-0.5
2020-10-08,5,1.0,-0.5,5,1.0
2020-10-09,8,-1.5,-2.5,8,-1.5
2020-10-10,2,-4.0,1.25,2,-4.0
2020-10-11,0,1.0,4.75,0,1.0
2020-10-12,4,5.5,0.25,4,5.5
2020-10-13,11,1.5,-2.25,11,1.5
2020-10-14,7,1.0,2.0,7,1.0
2020-10-15,13,5.5,-2.75,13,5.5
2020-10-16,18,-4.5,-7.0,18,-4.5
2020-10-17,4,-8.5,4.5,4,-8.5
2020-10-18,1,4.5,7.25,1,4.5
2020-10-19,13,6.0,-4.5,13,6.0
2020-10-20,13,-4.5,-3.25,13,-4.5
2020-10-21,4,-0.5,4.25,4,-0.5
2020-10-22,12,4.0,-2.5,12,4.0
2020-10-23,12,-5.5,-4.75,12,-5.5
2020-10-24,1,-5.5,5.75,1,-5.5
2020-10-25,1,6.0,3.25,1,6.0
2020-10-26,13,1.0,-4.25,13,1.0
2020-10-27,3,-2.5,1.75,3,-2.5
2020-10-28,8,4.5,-0.75,8,4.5
2020-10-29,12,-4.0,-4.5,12,-4.0
2020-10-30,0,-4.5,2.25,0,-4.5
2020-10-31,3,0.5,1.5,3,0.5
2020-11-01,1,-1.5,4.5,1,-1.5
2020-11-02,0,9.5,5.75,0,9.5
2020-11-03,20,10.0,-1.5,20,10.0
2020-11-04,20,6.5,-3.25,20,6.5
2020-11-05,33,3.5,-9.0,33,3.5
2020-11-06,27,-11.5,-7.0,27,-11.5
2020-11-07,10,-10.5,6.5,10,-10.5
2020-11-08,6,1.5,7.5,6,1.5
2020-11-09,13,4.5,5.25,13,4.5
2020-11-10,15,12.0,-2.25,15,12.0
2020-11-11,37,0.0,-7.25,37,0.0
2020-11-12,15,-2.5,0.25,15,-2.5
2020-11-13,32,0.5,-5.75,32,0.5
2020-11-14,16,-14.0,2.5,16,-14.0
2020-11-15,4,5.5,9.75,4,5.5
2020-11-16,27,5.5,-5.5,27,5.5
2020-11-17,15,-5.5,-0.5,15,-5.5
2020-11-18,16,4.5,9.0,16,4.5
2020-11-19,24,12.5,-3.0,24,12.5
2020-11-20,41,-1.5,-8.5,41,-1.5
2020-11-21,21,-4.5,5.25,21,-4.5
2020-11-22,32,9.0,0.75,32,9.0
2020-11-23,39,-3.0,-1.0,39,-3.0
2020-11-24,26,7.0,5.5,26,7.0
2020-11-25,53,8.0,17.25,53,8.0
2020-11-26,42,41.5,-6.0,42,41.5
2020-11-27,136,-4.0,-32.5,136,-4.0
2020-11-28,34,-23.5,7.0,34,-23.5
2020-11-29,89,10.0,16.75,89,10.0
2020-11-30,54,10.0,19.75,54,10.0
2020-12-01,109,49.5,3.25,109,49.5
2020-12-02,153,16.5,-19.0,153,16.5
2020-12-03,142,11.5,0.75,142,11.5
2020-12-04,176,18.0,-10.5,176,18.0
2020-12-05,178,-9.5,-12.75,178,-9.5
2020-12-06,157,-7.5,14.75,157,-7.5
2020-12-07,163,20.0,20.25,163,20.0
2020-12-08,197,33.0,-18.5,197,33.0
2020-12-09,229,-17.0,-15.5,229,-17.0
2020-12-10,163,2.0,37.5,163,2.0
2020-12-11,233,58.0,-11.5,233,58.0
2020-12-12,279,-21.0,-57.75,279,-21.0
2020-12-13,191,-57.5,36.75,191,-57.5
2020-12-14,164,52.5,37.25,164,52.5
2020-12-15,296,17.0,-56.25,296,17.0
2020-12-16,198,-60.0,2.25,198,-60.0
2020-12-17,176,21.5,44.0,176,21.5
2020-12-18,241,28.0,-71.0,241,28.0
2020-12-19,232,-120.5,-130.0,232,-120.5
2020-12-20,0,-232.0,-111.5,0,-232.0
