date, confirmed_daily_cases, first_order,second_order, confirmed_daily_cases_outlier_removed,first_order_outlier_removed,second_order_outlier_removed
2020-01-01,0,0.0,0.0,0,0.0
2020-01-02,0,0.0,0.0,0,0.0
2020-01-03,0,0.0,0.0,0,0.0
2020-01-04,0,0.0,0.0,0,0.0
2020-01-05,0,0.0,0.0,0,0.0
2020-01-06,0,0.0,0.0,0,0.0
2020-01-07,0,0.0,0.0,0,0.0
2020-01-08,0,0.0,0.0,0,0.0
2020-01-09,0,0.0,0.0,0,0.0
2020-01-10,0,0.0,0.0,0,0.0
2020-01-11,0,0.0,0.0,0,0.0
2020-01-12,0,0.0,0.0,0,0.0
2020-01-13,0,0.0,0.0,0,0.0
2020-01-14,0,0.0,0.0,0,0.0
2020-01-15,0,0.0,0.0,0,0.0
2020-01-16,0,0.0,0.0,0,0.0
2020-01-17,0,0.0,0.0,0,0.0
2020-01-18,0,0.0,0.0,0,0.0
2020-01-19,0,0.0,0.0,0,0.0
2020-01-20,0,0.0,0.0,0,0.0
2020-01-21,0,0.0,0.0,0,0.0
2020-01-22,0,0.0,0.0,0,0.0
2020-01-23,0,0.0,0.0,0,0.0
2020-01-24,0,0.0,0.0,0,0.0
2020-01-25,0,0.0,0.0,0,0.0
2020-01-26,0,0.0,0.0,0,0.0
2020-01-27,0,0.0,0.0,0,0.0
2020-01-28,0,0.0,0.0,0,0.0
2020-01-29,0,0.0,0.0,0,0.0
2020-01-30,0,0.0,0.0,0,0.0
2020-01-31,0,0.0,0.0,0,0.0
2020-02-01,0,0.0,0.0,0,0.0
2020-02-02,0,0.0,0.0,0,0.0
2020-02-03,0,0.0,0.0,0,0.0
2020-02-04,0,0.0,0.0,0,0.0
2020-02-05,0,0.0,0.0,0,0.0
2020-02-06,0,0.0,0.0,0,0.0
2020-02-07,0,0.0,0.0,0,0.0
2020-02-08,0,0.0,0.0,0,0.0
2020-02-09,0,0.0,0.0,0,0.0
2020-02-10,0,0.0,0.0,0,0.0
2020-02-11,0,0.0,0.0,0,0.0
2020-02-12,0,0.0,0.0,0,0.0
2020-02-13,0,0.0,0.0,0,0.0
2020-02-14,0,0.0,0.0,0,0.0
2020-02-15,0,0.0,0.0,0,0.0
2020-02-16,0,0.0,0.0,0,0.0
2020-02-17,0,0.0,0.0,0,0.0
2020-02-18,0,0.0,0.0,0,0.0
2020-02-19,0,0.0,0.0,0,0.0
2020-02-20,0,0.0,0.0,0,0.0
2020-02-21,0,0.0,0.0,0,0.0
2020-02-22,0,0.0,0.0,0,0.0
2020-02-23,0,0.0,0.0,0,0.0
2020-02-24,0,0.0,0.0,0,0.0
2020-02-25,0,0.0,0.0,0,0.0
2020-02-26,0,0.0,0.0,0,0.0
2020-02-27,0,0.0,0.0,0,0.0
2020-02-28,0,0.0,0.0,0,0.0
2020-02-29,0,0.0,0.0,0,0.0
2020-03-01,0,0.0,0.0,0,0.0
2020-03-02,0,0.0,0.0,0,0.0
2020-03-03,0,0.0,0.0,0,0.0
2020-03-04,0,0.0,0.0,0,0.0
2020-03-05,0,0.0,0.0,0,0.0
2020-03-06,0,0.0,0.0,0,0.0
2020-03-07,0,0.0,0.0,0,0.0
2020-03-08,0,0.0,0.0,0,0.0
2020-03-09,0,0.0,0.0,0,0.0
2020-03-10,0,0.0,0.0,0,0.0
2020-03-11,0,0.0,0.0,0,0.0
2020-03-12,0,0.0,0.0,0,0.0
2020-03-13,0,0.0,0.0,0,0.0
2020-03-14,0,0.0,0.0,0,0.0
2020-03-15,0,0.0,0.0,0,0.0
2020-03-16,0,0.0,0.0,0,0.0
2020-03-17,0,0.0,0.25,0,0.0
2020-03-18,0,0.5,0.0,0,0.5
2020-03-19,1,0.0,-0.25,1,0.0
2020-03-20,0,0.0,0.0,0,0.0
2020-03-21,1,0.0,-0.25,1,0.0
2020-03-22,0,-0.5,0.0,0,-0.5
2020-03-23,0,0.0,0.25,0,0.0
2020-03-24,0,0.0,0.0,0,0.0
2020-03-25,0,0.0,0.0,0,0.0
2020-03-26,0,0.0,0.5,0,0.0
2020-03-27,0,1.0,0.0,0,1.0
2020-03-28,2,0.0,-1.0,2,0.0
2020-03-29,0,-1.0,0.25,0,-1.0
2020-03-30,0,0.5,0.5,0,0.5
2020-03-31,1,0.0,-0.5,1,0.0
2020-04-01,0,-0.5,0.0,0,-0.5
2020-04-02,0,0.0,0.25,0,0.0
2020-04-03,0,0.0,0.25,0,0.0
2020-04-04,0,0.5,0.0,0,0.5
2020-04-05,1,0.0,-0.5,1,0.0
2020-04-06,0,-0.5,0.0,0,-0.5
2020-04-07,0,0.0,0.5,0,0.0
2020-04-08,0,0.5,0.0,0,0.5
2020-04-09,1,0.0,-0.25,1,0.0
2020-04-10,0,0.0,0.25,0,0.0
2020-04-11,1,0.5,-0.25,1,0.5
2020-04-12,1,-0.5,-0.5,1,-0.5
2020-04-13,0,-0.5,0.25,0,-0.5
2020-04-14,0,0.0,0.25,0,0.0
2020-04-15,0,0.0,0.0,0,0.0
2020-04-16,0,0.0,0.0,0,0.0
2020-04-17,0,0.0,0.25,0,0.0
2020-04-18,0,0.5,0.0,0,0.5
2020-04-19,1,0.0,-0.5,1,0.0
2020-04-20,0,-0.5,0.0,0,-0.5
2020-04-21,0,0.0,0.5,0,0.0
2020-04-22,0,0.5,0.0,0,0.5
2020-04-23,1,0.0,-0.25,1,0.0
2020-04-24,0,0.0,0.25,0,0.0
2020-04-25,1,0.5,-0.25,1,0.5
2020-04-26,1,-0.5,-0.5,1,-0.5
2020-04-27,0,-0.5,0.25,0,-0.5
2020-04-28,0,0.0,0.5,0,0.0
2020-04-29,0,0.5,0.0,0,0.5
2020-04-30,1,0.0,-0.5,1,0.0
2020-05-01,0,-0.5,0.25,0,-0.5
2020-05-02,0,0.5,0.25,0,0.5
2020-05-03,1,0.0,-0.25,1,0.0
2020-05-04,0,0.0,0.0,0,0.0
2020-05-05,1,0.0,-0.25,1,0.0
2020-05-06,0,-0.5,0.0,0,-0.5
2020-05-07,0,0.0,0.25,0,0.0
2020-05-08,0,0.0,0.0,0,0.0
2020-05-09,0,0.0,0.0,0,0.0
2020-05-10,0,0.0,2.25,0,0.0
2020-05-11,0,4.5,0.0,0,4.5
2020-05-12,9,0.0,-4.5,9,0.0
2020-05-13,0,-4.5,0.0,0,-4.5
2020-05-14,0,0.0,2.25,0,0.0
2020-05-15,0,0.0,0.0,0,0.0
2020-05-16,0,0.0,0.0,0,0.0
2020-05-17,0,0.0,57.25,0,0.0
2020-05-18,0,114.5,0.0,0,114.5
2020-05-19,229,0.0,-108.25,229,0.0
2020-05-20,0,-102.0,0.0,0,-102.0
2020-05-21,25,0.0,44.75,25,0.0
2020-05-22,0,-12.5,0.0,0,-12.5
2020-05-23,0,0.0,6.25,0,0.0
2020-05-24,0,0.0,120.0,0,0.0
2020-05-25,0,240.0,0.0,0,240.0
2020-05-26,480,0.0,-240.0,480,0.0
2020-05-27,0,-240.0,0.0,0,-240.0
2020-05-28,0,0.0,120.0,0,0.0
2020-05-29,0,0.0,0.0,0,0.0
2020-05-30,0,0.0,0.0,0,0.0
2020-05-31,0,0.0,89.75,0,0.0
2020-06-01,0,179.5,0.0,0,179.5
2020-06-02,359,0.0,-179.5,359,0.0
2020-06-03,0,-179.5,0.0,0,-179.5
2020-06-04,0,0.0,89.75,0,0.0
2020-06-05,0,0.0,0.0,0,0.0
2020-06-06,0,0.0,0.0,0,0.0
2020-06-07,0,0.0,86.5,0,0.0
2020-06-08,0,173.0,0.0,0,173.0
2020-06-09,346,0.0,-173.0,346,0.0
2020-06-10,0,-173.0,0.0,0,-173.0
2020-06-11,0,0.0,86.5,0,0.0
2020-06-12,0,0.0,0.0,0,0.0
2020-06-13,0,0.0,0.0,0,0.0
2020-06-14,0,0.0,89.75,0,0.0
2020-06-15,0,179.5,0.0,0,179.5
2020-06-16,359,0.0,-179.5,359,0.0
2020-06-17,0,-179.5,0.0,0,-179.5
2020-06-18,0,0.0,89.75,0,0.0
2020-06-19,0,0.0,0.0,0,0.0
2020-06-20,0,0.0,0.0,0,0.0
2020-06-21,0,0.0,86.75,0,0.0
2020-06-22,0,173.5,0.0,0,173.5
2020-06-23,347,0.0,-173.5,347,0.0
2020-06-24,0,-173.5,0.0,0,-173.5
2020-06-25,0,0.0,86.75,0,0.0
2020-06-26,0,0.0,0.0,0,0.0
2020-06-27,0,0.0,0.0,0,0.0
2020-06-28,0,0.0,87.25,0,0.0
2020-06-29,0,174.5,0.0,0,174.5
2020-06-30,349,0.0,-174.5,349,0.0
2020-07-01,0,-174.5,0.0,0,-174.5
2020-07-02,0,0.0,87.25,0,0.0
2020-07-03,0,0.0,0.0,0,0.0
2020-07-04,0,0.0,0.0,0,0.0
2020-07-05,0,0.0,81.75,0,0.0
2020-07-06,0,163.5,0.0,0,163.5
2020-07-07,327,0.0,-163.5,327,0.0
2020-07-08,0,-163.5,0.0,0,-163.5
2020-07-09,0,0.0,81.75,0,0.0
2020-07-10,0,0.0,0.0,0,0.0
2020-07-11,0,0.0,0.0,0,0.0
2020-07-12,0,0.0,75.25,0,0.0
2020-07-13,0,150.5,0.0,0,150.5
2020-07-14,301,0.0,-150.5,301,0.0
2020-07-15,0,-150.5,0.0,0,-150.5
2020-07-16,0,0.0,75.25,0,0.0
2020-07-17,0,0.0,0.0,0,0.0
2020-07-18,0,0.0,0.0,0,0.0
2020-07-19,0,0.0,73.0,0,0.0
2020-07-20,0,146.0,0.0,0,146.0
2020-07-21,292,0.0,-146.0,292,0.0
2020-07-22,0,-146.0,0.0,0,-146.0
2020-07-23,0,0.0,73.0,0,0.0
2020-07-24,0,0.0,0.0,0,0.0
2020-07-25,0,0.0,0.0,0,0.0
2020-07-26,0,0.0,58.25,0,0.0
2020-07-27,0,116.5,0.0,0,116.5
2020-07-28,233,0.0,-116.5,233,0.0
2020-07-29,0,-116.5,0.0,0,-116.5
2020-07-30,0,0.0,58.25,0,0.0
2020-07-31,0,0.0,0.0,0,0.0
2020-08-01,0,0.0,0.0,0,0.0
2020-08-02,0,0.0,57.5,0,0.0
2020-08-03,0,115.0,0.0,0,115.0
2020-08-04,230,0.0,-115.0,230,0.0
2020-08-05,0,-115.0,0.0,0,-115.0
2020-08-06,0,0.0,57.5,0,0.0
2020-08-07,0,0.0,0.0,0,0.0
2020-08-08,0,0.0,0.0,0,0.0
2020-08-09,0,0.0,53.25,0,0.0
2020-08-10,0,106.5,0.0,0,106.5
2020-08-11,213,0.0,-106.5,213,0.0
2020-08-12,0,-106.5,0.0,0,-106.5
2020-08-13,0,0.0,53.25,0,0.0
2020-08-14,0,0.0,0.0,0,0.0
2020-08-15,0,0.0,0.0,0,0.0
2020-08-16,0,0.0,49.0,0,0.0
2020-08-17,0,98.0,0.0,0,98.0
2020-08-18,196,0.0,-98.0,196,0.0
2020-08-19,0,-98.0,0.0,0,-98.0
2020-08-20,0,0.0,49.0,0,0.0
2020-08-21,0,0.0,0.0,0,0.0
2020-08-22,0,0.0,0.0,0,0.0
2020-08-23,0,0.0,45.75,0,0.0
2020-08-24,0,91.5,0.0,0,91.5
2020-08-25,183,0.0,-91.5,183,0.0
2020-08-26,0,-91.5,0.0,0,-91.5
2020-08-27,0,0.0,45.75,0,0.0
2020-08-28,0,0.0,0.0,0,0.0
2020-08-29,0,0.0,0.0,0,0.0
2020-08-30,0,0.0,43.5,0,0.0
2020-08-31,0,87.0,0.0,0,87.0
2020-09-01,174,0.0,-87.0,174,0.0
2020-09-02,0,-87.0,0.0,0,-87.0
2020-09-03,0,0.0,43.5,0,0.0
2020-09-04,0,0.0,0.0,0,0.0
2020-09-05,0,0.0,0.0,0,0.0
2020-09-06,0,0.0,37.5,0,0.0
2020-09-07,0,75.0,0.0,0,75.0
2020-09-08,150,0.0,-75.0,150,0.0
2020-09-09,0,-75.0,0.0,0,-75.0
2020-09-10,0,0.0,37.5,0,0.0
2020-09-11,0,0.0,0.0,0,0.0
2020-09-12,0,0.0,0.0,0,0.0
2020-09-13,0,0.0,35.75,0,0.0
2020-09-14,0,71.5,0.0,0,71.5
2020-09-15,143,0.0,-71.5,143,0.0
2020-09-16,0,-71.5,0.0,0,-71.5
2020-09-17,0,0.0,35.75,0,0.0
2020-09-18,0,0.0,0.0,0,0.0
2020-09-19,0,0.0,0.0,0,0.0
2020-09-20,0,0.0,28.0,0,0.0
2020-09-21,0,56.0,0.0,0,56.0
2020-09-22,112,0.0,-56.0,112,0.0
2020-09-23,0,-56.0,0.0,0,-56.0
2020-09-24,0,0.0,28.0,0,0.0
2020-09-25,0,0.0,0.0,0,0.0
2020-09-26,0,0.0,0.0,0,0.0
2020-09-27,0,0.0,24.25,0,0.0
2020-09-28,0,48.5,0.0,0,48.5
2020-09-29,97,0.0,-48.5,97,0.0
2020-09-30,0,-48.5,0.0,0,-48.5
2020-10-01,0,0.0,24.25,0,0.0
2020-10-02,0,0.0,0.0,0,0.0
2020-10-03,0,0.0,0.0,0,0.0
2020-10-04,0,0.0,23.5,0,0.0
2020-10-05,0,47.0,0.0,0,47.0
2020-10-06,94,0.0,-47.0,94,0.0
2020-10-07,0,-47.0,0.0,0,-47.0
2020-10-08,0,0.0,23.5,0,0.0
2020-10-09,0,0.0,0.0,0,0.0
2020-10-10,0,0.0,0.0,0,0.0
2020-10-11,0,0.0,22.25,0,0.0
2020-10-12,0,44.5,0.0,0,44.5
2020-10-13,89,0.0,-44.5,89,0.0
2020-10-14,0,-44.5,0.0,0,-44.5
2020-10-15,0,0.0,22.25,0,0.0
2020-10-16,0,0.0,0.0,0,0.0
2020-10-17,0,0.0,0.0,0,0.0
2020-10-18,0,0.0,20.25,0,0.0
2020-10-19,0,40.5,0.0,0,40.5
2020-10-20,81,0.0,-40.5,81,0.0
2020-10-21,0,-40.5,0.0,0,-40.5
2020-10-22,0,0.0,20.25,0,0.0
2020-10-23,0,0.0,0.0,0,0.0
2020-10-24,0,0.0,0.0,0,0.0
2020-10-25,0,0.0,20.0,0,0.0
2020-10-26,0,40.0,0.0,0,40.0
2020-10-27,80,0.0,-40.0,80,0.0
2020-10-28,0,-40.0,0.0,0,-40.0
2020-10-29,0,0.0,20.0,0,0.0
2020-10-30,0,0.0,0.0,0,0.0
2020-10-31,0,0.0,0.0,0,0.0
2020-11-01,0,0.0,0.0,0,0.0
2020-11-02,0,0.0,0.0,0,0.0
2020-11-03,0,0.0,19.25,0,0.0
2020-11-04,0,38.5,0.0,0,38.5
2020-11-05,77,0.0,-38.5,77,0.0
2020-11-06,0,-38.5,0.0,0,-38.5
2020-11-07,0,0.0,19.25,0,0.0
2020-11-08,0,0.0,17.5,0,0.0
2020-11-09,0,35.0,0.0,0,35.0
2020-11-10,70,0.0,-35.0,70,0.0
2020-11-11,0,-35.0,0.0,0,-35.0
2020-11-12,0,0.0,17.5,0,0.0
2020-11-13,0,0.0,0.0,0,0.0
2020-11-14,0,0.0,0.0,0,0.0
2020-11-15,0,0.0,16.0,0,0.0
2020-11-16,0,32.0,0.0,0,32.0
2020-11-17,64,0.0,-32.0,64,0.0
2020-11-18,0,-32.0,0.0,0,-32.0
2020-11-19,0,0.0,16.0,0,0.0
2020-11-20,0,0.0,0.0,0,0.0
2020-11-21,0,0.0,0.0,0,0.0
2020-11-22,0,0.0,14.75,0,0.0
2020-11-23,0,29.5,0.0,0,29.5
2020-11-24,59,0.0,-29.5,59,0.0
2020-11-25,0,-29.5,0.0,0,-29.5
2020-11-26,0,0.0,14.75,0,0.0
2020-11-27,0,0.0,0.0,0,0.0
2020-11-28,0,0.0,0.0,0,0.0
2020-11-29,0,0.0,13.5,0,0.0
2020-11-30,0,27.0,0.0,0,27.0
2020-12-01,54,0.0,-27.0,54,0.0
2020-12-02,0,-27.0,0.0,0,-27.0
2020-12-03,0,0.0,13.5,0,0.0
2020-12-04,0,0.0,0.0,0,0.0
2020-12-05,0,0.0,0.0,0,0.0
2020-12-06,0,0.0,12.25,0,0.0
2020-12-07,0,24.5,0.0,0,24.5
2020-12-08,49,0.0,-24.5,49,0.0
2020-12-09,0,-24.5,0.0,0,-24.5
2020-12-10,0,0.0,12.25,0,0.0
2020-12-11,0,0.0,0.0,0,0.0
2020-12-12,0,0.0,0.0,0,0.0
2020-12-13,0,0.0,0.0,0,0.0
2020-12-14,0,0.0,12.75,0,0.0
2020-12-15,0,25.5,0.0,0,25.5
2020-12-16,51,0.0,-25.5,51,0.0
2020-12-17,0,-25.5,0.0,0,-25.5
2020-12-18,0,0.0,12.75,0,0.0
2020-12-19,0,0.0,0.0,0,0.0
2020-12-20,0,0.0,0.0,0,0.0
