date, confirmed_daily_cases, first_order,second_order, confirmed_daily_cases_outlier_removed,first_order_outlier_removed,second_order_outlier_removed
2020-01-01,0,0.0,0.0,0,0.0
2020-01-02,0,0.0,0.0,0,0.0
2020-01-03,0,0.0,0.0,0,0.0
2020-01-04,0,0.0,0.0,0,0.0
2020-01-05,0,0.0,0.0,0,0.0
2020-01-06,0,0.0,0.0,0,0.0
2020-01-07,0,0.0,0.0,0,0.0
2020-01-08,0,0.0,0.0,0,0.0
2020-01-09,0,0.0,0.0,0,0.0
2020-01-10,0,0.0,0.0,0,0.0
2020-01-11,0,0.0,0.0,0,0.0
2020-01-12,0,0.0,0.0,0,0.0
2020-01-13,0,0.0,0.0,0,0.0
2020-01-14,0,0.0,0.0,0,0.0
2020-01-15,0,0.0,0.0,0,0.0
2020-01-16,0,0.0,0.0,0,0.0
2020-01-17,0,0.0,0.0,0,0.0
2020-01-18,0,0.0,0.0,0,0.0
2020-01-19,0,0.0,0.0,0,0.0
2020-01-20,0,0.0,0.0,0,0.0
2020-01-21,0,0.0,0.0,0,0.0
2020-01-22,0,0.0,0.0,0,0.0
2020-01-23,0,0.0,0.0,0,0.0
2020-01-24,0,0.0,0.0,0,0.0
2020-01-25,0,0.0,0.0,0,0.0
2020-01-26,0,0.0,0.0,0,0.0
2020-01-27,0,0.0,0.0,0,0.0
2020-01-28,0,0.0,0.0,0,0.0
2020-01-29,0,0.0,0.0,0,0.0
2020-01-30,0,0.0,0.0,0,0.0
2020-01-31,0,0.0,0.0,0,0.0
2020-02-01,0,0.0,0.0,0,0.0
2020-02-02,0,0.0,0.0,0,0.0
2020-02-03,0,0.0,0.0,0,0.0
2020-02-04,0,0.0,0.0,0,0.0
2020-02-05,0,0.0,0.0,0,0.0
2020-02-06,0,0.0,0.0,0,0.0
2020-02-07,0,0.0,0.0,0,0.0
2020-02-08,0,0.0,0.0,0,0.0
2020-02-09,0,0.0,0.0,0,0.0
2020-02-10,0,0.0,0.0,0,0.0
2020-02-11,0,0.0,0.0,0,0.0
2020-02-12,0,0.0,0.0,0,0.0
2020-02-13,0,0.0,0.0,0,0.0
2020-02-14,0,0.0,0.0,0,0.0
2020-02-15,0,0.0,0.0,0,0.0
2020-02-16,0,0.0,0.0,0,0.0
2020-02-17,0,0.0,0.0,0,0.0
2020-02-18,0,0.0,0.0,0,0.0
2020-02-19,0,0.0,0.0,0,0.0
2020-02-20,0,0.0,0.0,0,0.0
2020-02-21,0,0.0,0.0,0,0.0
2020-02-22,0,0.0,0.0,0,0.0
2020-02-23,0,0.0,0.0,0,0.0
2020-02-24,0,0.0,0.0,0,0.0
2020-02-25,0,0.0,0.0,0,0.0
2020-02-26,0,0.0,0.0,0,0.0
2020-02-27,0,0.0,0.0,0,0.0
2020-02-28,0,0.0,0.0,0,0.0
2020-02-29,0,0.0,0.0,0,0.0
2020-03-01,0,0.0,0.0,0,0.0
2020-03-02,0,0.0,0.0,0,0.0
2020-03-03,0,0.0,0.0,0,0.0
2020-03-04,0,0.0,0.0,0,0.0
2020-03-05,0,0.0,0.0,0,0.0
2020-03-06,0,0.0,0.0,0,0.0
2020-03-07,0,0.0,0.0,0,0.0
2020-03-08,0,0.0,0.0,0,0.0
2020-03-09,0,0.0,0.0,0,0.0
2020-03-10,0,0.0,0.0,0,0.0
2020-03-11,0,0.0,0.0,0,0.0
2020-03-12,0,0.0,0.0,0,0.0
2020-03-13,0,0.0,0.0,0,0.0
2020-03-14,0,0.0,0.0,0,0.0
2020-03-15,0,0.0,0.0,0,0.0
2020-03-16,0,0.0,0.0,0,0.0
2020-03-17,0,0.0,0.0,0,0.0
2020-03-18,0,0.0,0.25,0,0.0
2020-03-19,0,0.5,0.0,0,0.5
2020-03-20,1,0.0,-0.25,1,0.0
2020-03-21,0,0.0,0.25,0,0.0
2020-03-22,1,0.5,-0.25,1,0.5
2020-03-23,1,-0.5,0.5,1,-0.5
2020-03-24,0,1.5,1.0,0,1.5
2020-03-25,4,1.5,-1.75,4,1.5
2020-03-26,3,-2.0,-1.5,3,-2.0
2020-03-27,0,-1.5,3.0,0,-1.5
2020-03-28,0,4.0,3.0,0,4.0
2020-03-29,8,4.5,-4.0,8,4.5
2020-03-30,9,-4.0,7.25,9,-4.0
2020-03-31,0,19.0,8.0,0,19.0
2020-04-01,47,12.0,-15.75,47,12.0
2020-04-02,24,-12.5,-6.0,24,-12.5
2020-04-03,22,0.0,10.75,22,0.0
2020-04-04,24,9.0,11.25,24,9.0
2020-04-05,40,22.5,-8.25,40,22.5
2020-04-06,69,-7.5,-12.5,69,-7.5
2020-04-07,25,-2.5,14.5,25,-2.5
2020-04-08,64,21.5,-7.75,64,21.5
2020-04-09,68,-18.0,-14.5,68,-18.0
2020-04-10,28,-7.5,11.5,28,-7.5
2020-04-11,53,5.0,-9.5,53,5.0
2020-04-12,38,-26.5,-1.75,38,-26.5
2020-04-13,0,1.5,16.75,0,1.5
2020-04-14,41,7.0,-11.0,41,7.0
2020-04-15,14,-20.5,3.75,14,-20.5
2020-04-16,0,14.5,13.25,0,14.5
2020-04-17,43,6.0,-15.75,43,6.0
2020-04-18,12,-17.0,-6.0,12,-17.0
2020-04-19,9,-6.0,8.5,9,-6.0
2020-04-20,0,0.0,4.25,0,0.0
2020-04-21,9,2.5,0.0,9,2.5
2020-04-22,5,0.0,0.0,5,0.0
2020-04-23,9,2.5,-1.5,9,2.5
2020-04-24,10,-3.0,-0.75,10,-3.0
2020-04-25,3,1.0,2.0,3,1.0
2020-04-26,12,1.0,-1.5,12,1.0
2020-04-27,5,-2.0,-0.75,5,-2.0
2020-04-28,8,-0.5,0.5,8,-0.5
2020-04-29,4,-1.0,1.5,4,-1.0
2020-04-30,6,2.5,1.0,6,2.5
2020-05-01,9,1.0,0.0,9,1.0
2020-05-02,8,2.5,-1.25,8,2.5
2020-05-03,14,-1.5,-2.75,14,-1.5
2020-05-04,5,-3.0,1.25,5,-3.0
2020-05-05,8,1.0,2.25,8,1.0
2020-05-06,7,1.5,1.25,7,1.5
2020-05-07,11,3.5,1.5,11,3.5
2020-05-08,14,4.5,-3.75,14,4.5
2020-05-09,20,-4.0,-4.5,20,-4.0
2020-05-10,6,-4.5,6.0,6,-4.5
2020-05-11,11,8.0,1.0,11,8.0
2020-05-12,22,-2.5,-5.5,22,-2.5
2020-05-13,6,-3.0,2.0,6,-3.0
2020-05-14,16,1.5,-1.5,16,1.5
2020-05-15,9,-6.0,0.75,9,-6.0
2020-05-16,4,3.0,3.25,4,3.0
2020-05-17,15,0.5,-4.0,15,0.5
2020-05-18,5,-5.0,0.0,5,-5.0
2020-05-19,5,0.5,2.25,5,0.5
2020-05-20,6,-0.5,1.5,6,-0.5
2020-05-21,4,3.5,0.75,4,3.5
2020-05-22,13,1.0,-4.5,13,1.0
2020-05-23,6,-5.5,-0.5,6,-5.5
2020-05-24,2,0.0,2.5,2,0.0
2020-05-25,6,-0.5,-1.5,6,-0.5
2020-05-26,1,-3.0,0.75,1,-3.0
2020-05-27,0,1.0,1.5,0,1.0
2020-05-28,3,0.0,-1.0,3,0.0
2020-05-29,0,-1.0,0.5,0,-1.0
2020-05-30,1,1.0,0.25,1,1.0
2020-05-31,2,-0.5,-0.5,2,-0.5
2020-06-01,0,0.0,0.5,0,0.0
2020-06-02,2,0.5,0.0,2,0.5
2020-06-03,1,0.0,0.25,1,0.0
2020-06-04,2,1.0,0.5,2,1.0
2020-06-05,3,1.0,-0.5,3,1.0
2020-06-06,4,0.0,-1.5,4,0.0
2020-06-07,3,-2.0,-0.5,3,-2.0
2020-06-08,0,-1.0,1.0,0,-1.0
2020-06-09,1,0.0,0.25,1,0.0
2020-06-10,0,-0.5,1.0,0,-0.5
2020-06-11,0,2.0,0.75,0,2.0
2020-06-12,4,1.0,-2.0,4,1.0
2020-06-13,2,-2.0,-1.0,2,-2.0
2020-06-14,0,-1.0,10.0,0,-1.0
2020-06-15,0,18.0,1.5,0,18.0
2020-06-16,36,2.0,-18.0,36,2.0
2020-06-17,4,-18.0,-2.0,4,-18.0
2020-06-18,0,-2.0,12.75,0,-2.0
2020-06-19,0,7.5,1.25,0,7.5
2020-06-20,15,0.5,-5.0,15,0.5
2020-06-21,1,-2.5,0.75,1,-2.5
2020-06-22,10,2.0,-1.25,10,2.0
2020-06-23,5,-5.0,-1.0,5,-5.0
2020-06-24,0,0.0,3.25,0,0.0
2020-06-25,5,1.5,-0.5,5,1.5
2020-06-26,3,-1.0,1.5,3,-1.0
2020-06-27,3,4.5,0.0,3,4.5
2020-06-28,12,-1.0,-5.25,12,-1.0
2020-06-29,1,-6.0,0.25,1,-6.0
2020-06-30,0,-0.5,4.5,0,-0.5
2020-07-01,0,3.0,0.5,0,3.0
2020-07-02,6,0.5,-3.0,6,0.5
2020-07-03,1,-3.0,1.0,1,-3.0
2020-07-04,0,2.5,2.75,0,2.5
2020-07-05,6,2.5,-2.5,6,2.5
2020-07-06,5,-2.5,-1.75,5,-2.5
2020-07-07,1,-1.0,1.0,1,-1.0
2020-07-08,3,-0.5,0.25,3,-0.5
2020-07-09,0,-0.5,0.25,0,-0.5
2020-07-10,2,0.0,-0.25,2,0.0
2020-07-11,0,-1.0,0.0,0,-1.0
2020-07-12,0,0.0,0.5,0,0.0
2020-07-13,0,0.0,0.25,0,0.0
2020-07-14,0,0.5,0.5,0,0.5
2020-07-15,1,1.0,-0.5,1,1.0
2020-07-16,2,-0.5,-0.5,2,-0.5
2020-07-17,0,0.0,0.25,0,0.0
2020-07-18,2,0.0,-0.25,2,0.0
2020-07-19,0,-0.5,2.0,0,-0.5
2020-07-20,1,4.0,2.25,1,4.0
2020-07-21,8,4.0,-3.5,8,4.0
2020-07-22,9,-3.0,-4.25,9,-3.0
2020-07-23,2,-4.5,1.0,2,-4.5
2020-07-24,0,-1.0,5.25,0,-1.0
2020-07-25,0,6.0,0.5,0,6.0
2020-07-26,12,0.0,-6.0,12,0.0
2020-07-27,0,-6.0,0.0,0,-6.0
2020-07-28,0,0.0,3.5,0,0.0
2020-07-29,0,1.0,0.0,0,1.0
2020-07-30,2,0.0,-0.5,2,0.0
2020-07-31,0,0.0,2.75,0,0.0
2020-08-01,2,5.5,0.75,2,5.5
2020-08-02,11,1.5,-5.5,11,1.5
2020-08-03,5,-5.5,-2.0,5,-5.5
2020-08-04,0,-2.5,3.0,0,-2.5
2020-08-05,0,0.5,1.25,0,0.5
2020-08-06,1,0.0,0.5,1,0.0
2020-08-07,0,1.5,0.25,0,1.5
2020-08-08,4,0.5,-1.75,4,0.5
2020-08-09,1,-2.0,-0.5,1,-2.0
2020-08-10,0,-0.5,1.75,0,-0.5
2020-08-11,0,1.5,0.25,0,1.5
2020-08-12,3,0.0,-1.5,3,0.0
2020-08-13,0,-1.5,1.0,0,-1.5
2020-08-14,0,2.0,1.25,0,2.0
2020-08-15,4,1.0,-2.0,4,1.0
2020-08-16,2,-2.0,-1.0,2,-2.0
2020-08-17,0,-1.0,1.0,0,-1.0
2020-08-18,0,0.0,1.0,0,0.0
2020-08-19,0,1.0,0.75,0,1.0
2020-08-20,2,1.5,-1.0,2,1.5
2020-08-21,3,-1.0,-1.5,3,-1.0
2020-08-22,0,-1.5,0.5,0,-1.5
2020-08-23,0,0.0,1.0,0,0.0
2020-08-24,0,0.5,0.0,0,0.5
2020-08-25,1,0.0,-0.5,1,0.0
2020-08-26,0,-0.5,0.5,0,-0.5
2020-08-27,0,1.0,0.25,0,1.0
2020-08-28,2,0.0,-1.0,2,0.0
2020-08-29,0,-1.0,0.25,0,-1.0
2020-08-30,0,0.5,0.5,0,0.5
2020-08-31,1,0.0,-0.5,1,0.0
2020-09-01,0,-0.5,0.25,0,-0.5
2020-09-02,0,0.5,0.25,0,0.5
2020-09-03,1,0.0,-0.5,1,0.0
2020-09-04,0,-0.5,0.0,0,-0.5
2020-09-05,0,0.0,0.25,0,0.0
2020-09-06,0,0.0,0.25,0,0.0
2020-09-07,0,0.5,0.0,0,0.5
2020-09-08,1,0.0,-0.5,1,0.0
2020-09-09,0,-0.5,0.0,0,-0.5
2020-09-10,0,0.0,0.25,0,0.0
2020-09-11,0,0.0,0.5,0,0.0
2020-09-12,0,1.0,0.0,0,1.0
2020-09-13,2,0.0,-0.5,2,0.0
2020-09-14,0,0.0,0.0,0,0.0
2020-09-15,2,0.0,-0.25,2,0.0
2020-09-16,0,-0.5,0.0,0,-0.5
2020-09-17,1,0.0,0.0,1,0.0
2020-09-18,0,-0.5,1.25,0,-0.5
2020-09-19,0,2.5,0.5,0,2.5
2020-09-20,5,0.5,-1.5,5,0.5
2020-09-21,1,-0.5,-0.5,1,-0.5
2020-09-22,4,-0.5,-0.5,4,-0.5
2020-09-23,0,-1.5,0.25,0,-1.5
2020-09-24,1,0.0,0.5,1,0.0
2020-09-25,0,-0.5,0.5,0,-0.5
2020-09-26,0,1.0,0.25,0,1.0
2020-09-27,2,0.0,-1.0,2,0.0
2020-09-28,0,-1.0,0.25,0,-1.0
2020-09-29,0,0.5,0.5,0,0.5
2020-09-30,1,0.0,-0.25,1,0.0
2020-10-01,0,0.0,0.5,0,0.0
2020-10-02,1,1.0,-0.25,1,1.0
2020-10-03,2,-0.5,-1.0,2,-0.5
2020-10-04,0,-1.0,0.25,0,-1.0
2020-10-05,0,0.0,0.5,0,0.0
2020-10-06,0,0.0,0.25,0,0.0
2020-10-07,0,0.5,0.0,0,0.5
2020-10-08,1,0.0,-0.5,1,0.0
2020-10-09,0,-0.5,0.0,0,-0.5
2020-10-10,0,0.0,0.5,0,0.0
2020-10-11,0,0.5,0.25,0,0.5
2020-10-12,1,0.5,0.0,1,0.5
2020-10-13,1,0.5,0.0,1,0.5
2020-10-14,2,0.5,-0.25,2,0.5
2020-10-15,2,0.0,-0.75,2,0.0
2020-10-16,2,-1.0,-0.25,2,-1.0
2020-10-17,0,-0.5,0.75,0,-0.5
2020-10-18,1,0.5,0.25,1,0.5
2020-10-19,1,0.0,0.0,1,0.0
2020-10-20,1,0.5,0.0,1,0.5
2020-10-21,2,0.0,-0.75,2,0.0
2020-10-22,1,-1.0,-0.25,1,-1.0
2020-10-23,0,-0.5,0.5,0,-0.5
2020-10-24,0,0.0,0.25,0,0.0
2020-10-25,0,0.0,0.75,0,0.0
2020-10-26,0,1.5,0.0,0,1.5
2020-10-27,3,0.0,-1.25,3,0.0
2020-10-28,0,-1.0,0.25,0,-1.0
2020-10-29,1,0.5,0.25,1,0.5
2020-10-30,1,-0.5,-0.25,1,-0.5
2020-10-31,0,0.0,0.5,0,0.0
2020-11-01,1,0.5,-0.25,1,0.5
2020-11-02,1,-0.5,0.25,1,-0.5
2020-11-03,0,1.0,0.5,0,1.0
2020-11-04,3,0.5,-0.25,3,0.5
2020-11-05,1,0.5,2.5,1,0.5
2020-11-06,4,5.5,-1.0,4,5.5
2020-11-07,12,-1.5,-5.0,12,-1.5
2020-11-08,1,-4.5,3.0,1,-4.5
2020-11-09,3,4.5,3.25,3,4.5
2020-11-10,10,2.0,0.0,10,2.0
2020-11-11,7,4.5,-1.0,7,4.5
2020-11-12,19,0.0,-4.0,19,0.0
2020-11-13,7,-3.5,-0.25,7,-3.5
2020-11-14,12,-0.5,1.0,12,-0.5
2020-11-15,6,-1.5,1.5,6,-1.5
2020-11-16,9,2.5,-0.5,9,2.5
2020-11-17,11,-2.5,-3.0,11,-2.5
2020-11-18,4,-3.5,1.5,4,-3.5
2020-11-19,4,0.5,3.5,4,0.5
2020-11-20,5,3.5,2.75,5,3.5
2020-11-21,11,6.0,-1.25,11,6.0
2020-11-22,17,1.0,-1.0,17,1.0
2020-11-23,13,4.0,-0.5,13,4.0
2020-11-24,25,0.0,-2.25,25,0.0
2020-11-25,13,-0.5,4.0,13,-0.5
2020-11-26,24,8.0,-2.75,24,8.0
2020-11-27,29,-6.0,-3.25,29,-6.0
2020-11-28,12,1.5,8.0,12,1.5
2020-11-29,32,10.0,0.75,32,10.0
2020-11-30,32,3.0,0.5,32,3.0
2020-12-01,38,11.0,-11.0,38,11.0
2020-12-02,54,-19.0,2.5,54,-19.0
2020-12-03,0,16.0,25.25,0,16.0
2020-12-04,86,31.5,-12.75,86,31.5
2020-12-05,63,-9.5,-22.0,63,-9.5
2020-12-06,67,-12.5,11.25,67,-12.5
2020-12-07,38,13.0,19.5,38,13.0
2020-12-08,93,26.5,-17.75,93,26.5
2020-12-09,91,-22.5,-27.5,91,-22.5
2020-12-10,48,-28.5,9.0,48,-28.5
2020-12-11,34,-4.5,20.5,34,-4.5
2020-12-12,39,12.5,8.5,39,12.5
2020-12-13,59,12.5,-11.25,59,12.5
2020-12-14,64,-10.0,-22.25,64,-10.0
2020-12-15,39,-32.0,31.5,39,-32.0
2020-12-16,0,53.0,29.5,0,53.0
2020-12-17,145,27.0,-49.75,145,27.0
2020-12-18,54,-46.5,-27.0,54,-46.5
2020-12-19,52,-27.0,-2.75,52,-27.0
2020-12-20,0,-52.0,-25.0,0,-52.0
