date, confirmed_daily_cases, first_order,second_order, confirmed_daily_cases_outlier_removed,first_order_outlier_removed,second_order_outlier_removed
2020-01-01,0,0.0,0.0,0,0.0
2020-01-02,0,0.0,0.0,0,0.0
2020-01-03,0,0.0,0.0,0,0.0
2020-01-04,0,0.0,0.0,0,0.0
2020-01-05,0,0.0,0.0,0,0.0
2020-01-06,0,0.0,0.0,0,0.0
2020-01-07,0,0.0,0.0,0,0.0
2020-01-08,0,0.0,0.0,0,0.0
2020-01-09,0,0.0,0.0,0,0.0
2020-01-10,0,0.0,0.0,0,0.0
2020-01-11,0,0.0,0.0,0,0.0
2020-01-12,0,0.0,0.0,0,0.0
2020-01-13,0,0.0,0.0,0,0.0
2020-01-14,0,0.0,0.0,0,0.0
2020-01-15,0,0.0,0.0,0,0.0
2020-01-16,0,0.0,0.0,0,0.0
2020-01-17,0,0.0,0.0,0,0.0
2020-01-18,0,0.0,0.0,0,0.0
2020-01-19,0,0.0,0.0,0,0.0
2020-01-20,0,0.0,0.0,0,0.0
2020-01-21,0,0.0,0.0,0,0.0
2020-01-22,0,0.0,0.0,0,0.0
2020-01-23,0,0.0,0.0,0,0.0
2020-01-24,0,0.0,0.0,0,0.0
2020-01-25,0,0.0,0.0,0,0.0
2020-01-26,0,0.0,0.0,0,0.0
2020-01-27,0,0.0,0.0,0,0.0
2020-01-28,0,0.0,0.0,0,0.0
2020-01-29,0,0.0,0.0,0,0.0
2020-01-30,0,0.0,0.0,0,0.0
2020-01-31,0,0.0,0.0,0,0.0
2020-02-01,0,0.0,0.0,0,0.0
2020-02-02,0,0.0,0.0,0,0.0
2020-02-03,0,0.0,0.0,0,0.0
2020-02-04,0,0.0,0.0,0,0.0
2020-02-05,0,0.0,0.0,0,0.0
2020-02-06,0,0.0,0.0,0,0.0
2020-02-07,0,0.0,0.0,0,0.0
2020-02-08,0,0.0,0.0,0,0.0
2020-02-09,0,0.0,0.0,0,0.0
2020-02-10,0,0.0,0.0,0,0.0
2020-02-11,0,0.0,0.0,0,0.0
2020-02-12,0,0.0,0.0,0,0.0
2020-02-13,0,0.0,0.0,0,0.0
2020-02-14,0,0.0,0.0,0,0.0
2020-02-15,0,0.0,0.0,0,0.0
2020-02-16,0,0.0,0.0,0,0.0
2020-02-17,0,0.0,0.0,0,0.0
2020-02-18,0,0.0,0.0,0,0.0
2020-02-19,0,0.0,0.0,0,0.0
2020-02-20,0,0.0,0.0,0,0.0
2020-02-21,0,0.0,0.0,0,0.0
2020-02-22,0,0.0,0.0,0,0.0
2020-02-23,0,0.0,0.5,0,0.0
2020-02-24,0,1.0,0.0,0,1.0
2020-02-25,2,0.0,-1.0,2,0.0
2020-02-26,0,-1.0,0.5,0,-1.0
2020-02-27,0,1.0,0.5,0,1.0
2020-02-28,2,0.0,-1.0,2,0.0
2020-02-29,0,-1.0,0.25,0,-1.0
2020-03-01,0,0.5,0.5,0,0.5
2020-03-02,1,0.0,-0.5,1,0.0
2020-03-03,0,-0.5,0.25,0,-0.5
2020-03-04,0,0.5,0.25,0,0.5
2020-03-05,1,0.0,-0.5,1,0.0
2020-03-06,0,-0.5,0.0,0,-0.5
2020-03-07,0,0.0,2.75,0,0.0
2020-03-08,0,5.0,0.75,0,5.0
2020-03-09,10,1.5,-4.75,10,1.5
2020-03-10,3,-4.5,0.5,3,-4.5
2020-03-11,1,2.5,2.75,1,2.5
2020-03-12,8,1.0,2.25,8,1.0
2020-03-13,3,7.0,19.5,3,7.0
2020-03-14,22,40.0,16.0,22,40.0
2020-03-15,83,39.0,-25.0,83,39.0
2020-03-16,100,-10.0,-5.75,100,-10.0
2020-03-17,63,27.5,1.0,63,27.5
2020-03-18,155,-8.0,4.75,155,-8.0
2020-03-19,47,37.0,3.75,47,37.0
2020-03-20,229,-0.5,-51.0,229,-0.5
2020-03-21,46,-65.0,13.0,46,-65.0
2020-03-22,99,25.5,30.5,99,25.5
2020-03-23,97,-4.0,-2.5,97,-4.0
2020-03-24,91,20.5,22.25,91,20.5
2020-03-25,138,40.5,-14.25,138,40.5
2020-03-26,172,-8.0,-37.75,172,-8.0
2020-03-27,122,-35.0,3.5,122,-35.0
2020-03-28,102,-1.0,47.25,102,-1.0
2020-03-29,120,59.5,15.5,120,59.5
2020-03-30,221,30.0,-9.25,221,30.0
2020-03-31,180,41.0,6.25,180,41.0
2020-04-01,303,42.5,-63.25,303,42.5
2020-04-02,265,-85.5,-2.75,265,-85.5
2020-04-03,132,37.0,162.0,132,37.0
2020-04-04,339,238.5,-36.0,339,238.5
2020-04-05,609,-35.0,-214.5,609,-35.0
2020-04-06,269,-190.5,6.75,269,-190.5
2020-04-07,228,-21.5,89.75,228,-21.5
2020-04-08,226,-11.0,33.25,226,-11.0
2020-04-09,206,45.0,8.75,206,45.0
2020-04-10,316,6.5,-35.0,316,6.5
2020-04-11,219,-25.0,27.25,219,-25.0
2020-04-12,266,61.0,82.5,266,61.0
2020-04-13,341,140.0,18.25,341,140.0
2020-04-14,546,97.5,-180.0,546,97.5
2020-04-15,536,-220.0,-29.5,536,-220.0
2020-04-16,106,38.5,261.0,106,38.5
2020-04-17,613,302.0,-155.0,613,302.0
2020-04-18,710,-271.5,-41.75,710,-271.5
2020-04-19,70,218.5,246.0,70,218.5
2020-04-20,1147,220.5,-126.25,290,220.5
2020-04-21,511,-34.0,-41.75,511,-34.0
2020-04-22,1079,137.0,-57.0,1079,137.0
2020-04-23,785,-148.0,-113.5,785,-148.0
2020-04-24,783,-90.0,25.0,783,-90.0
2020-04-25,605,-98.0,68.0,605,-98.0
2020-04-26,587,46.0,130.5,587,46.0
2020-04-27,697,163.0,125.75,697,163.0
2020-04-28,913,297.5,14.5,913,297.5
2020-04-29,1292,192.0,-224.5,1292,192.0
2020-04-30,1297,-151.5,-175.0,1297,-151.5
2020-05-01,989,-158.0,42.75,989,-158.0
2020-05-02,981,-66.0,110.75,981,-66.0
2020-05-03,857,63.5,324.75,857,63.5
2020-05-04,1108,583.5,-166.0,1108,583.5
2020-05-05,2024,-268.5,-350.0,2024,-268.5
2020-05-06,571,-116.5,566.75,571,-116.5
2020-05-07,1791,865.0,10.0,1791,865.0
2020-05-08,2301,-96.5,-571.0,2301,-96.5
2020-05-09,1598,-277.0,212.5,1598,-277.0
2020-05-10,1747,328.5,-57.75,1747,328.5
2020-05-11,2255,-392.5,-605.5,2255,-392.5
2020-05-12,962,-882.5,708.5,962,-882.5
2020-05-13,490,1024.5,318.75,490,1024.5
2020-05-14,3011,-245.0,-927.0,245,-245.0
2020-05-15,0,-829.5,616.0,0,-829.5
2020-05-16,1352,987.0,537.0,1352,987.0
2020-05-17,1974,244.5,-504.0,1974,244.5
2020-05-18,1841,-21.0,-34.25,1841,-21.0
2020-05-19,1932,176.0,178.25,1932,176.0
2020-05-20,2193,335.5,-200.5,2193,335.5
2020-05-21,2603,-225.0,-277.5,2603,-225.0
2020-05-22,1743,-219.5,113.75,1743,-219.5
2020-05-23,2164,2.5,-92.25,2164,2.5
2020-05-24,1748,-404.0,-76.75,1748,-404.0
2020-05-25,1356,-151.0,382.0,1356,-151.0
2020-05-26,1446,360.0,414.25,1446,360.0
2020-05-27,2076,677.5,-91.75,2076,677.5
2020-05-28,2801,176.5,-279.25,2801,176.5
2020-05-29,2429,119.0,45.5,2429,119.0
2020-05-30,3039,267.5,165.25,3039,267.5
2020-05-31,2964,449.5,141.5,2964,449.5
2020-06-01,3938,550.5,-9.0,3938,550.5
2020-06-02,4065,431.5,-295.25,4065,431.5
2020-06-03,4801,-40.0,-232.5,4801,-40.0
2020-06-04,3985,-33.5,263.75,3985,-33.5
2020-06-05,4734,487.5,15.25,4734,487.5
2020-06-06,4960,-3.0,-322.25,4960,-3.0
2020-06-07,4728,-157.0,165.75,4728,-157.0
2020-06-08,4646,328.5,375.5,4646,328.5
2020-06-09,5385,594.0,88.75,5385,594.0
2020-06-10,5834,506.0,-1755.5,5834,506.0
2020-06-11,6397,-2917.0,-234.25,6397,-2917.0
2020-06-12,0,37.5,4476.75,0,37.5
2020-06-13,6472,6036.5,-526.0,6472,6036.5
2020-06-14,12073,-1014.5,-4576.75,12073,-1014.5
2020-06-15,4443,-3117.0,736.0,4443,-3117.0
2020-06-16,5839,457.5,1334.75,5839,457.5
2020-06-17,5358,-447.5,82.75,5358,-447.5
2020-06-18,4944,623.0,225.5,4944,623.0
2020-06-19,6604,3.5,-844.75,6604,3.5
2020-06-20,4951,-1066.5,-253.0,4951,-1066.5
2020-06-21,4471,-502.5,388.5,4471,-502.5
2020-06-22,3946,-289.5,275.75,3946,-289.5
2020-06-23,3892,49.0,-134.5,3892,49.0
2020-06-24,4044,-558.5,-251.0,4044,-558.5
2020-06-25,2775,-453.0,603.5,2775,-453.0
2020-06-26,3138,648.5,331.25,3138,648.5
2020-06-27,4072,209.5,-636.0,4072,209.5
2020-06-28,3557,-623.5,39.25,3557,-623.5
2020-06-29,2825,288.0,690.25,2825,288.0
2020-06-30,4133,757.0,-155.5,4133,757.0
2020-07-01,4339,-23.0,-1463.25,4339,-23.0
2020-07-02,4087,-2169.5,-163.5,4087,-2169.5
2020-07-03,0,-350.0,2718.5,0,-350.0
2020-07-04,3387,3267.5,1.0,3387,3267.5
2020-07-05,6535,-348.0,-2522.5,6535,-348.0
2020-07-06,2691,-1777.5,341.0,2691,-1777.5
2020-07-07,2980,334.0,831.5,2980,334.0
2020-07-08,3359,-114.5,-318.75,3359,-114.5
2020-07-09,2751,-303.5,-0.25,2751,-303.5
2020-07-10,2752,-115.0,152.0,2752,-115.0
2020-07-11,2521,0.5,-78.0,2521,0.5
2020-07-12,2753,-271.0,-147.25,2753,-271.0
2020-07-13,1979,-294.0,177.0,1979,-294.0
2020-07-14,2165,83.0,-394.25,2165,83.0
2020-07-15,2145,-1082.5,423.0,2145,-1082.5
2020-07-16,0,929.0,936.0,0,929.0
2020-07-17,4003,789.5,-1068.5,4003,789.5
2020-07-18,1579,-1208.0,-536.25,1579,-1208.0
2020-07-19,1587,-283.0,540.25,1587,-283.0
2020-07-20,1013,-127.5,329.0,1013,-127.5
2020-07-21,1332,375.0,33.0,1332,375.0
2020-07-22,1763,-61.5,-256.5,1763,-61.5
2020-07-23,1209,-138.0,35.0,1209,-138.0
2020-07-24,1487,8.5,-302.75,1487,8.5
2020-07-25,1226,-743.5,-16.75,1226,-743.5
2020-07-26,0,-25.0,605.75,0,-25.0
2020-07-27,1176,468.0,-15.75,1176,468.0
2020-07-28,936,-56.5,-189.5,936,-56.5
2020-07-29,1063,89.0,-11.75,1063,89.0
2020-07-30,1114,-80.0,-323.0,1114,-80.0
2020-07-31,903,-557.0,162.75,903,-557.0
2020-08-01,0,245.5,469.0,0,245.5
2020-08-02,1394,381.0,-471.25,1394,381.0
2020-08-03,762,-697.0,-212.25,762,-697.0
2020-08-04,0,-43.5,530.25,0,-43.5
2020-08-05,675,363.5,48.5,675,363.5
2020-08-06,727,53.5,-153.0,727,53.5
2020-08-07,782,57.5,-63.75,782,57.5
2020-08-08,842,-74.0,-104.5,842,-74.0
2020-08-09,634,-151.5,11.25,634,-151.5
2020-08-10,539,-51.5,123.5,539,-51.5
2020-08-11,531,95.5,81.25,531,95.5
2020-08-12,730,111.0,-73.75,730,111.0
2020-08-13,753,-52.0,-57.0,753,-52.0
2020-08-14,626,-3.0,161.5,626,-3.0
2020-08-15,747,271.0,-185.25,747,271.0
2020-08-16,1168,-373.5,-273.25,1168,-373.5
2020-08-17,0,-275.5,340.0,0,-275.5
2020-08-18,617,306.5,111.75,617,306.5
2020-08-19,613,-52.0,-149.0,613,-52.0
2020-08-20,513,8.5,44.25,513,8.5
2020-08-21,630,36.5,110.0,630,36.5
2020-08-22,586,228.5,-164.75,586,228.5
2020-08-23,1087,-293.0,-273.5,1087,-293.0
2020-08-24,0,-318.5,267.0,0,-318.5
2020-08-25,450,241.0,158.0,450,241.0
2020-08-26,482,-2.5,-137.25,482,-2.5
2020-08-27,445,-33.5,-30.25,445,-33.5
2020-08-28,415,-63.0,-21.0,415,-63.0
2020-08-29,319,-75.5,5.0,319,-75.5
2020-08-30,264,-53.0,46.75,264,-53.0
2020-08-31,213,18.0,189.5,213,18.0
2020-09-01,300,326.0,40.5,300,326.0
2020-09-02,865,99.0,-251.0,865,99.0
2020-09-03,498,-176.0,-174.0,498,-176.0
2020-09-04,513,-249.0,179.25,513,-249.0
2020-09-05,0,182.5,207.0,0,182.5
2020-09-06,878,165.0,-204.25,878,165.0
2020-09-07,330,-226.0,-72.25,330,-226.0
2020-09-08,426,20.5,91.75,426,20.5
2020-09-09,371,-42.5,43.0,371,-42.5
2020-09-10,341,106.5,67.5,341,106.5
2020-09-11,584,92.5,-64.5,584,92.5
2020-09-12,526,-22.5,-76.75,526,-22.5
2020-09-13,539,-61.0,42.75,539,-61.0
2020-09-14,404,63.0,65.75,404,63.0
2020-09-15,665,70.5,-9.75,665,70.5
2020-09-16,545,43.5,-10.25,545,43.5
2020-09-17,752,50.0,-49.75,752,50.0
2020-09-18,645,-56.0,-28.0,645,-56.0
2020-09-19,640,-6.0,13.5,640,-6.0
2020-09-20,633,-29.0,-22.25,633,-29.0
2020-09-21,582,-50.5,68.75,582,-50.5
2020-09-22,532,108.5,91.75,532,108.5
2020-09-23,799,133.0,-112.5,799,133.0
2020-09-24,798,-116.5,-92.5,798,-116.5
2020-09-25,566,-52.0,58.25,566,-52.0
2020-09-26,694,0.0,21.25,694,0.0
2020-09-27,566,-9.5,45.25,566,-9.5
2020-09-28,675,90.5,-28.25,675,90.5
2020-09-29,747,-66.0,-75.75,747,-66.0
2020-09-30,543,-61.0,35.5,543,-61.0
2020-10-01,625,5.0,32.25,625,5.0
2020-10-02,553,3.5,-140.75,553,3.5
2020-10-03,632,-276.5,118.0,632,-276.5
2020-10-04,0,239.5,294.25,0,239.5
2020-10-05,1111,312.0,-251.75,1111,312.0
2020-10-06,624,-264.0,-146.75,624,-264.0
2020-10-07,583,18.5,154.0,583,18.5
2020-10-08,661,44.0,-8.0,661,44.0
2020-10-09,671,2.5,-93.5,671,2.5
2020-10-10,666,-143.0,-35.0,666,-143.0
2020-10-11,385,-67.5,129.0,385,-67.5
2020-10-12,531,115.0,89.75,531,115.0
2020-10-13,615,112.0,-46.5,615,112.0
2020-10-14,755,22.0,-101.0,755,22.0
2020-10-15,659,-90.0,-34.0,659,-90.0
2020-10-16,575,-46.0,9.5,575,-46.0
2020-10-17,567,-71.0,26.75,567,-71.0
2020-10-18,433,7.5,104.75,433,7.5
2020-10-19,582,138.5,34.75,582,138.5
2020-10-20,710,77.0,-62.75,710,77.0
2020-10-21,736,13.0,-10.75,736,13.0
2020-10-22,736,55.5,17.5,736,55.5
2020-10-23,847,48.0,-62.75,847,48.0
2020-10-24,832,-70.0,-38.75,832,-70.0
2020-10-25,707,-29.5,64.5,707,-29.5
2020-10-26,773,59.0,48.5,773,59.0
2020-10-27,825,67.5,33.75,825,67.5
2020-10-28,908,126.5,-59.0,908,126.5
2020-10-29,1078,-50.5,-88.5,1078,-50.5
2020-10-30,807,-50.5,104.25,807,-50.5
2020-10-31,977,158.0,72.75,977,158.0
2020-11-01,1123,95.0,-31.5,1123,95.0
2020-11-02,1167,95.0,-13.75,1167,95.0
2020-11-03,1313,67.5,-31.75,1313,67.5
2020-11-04,1302,31.5,16.25,1302,31.5
2020-11-05,1376,100.0,-0.75,1376,100.0
2020-11-06,1502,30.0,-13.0,1502,30.0
2020-11-07,1436,74.0,35.25,1436,74.0
2020-11-08,1650,100.5,-22.5,1650,100.5
2020-11-09,1637,29.0,-7.5,1637,29.0
2020-11-10,1708,85.5,134.5,1708,85.5
2020-11-11,1808,298.0,46.5,1808,298.0
2020-11-12,2304,178.5,-114.25,2304,178.5
2020-11-13,2165,69.5,-98.5,2165,69.5
2020-11-14,2443,-18.5,-133.0,2443,-18.5
2020-11-15,2128,-196.5,51.75,2128,-196.5
2020-11-16,2050,85.0,222.5,2050,85.0
2020-11-17,2298,248.5,67.5,2298,248.5
2020-11-18,2547,220.0,-50.25,2547,220.0
2020-11-19,2738,148.0,-128.25,2738,148.0
2020-11-20,2843,-36.5,-95.75,2843,-36.5
2020-11-21,2665,-43.5,90.5,2665,-43.5
2020-11-22,2756,144.5,85.0,2756,144.5
2020-11-23,2954,126.5,15.75,2954,126.5
2020-11-24,3009,176.0,-37.25,3009,176.0
2020-11-25,3306,52.0,-153.25,3306,52.0
2020-11-26,3113,-130.5,-97.0,3113,-130.5
2020-11-27,3045,-142.0,13.75,3045,-142.0
2020-11-28,2829,-103.0,-21.75,2829,-103.0
2020-11-29,2839,-185.5,49.0,2839,-185.5
2020-11-30,2458,-5.0,353.0,2458,-5.0
2020-12-01,2829,520.5,110.75,2829,520.5
2020-12-02,3499,216.5,-355.25,3499,216.5
2020-12-03,3262,-190.0,-96.75,3262,-190.0
2020-12-04,3119,23.0,264.0,3119,23.0
2020-12-05,3308,338.0,-117.25,3308,338.0
2020-12-06,3795,-211.5,-377.0,3795,-211.5
2020-12-07,2885,-416.0,169.0,2885,-416.0
2020-12-08,2963,126.5,229.0,2963,126.5
2020-12-09,3138,42.0,-165.5,3138,42.0
2020-12-10,3047,-204.5,59.5,3047,-204.5
2020-12-11,2729,161.0,10.5,2729,161.0
2020-12-12,3369,-183.5,-308.0,3369,-183.5
2020-12-13,2362,-455.0,184.0,2362,-455.0
2020-12-14,2459,184.5,249.0,2459,184.5
2020-12-15,2731,43.0,-32.0,2731,43.0
2020-12-16,2545,120.5,137.0,2545,120.5
2020-12-17,2972,317.0,-149.5,2972,317.0
2020-12-18,3179,-178.5,-953.25,3179,-178.5
2020-12-19,2615,-1589.5,-1218.25,2615,-1589.5
2020-12-20,0,-2615.0,-1025.5,0,-2615.0
