date, confirmed_daily_cases, first_order,second_order, confirmed_daily_cases_outlier_removed,first_order_outlier_removed,second_order_outlier_removed
2020-01-01,0,0.0,0.0,0,0.0
2020-01-02,0,0.0,0.0,0,0.0
2020-01-03,0,0.0,0.0,0,0.0
2020-01-04,0,0.0,0.0,0,0.0
2020-01-05,0,0.0,0.0,0,0.0
2020-01-06,0,0.0,0.0,0,0.0
2020-01-07,0,0.0,0.0,0,0.0
2020-01-08,0,0.0,0.0,0,0.0
2020-01-09,0,0.0,0.0,0,0.0
2020-01-10,0,0.0,0.0,0,0.0
2020-01-11,0,0.0,0.0,0,0.0
2020-01-12,0,0.0,0.0,0,0.0
2020-01-13,0,0.0,0.0,0,0.0
2020-01-14,0,0.0,0.0,0,0.0
2020-01-15,0,0.0,0.0,0,0.0
2020-01-16,0,0.0,0.0,0,0.0
2020-01-17,0,0.0,0.0,0,0.0
2020-01-18,0,0.0,0.0,0,0.0
2020-01-19,0,0.0,0.0,0,0.0
2020-01-20,0,0.0,0.0,0,0.0
2020-01-21,0,0.0,0.0,0,0.0
2020-01-22,0,0.0,0.0,0,0.0
2020-01-23,0,0.0,0.0,0,0.0
2020-01-24,0,0.0,0.0,0,0.0
2020-01-25,0,0.0,0.0,0,0.0
2020-01-26,0,0.0,0.0,0,0.0
2020-01-27,0,0.0,0.0,0,0.0
2020-01-28,0,0.0,0.0,0,0.0
2020-01-29,0,0.0,0.0,0,0.0
2020-01-30,0,0.0,0.0,0,0.0
2020-01-31,0,0.0,0.0,0,0.0
2020-02-01,0,0.0,0.0,0,0.0
2020-02-02,0,0.0,0.0,0,0.0
2020-02-03,0,0.0,0.0,0,0.0
2020-02-04,0,0.0,0.0,0,0.0
2020-02-05,0,0.0,0.0,0,0.0
2020-02-06,0,0.0,0.0,0,0.0
2020-02-07,0,0.0,0.0,0,0.0
2020-02-08,0,0.0,0.0,0,0.0
2020-02-09,0,0.0,0.0,0,0.0
2020-02-10,0,0.0,0.0,0,0.0
2020-02-11,0,0.0,0.0,0,0.0
2020-02-12,0,0.0,0.0,0,0.0
2020-02-13,0,0.0,0.0,0,0.0
2020-02-14,0,0.0,0.0,0,0.0
2020-02-15,0,0.0,0.0,0,0.0
2020-02-16,0,0.0,0.0,0,0.0
2020-02-17,0,0.0,0.0,0,0.0
2020-02-18,0,0.0,0.0,0,0.0
2020-02-19,0,0.0,0.0,0,0.0
2020-02-20,0,0.0,0.0,0,0.0
2020-02-21,0,0.0,0.0,0,0.0
2020-02-22,0,0.0,0.0,0,0.0
2020-02-23,0,0.0,0.0,0,0.0
2020-02-24,0,0.0,0.0,0,0.0
2020-02-25,0,0.0,0.0,0,0.0
2020-02-26,0,0.0,0.0,0,0.0
2020-02-27,0,0.0,0.0,0,0.0
2020-02-28,0,0.0,0.0,0,0.0
2020-02-29,0,0.0,0.0,0,0.0
2020-03-01,0,0.0,0.0,0,0.0
2020-03-02,0,0.0,0.0,0,0.0
2020-03-03,0,0.0,0.0,0,0.0
2020-03-04,0,0.0,0.0,0,0.0
2020-03-05,0,0.0,0.0,0,0.0
2020-03-06,0,0.0,0.0,0,0.0
2020-03-07,0,0.0,0.0,0,0.0
2020-03-08,0,0.0,0.0,0,0.0
2020-03-09,0,0.0,0.0,0,0.0
2020-03-10,0,0.0,0.0,0,0.0
2020-03-11,0,0.0,0.0,0,0.0
2020-03-12,0,0.0,0.25,0,0.0
2020-03-13,0,0.5,0.0,0,0.5
2020-03-14,1,0.0,0.5,1,0.0
2020-03-15,0,1.5,0.5,0,1.5
2020-03-16,4,1.0,-1.5,4,1.0
2020-03-17,2,-1.5,-1.0,2,-1.5
2020-03-18,1,-1.0,2.75,1,-1.0
2020-03-19,0,4.0,0.5,0,4.0
2020-03-20,9,0.0,-3.75,9,0.0
2020-03-21,0,-3.5,4.25,0,-3.5
2020-03-22,2,8.5,2.25,2,8.5
2020-03-23,17,1.0,-8.25,17,1.0
2020-03-24,4,-8.0,0.75,4,-8.0
2020-03-25,1,2.5,4.75,1,2.5
2020-03-26,9,1.5,-2.0,9,1.5
2020-03-27,4,-1.5,0.75,4,-1.5
2020-03-28,6,3.0,-0.75,6,3.0
2020-03-29,10,-3.0,-2.75,10,-3.0
2020-03-30,0,-2.5,3.25,0,-2.5
2020-03-31,5,3.5,0.5,5,3.5
2020-04-01,7,-1.5,-2.25,7,-1.5
2020-04-02,2,-1.0,3.5,2,-1.0
2020-04-03,5,5.5,-0.25,5,5.5
2020-04-04,13,-1.5,-5.75,13,-1.5
2020-04-05,2,-6.0,0.25,2,-6.0
2020-04-06,1,-1.0,4.0,1,-1.0
2020-04-07,0,2.0,0.5,0,2.0
2020-04-08,5,0.0,-0.25,5,0.0
2020-04-09,0,1.5,0.5,0,1.5
2020-04-10,8,1.0,-1.25,8,1.0
2020-04-11,2,-1.0,-0.75,2,-1.0
2020-04-12,6,-0.5,0.75,6,-0.5
2020-04-13,1,0.5,0.5,1,0.5
2020-04-14,7,0.5,-1.5,7,0.5
2020-04-15,2,-2.5,0.5,2,-2.5
2020-04-16,2,1.5,1.0,2,1.5
2020-04-17,5,-0.5,-1.25,5,-0.5
2020-04-18,1,-1.0,0.0,1,-1.0
2020-04-19,3,-0.5,0.5,3,-0.5
2020-04-20,0,0.0,1.0,0,0.0
2020-04-21,3,1.5,-0.5,3,1.5
2020-04-22,3,-1.0,4.0,3,-1.0
2020-04-23,1,9.5,2.0,1,9.5
2020-04-24,22,3.0,-8.25,22,3.0
2020-04-25,7,-7.0,0.75,7,-7.0
2020-04-26,8,4.5,2.75,8,4.5
2020-04-27,16,-1.5,-3.0,16,-1.5
2020-04-28,5,-1.5,4.0,5,-1.5
2020-04-29,13,6.5,-1.0,13,6.5
2020-04-30,18,-3.5,-6.25,18,-3.5
2020-05-01,6,-6.0,1.25,6,-6.0
2020-05-02,6,-1.0,2.0,6,-1.0
2020-05-03,4,-2.0,-0.5,4,-2.0
2020-05-04,2,-2.0,2.25,2,-2.0
2020-05-05,0,2.5,1.75,0,2.5
2020-05-06,7,1.5,-2.5,7,1.5
2020-05-07,3,-2.5,0.25,3,-2.5
2020-05-08,2,2.0,1.75,2,2.0
2020-05-09,7,1.0,-2.5,7,1.0
2020-05-10,4,-3.0,-1.25,4,-3.0
2020-05-11,1,-1.5,1.5,1,-1.5
2020-05-12,1,0.0,0.5,1,0.0
2020-05-13,1,-0.5,-0.25,1,-0.5
2020-05-14,0,-0.5,0.75,0,-0.5
2020-05-15,0,1.0,1.0,0,1.0
2020-05-16,2,1.5,0.25,2,1.5
2020-05-17,3,1.5,1.25,3,1.5
2020-05-18,5,4.0,-0.5,5,4.0
2020-05-19,11,0.5,-3.25,11,0.5
2020-05-20,6,-2.5,-1.5,6,-2.5
2020-05-21,6,-2.5,0.75,6,-2.5
2020-05-22,1,-1.0,1.5,1,-1.0
2020-05-23,4,0.5,1.75,4,0.5
2020-05-24,2,2.5,0.0,2,2.5
2020-05-25,9,0.5,-1.75,9,0.5
2020-05-26,3,-1.0,-0.25,3,-1.0
2020-05-27,7,0.0,0.25,7,0.0
2020-05-28,3,-0.5,0.25,3,-0.5
2020-05-29,6,0.5,1.5,6,0.5
2020-05-30,4,2.5,0.5,4,2.5
2020-05-31,11,1.5,-2.25,11,1.5
2020-06-01,7,-2.0,0.75,7,-2.0
2020-06-02,7,3.0,2.5,7,3.0
2020-06-03,13,3.0,-2.25,13,3.0
2020-06-04,13,-1.5,-2.0,13,-1.5
2020-06-05,10,-1.0,0.25,10,-1.0
2020-06-06,11,-1.0,0.75,11,-1.0
2020-06-07,8,0.5,1.5,8,0.5
2020-06-08,12,2.0,0.0,12,2.0
2020-06-09,12,0.5,0.5,12,0.5
2020-06-10,13,3.0,0.5,13,3.0
2020-06-11,18,1.5,1.75,18,1.5
2020-06-12,16,6.5,5.5,16,6.5
2020-06-13,31,12.5,-3.5,31,12.5
2020-06-14,41,-0.5,-10.5,41,-0.5
2020-06-15,30,-8.5,-6.5,30,-8.5
2020-06-16,24,-13.5,0.0,24,-13.5
2020-06-17,3,-8.5,9.75,3,-8.5
2020-06-18,7,6.0,12.75,7,6.0
2020-06-19,15,17.0,-0.25,15,17.0
2020-06-20,41,5.5,-4.0,41,5.5
2020-06-21,26,9.0,-6.5,26,9.0
2020-06-22,59,-7.5,-11.25,59,-7.5
2020-06-23,11,-13.5,6.0,11,-13.5
2020-06-24,32,4.5,0.75,32,4.5
2020-06-25,20,-12.0,-2.25,20,-12.0
2020-06-26,8,0.0,9.5,8,0.0
2020-06-27,20,7.0,20.25,20,7.0
2020-06-28,22,40.5,-3.0,22,40.5
2020-06-29,101,1.0,-41.25,101,1.0
2020-06-30,24,-42.0,-1.25,24,-42.0
2020-07-01,17,-1.5,21.25,17,-1.5
2020-07-02,21,0.5,-1.75,21,0.5
2020-07-03,18,-5.0,-1.5,18,-5.0
2020-07-04,11,-2.5,1.75,11,-2.5
2020-07-05,13,-1.5,12.75,13,-1.5
2020-07-06,8,23.0,4.25,8,23.0
2020-07-07,59,7.0,-22.25,15,7.0
2020-07-08,22,-21.5,1.5,22,-21.5
2020-07-09,16,10.0,18.5,16,10.0
2020-07-10,42,15.5,-6.0,42,15.5
2020-07-11,47,-2.0,-9.25,47,-2.0
2020-07-12,38,-3.0,1.0,38,-3.0
2020-07-13,41,0.0,-4.0,41,0.0
2020-07-14,38,-11.0,0.0,38,-11.0
2020-07-15,19,0.0,3.75,19,0.0
2020-07-16,38,-3.5,4.0,38,-3.5
2020-07-17,12,8.0,9.5,12,8.0
2020-07-18,54,15.5,-5.75,54,15.5
2020-07-19,43,-3.5,-12.0,43,-3.5
2020-07-20,47,-8.5,-1.5,47,-8.5
2020-07-21,26,-6.5,3.0,26,-6.5
2020-07-22,34,-2.5,-0.5,34,-2.5
2020-07-23,21,-7.5,1.75,21,-7.5
2020-07-24,19,1.0,16.25,19,1.0
2020-07-25,23,25.0,8.25,23,25.0
2020-07-26,69,17.5,-18.0,69,17.5
2020-07-27,58,-11.0,-14.0,58,-11.0
2020-07-28,47,-10.5,1.5,47,-10.5
2020-07-29,37,-8.0,3.0,37,-8.0
2020-07-30,31,-4.5,1.25,31,-4.5
2020-07-31,28,-5.5,0.25,28,-5.5
2020-08-01,20,-4.0,5.25,20,-4.0
2020-08-02,20,5.0,-1.25,20,5.0
2020-08-03,30,-6.5,-8.75,30,-6.5
2020-08-04,7,-12.5,3.25,7,-12.5
2020-08-05,5,0.0,9.25,5,0.0
2020-08-06,7,6.0,-0.25,7,6.0
2020-08-07,17,-0.5,-5.75,17,-0.5
2020-08-08,6,-5.5,1.75,6,-5.5
2020-08-09,6,3.0,6.0,6,3.0
2020-08-10,12,6.5,0.0,12,6.5
2020-08-11,19,3.0,-5.25,19,3.0
2020-08-12,18,-4.0,17.25,18,-4.0
2020-08-13,11,37.5,14.0,11,37.5
2020-08-14,93,24.0,-16.75,35,24.0
2020-08-15,59,4.0,-5.0,59,4.0
2020-08-16,101,14.0,-18.0,101,14.0
2020-08-17,87,-32.0,-12.0,87,-32.0
2020-08-18,37,-10.0,25.0,37,-10.0
2020-08-19,67,18.0,4.0,67,18.0
2020-08-20,73,-2.0,0.0,73,-2.0
2020-08-21,63,18.0,35.25,63,18.0
2020-08-22,109,68.5,18.0,109,68.5
2020-08-23,200,54.0,-26.5,200,54.0
2020-08-24,217,15.5,-59.25,217,15.5
2020-08-25,231,-64.5,-53.75,231,-64.5
2020-08-26,88,-92.0,27.75,88,-92.0
2020-08-27,47,-9.0,59.5,47,-9.0
2020-08-28,70,27.0,31.25,70,27.0
2020-08-29,101,53.5,-28.0,101,53.5
2020-08-30,177,-29.0,-51.25,177,-29.0
2020-08-31,43,-49.0,22.75,43,-49.0
2020-09-01,79,16.5,14.0,79,16.5
2020-09-02,76,-21.0,-15.0,76,-21.0
2020-09-03,37,-13.5,12.5,37,-13.5
2020-09-04,49,4.0,0.75,49,4.0
2020-09-05,45,-12.0,-4.5,45,-12.0
2020-09-06,25,-5.0,7.25,25,-5.0
2020-09-07,35,2.5,-1.0,35,2.5
2020-09-08,30,-7.0,-4.0,30,-7.0
2020-09-09,21,-5.5,12.0,21,-5.5
2020-09-10,19,17.0,5.75,19,17.0
2020-09-11,55,6.0,-15.75,55,6.0
2020-09-12,31,-14.5,-8.0,31,-14.5
2020-09-13,26,-10.0,6.25,26,-10.0
2020-09-14,11,-2.0,4.75,11,-2.0
2020-09-15,22,-0.5,0.25,22,-0.5
2020-09-16,10,-1.5,2.25,10,-1.5
2020-09-17,19,4.0,0.5,19,4.0
2020-09-18,18,-0.5,-1.0,18,-0.5
2020-09-19,18,2.0,-1.5,18,2.0
2020-09-20,22,-3.5,-2.5,22,-3.5
2020-09-21,11,-3.0,9.25,11,-3.0
2020-09-22,16,15.0,0.0,16,15.0
2020-09-23,41,-3.0,-15.5,41,-3.0
2020-09-24,10,-16.0,2.25,10,-16.0
2020-09-25,9,1.5,8.0,9,1.5
2020-09-26,13,0.0,-1.0,13,0.0
2020-09-27,9,-0.5,-1.25,9,-0.5
2020-09-28,12,-2.5,-1.75,12,-2.5
2020-09-29,4,-4.0,1.0,4,-4.0
2020-09-30,4,-0.5,2.0,4,-0.5
2020-10-01,3,0.0,0.75,3,0.0
2020-10-02,4,1.0,2.5,4,1.0
2020-10-03,5,5.0,-1.5,5,5.0
2020-10-04,14,-2.0,-4.5,14,-2.0
2020-10-05,1,-4.0,3.25,1,-4.0
2020-10-06,6,4.5,1.0,6,4.5
2020-10-07,10,-2.0,-3.5,10,-2.0
2020-10-08,2,-2.5,1.0,2,-2.5
2020-10-09,5,0.0,1.0,5,0.0
2020-10-10,2,-0.5,1.75,2,-0.5
2020-10-11,4,3.5,0.0,4,3.5
2020-10-12,9,-0.5,4.0,9,-0.5
2020-10-13,3,11.5,2.75,3,11.5
2020-10-14,32,5.0,-10.75,32,5.0
2020-10-15,13,-10.0,-4.25,13,-10.0
2020-10-16,12,-3.5,2.75,12,-3.5
2020-10-17,6,-4.5,4.75,6,-4.5
2020-10-18,3,6.0,2.5,3,6.0
2020-10-19,18,0.5,-3.5,18,0.5
2020-10-20,4,-1.0,0.0,4,-1.0
2020-10-21,16,0.5,5.25,16,0.5
2020-10-22,5,9.5,0.5,5,9.5
2020-10-23,35,1.5,-12.0,35,1.5
2020-10-24,8,-14.5,-1.0,8,-14.5
2020-10-25,6,-0.5,8.5,6,-0.5
2020-10-26,7,2.5,9.75,7,2.5
2020-10-27,11,19.0,-3.5,11,19.0
2020-10-28,45,-4.5,-20.0,45,-4.5
2020-10-29,2,-21.0,2.5,2,-21.0
2020-10-30,3,0.5,12.0,3,0.5
2020-10-31,3,3.0,1.25,3,3.0
2020-11-01,9,3.0,-2.0,9,3.0
2020-11-02,9,-1.0,-0.75,9,-1.0
2020-11-03,7,1.5,3.25,7,1.5
2020-11-04,12,5.5,0.25,12,5.5
2020-11-05,18,2.0,-6.0,18,2.0
2020-11-06,16,-6.5,-2.75,16,-6.5
2020-11-07,5,-3.5,7.0,5,-3.5
2020-11-08,9,7.5,4.5,9,7.5
2020-11-09,20,5.5,3.75,20,5.5
2020-11-10,20,15.0,-6.0,20,15.0
2020-11-11,50,-6.5,-9.25,50,-6.5
2020-11-12,7,-3.5,9.5,7,-3.5
2020-11-13,43,12.5,6.25,43,12.5
2020-11-14,32,9.0,-5.25,32,9.0
2020-11-15,61,2.0,-15.75,61,2.0
2020-11-16,36,-22.5,-1.0,36,-22.5
2020-11-17,16,0.0,14.5,16,0.0
2020-11-18,36,6.5,-5.5,36,6.5
2020-11-19,29,-11.0,-2.0,29,-11.0
2020-11-20,14,2.5,13.25,14,2.5
2020-11-21,34,15.5,5.5,34,15.5
2020-11-22,45,13.5,-13.0,45,13.5
2020-11-23,61,-10.5,-14.75,61,-10.5
2020-11-24,24,-16.0,17.25,24,-16.0
2020-11-25,29,24.0,6.0,29,24.0
2020-11-26,72,-4.0,-25.25,72,-4.0
2020-11-27,21,-26.5,3.75,21,-26.5
2020-11-28,19,3.5,12.25,19,3.5
2020-11-29,28,-2.0,-5.25,28,-2.0
2020-11-30,15,-7.0,8.75,15,-7.0
2020-12-01,14,15.5,4.25,14,15.5
2020-12-02,46,1.5,-11.25,46,1.5
2020-12-03,17,-7.0,5.25,17,-7.0
2020-12-04,32,12.0,6.75,32,12.0
2020-12-05,41,6.5,-0.75,41,6.5
2020-12-06,45,10.5,-3.0,45,10.5
2020-12-07,62,0.5,-10.5,62,0.5
2020-12-08,46,-10.5,6.0,46,-10.5
2020-12-09,41,12.5,14.75,41,12.5
2020-12-10,71,19.0,1.0,71,19.0
2020-12-11,79,14.5,3.5,79,14.5
2020-12-12,100,26.0,-10.25,100,26.0
2020-12-13,131,-6.0,-24.5,131,-6.0
2020-12-14,88,-23.0,11.5,88,-23.0
2020-12-15,85,17.0,9.75,85,17.0
2020-12-16,122,-3.5,-20.75,122,-3.5
2020-12-17,78,-24.5,14.0,78,-24.5
2020-12-18,73,24.5,-6.0,73,24.5
2020-12-19,127,-36.5,-75.75,127,-36.5
2020-12-20,0,-127.0,-90.5,0,-127.0
