date, confirmed_daily_cases, first_order,second_order, confirmed_daily_cases_outlier_removed,first_order_outlier_removed,second_order_outlier_removed
2020-01-01,0,0.0,0.0,0,0.0
2020-01-02,0,0.0,0.0,0,0.0
2020-01-03,0,0.0,0.0,0,0.0
2020-01-04,0,0.0,0.0,0,0.0
2020-01-05,0,0.0,0.0,0,0.0
2020-01-06,0,0.0,0.0,0,0.0
2020-01-07,0,0.0,0.0,0,0.0
2020-01-08,0,0.0,0.0,0,0.0
2020-01-09,0,0.0,0.0,0,0.0
2020-01-10,0,0.0,0.0,0,0.0
2020-01-11,0,0.0,0.0,0,0.0
2020-01-12,0,0.0,0.0,0,0.0
2020-01-13,0,0.0,0.0,0,0.0
2020-01-14,0,0.0,0.0,0,0.0
2020-01-15,0,0.0,0.0,0,0.0
2020-01-16,0,0.0,0.0,0,0.0
2020-01-17,0,0.0,0.0,0,0.0
2020-01-18,0,0.0,0.0,0,0.0
2020-01-19,0,0.0,0.0,0,0.0
2020-01-20,0,0.0,0.0,0,0.0
2020-01-21,0,0.0,0.0,0,0.0
2020-01-22,0,0.0,0.0,0,0.0
2020-01-23,0,0.0,0.0,0,0.0
2020-01-24,0,0.0,0.0,0,0.0
2020-01-25,0,0.0,0.0,0,0.0
2020-01-26,0,0.0,0.0,0,0.0
2020-01-27,0,0.0,0.0,0,0.0
2020-01-28,0,0.0,0.0,0,0.0
2020-01-29,0,0.0,0.0,0,0.0
2020-01-30,0,0.0,0.0,0,0.0
2020-01-31,0,0.0,0.0,0,0.0
2020-02-01,0,0.0,0.0,0,0.0
2020-02-02,0,0.0,0.0,0,0.0
2020-02-03,0,0.0,0.0,0,0.0
2020-02-04,0,0.0,0.0,0,0.0
2020-02-05,0,0.0,0.0,0,0.0
2020-02-06,0,0.0,0.0,0,0.0
2020-02-07,0,0.0,0.0,0,0.0
2020-02-08,0,0.0,0.0,0,0.0
2020-02-09,0,0.0,0.0,0,0.0
2020-02-10,0,0.0,0.0,0,0.0
2020-02-11,0,0.0,0.0,0,0.0
2020-02-12,0,0.0,0.0,0,0.0
2020-02-13,0,0.0,0.0,0,0.0
2020-02-14,0,0.0,0.0,0,0.0
2020-02-15,0,0.0,0.0,0,0.0
2020-02-16,0,0.0,0.0,0,0.0
2020-02-17,0,0.0,0.0,0,0.0
2020-02-18,0,0.0,0.0,0,0.0
2020-02-19,0,0.0,0.0,0,0.0
2020-02-20,0,0.0,0.0,0,0.0
2020-02-21,0,0.0,0.0,0,0.0
2020-02-22,0,0.0,0.0,0,0.0
2020-02-23,0,0.0,0.0,0,0.0
2020-02-24,0,0.0,0.0,0,0.0
2020-02-25,0,0.0,0.0,0,0.0
2020-02-26,0,0.0,0.0,0,0.0
2020-02-27,0,0.0,0.0,0,0.0
2020-02-28,0,0.0,0.0,0,0.0
2020-02-29,0,0.0,0.0,0,0.0
2020-03-01,0,0.0,0.0,0,0.0
2020-03-02,0,0.0,0.0,0,0.0
2020-03-03,0,0.0,0.0,0,0.0
2020-03-04,0,0.0,0.0,0,0.0
2020-03-05,0,0.0,0.0,0,0.0
2020-03-06,0,0.0,0.0,0,0.0
2020-03-07,0,0.0,0.0,0,0.0
2020-03-08,0,0.0,0.0,0,0.0
2020-03-09,0,0.0,0.0,0,0.0
2020-03-10,0,0.0,0.0,0,0.0
2020-03-11,0,0.0,0.0,0,0.0
2020-03-12,0,0.0,0.0,0,0.0
2020-03-13,0,0.0,0.0,0,0.0
2020-03-14,0,0.0,0.0,0,0.0
2020-03-15,0,0.0,0.0,0,0.0
2020-03-16,0,0.0,0.0,0,0.0
2020-03-17,0,0.0,0.0,0,0.0
2020-03-18,0,0.0,0.0,0,0.0
2020-03-19,0,0.0,0.0,0,0.0
2020-03-20,0,0.0,0.0,0,0.0
2020-03-21,0,0.0,0.0,0,0.0
2020-03-22,0,0.0,0.0,0,0.0
2020-03-23,0,0.0,0.0,0,0.0
2020-03-24,0,0.0,0.0,0,0.0
2020-03-25,0,0.0,0.0,0,0.0
2020-03-26,0,0.0,0.0,0,0.0
2020-03-27,0,0.0,0.0,0,0.0
2020-03-28,0,0.0,0.0,0,0.0
2020-03-29,0,0.0,0.25,0,0.0
2020-03-30,0,0.5,0.25,0,0.5
2020-03-31,1,0.5,-0.5,1,0.5
2020-04-01,1,-0.5,-0.5,1,-0.5
2020-04-02,0,-0.5,0.75,0,-0.5
2020-04-03,0,1.0,0.75,0,1.0
2020-04-04,2,1.0,-1.0,2,1.0
2020-04-05,2,-1.0,-1.0,2,-1.0
2020-04-06,0,-1.0,0.75,0,-1.0
2020-04-07,0,0.5,0.5,0,0.5
2020-04-08,1,0.0,-0.25,1,0.0
2020-04-09,0,0.0,0.0,0,0.0
2020-04-10,1,0.0,0.25,1,0.0
2020-04-11,0,0.5,0.0,0,0.5
2020-04-12,2,0.0,-0.5,2,0.0
2020-04-13,0,-0.5,0.5,0,-0.5
2020-04-14,1,1.0,0.5,1,1.0
2020-04-15,2,0.5,1.75,2,0.5
2020-04-16,2,4.5,0.25,2,4.5
2020-04-17,11,1.0,-3.75,11,1.0
2020-04-18,4,-3.0,0.5,4,-3.0
2020-04-19,5,2.0,2.0,5,2.0
2020-04-20,8,1.0,-0.25,8,1.0
2020-04-21,7,1.5,-1.5,7,1.5
2020-04-22,11,-2.0,1.0,11,-2.0
2020-04-23,3,3.5,0.25,3,3.5
2020-04-24,18,-1.5,-3.5,18,-1.5
2020-04-25,0,-3.5,0.75,0,-3.5
2020-04-26,11,0.0,1.75,11,0.0
2020-04-27,0,0.0,0.0,0,0.0
2020-04-28,11,0.0,2.25,11,0.0
2020-04-29,0,4.5,3.0,0,4.5
2020-04-30,20,6.0,-2.5,20,6.0
2020-05-01,12,-0.5,-3.25,12,-0.5
2020-05-02,19,-0.5,-1.5,19,-0.5
2020-05-03,11,-3.5,2.75,11,-3.5
2020-05-04,12,5.0,5.25,12,5.0
2020-05-05,21,7.0,-6.25,21,7.0
2020-05-06,26,-7.5,-3.5,26,-7.5
2020-05-07,6,0.0,10.75,6,0.0
2020-05-08,26,14.0,-2.5,26,14.0
2020-05-09,34,-5.0,-7.75,34,-5.0
2020-05-10,16,-1.5,-1.5,16,-1.5
2020-05-11,31,-8.0,5.25,31,-8.0
2020-05-12,0,9.0,9.25,0,9.0
2020-05-13,49,10.5,-7.0,49,10.5
2020-05-14,21,-5.0,-6.75,21,-5.0
2020-05-15,39,-3.0,3.5,39,-3.0
2020-05-16,15,2.0,1.25,15,2.0
2020-05-17,43,-0.5,-8.0,43,-0.5
2020-05-18,14,-14.0,5.75,14,-14.0
2020-05-19,15,11.0,7.0,15,11.0
2020-05-20,36,0.0,-9.25,36,0.0
2020-05-21,15,-7.5,0.0,15,-7.5
2020-05-22,21,0.0,20.0,21,0.0
2020-05-23,15,32.5,3.25,15,32.5
2020-05-24,86,6.5,-33.0,21,6.5
2020-05-25,28,-33.5,-3.25,28,-33.5
2020-05-26,19,0.0,19.5,19,0.0
2020-05-27,28,5.5,-2.75,28,5.5
2020-05-28,30,-5.5,-4.5,30,-5.5
2020-05-29,17,-3.5,0.75,17,-3.5
2020-05-30,23,-4.0,-3.0,23,-4.0
2020-05-31,9,-9.5,7.5,9,-9.5
2020-06-01,4,11.0,7.0,4,11.0
2020-06-02,31,4.5,-12.0,31,4.5
2020-06-03,13,-13.0,-1.75,13,-13.0
2020-06-04,5,1.0,9.5,5,1.0
2020-06-05,15,6.0,1.5,15,6.0
2020-06-06,17,4.0,0.75,17,4.0
2020-06-07,23,7.5,-1.75,23,7.5
2020-06-08,32,0.5,-2.5,32,0.5
2020-06-09,24,2.5,-0.5,24,2.5
2020-06-10,37,-0.5,-6.0,37,-0.5
2020-06-11,23,-9.5,1.75,23,-9.5
2020-06-12,18,3.0,9.5,18,3.0
2020-06-13,29,9.5,-7.0,29,9.5
2020-06-14,37,-11.0,-1.75,37,-11.0
2020-06-15,7,6.0,9.75,7,6.0
2020-06-16,49,8.5,-9.5,49,8.5
2020-06-17,24,-13.0,-3.75,24,-13.0
2020-06-18,23,1.0,3.5,23,1.0
2020-06-19,26,-6.0,-2.5,26,-6.0
2020-06-20,11,-4.0,3.5,11,-4.0
2020-06-21,18,1.0,-0.75,18,1.0
2020-06-22,13,-5.5,-2.0,13,-5.5
2020-06-23,7,-3.0,1.0,7,-3.0
2020-06-24,7,-3.5,9.75,7,-3.5
2020-06-25,0,16.5,5.75,0,16.5
2020-06-26,40,8.0,-14.0,40,8.0
2020-06-27,16,-11.5,-2.25,16,-11.5
2020-06-28,17,3.5,4.5,17,3.5
2020-06-29,23,-2.5,1.5,23,-2.5
2020-06-30,12,6.5,3.25,12,6.5
2020-07-01,36,4.0,-10.75,36,4.0
2020-07-02,20,-15.0,-4.75,20,-15.0
2020-07-03,6,-5.5,8.25,6,-5.5
2020-07-04,9,1.5,1.75,9,1.5
2020-07-05,9,-2.0,3.25,9,-2.0
2020-07-06,5,8.0,2.75,5,8.0
2020-07-07,25,3.5,-6.75,25,3.5
2020-07-08,12,-5.5,-1.0,12,-5.5
2020-07-09,14,1.5,0.5,14,1.5
2020-07-10,15,-4.5,-0.25,15,-4.5
2020-07-11,5,1.0,2.75,5,1.0
2020-07-12,17,1.0,-2.5,17,1.0
2020-07-13,7,-4.0,2.0,7,-4.0
2020-07-14,9,5.0,2.25,9,5.0
2020-07-15,17,0.5,-4.25,17,0.5
2020-07-16,10,-3.5,0.5,10,-3.5
2020-07-17,10,1.5,1.75,10,1.5
2020-07-18,13,0.0,-4.0,13,0.0
2020-07-19,10,-6.5,1.5,10,-6.5
2020-07-20,0,3.0,4.25,0,3.0
2020-07-21,16,2.0,-0.25,16,2.0
2020-07-22,4,2.5,1.25,4,2.5
2020-07-23,21,4.5,-5.75,21,4.5
2020-07-24,13,-9.0,-1.75,13,-9.0
2020-07-25,3,1.0,3.75,3,1.0
2020-07-26,15,-1.5,-3.5,15,-1.5
2020-07-27,0,-6.0,5.0,0,-6.0
2020-07-28,3,8.5,6.0,3,8.5
2020-07-29,17,6.0,-7.25,17,6.0
2020-07-30,15,-6.0,-6.75,15,-6.0
2020-07-31,5,-7.5,6.75,5,-7.5
2020-08-01,0,7.5,5.0,0,7.5
2020-08-02,20,2.5,-7.0,20,2.5
2020-08-03,5,-6.5,-1.25,5,-6.5
2020-08-04,7,0.0,5.75,7,0.0
2020-08-05,5,5.0,1.25,5,5.0
2020-08-06,17,2.5,-4.75,17,2.5
2020-08-07,10,-4.5,1.5,10,-4.5
2020-08-08,8,5.5,0.5,8,5.5
2020-08-09,21,-3.5,-4.25,21,-3.5
2020-08-10,1,-3.0,2.75,1,-3.0
2020-08-11,15,2.0,-1.5,15,2.0
2020-08-12,5,-6.0,-0.5,5,-6.0
2020-08-13,3,1.0,4.0,3,1.0
2020-08-14,7,2.0,-1.75,7,2.0
2020-08-15,7,-2.5,-2.75,7,-2.5
2020-08-16,2,-3.5,1.5,2,-3.5
2020-08-17,0,0.5,2.25,0,0.5
2020-08-18,3,1.0,1.0,3,1.0
2020-08-19,2,2.5,-0.25,2,2.5
2020-08-20,8,0.5,-1.25,8,0.5
2020-08-21,3,0.0,2.0,3,0.0
2020-08-22,8,4.5,-0.75,8,4.5
2020-08-23,12,-1.5,-4.25,12,-1.5
2020-08-24,5,-4.0,0.0,5,-4.0
2020-08-25,4,-1.5,3.5,4,-1.5
2020-08-26,2,3.0,0.25,2,3.0
2020-08-27,10,-1.0,-2.5,10,-1.0
2020-08-28,0,-2.0,1.25,0,-2.0
2020-08-29,6,1.5,-0.5,6,1.5
2020-08-30,3,-3.0,0.0,3,-3.0
2020-08-31,0,1.5,1.75,0,1.5
2020-09-01,6,0.5,-0.75,6,0.5
2020-09-02,1,0.0,1.0,1,0.0
2020-09-03,6,2.5,-1.5,6,2.5
2020-09-04,6,-3.0,0.5,6,-3.0
2020-09-05,0,3.5,1.75,0,3.5
2020-09-06,13,0.5,-2.75,13,0.5
2020-09-07,1,-2.0,0.25,1,-2.0
2020-09-08,9,1.0,-0.75,9,1.0
2020-09-09,3,-3.5,3.25,3,-3.5
2020-09-10,2,7.5,3.5,2,7.5
2020-09-11,18,3.5,-5.0,18,3.5
2020-09-12,9,-2.5,-3.5,9,-2.5
2020-09-13,13,-3.5,1.75,13,-3.5
2020-09-14,2,1.0,3.0,2,1.0
2020-09-15,15,2.5,-4.25,15,2.5
2020-09-16,7,-7.5,2.0,7,-7.5
2020-09-17,0,6.5,5.25,0,6.5
2020-09-18,20,3.0,-6.0,20,3.0
2020-09-19,6,-5.5,-3.0,6,-5.5
2020-09-20,9,-3.0,2.0,9,-3.0
2020-09-21,0,-1.5,3.75,0,-1.5
2020-09-22,6,4.5,0.5,6,4.5
2020-09-23,9,-0.5,-1.75,9,-0.5
2020-09-24,5,1.0,1.25,5,1.0
2020-09-25,11,2.0,-1.5,11,2.0
2020-09-26,9,-2.0,-3.25,9,-2.0
2020-09-27,7,-4.5,1.0,7,-4.5
2020-09-28,0,0.0,4.5,0,0.0
2020-09-29,7,4.5,0.0,7,4.5
2020-09-30,9,0.0,-1.0,9,0.0
2020-10-01,7,2.5,0.0,7,2.5
2020-10-02,14,0.0,-2.25,14,0.0
2020-10-03,7,-2.0,-1.75,7,-2.0
2020-10-04,10,-3.5,0.5,10,-3.5
2020-10-05,0,-1.0,4.25,0,-1.0
2020-10-06,8,5.0,0.0,8,5.0
2020-10-07,10,-1.0,-4.5,10,-1.0
2020-10-08,6,-4.0,0.25,6,-4.0
2020-10-09,2,-0.5,3.0,2,-0.5
2020-10-10,5,2.0,-1.0,5,2.0
2020-10-11,6,-2.5,-1.75,6,-2.5
2020-10-12,0,-1.5,2.75,0,-1.5
2020-10-13,3,3.0,2.0,3,3.0
2020-10-14,6,2.5,-2.5,6,2.5
2020-10-15,8,-2.0,-2.75,8,-2.0
2020-10-16,2,-3.0,1.25,2,-3.0
2020-10-17,2,0.5,1.25,2,0.5
2020-10-18,3,-0.5,0.25,3,-0.5
2020-10-19,1,1.0,0.25,1,1.0
2020-10-20,5,0.0,-1.0,5,0.0
2020-10-21,1,-1.0,0.5,1,-1.0
2020-10-22,3,1.0,0.25,3,1.0
2020-10-23,3,-0.5,-1.0,3,-0.5
2020-10-24,2,-1.0,-0.25,2,-1.0
2020-10-25,1,-1.0,1.25,1,-1.0
2020-10-26,0,1.5,1.5,0,1.5
2020-10-27,4,2.0,0.25,4,2.0
2020-10-28,4,2.0,-1.25,4,2.0
2020-10-29,8,-0.5,-2.75,8,-0.5
2020-10-30,3,-3.5,-0.5,3,-3.5
2020-10-31,1,-1.5,1.5,1,-1.5
2020-11-01,0,-0.5,1.25,0,-0.5
2020-11-02,0,1.0,0.5,0,1.0
2020-11-03,2,0.5,-0.5,2,0.5
2020-11-04,1,0.0,0.0,1,0.0
2020-11-05,2,0.5,1.5,2,0.5
2020-11-06,2,3.0,-0.75,2,3.0
2020-11-07,8,-1.0,-2.5,8,-1.0
2020-11-08,0,-2.0,0.75,0,-2.0
2020-11-09,4,0.5,0.0,4,0.5
2020-11-10,1,-2.0,-0.25,1,-2.0
2020-11-11,0,0.0,1.5,0,0.0
2020-11-12,1,1.0,0.25,1,1.0
2020-11-13,2,0.5,-1.0,2,0.5
2020-11-14,2,-1.0,-0.75,2,-1.0
2020-11-15,0,-1.0,0.75,0,-1.0
2020-11-16,0,0.5,1.75,0,0.5
2020-11-17,1,2.5,-0.5,1,2.5
2020-11-18,5,-0.5,-2.0,5,-0.5
2020-11-19,0,-1.5,1.75,0,-1.5
2020-11-20,2,3.0,0.25,2,3.0
2020-11-21,6,-1.0,-2.75,6,-1.0
2020-11-22,0,-2.5,0.5,0,-2.5
2020-11-23,1,0.0,1.5,1,0.0
2020-11-24,0,0.5,0.25,0,0.5
2020-11-25,2,0.5,-0.5,2,0.5
2020-11-26,1,-0.5,-0.5,1,-0.5
2020-11-27,1,-0.5,0.25,1,-0.5
2020-11-28,0,0.0,0.5,0,0.0
2020-11-29,1,0.5,0.0,1,0.5
2020-11-30,1,0.0,0.25,1,0.0
2020-12-01,1,1.0,-0.25,1,1.0
2020-12-02,3,-0.5,-0.25,3,-0.5
2020-12-03,0,0.5,0.25,0,0.5
2020-12-04,4,0.0,0.25,4,0.0
2020-12-05,0,1.0,0.5,0,1.0
2020-12-06,6,1.0,-2.0,6,1.0
2020-12-07,2,-3.0,0.5,2,-3.0
2020-12-08,0,2.0,1.75,0,2.0
2020-12-09,6,0.5,-1.75,6,0.5
2020-12-10,1,-1.5,0.0,1,-1.5
2020-12-11,3,0.5,0.0,3,0.5
2020-12-12,2,-1.5,0.5,2,-1.5
2020-12-13,0,1.5,2.25,0,1.5
2020-12-14,5,3.0,0.25,5,3.0
2020-12-15,6,2.0,-2.0,6,2.0
2020-12-16,9,-1.0,2.25,9,-1.0
2020-12-17,4,6.5,2.25,4,6.5
2020-12-18,22,3.5,-8.75,22,3.5
2020-12-19,11,-11.0,-7.25,11,-11.0
2020-12-20,0,-11.0,0.0,0,-11.0
