date, confirmed_daily_cases, first_order,second_order, confirmed_daily_cases_outlier_removed,first_order_outlier_removed,second_order_outlier_removed
2020-01-01,0,0.0,0.0,0,0.0
2020-01-02,0,0.0,0.0,0,0.0
2020-01-03,0,0.0,0.0,0,0.0
2020-01-04,0,0.0,0.0,0,0.0
2020-01-05,0,0.0,0.0,0,0.0
2020-01-06,0,0.0,0.0,0,0.0
2020-01-07,0,0.0,0.0,0,0.0
2020-01-08,0,0.0,0.0,0,0.0
2020-01-09,0,0.0,0.0,0,0.0
2020-01-10,0,0.0,0.0,0,0.0
2020-01-11,0,0.0,0.0,0,0.0
2020-01-12,0,0.0,0.0,0,0.0
2020-01-13,0,0.0,0.0,0,0.0
2020-01-14,0,0.0,0.0,0,0.0
2020-01-15,0,0.0,0.0,0,0.0
2020-01-16,0,0.0,0.0,0,0.0
2020-01-17,0,0.0,0.0,0,0.0
2020-01-18,0,0.0,0.0,0,0.0
2020-01-19,0,0.0,0.0,0,0.0
2020-01-20,0,0.0,0.0,0,0.0
2020-01-21,0,0.0,0.25,0,0.0
2020-01-22,0,0.5,0.5,0,0.5
2020-01-23,1,1.0,-0.5,1,1.0
2020-01-24,2,-0.5,-0.75,2,-0.5
2020-01-25,0,-0.5,0.5,0,-0.5
2020-01-26,1,0.5,0.5,1,0.5
2020-01-27,1,0.5,-0.5,1,0.5
2020-01-28,2,-0.5,0.0,2,-0.5
2020-01-29,0,0.5,1.0,0,0.5
2020-01-30,3,1.5,-0.25,3,1.5
2020-01-31,3,0.0,-1.0,3,0.0
2020-02-01,3,-0.5,-0.75,3,-0.5
2020-02-02,2,-1.5,1.25,2,-1.5
2020-02-03,0,2.0,1.75,0,2.0
2020-02-04,6,2.0,-2.5,6,2.0
2020-02-05,4,-3.0,-1.5,4,-3.0
2020-02-06,0,-1.0,2.25,0,-1.0
2020-02-07,2,1.5,1.75,2,1.5
2020-02-08,3,2.5,-0.25,3,2.5
2020-02-09,7,1.0,-2.5,7,1.0
2020-02-10,5,-2.5,-1.0,5,-2.5
2020-02-11,2,-1.0,2.75,2,-1.0
2020-02-12,3,3.0,2.0,3,3.0
2020-02-13,8,3.0,-2.25,8,3.0
2020-02-14,9,-1.5,-3.0,9,-1.5
2020-02-15,5,-3.0,0.0,5,-3.0
2020-02-16,3,-1.5,1.75,3,-1.5
2020-02-17,2,0.5,1.0,2,0.5
2020-02-18,4,0.5,-1.25,4,0.5
2020-02-19,3,-2.0,-0.75,3,-2.0
2020-02-20,0,-1.0,1.0,0,-1.0
2020-02-21,1,0.0,1.25,1,0.0
2020-02-22,0,1.5,0.0,0,1.5
2020-02-23,4,0.0,-1.25,4,0.0
2020-02-24,0,-1.0,0.5,0,-1.0
2020-02-25,2,1.0,0.0,2,1.0
2020-02-26,2,-1.0,-1.0,2,-1.0
2020-02-27,0,-1.0,2.75,0,-1.0
2020-02-28,0,4.5,1.5,0,4.5
2020-02-29,9,2.0,-4.0,9,2.0
2020-03-01,4,-3.5,-1.5,4,-3.5
2020-03-02,2,-1.0,1.25,2,-1.0
2020-03-03,2,-1.0,1.75,2,-1.0
2020-03-04,0,2.5,3.75,0,2.5
2020-03-05,7,6.5,-1.0,7,6.5
2020-03-06,13,0.5,-3.5,13,0.5
2020-03-07,8,-0.5,-2.25,8,-0.5
2020-03-08,12,-4.0,-0.25,12,-4.0
2020-03-09,0,-1.0,6.5,0,-1.0
2020-03-10,10,9.0,-2.0,10,9.0
2020-03-11,18,-5.0,-3.5,18,-5.0
2020-03-12,0,2.0,5.5,0,2.0
2020-03-13,22,6.0,-3.0,22,6.0
2020-03-14,12,-4.0,-1.75,12,-4.0
2020-03-15,14,2.5,4.25,14,2.5
2020-03-16,17,4.5,6.25,17,4.5
2020-03-17,23,15.0,0.0,23,15.0
2020-03-18,47,4.5,-9.25,47,4.5
2020-03-19,32,-3.5,1.5,32,-3.5
2020-03-20,40,7.5,-2.5,40,7.5
2020-03-21,47,-8.5,-2.0,47,-8.5
2020-03-22,23,3.5,10.75,23,3.5
2020-03-23,54,13.0,3.0,54,13.0
2020-03-24,49,9.5,-5.75,49,9.5
2020-03-25,73,1.5,-10.75,73,1.5
2020-03-26,52,-12.0,3.75,52,-12.0
2020-03-27,49,9.0,4.25,49,9.0
2020-03-28,70,-3.5,-13.25,70,-3.5
2020-03-29,42,-17.5,3.0,42,-17.5
2020-03-30,35,2.5,18.5,35,2.5
2020-03-31,47,19.5,-0.75,47,19.5
2020-04-01,74,1.0,-12.0,74,1.0
2020-04-02,49,-4.5,6.0,49,-4.5
2020-04-03,65,13.0,16.0,65,13.0
2020-04-04,75,27.5,-8.75,75,27.5
2020-04-05,120,-4.5,-17.25,120,-4.5
2020-04-06,66,-7.0,21.25,66,-7.0
2020-04-07,106,38.0,48.75,106,38.0
2020-04-08,142,90.5,-5.0,142,90.5
2020-04-09,287,28.0,-69.25,287,28.0
2020-04-10,198,-48.0,-5.25,198,-48.0
2020-04-11,191,17.5,72.75,191,17.5
2020-04-12,233,97.5,16.5,233,97.5
2020-04-13,386,50.5,-33.5,386,50.5
2020-04-14,334,30.5,73.25,334,30.5
2020-04-15,447,197.0,28.75,447,197.0
2020-04-16,728,88.0,-45.0,728,88.0
2020-04-17,623,107.0,-50.75,623,107.0
2020-04-18,942,-13.5,67.5,942,-13.5
2020-04-19,596,242.0,135.5,596,242.0
2020-04-20,1426,257.5,-223.5,1426,257.5
2020-04-21,1111,-205.0,-147.25,1111,-205.0
2020-04-22,1016,-37.0,72.75,1016,-37.0
2020-04-23,1037,-59.5,-86.25,1037,-59.5
2020-04-24,897,-209.5,38.25,897,-209.5
2020-04-25,618,17.0,150.0,618,17.0
2020-04-26,931,90.5,-109.25,931,90.5
2020-04-27,799,-201.5,-72.5,799,-201.5
2020-04-28,528,-54.5,100.75,528,-54.5
2020-04-29,690,0.0,87.75,690,0.0
2020-04-30,528,121.0,-20.25,528,121.0
2020-05-01,932,-40.5,-129.25,932,-40.5
2020-05-02,447,-137.5,51.75,447,-137.5
2020-05-03,657,63.0,62.5,657,63.0
2020-05-04,573,-12.5,22.25,573,-12.5
2020-05-05,632,107.5,33.5,632,107.5
2020-05-06,788,54.5,-58.75,788,54.5
2020-05-07,741,-10.0,-24.25,741,-10.0
2020-05-08,768,6.0,32.0,768,6.0
2020-05-09,753,54.0,-69.75,753,54.0
2020-05-10,876,-133.5,-33.75,876,-133.5
2020-05-11,486,-13.5,114.0,486,-13.5
2020-05-12,849,94.5,-17.5,849,94.5
2020-05-13,675,-48.5,-17.75,675,-48.5
2020-05-14,752,59.0,-47.5,752,59.0
2020-05-15,793,-143.5,-57.25,793,-143.5
2020-05-16,465,-55.5,31.75,465,-55.5
2020-05-17,682,-80.0,-30.0,682,-80.0
2020-05-18,305,-115.5,106.25,305,-115.5
2020-05-19,451,132.5,57.0,451,132.5
2020-05-20,570,-1.5,-55.25,570,-1.5
2020-05-21,448,22.0,49.25,448,22.0
2020-05-22,614,97.0,-27.5,614,97.0
2020-05-23,642,-33.0,-123.0,642,-33.0
2020-05-24,548,-149.0,-24.75,548,-149.0
2020-05-25,344,-82.5,121.75,344,-82.5
2020-05-26,383,94.5,38.75,383,94.5
2020-05-27,533,-5.0,-27.75,533,-5.0
2020-05-28,373,39.0,35.75,373,39.0
2020-05-29,611,66.5,-42.75,611,66.5
2020-05-30,506,-46.5,-57.75,506,-46.5
2020-05-31,518,-49.0,29.75,518,-49.0
2020-06-01,408,13.0,64.75,408,13.0
2020-06-02,544,80.5,-13.25,544,80.5
2020-06-03,569,-13.5,-117.25,569,-13.5
2020-06-04,517,-154.0,-36.5,517,-154.0
2020-06-05,261,-86.5,107.5,261,-86.5
2020-06-06,344,61.0,53.75,344,61.0
2020-06-07,383,21.0,-71.75,383,21.0
2020-06-08,386,-82.5,5.75,386,-82.5
2020-06-09,218,32.5,92.25,218,32.5
2020-06-10,451,102.0,-13.25,451,102.0
2020-06-11,422,6.0,-69.75,422,6.0
2020-06-12,463,-37.5,-17.0,463,-37.5
2020-06-13,347,-28.0,-14.5,347,-28.0
2020-06-14,407,-66.5,-50.0,407,-66.5
2020-06-15,214,-128.0,41.5,214,-128.0
2020-06-16,151,16.5,90.5,151,16.5
2020-06-17,247,53.0,-34.5,247,53.0
2020-06-18,257,-52.5,-36.25,257,-52.5
2020-06-19,142,-19.5,56.25,142,-19.5
2020-06-20,218,60.0,9.75,218,60.0
2020-06-21,262,0.0,-65.75,262,0.0
2020-06-22,218,-71.5,-6.75,218,-71.5
2020-06-23,119,-13.5,34.25,119,-13.5
2020-06-24,191,-3.0,13.75,191,-3.0
2020-06-25,113,14.0,46.0,113,14.0
2020-06-26,219,89.0,-8.5,219,89.0
2020-06-27,291,-3.0,-66.75,291,-3.0
2020-06-28,213,-44.5,9.75,213,-44.5
2020-06-29,202,16.5,25.5,202,16.5
2020-06-30,246,6.5,-22.75,246,6.5
2020-07-01,215,-29.0,-14.75,215,-29.0
2020-07-02,188,-23.0,13.75,188,-23.0
2020-07-03,169,-1.5,3.25,169,-1.5
2020-07-04,185,-16.5,0.25,185,-16.5
2020-07-05,136,-1.0,13.5,136,-1.0
2020-07-06,183,10.5,-5.75,183,10.5
2020-07-07,157,-12.5,-13.25,157,-12.5
2020-07-08,158,-16.0,14.5,158,-16.0
2020-07-09,125,16.5,19.0,125,16.5
2020-07-10,191,22.0,-11.5,191,22.0
2020-07-11,169,-6.5,27.25,169,-6.5
2020-07-12,178,76.5,45.5,178,76.5
2020-07-13,322,84.5,-56.75,322,84.5
2020-07-14,347,-37.0,-67.0,347,-37.0
2020-07-15,248,-49.5,38.25,248,-49.5
2020-07-16,248,39.5,13.25,248,39.5
2020-07-17,327,-23.0,-37.25,327,-23.0
2020-07-18,202,-35.0,-8.25,202,-35.0
2020-07-19,257,-39.5,53.0,257,-39.5
2020-07-20,123,71.0,66.5,123,71.0
2020-07-21,399,93.5,-46.75,399,93.5
2020-07-22,310,-22.5,-55.0,310,-22.5
2020-07-23,354,-16.5,51.0,354,-16.5
2020-07-24,277,79.5,59.25,277,79.5
2020-07-25,513,102.0,-50.75,513,102.0
2020-07-26,481,-22.0,-81.5,481,-22.0
2020-07-27,469,-61.0,-22.75,469,-61.0
2020-07-28,359,-67.5,10.25,359,-67.5
2020-07-29,334,-40.5,49.25,334,-40.5
2020-07-30,278,31.0,27.5,278,31.0
2020-07-31,396,14.5,-36.25,396,14.5
2020-08-01,307,-41.5,-27.5,307,-41.5
2020-08-02,313,-40.5,16.25,313,-40.5
2020-08-03,226,-9.0,190.75,226,-9.0
2020-08-04,295,341.0,6.0,295,341.0
2020-08-05,908,3.0,-337.0,908,3.0
2020-08-06,301,-333.0,-43.75,301,-333.0
2020-08-07,242,-84.5,149.75,242,-84.5
2020-08-08,132,-33.5,56.25,132,-33.5
2020-08-09,175,28.0,-11.75,175,28.0
2020-08-10,188,-57.0,-50.5,188,-57.0
2020-08-11,61,-73.0,38.75,61,-73.0
2020-08-12,42,20.5,46.75,42,20.5
2020-08-13,102,20.5,-15.5,102,20.5
2020-08-14,83,-10.5,-9.5,83,-10.5
2020-08-15,81,1.5,7.75,81,1.5
2020-08-16,86,5.0,2.75,86,5.0
2020-08-17,91,7.0,-2.0,91,7.0
2020-08-18,100,1.0,-11.5,100,1.0
2020-08-19,93,-16.0,5.5,93,-16.0
2020-08-20,68,12.0,3.5,68,12.0
2020-08-21,117,-9.0,-13.5,117,-9.0
2020-08-22,50,-15.0,4.75,50,-15.0
2020-08-23,87,0.5,-6.5,87,0.5
2020-08-24,51,-28.0,2.0,51,-28.0
2020-08-25,31,4.5,25.5,31,4.5
2020-08-26,60,23.0,6.25,60,23.0
2020-08-27,77,17.0,-18.0,77,17.0
2020-08-28,94,-13.0,-18.5,94,-13.0
2020-08-29,51,-20.0,4.0,51,-20.0
2020-08-30,54,-5.0,6.5,54,-5.0
2020-08-31,41,-7.0,-5.75,41,-7.0
2020-09-01,40,-16.5,5.5,40,-16.5
2020-09-02,8,4.0,16.25,8,4.0
2020-09-03,48,16.0,-5.5,48,16.0
2020-09-04,40,-7.0,-8.0,40,-7.0
2020-09-05,34,0.0,0.5,34,0.0
2020-09-06,40,-6.0,1.75,40,-6.0
2020-09-07,22,3.5,16.25,22,3.5
2020-09-08,47,26.5,2.25,47,26.5
2020-09-09,75,8.0,-10.5,75,8.0
2020-09-10,63,5.5,-9.25,63,5.5
2020-09-11,86,-10.5,-12.0,86,-10.5
2020-09-12,42,-18.5,6.75,42,-18.5
2020-09-13,49,3.0,5.5,49,3.0
2020-09-14,48,-7.5,-7.0,48,-7.5
2020-09-15,34,-11.0,-0.25,34,-11.0
2020-09-16,26,-8.0,1.75,26,-8.0
2020-09-17,18,-7.5,3.25,18,-7.5
2020-09-18,11,-1.5,5.5,11,-1.5
2020-09-19,15,3.5,4.5,15,3.5
2020-09-20,18,7.5,-1.0,18,7.5
2020-09-21,30,1.5,-8.25,30,1.5
2020-09-22,21,-9.0,-2.25,21,-9.0
2020-09-23,12,-3.0,4.25,12,-3.0
2020-09-24,15,-0.5,2.75,15,-0.5
2020-09-25,11,2.5,1.25,11,2.5
2020-09-26,20,2.0,-2.5,20,2.0
2020-09-27,15,-2.5,2.0,15,-2.5
2020-09-28,15,6.0,3.25,15,6.0
2020-09-29,27,4.0,-5.0,27,4.0
2020-09-30,23,-4.0,-5.25,23,-4.0
2020-10-01,19,-6.5,-1.25,19,-6.5
2020-10-02,10,-6.5,3.75,10,-6.5
2020-10-03,6,1.0,3.5,6,1.0
2020-10-04,12,0.5,-0.75,12,0.5
2020-10-05,7,-0.5,0.5,7,-0.5
2020-10-06,11,1.5,-0.25,11,1.5
2020-10-07,10,-1.0,-0.75,10,-1.0
2020-10-08,9,0.0,0.0,9,0.0
2020-10-09,10,-1.0,0.0,10,-1.0
2020-10-10,7,0.0,-0.25,7,0.0
2020-10-11,10,-1.5,-1.5,10,-1.5
2020-10-12,4,-3.0,1.0,4,-3.0
2020-10-13,4,0.5,1.25,4,0.5
2020-10-14,5,-0.5,0.75,5,-0.5
2020-10-15,3,2.0,0.25,3,2.0
2020-10-16,9,0.0,-1.5,9,0.0
2020-10-17,3,-1.0,0.25,3,-1.0
2020-10-18,7,0.5,0.25,7,0.5
2020-10-19,4,-0.5,1.75,4,-0.5
2020-10-20,6,4.0,0.75,6,4.0
2020-10-21,12,1.0,-2.5,12,1.0
2020-10-22,8,-1.0,1.0,8,-1.0
2020-10-23,10,3.0,-0.75,10,3.0
2020-10-24,14,-2.5,-4.25,14,-2.5
2020-10-25,5,-5.5,1.75,5,-5.5
2020-10-26,3,1.0,3.75,3,1.0
2020-10-27,7,2.0,-0.5,7,2.0
2020-10-28,7,0.0,-0.5,7,0.0
2020-10-29,7,1.0,1.25,7,1.0
2020-10-30,9,2.5,-1.75,9,2.5
2020-10-31,12,-2.5,-4.0,12,-2.5
2020-11-01,4,-5.5,2.5,4,-5.5
2020-11-02,1,2.5,4.25,1,2.5
2020-11-03,9,3.0,-1.75,9,3.0
2020-11-04,7,-1.0,-2.25,7,-1.0
2020-11-05,7,-1.5,0.5,7,-1.5
2020-11-06,4,0.0,0.25,4,0.0
2020-11-07,7,-1.0,0.25,7,-1.0
2020-11-08,2,0.5,2.25,2,0.5
2020-11-09,8,3.5,2.25,8,3.5
2020-11-10,9,5.0,-1.25,9,5.0
2020-11-11,18,1.0,-4.0,18,1.0
2020-11-12,11,-3.0,-2.75,11,-3.0
2020-11-13,12,-4.5,-0.75,12,-4.5
2020-11-14,2,-4.5,3.0,2,-4.5
2020-11-15,3,1.5,3.0,3,1.5
2020-11-16,5,1.5,-0.75,5,1.5
2020-11-17,6,0.0,-1.25,6,0.0
2020-11-18,5,-1.0,-0.25,5,-1.0
2020-11-19,4,-0.5,0.75,4,-0.5
2020-11-20,4,0.5,2.25,4,0.5
2020-11-21,5,4.0,-0.25,5,4.0
2020-11-22,12,0.0,-0.5,12,0.0
2020-11-23,5,3.0,0.5,5,3.0
2020-11-24,18,1.0,-4.75,18,1.0
2020-11-25,7,-6.5,-1.25,7,-6.5
2020-11-26,5,-1.5,3.5,5,-1.5
2020-11-27,4,0.5,1.75,4,0.5
2020-11-28,6,2.0,-0.5,6,2.0
2020-11-29,8,-0.5,-0.5,8,-0.5
2020-11-30,5,1.0,-0.5,5,1.0
2020-12-01,10,-1.5,-0.75,10,-1.5
2020-12-02,2,-0.5,1.0,2,-0.5
2020-12-03,9,0.5,1.25,9,0.5
2020-12-04,3,2.0,0.25,3,2.0
2020-12-05,13,1.0,-1.0,13,1.0
2020-12-06,5,0.0,1.25,5,0.0
2020-12-07,13,3.5,-1.75,13,3.5
2020-12-08,12,-3.5,-3.25,12,-3.5
2020-12-09,6,-3.0,2.25,6,-3.0
2020-12-10,6,1.0,2.0,6,1.0
2020-12-11,8,1.0,-0.75,8,1.0
2020-12-12,8,-0.5,-1.25,8,-0.5
2020-12-13,7,-1.5,2.5,7,-1.5
2020-12-14,5,4.5,2.5,5,4.5
2020-12-15,16,3.5,-0.25,16,3.5
2020-12-16,12,4.0,-2.5,12,4.0
2020-12-17,24,-1.5,-3.75,24,-1.5
2020-12-18,9,-3.5,-1.5,9,-3.5
2020-12-19,17,-4.5,-6.75,17,-4.5
2020-12-20,0,-17.0,-12.5,0,-17.0
