date, confirmed_daily_cases, first_order,second_order, confirmed_daily_cases_outlier_removed,first_order_outlier_removed,second_order_outlier_removed
2020-01-01,0,0.0,0.0,0,0.0
2020-01-02,0,0.0,0.0,0,0.0
2020-01-03,0,0.0,0.0,0,0.0
2020-01-04,0,0.0,0.0,0,0.0
2020-01-05,0,0.0,0.0,0,0.0
2020-01-06,0,0.0,0.0,0,0.0
2020-01-07,0,0.0,0.0,0,0.0
2020-01-08,0,0.0,0.0,0,0.0
2020-01-09,0,0.0,0.0,0,0.0
2020-01-10,0,0.0,0.0,0,0.0
2020-01-11,0,0.0,0.0,0,0.0
2020-01-12,0,0.0,0.0,0,0.0
2020-01-13,0,0.0,0.0,0,0.0
2020-01-14,0,0.0,0.0,0,0.0
2020-01-15,0,0.0,0.0,0,0.0
2020-01-16,0,0.0,0.0,0,0.0
2020-01-17,0,0.0,0.0,0,0.0
2020-01-18,0,0.0,0.0,0,0.0
2020-01-19,0,0.0,0.0,0,0.0
2020-01-20,0,0.0,0.0,0,0.0
2020-01-21,0,0.0,0.0,0,0.0
2020-01-22,0,0.0,0.0,0,0.0
2020-01-23,0,0.0,0.0,0,0.0
2020-01-24,0,0.0,0.0,0,0.0
2020-01-25,0,0.0,0.0,0,0.0
2020-01-26,0,0.0,0.0,0,0.0
2020-01-27,0,0.0,0.0,0,0.0
2020-01-28,0,0.0,0.0,0,0.0
2020-01-29,0,0.0,0.0,0,0.0
2020-01-30,0,0.0,0.0,0,0.0
2020-01-31,0,0.0,0.0,0,0.0
2020-02-01,0,0.0,0.0,0,0.0
2020-02-02,0,0.0,0.0,0,0.0
2020-02-03,0,0.0,0.0,0,0.0
2020-02-04,0,0.0,0.0,0,0.0
2020-02-05,0,0.0,0.0,0,0.0
2020-02-06,0,0.0,0.0,0,0.0
2020-02-07,0,0.0,0.0,0,0.0
2020-02-08,0,0.0,0.0,0,0.0
2020-02-09,0,0.0,0.0,0,0.0
2020-02-10,0,0.0,0.0,0,0.0
2020-02-11,0,0.0,0.0,0,0.0
2020-02-12,0,0.0,0.0,0,0.0
2020-02-13,0,0.0,0.0,0,0.0
2020-02-14,0,0.0,0.0,0,0.0
2020-02-15,0,0.0,0.0,0,0.0
2020-02-16,0,0.0,0.0,0,0.0
2020-02-17,0,0.0,0.0,0,0.0
2020-02-18,0,0.0,0.0,0,0.0
2020-02-19,0,0.0,0.0,0,0.0
2020-02-20,0,0.0,0.0,0,0.0
2020-02-21,0,0.0,0.0,0,0.0
2020-02-22,0,0.0,0.0,0,0.0
2020-02-23,0,0.0,0.0,0,0.0
2020-02-24,0,0.0,0.0,0,0.0
2020-02-25,0,0.0,0.0,0,0.0
2020-02-26,0,0.0,0.0,0,0.0
2020-02-27,0,0.0,0.0,0,0.0
2020-02-28,0,0.0,0.0,0,0.0
2020-02-29,0,0.0,0.0,0,0.0
2020-03-01,0,0.0,0.0,0,0.0
2020-03-02,0,0.0,0.0,0,0.0
2020-03-03,0,0.0,0.5,0,0.0
2020-03-04,0,1.0,1.25,0,1.0
2020-03-05,2,2.5,-1.0,2,2.5
2020-03-06,5,-1.0,-0.25,5,-1.0
2020-03-07,0,2.0,0.5,0,2.0
2020-03-08,9,0.0,0.5,9,0.0
2020-03-09,0,3.0,6.5,0,3.0
2020-03-10,15,13.0,2.75,15,13.0
2020-03-11,26,8.5,0.0,26,8.5
2020-03-12,32,13.0,-2.25,32,13.0
2020-03-13,52,4.0,-10.0,52,4.0
2020-03-14,40,-7.0,-3.5,40,-7.0
2020-03-15,38,-3.0,-0.5,38,-3.0
2020-03-16,34,-8.0,-7.0,34,-8.0
2020-03-17,22,-17.0,1.25,22,-17.0
2020-03-18,0,-5.5,22.25,0,-5.5
2020-03-19,11,27.5,10.5,11,27.5
2020-03-20,55,15.5,-19.75,55,15.5
2020-03-21,42,-12.0,-11.25,42,-12.0
2020-03-22,31,-7.0,7.75,31,-7.0
2020-03-23,28,3.5,8.5,28,3.5
2020-03-24,38,10.0,-2.75,38,10.0
2020-03-25,48,-2.0,0.5,48,-2.0
2020-03-26,34,11.0,5.5,34,11.0
2020-03-27,70,9.0,-11.5,70,9.0
2020-03-28,52,-12.0,-11.0,52,-12.0
2020-03-29,46,-13.0,6.0,46,-13.0
2020-03-30,26,0.0,9.75,26,0.0
2020-03-31,46,6.5,2.5,46,6.5
2020-04-01,39,5.0,-3.75,39,5.0
2020-04-02,56,-1.0,-5.75,56,-1.0
2020-04-03,37,-6.5,-3.75,37,-6.5
2020-04-04,43,-8.5,-1.5,43,-8.5
2020-04-05,20,-9.5,8.75,20,-9.5
2020-04-06,24,9.0,6.75,24,9.0
2020-04-07,38,4.0,-5.75,38,4.0
2020-04-08,32,-2.5,-1.0,32,-2.5
2020-04-09,33,2.0,0.0,33,2.0
2020-04-10,36,-2.5,-5.75,36,-2.5
2020-04-11,28,-9.5,-4.0,28,-9.5
2020-04-12,17,-10.5,2.5,17,-10.5
2020-04-13,7,-4.5,10.5,7,-4.5
2020-04-14,8,10.5,5.25,8,10.5
2020-04-15,28,6.0,-3.25,28,6.0
2020-04-16,20,4.0,-4.75,20,4.0
2020-04-17,36,-3.5,-7.75,36,-3.5
2020-04-18,13,-11.5,-0.25,13,-11.5
2020-04-19,13,-4.0,4.75,13,-4.0
2020-04-20,5,-2.0,3.0,5,-2.0
2020-04-21,9,2.0,2.0,9,2.0
2020-04-22,9,2.0,-1.5,9,2.0
2020-04-23,13,-1.0,-0.5,13,-1.0
2020-04-24,7,1.0,0.75,7,1.0
2020-04-25,15,0.5,-2.75,15,0.5
2020-04-26,8,-4.5,-0.75,8,-4.5
2020-04-27,6,-1.0,3.25,6,-1.0
2020-04-28,6,2.0,1.75,6,2.0
2020-04-29,10,2.5,-2.25,10,2.5
2020-04-30,11,-2.5,-2.75,11,-2.5
2020-05-01,5,-3.0,0.0,5,-3.0
2020-05-02,5,-2.5,0.25,5,-2.5
2020-05-03,0,-2.5,2.75,0,-2.5
2020-05-04,0,3.0,2.0,0,3.0
2020-05-05,6,1.5,-2.75,6,1.5
2020-05-06,3,-2.5,-1.25,3,-2.5
2020-05-07,1,-1.0,2.0,1,-1.0
2020-05-08,1,1.5,1.0,1,1.5
2020-05-09,4,1.0,-1.0,4,1.0
2020-05-10,3,-0.5,-1.0,3,-0.5
2020-05-11,3,-1.0,0.0,3,-1.0
2020-05-12,1,-0.5,0.5,1,-0.5
2020-05-13,2,0.0,0.0,2,0.0
2020-05-14,1,-0.5,-0.25,1,-0.5
2020-05-15,1,-0.5,0.25,1,-0.5
2020-05-16,0,0.0,0.25,0,0.0
2020-05-17,1,0.0,0.0,1,0.0
2020-05-18,0,0.0,0.25,0,0.0
2020-05-19,1,0.5,-0.25,1,0.5
2020-05-20,1,-0.5,-0.5,1,-0.5
2020-05-21,0,-0.5,0.25,0,-0.5
2020-05-22,0,0.0,0.25,0,0.0
2020-05-23,0,0.0,0.25,0,0.0
2020-05-24,0,0.5,0.0,0,0.5
2020-05-25,1,0.0,0.0,1,0.0
2020-05-26,0,0.5,0.5,0,0.5
2020-05-27,2,1.0,-0.75,2,1.0
2020-05-28,2,-1.0,-1.0,2,-1.0
2020-05-29,0,-1.0,0.5,0,-1.0
2020-05-30,0,0.0,0.5,0,0.0
2020-05-31,0,0.0,0.5,0,0.0
2020-06-01,0,1.0,0.5,0,1.0
2020-06-02,2,1.0,-1.0,2,1.0
2020-06-03,2,-1.0,-0.5,2,-1.0
2020-06-04,0,0.0,1.75,0,0.0
2020-06-05,2,2.5,-0.25,2,2.5
2020-06-06,5,-0.5,-2.5,5,-0.5
2020-06-07,1,-2.5,0.25,1,-2.5
2020-06-08,0,0.0,1.75,0,0.0
2020-06-09,1,1.0,-0.25,1,1.0
2020-06-10,2,-0.5,-0.5,2,-0.5
2020-06-11,0,0.0,0.75,0,0.0
2020-06-12,2,1.0,0.25,2,1.0
2020-06-13,2,0.5,-0.75,2,0.5
2020-06-14,3,-0.5,-0.25,3,-0.5
2020-06-15,1,0.0,1.0,1,0.0
2020-06-16,3,1.5,1.25,3,1.5
2020-06-17,4,2.5,-1.25,4,2.5
2020-06-18,8,-1.0,-1.75,8,-1.0
2020-06-19,2,-1.0,0.25,2,-1.0
2020-06-20,6,-0.5,-0.75,6,-0.5
2020-06-21,1,-2.5,3.25,1,-2.5
2020-06-22,1,6.0,2.75,1,6.0
2020-06-23,13,3.0,-4.75,13,3.0
2020-06-24,7,-3.5,-0.5,7,-3.5
2020-06-25,6,2.0,3.75,6,2.0
2020-06-26,11,4.0,-1.5,11,4.0
2020-06-27,14,-1.0,-4.5,14,-1.0
2020-06-28,9,-5.0,2.0,9,-5.0
2020-06-29,4,3.0,4.75,4,3.0
2020-06-30,15,4.5,0.0,15,4.5
2020-07-01,13,3.0,-1.5,13,3.0
2020-07-02,21,1.5,0.5,21,1.5
2020-07-03,16,4.0,0.5,16,4.0
2020-07-04,29,2.5,-5.25,29,2.5
2020-07-05,21,-6.5,-0.75,21,-6.5
2020-07-06,16,1.0,5.25,16,1.0
2020-07-07,23,4.0,-3.0,23,4.0
2020-07-08,24,-5.0,-3.75,24,-5.0
2020-07-09,13,-3.5,7.75,13,-3.5
2020-07-10,17,10.5,1.0,17,10.5
2020-07-11,34,-1.5,-11.75,34,-1.5
2020-07-12,14,-13.0,-0.25,14,-13.0
2020-07-13,8,-2.0,9.25,8,-2.0
2020-07-14,10,5.5,3.25,10,5.5
2020-07-15,19,4.5,-2.75,19,4.5
2020-07-16,19,0.0,-1.0,19,0.0
2020-07-17,19,2.5,-3.25,19,2.5
2020-07-18,24,-6.5,-5.5,24,-6.5
2020-07-19,6,-8.5,7.75,6,-8.5
2020-07-20,7,9.0,9.75,7,9.0
2020-07-21,24,11.0,-3.75,24,11.0
2020-07-22,29,1.5,-8.0,29,1.5
2020-07-23,27,-5.0,-4.0,27,-5.0
2020-07-24,19,-6.5,1.75,19,-6.5
2020-07-25,14,-1.5,1.0,14,-1.5
2020-07-26,16,-4.5,0.25,16,-4.5
2020-07-27,5,-1.0,4.5,5,-1.0
2020-07-28,14,4.5,3.0,14,4.5
2020-07-29,14,5.0,-1.5,14,5.0
2020-07-30,24,1.5,-4.75,24,1.5
2020-07-31,17,-4.5,-2.75,17,-4.5
2020-08-01,15,-4.0,-1.25,15,-4.0
2020-08-02,9,-7.0,2.0,9,-7.0
2020-08-03,1,0.0,7.75,1,0.0
2020-08-04,9,8.5,1.5,9,8.5
2020-08-05,18,3.0,-6.25,18,3.0
2020-08-06,15,-4.0,-1.75,15,-4.0
2020-08-07,10,-0.5,0.0,10,-0.5
2020-08-08,14,-4.0,-1.75,14,-4.0
2020-08-09,2,-4.0,5.75,2,-4.0
2020-08-10,6,7.5,8.25,6,7.5
2020-08-11,17,12.5,-0.75,17,12.5
2020-08-12,31,6.0,-4.75,31,6.0
2020-08-13,29,3.0,-2.25,29,3.0
2020-08-14,37,1.5,-7.0,37,1.5
2020-08-15,32,-11.0,-5.5,32,-11.0
2020-08-16,15,-9.5,8.5,15,-9.5
2020-08-17,13,6.0,10.75,13,6.0
2020-08-18,27,12.0,1.0,27,12.0
2020-08-19,37,8.0,-5.75,37,8.0
2020-08-20,43,0.5,-4.0,43,0.5
2020-08-21,38,0.0,-1.25,38,0.0
2020-08-22,43,-2.0,-7.25,43,-2.0
2020-08-23,34,-14.5,-2.25,34,-14.5
2020-08-24,14,-6.5,12.75,14,-6.5
2020-08-25,21,11.0,6.25,21,11.0
2020-08-26,36,6.0,-4.0,36,6.0
2020-08-27,33,3.0,-2.0,33,3.0
2020-08-28,42,2.0,-4.25,42,2.0
2020-08-29,37,-5.5,-5.75,37,-5.5
2020-08-30,31,-9.5,5.25,31,-9.5
2020-08-31,18,5.0,14.0,18,5.0
2020-09-01,41,18.5,0.5,41,18.5
2020-09-02,55,6.0,-11.25,55,6.0
2020-09-03,53,-4.0,-5.5,53,-4.0
2020-09-04,47,-5.0,1.0,47,-5.0
2020-09-05,43,-2.0,-2.0,43,-2.0
2020-09-06,43,-9.0,0.75,43,-9.0
2020-09-07,25,-0.5,18.25,25,-0.5
2020-09-08,42,27.5,9.0,42,27.5
2020-09-09,80,17.5,-6.75,80,17.5
2020-09-10,77,14.0,-1.5,77,14.0
2020-09-11,108,14.5,-9.25,108,14.5
2020-09-12,106,-4.5,-22.0,106,-4.5
2020-09-13,99,-29.5,-2.0,99,-29.5
2020-09-14,47,-8.5,33.75,47,-8.5
2020-09-15,82,38.0,9.75,82,38.0
2020-09-16,123,11.0,-15.5,123,11.0
2020-09-17,104,7.0,-3.0,104,7.0
2020-09-18,137,5.0,-10.0,137,5.0
2020-09-19,114,-13.0,-18.5,114,-13.0
2020-09-20,111,-32.0,0.75,111,-32.0
2020-09-21,50,-11.5,37.5,50,-11.5
2020-09-22,88,43.0,14.25,88,43.0
2020-09-23,136,17.0,-7.75,136,17.0
2020-09-24,122,27.5,7.0,122,27.5
2020-09-25,191,31.0,-21.75,191,31.0
2020-09-26,184,-16.0,-52.0,184,-16.0
2020-09-27,159,-73.0,-7.0,159,-73.0
2020-09-28,38,-30.0,77.75,38,-30.0
2020-09-29,99,82.5,34.0,99,82.5
2020-09-30,203,38.0,-32.5,203,38.0
2020-10-01,175,17.5,-6.0,175,17.5
2020-10-02,238,26.0,-26.25,238,26.0
2020-10-03,227,-35.0,-26.0,227,-35.0
2020-10-04,168,-26.0,-1.75,168,-26.0
2020-10-05,175,-38.5,58.25,175,-38.5
2020-10-06,91,90.5,93.25,91,90.5
2020-10-07,356,148.0,-43.0,356,148.0
2020-10-08,387,4.5,-75.75,387,4.5
2020-10-09,365,-3.5,9.25,365,-3.5
2020-10-10,380,23.0,-51.0,380,23.0
2020-10-11,411,-105.5,-14.5,411,-105.5
2020-10-12,169,-6.0,187.25,169,-6.0
2020-10-13,399,269.0,89.5,399,269.0
2020-10-14,707,173.0,-102.75,707,173.0
2020-10-15,745,63.5,-48.0,745,63.5
2020-10-16,834,77.0,-58.75,834,77.0
2020-10-17,899,-54.0,-129.0,899,-54.0
2020-10-18,726,-181.0,44.0,726,-181.0
2020-10-19,537,34.0,333.5,537,34.0
2020-10-20,794,486.0,200.5,794,486.0
2020-10-21,1509,435.0,-205.0,1509,435.0
2020-10-22,1664,76.0,-141.75,1664,76.0
2020-10-23,1661,151.5,-34.25,1661,151.5
2020-10-24,1967,7.5,-285.0,1967,7.5
2020-10-25,1676,-418.5,-42.0,1676,-418.5
2020-10-26,1130,-76.5,579.75,1130,-76.5
2020-10-27,1523,741.0,280.0,1523,741.0
2020-10-28,2612,483.5,-574.0,2612,483.5
2020-10-29,2490,-407.0,-413.25,2490,-407.0
2020-10-30,1798,-343.0,89.5,1798,-343.0
2020-10-31,1804,-228.0,-140.25,1804,-228.0
2020-11-01,1342,-623.5,72.5,1342,-623.5
2020-11-02,557,-83.0,679.0,557,-83.0
2020-11-03,1176,734.5,169.0,1176,734.5
2020-11-04,2026,255.0,-482.75,2026,255.0
2020-11-05,1686,-231.0,-146.0,1686,-231.0
2020-11-06,1564,-37.0,-52.75,1564,-37.0
2020-11-07,1612,-336.5,-268.5,1612,-336.5
2020-11-08,891,-574.0,218.5,891,-574.0
2020-11-09,464,100.5,726.5,464,100.5
2020-11-10,1092,879.0,159.5,1092,879.0
2020-11-11,2222,419.5,-616.25,2222,419.5
2020-11-12,1931,-353.5,-258.25,1931,-353.5
2020-11-13,1515,-97.0,28.0,1515,-97.0
2020-11-14,1737,-297.5,-260.25,1737,-297.5
2020-11-15,920,-617.5,267.0,920,-617.5
2020-11-16,502,236.5,690.0,502,236.5
2020-11-17,1393,762.5,51.0,1393,762.5
2020-11-18,2027,338.5,-501.5,2027,338.5
2020-11-19,2070,-240.5,-260.75,2070,-240.5
2020-11-20,1546,-183.0,-10.25,1546,-183.0
2020-11-21,1704,-261.0,-217.0,1704,-261.0
2020-11-22,1024,-617.0,200.0,1024,-617.0
2020-11-23,470,139.0,747.5,470,139.0
2020-11-24,1302,878.0,46.75,1302,878.0
2020-11-25,2226,232.5,-595.25,2226,232.5
2020-11-26,1767,-312.5,-162.25,1767,-312.5
2020-11-27,1601,-92.0,37.0,1601,-92.0
2020-11-28,1583,-238.5,-241.5,1583,-238.5
2020-11-29,1124,-575.0,168.5,1124,-575.0
2020-11-30,433,98.5,787.0,433,98.5
2020-12-01,1321,999.0,66.25,1321,999.0
2020-12-02,2431,231.0,-661.25,2431,231.0
2020-12-03,1783,-323.5,-150.75,1783,-323.5
2020-12-04,1784,-70.5,-26.75,1784,-70.5
2020-12-05,1642,-377.0,-254.5,1642,-377.0
2020-12-06,1030,-579.5,343.0,1030,-579.5
2020-12-07,483,309.0,703.75,483,309.0
2020-12-08,1648,828.0,-104.75,1648,828.0
2020-12-09,2139,99.5,-495.0,2139,99.5
2020-12-10,1847,-162.0,-75.5,1847,-162.0
2020-12-11,1815,-51.5,-164.5,1815,-51.5
2020-12-12,1744,-491.0,-302.5,1744,-491.0
2020-12-13,833,-656.5,421.25,833,-656.5
2020-12-14,431,351.5,750.5,431,351.5
2020-12-15,1536,844.5,-149.25,1536,844.5
2020-12-16,2120,53.0,-574.25,2120,53.0
2020-12-17,1642,-304.0,-72.5,1642,-304.0
2020-12-18,1512,-92.0,-226.0,1512,-92.0
2020-12-19,1458,-756.0,-683.0,1458,-756.0
2020-12-20,0,-1458.0,-702.0,0,-1458.0
