date, confirmed_daily_cases, first_order,second_order, confirmed_daily_cases_outlier_removed,first_order_outlier_removed,second_order_outlier_removed
2020-01-01,0,0.0,0.0,0,0.0
2020-01-02,0,0.0,0.0,0,0.0
2020-01-03,0,0.0,0.0,0,0.0
2020-01-04,0,0.0,0.0,0,0.0
2020-01-05,0,0.0,0.0,0,0.0
2020-01-06,0,0.0,0.0,0,0.0
2020-01-07,0,0.0,0.0,0,0.0
2020-01-08,0,0.0,0.0,0,0.0
2020-01-09,0,0.0,0.0,0,0.0
2020-01-10,0,0.0,0.0,0,0.0
2020-01-11,0,0.0,0.0,0,0.0
2020-01-12,0,0.0,0.0,0,0.0
2020-01-13,0,0.0,0.0,0,0.0
2020-01-14,0,0.0,0.0,0,0.0
2020-01-15,0,0.0,0.0,0,0.0
2020-01-16,0,0.0,0.0,0,0.0
2020-01-17,0,0.0,0.0,0,0.0
2020-01-18,0,0.0,0.0,0,0.0
2020-01-19,0,0.0,0.0,0,0.0
2020-01-20,0,0.0,0.0,0,0.0
2020-01-21,0,0.0,0.0,0,0.0
2020-01-22,0,0.0,0.0,0,0.0
2020-01-23,0,0.0,0.0,0,0.0
2020-01-24,0,0.0,0.0,0,0.0
2020-01-25,0,0.0,0.0,0,0.0
2020-01-26,0,0.0,0.0,0,0.0
2020-01-27,0,0.0,0.0,0,0.0
2020-01-28,0,0.0,0.0,0,0.0
2020-01-29,0,0.0,0.0,0,0.0
2020-01-30,0,0.0,0.0,0,0.0
2020-01-31,0,0.0,0.0,0,0.0
2020-02-01,0,0.0,0.0,0,0.0
2020-02-02,0,0.0,0.0,0,0.0
2020-02-03,0,0.0,0.0,0,0.0
2020-02-04,0,0.0,0.0,0,0.0
2020-02-05,0,0.0,0.0,0,0.0
2020-02-06,0,0.0,0.0,0,0.0
2020-02-07,0,0.0,0.0,0,0.0
2020-02-08,0,0.0,0.0,0,0.0
2020-02-09,0,0.0,0.0,0,0.0
2020-02-10,0,0.0,0.0,0,0.0
2020-02-11,0,0.0,0.0,0,0.0
2020-02-12,0,0.0,0.0,0,0.0
2020-02-13,0,0.0,0.0,0,0.0
2020-02-14,0,0.0,0.0,0,0.0
2020-02-15,0,0.0,0.0,0,0.0
2020-02-16,0,0.0,0.0,0,0.0
2020-02-17,0,0.0,0.0,0,0.0
2020-02-18,0,0.0,0.0,0,0.0
2020-02-19,0,0.0,0.0,0,0.0
2020-02-20,0,0.0,0.0,0,0.0
2020-02-21,0,0.0,0.0,0,0.0
2020-02-22,0,0.0,0.0,0,0.0
2020-02-23,0,0.0,0.0,0,0.0
2020-02-24,0,0.0,0.0,0,0.0
2020-02-25,0,0.0,0.0,0,0.0
2020-02-26,0,0.0,0.0,0,0.0
2020-02-27,0,0.0,0.0,0,0.0
2020-02-28,0,0.0,0.0,0,0.0
2020-02-29,0,0.0,0.0,0,0.0
2020-03-01,0,0.0,0.0,0,0.0
2020-03-02,0,0.0,0.0,0,0.0
2020-03-03,0,0.0,0.25,0,0.0
2020-03-04,0,0.5,0.0,0,0.5
2020-03-05,1,0.0,-0.5,1,0.0
2020-03-06,0,-0.5,0.5,0,-0.5
2020-03-07,0,1.0,0.25,0,1.0
2020-03-08,2,0.0,0.0,2,0.0
2020-03-09,0,1.0,1.5,0,1.0
2020-03-10,4,3.0,-0.5,4,3.0
2020-03-11,6,0.0,-1.25,6,0.0
2020-03-12,4,0.5,2.5,4,0.5
2020-03-13,7,5.0,1.25,7,5.0
2020-03-14,14,3.0,-3.25,14,3.0
2020-03-15,13,-1.5,-4.75,13,-1.5
2020-03-16,11,-6.5,11.5,11,-6.5
2020-03-17,0,21.5,11.75,0,21.5
2020-03-18,54,17.0,-11.25,54,17.0
2020-03-19,34,-1.0,-7.5,34,-1.0
2020-03-20,52,2.0,-4.0,52,2.0
2020-03-21,38,-9.0,21.5,38,-9.0
2020-03-22,34,45.0,34.0,34,45.0
2020-03-23,128,59.0,-15.75,128,59.0
2020-03-24,152,13.5,-13.0,152,13.5
2020-03-25,155,33.0,15.25,155,33.0
2020-03-26,218,44.0,-66.75,218,44.0
2020-03-27,243,-100.5,-59.5,243,-100.5
2020-03-28,17,-75.0,57.5,17,-75.0
2020-03-29,93,14.5,21.0,93,14.5
2020-03-30,46,-33.0,-12.0,46,-33.0
2020-03-31,27,-9.5,30.25,27,-9.5
2020-04-01,27,27.5,8.75,27,27.5
2020-04-02,82,8.0,-14.25,82,8.0
2020-04-03,43,-1.0,2.75,43,-1.0
2020-04-04,80,13.5,-11.75,80,13.5
2020-04-05,70,-24.5,-8.5,70,-24.5
2020-04-06,31,-3.5,28.5,31,-3.5
2020-04-07,63,32.5,8.25,63,32.5
2020-04-08,96,13.0,-23.0,96,13.0
2020-04-09,89,-13.5,-22.5,89,-13.5
2020-04-10,69,-32.0,25.75,69,-32.0
2020-04-11,25,38.0,34.5,25,38.0
2020-04-12,145,37.0,-19.5,62,37.0
2020-04-13,99,-1.0,-20.5,99,-1.0
2020-04-14,143,-4.0,-10.5,143,-4.0
2020-04-15,91,-22.0,23.75,91,-22.0
2020-04-16,99,43.5,49.0,99,43.5
2020-04-17,178,76.0,-35.25,178,76.0
2020-04-18,251,-27.0,-65.25,251,-27.0
2020-04-19,124,-54.5,23.75,124,-54.5
2020-04-20,142,20.5,34.25,142,20.5
2020-04-21,165,14.0,28.0,165,14.0
2020-04-22,170,76.5,17.25,170,76.5
2020-04-23,318,48.5,-82.5,318,48.5
2020-04-24,267,-88.5,-44.75,267,-88.5
2020-04-25,141,-41.0,70.75,141,-41.0
2020-04-26,185,53.0,25.0,185,53.0
2020-04-27,247,9.0,0.25,247,9.0
2020-04-28,203,53.5,19.0,203,53.5
2020-04-29,354,47.0,-39.25,354,47.0
2020-04-30,297,-25.0,-1.5,297,-25.0
2020-05-01,304,44.0,48.25,304,44.0
2020-05-02,385,71.5,-9.0,385,71.5
2020-05-03,447,26.0,-59.5,447,26.0
2020-05-04,437,-47.5,-63.25,437,-47.5
2020-05-05,352,-100.5,41.75,352,-100.5
2020-05-06,236,36.0,157.0,236,36.0
2020-05-07,424,213.5,7.25,424,213.5
2020-05-08,663,50.5,-123.75,663,50.5
2020-05-09,525,-34.0,2.75,525,-34.0
2020-05-10,595,56.0,42.75,595,56.0
2020-05-11,637,51.5,-6.25,637,51.5
2020-05-12,698,43.5,-34.0,698,43.5
2020-05-13,724,-16.5,-6.5,724,-16.5
2020-05-14,665,30.5,49.75,665,30.5
2020-05-15,785,83.0,78.5,785,83.0
2020-05-16,831,187.5,-19.75,831,187.5
2020-05-17,1160,43.5,-192.0,1160,43.5
2020-05-18,918,-196.5,-50.5,918,-196.5
2020-05-19,767,-57.5,190.0,767,-57.5
2020-05-20,803,183.5,75.0,803,183.5
2020-05-21,1134,92.5,-70.75,1134,92.5
2020-05-22,988,42.0,16.75,988,42.0
2020-05-23,1218,126.0,-67.5,1218,126.0
2020-05-24,1240,-93.0,-210.75,1240,-93.0
2020-05-25,1032,-295.5,206.75,1032,-295.5
2020-05-26,649,320.5,352.0,649,320.5
2020-05-27,1673,408.5,-119.25,1673,408.5
2020-05-28,1466,82.0,-139.0,1466,82.0
2020-05-29,1837,130.5,-71.25,1837,130.5
2020-05-30,1727,-60.5,-78.5,1727,-60.5
2020-05-31,1716,-26.5,-35.0,1716,-26.5
2020-06-01,1674,-130.5,23.0,1674,-130.5
2020-06-02,1455,19.5,518.25,1455,19.5
2020-06-03,1713,906.0,222.5,1713,906.0
2020-06-04,3267,464.5,-635.0,3267,464.5
2020-06-05,2642,-364.0,-314.75,2642,-364.0
2020-06-06,2539,-165.0,195.75,2539,-165.0
2020-06-07,2312,27.5,32.5,2312,27.5
2020-06-08,2594,-100.0,-54.75,2594,-100.0
2020-06-09,2112,-82.0,308.75,2112,-82.0
2020-06-10,2430,517.5,273.25,2430,517.5
2020-06-11,3147,464.5,-93.25,3147,464.5
2020-06-12,3359,331.0,3.5,3359,331.0
2020-06-13,3809,471.5,-244.0,3809,471.5
2020-06-14,4302,-157.0,-611.0,4302,-157.0
2020-06-15,3495,-750.5,224.25,3495,-750.5
2020-06-16,2801,291.5,544.5,2801,291.5
2020-06-17,4078,338.5,-209.0,4078,338.5
2020-06-18,3478,-126.5,202.75,3478,-126.5
2020-06-19,3825,744.0,262.25,3825,744.0
2020-06-20,4966,398.0,-541.5,4966,398.0
2020-06-21,4621,-339.0,-224.75,4621,-339.0
2020-06-22,4288,-51.5,519.5,4288,-51.5
2020-06-23,4518,700.0,541.0,4518,700.0
2020-06-24,5688,1030.5,-218.25,5688,1030.5
2020-06-25,6579,263.5,-357.5,6579,263.5
2020-06-26,6215,315.5,-102.0,6215,315.5
2020-06-27,7210,59.5,-427.75,7210,59.5
2020-06-28,6334,-540.0,123.0,6334,-540.0
2020-06-29,6130,305.5,768.5,6130,305.5
2020-06-30,6945,997.0,293.0,6945,997.0
2020-07-01,8124,891.5,-263.75,8124,891.5
2020-07-02,8728,469.5,85.5,8728,469.5
2020-07-03,9063,1062.5,-307.25,9063,1062.5
2020-07-04,10853,-145.0,-1001.75,10853,-145.0
2020-07-05,8773,-941.0,412.75,8773,-941.0
2020-07-06,8971,680.5,430.25,8971,680.5
2020-07-07,10134,-80.5,544.75,10134,-80.5
2020-07-08,8810,1770.0,924.75,8810,1770.0
2020-07-09,13674,1769.0,-929.25,13674,1769.0
2020-07-10,12348,-88.5,-957.0,12348,-88.5
2020-07-11,13497,-145.0,-441.5,13497,-145.0
2020-07-12,12058,-971.5,-318.0,12058,-971.5
2020-07-13,11554,-781.0,786.5,11554,-781.0
2020-07-14,10496,601.5,1059.5,10496,601.5
2020-07-15,12757,1338.0,-146.75,12757,1338.0
2020-07-16,13172,308.0,-640.75,13172,308.0
2020-07-17,13373,56.5,-135.0,13373,56.5
2020-07-18,13285,38.0,-1024.5,13285,38.0
2020-07-19,13449,-1992.5,-1338.75,13449,-1992.5
2020-07-20,9300,-2639.5,1958.75,9300,-2639.5
2020-07-21,8170,1925.0,2553.25,8170,1925.0
2020-07-22,13150,2467.0,-764.0,13150,2467.0
2020-07-23,13104,397.0,-1458.5,13104,397.0
2020-07-24,13944,-450.0,-876.25,13944,-450.0
2020-07-25,12204,-1355.5,-1052.0,12204,-1355.5
2020-07-26,11233,-2554.0,-322.5,11233,-2554.0
2020-07-27,7096,-2000.5,2343.5,7096,-2000.5
2020-07-28,7232,2133.0,1953.75,7232,2133.0
2020-07-29,11362,1907.0,-1153.5,11362,1907.0
2020-07-30,11046,-174.0,-1188.25,11046,-174.0
2020-07-31,11014,-469.5,-617.75,11014,-469.5
2020-08-01,10107,-1409.5,-947.75,10107,-1409.5
2020-08-02,8195,-2365.0,-230.0,8195,-2365.0
2020-08-03,5377,-1869.5,1978.0,5377,-1869.5
2020-08-04,4456,1591.0,1897.5,4456,1591.0
2020-08-05,8559,1925.5,-1112.25,8559,1925.5
2020-08-06,8307,-633.5,-1111.5,8307,-633.5
2020-08-07,7292,-297.5,161.5,7292,-297.5
2020-08-08,7712,-310.5,-844.5,7712,-310.5
2020-08-09,6671,-1986.5,-884.75,6671,-1986.5
2020-08-10,3739,-2080.0,761.0,3739,-2080.0
2020-08-11,2511,-464.5,1398.75,2511,-464.5
2020-08-12,2810,717.5,1098.5,2810,717.5
2020-08-13,3946,1732.5,-217.0,3946,1732.5
2020-08-14,6275,283.5,-1512.0,6275,283.5
2020-08-15,4513,-1291.5,-634.75,4513,-1291.5
2020-08-16,3692,-986.0,287.25,3692,-986.0
2020-08-17,2541,-717.0,836.75,2541,-717.0
2020-08-18,2258,687.5,764.0,2258,687.5
2020-08-19,3916,811.0,-473.25,3916,811.0
2020-08-20,3880,-259.0,-448.75,3880,-259.0
2020-08-21,3398,-86.5,-38.0,3398,-86.5
2020-08-22,3707,-335.0,-464.25,3707,-335.0
2020-08-23,2728,-1015.0,-122.75,2728,-1015.0
2020-08-24,1677,-580.5,759.25,1677,-580.5
2020-08-25,1567,503.5,544.75,1567,503.5
2020-08-26,2684,509.0,-461.25,2684,509.0
2020-08-27,2585,-419.0,-296.0,2585,-419.0
2020-08-28,1846,-83.0,374.25,1846,-83.0
2020-08-29,2419,329.5,-67.0,2419,329.5
2020-08-30,2505,-217.0,-486.5,2505,-217.0
2020-08-31,1985,-643.5,196.25,1985,-643.5
2020-09-01,1218,175.5,622.25,1218,175.5
2020-09-02,2336,601.0,-156.0,2336,601.0
2020-09-03,2420,-136.5,-454.0,2420,-136.5
2020-09-04,2063,-307.0,-39.25,2063,-307.0
2020-09-05,1806,-215.0,-86.75,1806,-215.0
2020-09-06,1633,-480.5,-31.0,1633,-480.5
2020-09-07,845,-277.0,526.5,845,-277.0
2020-09-08,1079,572.5,370.5,1079,572.5
2020-09-09,1990,464.0,-293.75,1990,464.0
2020-09-10,2007,-15.0,-279.75,2007,-15.0
2020-09-11,1960,-95.5,-87.75,1960,-95.5
2020-09-12,1816,-190.5,-167.25,1816,-190.5
2020-09-13,1579,-430.0,-106.5,1579,-430.0
2020-09-14,956,-403.5,456.75,956,-403.5
2020-09-15,772,483.5,540.75,772,483.5
2020-09-16,1923,678.0,-208.75,1923,678.0
2020-09-17,2128,66.0,-363.75,2128,66.0
2020-09-18,2055,-49.5,-158.0,2055,-49.5
2020-09-19,2029,-250.0,-301.25,2029,-250.0
2020-09-20,1555,-652.0,72.75,1555,-652.0
2020-09-21,725,-104.5,621.25,725,-104.5
2020-09-22,1346,590.5,181.0,1346,590.5
2020-09-23,1906,257.5,-401.75,1906,257.5
2020-09-24,1861,-213.0,-351.75,1861,-213.0
2020-09-25,1480,-446.0,53.5,1480,-446.0
2020-09-26,969,-106.0,206.5,969,-106.0
2020-09-27,1268,-33.0,-38.25,1268,-33.0
2020-09-28,903,-182.5,232.5,903,-182.5
2020-09-29,903,432.0,301.75,903,432.0
2020-09-30,1767,421.0,-220.5,1767,421.0
2020-10-01,1745,-9.0,-176.0,1745,-9.0
2020-10-02,1749,69.0,-39.5,1749,69.0
2020-10-03,1883,-88.0,-273.75,1883,-88.0
2020-10-04,1573,-478.5,-92.5,1573,-478.5
2020-10-05,926,-273.0,486.0,926,-273.0
2020-10-06,1027,493.5,313.75,1027,493.5
2020-10-07,1913,354.5,-359.75,1913,354.5
2020-10-08,1736,-226.0,24.75,1736,-226.0
2020-10-09,1461,404.0,141.5,1461,404.0
2020-10-10,2544,57.0,-616.0,2544,57.0
2020-10-11,1575,-828.0,-127.75,1575,-828.0
2020-10-12,888,-198.5,661.25,888,-198.5
2020-10-13,1178,494.5,247.25,1178,494.5
2020-10-14,1877,296.0,-211.75,1877,296.0
2020-10-15,1770,71.0,-108.5,1770,71.0
2020-10-16,2019,79.0,-124.75,2019,79.0
2020-10-17,1928,-178.5,-156.25,1928,-178.5
2020-10-18,1662,-233.5,-63.75,1662,-233.5
2020-10-19,1461,-306.0,265.25,1461,-306.0
2020-10-20,1050,297.0,429.5,1050,297.0
2020-10-21,2055,553.0,-188.0,2055,553.0
2020-10-22,2156,-79.0,-357.0,2156,-79.0
2020-10-23,1897,-161.0,-29.25,1897,-161.0
2020-10-24,1834,-137.5,-155.25,1834,-137.5
2020-10-25,1622,-471.5,-63.75,1622,-471.5
2020-10-26,891,-265.0,478.75,891,-265.0
2020-10-27,1092,486.0,373.5,1092,486.0
2020-10-28,1863,482.0,-230.75,1863,482.0
2020-10-29,2056,24.5,-312.5,2056,24.5
2020-10-30,1912,-143.0,-147.5,1912,-143.0
2020-10-31,1770,-270.5,-178.0,1770,-270.5
2020-11-01,1371,-499.0,102.75,1371,-499.0
2020-11-02,772,-65.0,484.5,772,-65.0
2020-11-03,1241,470.0,188.75,1241,470.0
2020-11-04,1712,312.5,-222.75,1712,312.5
2020-11-05,1866,24.5,-190.0,1866,24.5
2020-11-06,1761,-67.5,-109.5,1761,-67.5
2020-11-07,1731,-194.5,-87.25,1731,-194.5
2020-11-08,1372,-242.0,186.5,1372,-242.0
2020-11-09,1247,178.5,344.25,1247,178.5
2020-11-10,1729,446.5,63.0,1729,446.5
2020-11-11,2140,304.5,-205.0,2140,304.5
2020-11-12,2338,36.5,-177.5,2338,36.5
2020-11-13,2213,-50.5,-111.0,2213,-50.5
2020-11-14,2237,-185.5,-222.75,2237,-185.5
2020-11-15,1842,-496.0,129.0,1842,-496.0
2020-11-16,1245,72.5,658.75,1245,72.5
2020-11-17,1987,821.5,95.5,1987,821.5
2020-11-18,2888,263.5,-356.5,2888,263.5
2020-11-19,2514,108.5,-98.75,2514,108.5
2020-11-20,3105,66.0,-263.0,3105,66.0
2020-11-21,2646,-417.5,-174.5,2646,-417.5
2020-11-22,2270,-283.0,264.5,2270,-283.0
2020-11-23,2080,111.5,434.0,2080,111.5
2020-11-24,2493,585.0,88.25,2493,585.0
2020-11-25,3250,288.0,-262.5,3250,288.0
2020-11-26,3069,60.0,-111.75,3069,60.0
2020-11-27,3370,64.5,-231.75,3370,64.5
2020-11-28,3198,-403.5,-256.25,3198,-403.5
2020-11-29,2563,-448.0,134.75,2563,-448.0
2020-11-30,2302,-134.0,691.75,2302,-134.0
2020-12-01,2295,935.5,593.25,2295,935.5
2020-12-02,4173,1052.5,-278.0,4173,1052.5
2020-12-03,4400,379.5,-465.0,4400,379.5
2020-12-04,4932,122.5,-393.75,4932,122.5
2020-12-05,4645,-408.0,-394.25,4645,-408.0
2020-12-06,4116,-666.0,177.75,4116,-666.0
2020-12-07,3313,-52.5,1182.0,3313,-52.5
2020-12-08,4011,1698.0,1065.0,4011,1698.0
2020-12-09,6709,2077.5,-446.5,6709,2077.5
2020-12-10,8166,805.0,-1109.75,8166,805.0
2020-12-11,8319,-142.0,-482.5,8319,-142.0
2020-12-12,7882,-160.0,-608.75,7882,-160.0
2020-12-13,7999,-1359.5,-31.75,7999,-1359.5
2020-12-14,5163,-223.5,1891.0,5163,-223.5
2020-12-15,7552,2422.5,505.25,7552,2422.5
2020-12-16,10008,787.0,-1532.0,10008,787.0
2020-12-17,9126,-641.5,59.75,9126,-641.5
2020-12-18,8725,906.5,-1860.5,8725,906.5
2020-12-19,10939,-4362.5,-5922.75,10939,-4362.5
2020-12-20,0,-10939.0,-6576.5,0,-10939.0
