date, confirmed_daily_cases, first_order,second_order, confirmed_daily_cases_outlier_removed,first_order_outlier_removed,second_order_outlier_removed
2020-01-01,0,0.0,0.0,0,0.0
2020-01-02,0,0.0,0.0,0,0.0
2020-01-03,0,0.0,0.0,0,0.0
2020-01-04,0,0.0,0.0,0,0.0
2020-01-05,0,0.0,0.0,0,0.0
2020-01-06,0,0.0,0.0,0,0.0
2020-01-07,0,0.0,0.0,0,0.0
2020-01-08,0,0.0,0.0,0,0.0
2020-01-09,0,0.0,0.0,0,0.0
2020-01-10,0,0.0,0.0,0,0.0
2020-01-11,0,0.0,0.0,0,0.0
2020-01-12,0,0.0,0.0,0,0.0
2020-01-13,0,0.0,0.0,0,0.0
2020-01-14,0,0.0,0.0,0,0.0
2020-01-15,0,0.0,0.0,0,0.0
2020-01-16,0,0.0,0.0,0,0.0
2020-01-17,0,0.0,0.0,0,0.0
2020-01-18,0,0.0,0.0,0,0.0
2020-01-19,0,0.0,0.0,0,0.0
2020-01-20,0,0.0,0.0,0,0.0
2020-01-21,0,0.0,0.0,0,0.0
2020-01-22,0,0.0,0.0,0,0.0
2020-01-23,0,0.0,0.0,0,0.0
2020-01-24,0,0.0,0.0,0,0.0
2020-01-25,0,0.0,0.0,0,0.0
2020-01-26,0,0.0,0.0,0,0.0
2020-01-27,0,0.0,0.0,0,0.0
2020-01-28,0,0.0,0.0,0,0.0
2020-01-29,0,0.0,0.0,0,0.0
2020-01-30,0,0.0,0.0,0,0.0
2020-01-31,0,0.0,0.0,0,0.0
2020-02-01,0,0.0,0.0,0,0.0
2020-02-02,0,0.0,0.0,0,0.0
2020-02-03,0,0.0,0.0,0,0.0
2020-02-04,0,0.0,0.0,0,0.0
2020-02-05,0,0.0,0.0,0,0.0
2020-02-06,0,0.0,0.0,0,0.0
2020-02-07,0,0.0,0.0,0,0.0
2020-02-08,0,0.0,0.0,0,0.0
2020-02-09,0,0.0,0.0,0,0.0
2020-02-10,0,0.0,0.0,0,0.0
2020-02-11,0,0.0,0.0,0,0.0
2020-02-12,0,0.0,0.0,0,0.0
2020-02-13,0,0.0,0.0,0,0.0
2020-02-14,0,0.0,0.0,0,0.0
2020-02-15,0,0.0,0.0,0,0.0
2020-02-16,0,0.0,0.0,0,0.0
2020-02-17,0,0.0,0.0,0,0.0
2020-02-18,0,0.0,0.0,0,0.0
2020-02-19,0,0.0,0.0,0,0.0
2020-02-20,0,0.0,0.0,0,0.0
2020-02-21,0,0.0,0.0,0,0.0
2020-02-22,0,0.0,0.0,0,0.0
2020-02-23,0,0.0,0.25,0,0.0
2020-02-24,0,0.5,0.0,0,0.5
2020-02-25,1,0.0,1.25,1,0.0
2020-02-26,0,3.0,0.0,0,3.0
2020-02-27,7,0.0,-0.75,7,0.0
2020-02-28,0,1.5,2.25,0,1.5
2020-02-29,10,4.5,0.5,10,4.5
2020-03-01,9,2.5,-1.0,9,2.5
2020-03-02,15,2.5,3.5,15,2.5
2020-03-03,14,9.5,1.25,14,9.5
2020-03-04,34,5.0,11.75,34,5.0
2020-03-05,24,33.0,5.0,24,33.0
2020-03-06,100,15.0,-24.25,100,15.0
2020-03-07,54,-15.5,-11.75,54,-15.5
2020-03-08,69,-8.5,19.75,69,-8.5
2020-03-09,37,24.0,35.25,37,24.0
2020-03-10,117,62.0,-41.25,117,62.0
2020-03-11,161,-58.5,50.5,161,-58.5
2020-03-12,0,163.0,84.25,0,163.0
2020-03-13,487,110.0,7.0,487,110.0
2020-03-14,220,177.0,-110.0,220,177.0
2020-03-15,841,-110.0,-173.75,841,-110.0
2020-03-16,0,-170.5,137.0,0,-170.5
2020-03-17,500,164.0,222.0,500,164.0
2020-03-18,328,273.5,140.75,328,273.5
2020-03-19,1047,445.5,-78.25,1047,445.5
2020-03-20,1219,117.0,-302.75,1219,117.0
2020-03-21,1281,-160.0,-48.5,1281,-160.0
2020-03-22,899,20.0,125.75,899,20.0
2020-03-23,1321,91.5,-85.25,1321,91.5
2020-03-24,1082,-150.5,-87.75,1082,-150.5
2020-03-25,1020,-84.0,99.5,1020,-84.0
2020-03-26,914,48.5,100.5,914,48.5
2020-03-27,1117,117.0,-115.25,1117,117.0
2020-03-28,1148,-182.0,-72.25,1148,-182.0
2020-03-29,753,-27.5,73.5,753,-27.5
2020-03-30,1093,-35.0,31.25,1093,-35.0
2020-03-31,683,35.0,111.5,683,35.0
2020-04-01,1163,188.0,-113.5,1163,188.0
2020-04-02,1059,-192.0,-134.0,1059,-192.0
2020-04-03,779,-80.0,50.0,779,-80.0
2020-04-04,899,-92.0,-45.5,899,-92.0
2020-04-05,595,-171.0,46.25,595,-171.0
2020-04-06,557,0.5,203.0,557,0.5
2020-04-07,596,235.0,43.5,596,235.0
2020-04-08,1027,87.5,-249.25,1027,87.5
2020-04-09,771,-263.5,-97.5,771,-263.5
2020-04-10,500,-107.5,83.75,500,-107.5
2020-04-11,556,-96.0,-17.0,556,-96.0
2020-04-12,308,-141.5,33.0,308,-141.5
2020-04-13,273,-30.0,102.5,273,-30.0
2020-04-14,248,63.5,52.0,248,63.5
2020-04-15,400,74.0,-45.25,400,74.0
2020-04-16,396,-27.0,-54.5,396,-27.0
2020-04-17,346,-35.0,11.0,346,-35.0
2020-04-18,326,-5.0,-13.0,326,-5.0
2020-04-19,336,-61.0,-51.75,336,-61.0
2020-04-20,204,-108.5,30.75,204,-108.5
2020-04-21,119,0.5,81.5,119,0.5
2020-04-22,205,54.5,-6.25,205,54.5
2020-04-23,228,-12.0,-30.0,228,-12.0
2020-04-24,181,-5.5,2.5,181,-5.5
2020-04-25,217,-7.0,-25.75,217,-7.0
2020-04-26,167,-57.0,-13.25,167,-57.0
2020-04-27,103,-33.5,38.5,103,-33.5
2020-04-28,100,20.0,36.5,100,20.0
2020-04-29,143,39.5,-16.0,143,39.5
2020-04-30,179,-12.0,-36.5,179,-12.0
2020-05-01,119,-33.5,-1.75,119,-33.5
2020-05-02,112,-15.5,7.75,112,-15.5
2020-05-03,88,-18.0,-7.25,88,-18.0
2020-05-04,76,-30.0,2.75,76,-30.0
2020-05-05,28,-12.5,24.5,28,-12.5
2020-05-06,51,19.0,13.75,51,19.0
2020-05-07,66,15.0,-15.0,66,15.0
2020-05-08,81,-11.0,-14.25,81,-11.0
2020-05-09,44,-13.5,4.25,44,-13.5
2020-05-10,54,-2.5,2.25,54,-2.5
2020-05-11,39,-9.0,-0.25,39,-9.0
2020-05-12,36,-3.0,8.0,36,-3.0
2020-05-13,33,7.0,6.0,33,7.0
2020-05-14,50,9.0,-1.5,50,9.0
2020-05-15,51,4.0,-13.5,51,4.0
2020-05-16,58,-18.0,-14.0,58,-18.0
2020-05-17,15,-24.0,10.5,15,-24.0
2020-05-18,10,3.0,19.5,10,3.0
2020-05-19,21,15.0,2.25,21,15.0
2020-05-20,40,7.5,-14.25,40,7.5
2020-05-21,36,-13.5,-8.25,36,-13.5
2020-05-22,13,-9.0,6.25,13,-9.0
2020-05-23,18,-1.0,2.5,18,-1.0
2020-05-24,11,-4.0,1.5,11,-4.0
2020-05-25,10,2.0,3.25,10,2.0
2020-05-26,15,2.5,0.25,15,2.5
2020-05-27,15,2.5,3.0,15,2.5
2020-05-28,20,8.5,-2.0,20,8.5
2020-05-29,32,-1.5,-8.0,32,-1.5
2020-05-30,17,-7.5,-1.25,17,-7.5
2020-05-31,17,-4.0,0.25,17,-4.0
2020-06-01,9,-7.0,4.5,9,-7.0
2020-06-02,3,5.0,7.75,3,5.0
2020-06-03,19,8.5,-1.5,19,8.5
2020-06-04,20,2.0,-4.25,20,2.0
2020-06-05,23,0.0,-4.5,23,0.0
2020-06-06,20,-7.0,-3.25,20,-7.0
2020-06-07,9,-6.5,5.25,9,-6.5
2020-06-08,7,3.5,7.25,7,3.5
2020-06-09,16,8.0,2.5,16,8.0
2020-06-10,23,8.5,-5.0,23,8.5
2020-06-11,33,-2.0,-4.75,33,-2.0
2020-06-12,19,-1.0,2.0,19,-1.0
2020-06-13,31,2.0,-3.75,31,2.0
2020-06-14,23,-8.5,-1.0,23,-8.5
2020-06-15,14,0.0,9.0,14,0.0
2020-06-16,23,9.5,-2.5,23,9.5
2020-06-17,33,-5.0,-4.25,33,-5.0
2020-06-18,13,1.0,1.25,13,1.0
2020-06-19,35,-2.5,3.0,35,-2.5
2020-06-20,8,7.0,3.75,8,7.0
2020-06-21,49,5.0,-10.25,49,5.0
2020-06-22,18,-13.5,4.0,18,-13.5
2020-06-23,22,13.0,14.25,22,13.0
2020-06-24,44,15.0,-3.0,44,15.0
2020-06-25,52,7.0,-3.25,52,7.0
2020-06-26,58,8.5,-2.5,58,8.5
2020-06-27,69,2.0,-12.75,69,2.0
2020-06-28,62,-17.0,-1.0,62,-17.0
2020-06-29,35,0.0,34.0,35,0.0
2020-06-30,62,51.0,13.5,62,51.0
2020-07-01,137,27.0,-26.25,137,27.0
2020-07-02,116,-1.5,-18.25,116,-1.5
2020-07-03,134,-9.5,-15.25,134,-9.5
2020-07-04,97,-32.0,-7.75,97,-32.0
2020-07-05,70,-25.0,12.0,70,-25.0
2020-07-06,47,-8.0,33.0,47,-8.0
2020-07-07,54,41.0,12.5,54,41.0
2020-07-08,129,17.0,-26.75,129,17.0
2020-07-09,88,-12.5,1.25,88,-12.5
2020-07-10,104,19.5,-3.25,104,19.5
2020-07-11,127,-19.0,-25.75,127,-19.0
2020-07-12,66,-32.0,10.5,66,-32.0
2020-07-13,63,2.0,33.25,63,2.0
2020-07-14,70,34.5,17.0,70,34.5
2020-07-15,132,36.0,-27.25,132,36.0
2020-07-16,142,-20.0,-26.0,142,-20.0
2020-07-17,92,-16.0,11.75,92,-16.0
2020-07-18,110,3.5,-8.75,110,3.5
2020-07-19,99,-33.5,0.5,99,-33.5
2020-07-20,43,4.5,41.25,43,4.5
2020-07-21,108,49.0,0.0,108,49.0
2020-07-22,141,4.5,-21.25,141,4.5
2020-07-23,117,6.5,5.5,117,6.5
2020-07-24,154,15.5,-14.25,154,15.5
2020-07-25,148,-22.0,-28.5,148,-22.0
2020-07-26,110,-41.5,16.5,110,-41.5
2020-07-27,65,11.0,52.75,65,11.0
2020-07-28,132,64.0,16.5,132,64.0
2020-07-29,193,44.0,-27.75,193,44.0
2020-07-30,220,8.5,-32.0,220,8.5
2020-07-31,210,-20.0,-22.25,210,-20.0
2020-08-01,180,-36.0,-18.5,180,-36.0
2020-08-02,138,-57.0,16.0,138,-57.0
2020-08-03,66,-4.0,57.25,66,-4.0
2020-08-04,130,57.5,14.75,130,57.5
2020-08-05,181,25.5,-33.75,181,25.5
2020-08-06,181,-10.0,-12.5,181,-10.0
2020-08-07,161,0.5,2.75,161,0.5
2020-08-08,182,-4.5,-19.5,182,-4.5
2020-08-09,152,-38.5,11.0,152,-38.5
2020-08-10,105,17.5,61.5,105,17.5
2020-08-11,187,84.5,3.0,187,84.5
2020-08-12,274,23.5,-43.75,274,23.5
2020-08-13,234,-3.0,-7.0,234,-3.0
2020-08-14,268,9.5,-15.5,268,9.5
2020-08-15,253,-34.0,-36.0,253,-34.0
2020-08-16,200,-62.5,16.25,200,-62.5
2020-08-17,128,-1.5,77.0,128,-1.5
2020-08-18,197,91.5,18.0,197,91.5
2020-08-19,311,34.5,-47.0,311,34.5
2020-08-20,266,-2.5,-10.0,266,-2.5
2020-08-21,306,14.5,-6.25,306,14.5
2020-08-22,295,-15.0,-41.75,295,-15.0
2020-08-23,276,-69.0,-11.0,276,-69.0
2020-08-24,157,-37.0,91.0,157,-37.0
2020-08-25,202,113.0,58.25,202,113.0
2020-08-26,383,79.5,-67.25,383,79.5
2020-08-27,361,-21.5,-36.0,361,-21.5
2020-08-28,340,7.5,-1.25,340,7.5
2020-08-29,376,-24.0,-57.0,376,-24.0
2020-08-30,292,-106.5,-7.0,292,-106.5
2020-08-31,163,-38.0,105.0,163,-38.0
2020-09-01,216,103.5,56.0,216,103.5
2020-09-02,370,74.0,-43.0,370,74.0
2020-09-03,364,17.5,-21.75,364,17.5
2020-09-04,405,30.5,1.0,405,30.5
2020-09-05,425,19.5,-73.75,425,19.5
2020-09-06,444,-117.0,-59.5,444,-117.0
2020-09-07,191,-99.5,128.0,191,-99.5
2020-09-08,245,139.0,89.75,245,139.0
2020-09-09,469,80.0,-54.75,469,80.0
2020-09-10,405,29.5,-25.0,405,29.5
2020-09-11,528,30.0,-28.0,528,30.0
2020-09-12,465,-26.5,-67.0,465,-26.5
2020-09-13,475,-104.0,-26.75,475,-104.0
2020-09-14,257,-80.0,116.25,257,-80.0
2020-09-15,315,128.5,93.75,315,128.5
2020-09-16,514,107.5,-70.75,514,107.5
2020-09-17,530,-13.0,-186.25,530,-13.0
2020-09-18,488,-265.0,-115.5,488,-265.0
2020-09-19,0,-244.0,406.25,0,-244.0
2020-09-20,0,547.5,193.5,0,547.5
2020-09-21,1095,143.0,-438.25,1095,143.0
2020-09-22,286,-329.0,-45.25,286,-329.0
2020-09-23,437,52.5,148.25,437,52.5
2020-09-24,391,-32.5,-124.0,391,-32.5
2020-09-25,372,-195.5,-76.75,372,-195.5
2020-09-26,0,-186.0,293.25,0,-186.0
2020-09-27,0,391.0,149.25,0,391.0
2020-09-28,782,112.5,-288.25,782,112.5
2020-09-29,225,-185.5,25.0,225,-185.5
2020-09-30,411,162.5,128.0,411,162.5
2020-10-01,550,70.5,-218.75,550,70.5
2020-10-02,552,-275.0,-173.25,552,-275.0
2020-10-03,0,-276.0,524.5,0,-276.0
2020-10-04,0,774.0,313.0,0,774.0
2020-10-05,1548,350.0,-504.75,1548,350.0
2020-10-06,700,-235.5,-57.0,700,-235.5
2020-10-07,1077,236.0,220.25,1077,236.0
2020-10-08,1172,205.0,-411.0,1172,205.0
2020-10-09,1487,-586.0,-474.25,1487,-586.0
2020-10-10,0,-743.5,1310.0,0,-743.5
2020-10-11,0,2034.0,733.0,0,2034.0
2020-10-12,4068,722.5,-1328.25,4068,722.5
2020-10-13,1445,-622.5,-69.25,1445,-622.5
2020-10-14,2823,584.0,381.75,2823,584.0
2020-10-15,2613,141.0,-945.25,2613,141.0
2020-10-16,3105,-1306.5,-846.75,3105,-1306.5
2020-10-17,0,-1552.5,2837.5,0,-1552.5
2020-10-18,0,4368.5,1528.25,0,4368.5
2020-10-19,8737,1504.0,-2969.5,8737,1504.0
2020-10-20,3008,-1570.5,-190.0,3008,-1570.5
2020-10-21,5596,1124.0,1044.75,5596,1124.0
2020-10-22,5256,519.0,-1876.0,5256,519.0
2020-10-23,6634,-2628.0,-1918.0,6634,-2628.0
2020-10-24,0,-3317.0,5674.0,0,-3317.0
2020-10-25,0,8720.0,3145.75,0,8720.0
2020-10-26,17440,2974.5,-6566.0,17440,2974.5
2020-10-27,5949,-4412.0,-628.0,5949,-4412.0
2020-10-28,8616,1718.5,2353.75,8616,1718.5
2020-10-29,9386,295.5,-3205.75,9386,295.5
2020-10-30,9207,-4693.0,-2449.5,9207,-4693.0
2020-10-31,0,-4603.5,7828.0,0,-4603.5
2020-11-01,0,10963.0,3833.25,0,10963.0
2020-11-02,21926,3063.0,-8444.75,21926,3063.0
2020-11-03,6126,-5926.5,-531.0,6126,-5926.5
2020-11-04,10073,2001.0,2797.25,10073,2001.0
2020-11-05,10128,-332.0,-3532.5,10128,-332.0
2020-11-06,9409,-5064.0,-2186.25,9409,-5064.0
2020-11-07,0,-4704.5,6859.25,0,-4704.5
2020-11-08,0,8654.5,3847.25,0,8654.5
2020-11-09,17309,2990.0,-6587.0,17309,2990.0
2020-11-10,5980,-4519.5,-1259.0,5980,-4519.5
2020-11-11,8270,472.0,1877.0,8270,472.0
2020-11-12,6924,-765.5,-1967.0,6924,-765.5
2020-11-13,6739,-3462.0,-1302.0,6739,-3462.0
2020-11-14,0,-3369.5,4940.75,0,-3369.5
2020-11-15,0,6419.5,2824.75,0,6419.5
2020-11-16,12839,2280.0,-4891.0,12839,2280.0
2020-11-17,4560,-3362.5,-1028.25,4560,-3362.5
2020-11-18,6114,223.5,1389.25,6114,223.5
2020-11-19,5007,-584.0,-1363.5,5007,-584.0
2020-11-20,4946,-2503.5,-944.5,4946,-2503.5
2020-11-21,0,-2473.0,3689.5,0,-2473.0
2020-11-22,0,4875.5,2296.75,0,4875.5
2020-11-23,9751,2120.5,-3656.5,9751,2120.5
2020-11-24,4241,-2437.5,-993.25,4241,-2437.5
2020-11-25,4876,134.0,1077.75,4876,134.0
2020-11-26,4509,-282.0,-1194.25,4509,-282.0
2020-11-27,4312,-2254.5,-937.0,4312,-2254.5
2020-11-28,0,-2156.0,3322.75,0,-2156.0
2020-11-29,0,4391.0,2028.5,0,4391.0
2020-11-30,8782,1901.0,-3194.5,8782,1901.0
2020-12-01,3802,-1998.0,-787.25,3802,-1998.0
2020-12-02,4786,326.5,898.0,4786,326.5
2020-12-03,4455,-202.0,-1277.0,4455,-202.0
2020-12-04,4382,-2227.5,-994.5,4382,-2227.5
2020-12-05,0,-2191.0,3566.0,0,-2191.0
2020-12-06,0,4904.5,2161.0,0,4904.5
2020-12-07,9809,2131.0,-3633.0,9809,2131.0
2020-12-08,4262,-2361.5,-870.75,4262,-2361.5
2020-12-09,5086,389.5,1193.25,5086,389.5
2020-12-10,5041,25.0,-1455.0,5041,25.0
2020-12-11,5136,-2520.5,-1296.5,5136,-2520.5
2020-12-12,0,-2568.0,3941.75,0,-2568.0
2020-12-13,0,5363.0,2351.75,0,5363.0
2020-12-14,10726,2135.5,-3956.75,10726,2135.5
2020-12-15,4271,-2550.5,-871.0,4271,-2550.5
2020-12-16,5625,393.5,988.5,5625,393.5
2020-12-17,5058,-573.5,-1461.25,5058,-573.5
2020-12-18,4478,-2529.0,-832.75,4478,-2529.0
2020-12-19,0,-2239.0,1264.5,0,-2239.0
2020-12-20,0,0.0,2239.0,0,0.0
