date, confirmed_daily_cases, first_order,second_order, confirmed_daily_cases_outlier_removed,first_order_outlier_removed,second_order_outlier_removed
2020-01-01,0,0.0,0.0,0,0.0
2020-01-02,0,0.0,0.0,0,0.0
2020-01-03,0,0.0,0.0,0,0.0
2020-01-04,0,0.0,0.0,0,0.0
2020-01-05,0,0.0,0.0,0,0.0
2020-01-06,0,0.0,0.0,0,0.0
2020-01-07,0,0.0,0.0,0,0.0
2020-01-08,0,0.0,0.0,0,0.0
2020-01-09,0,0.0,0.0,0,0.0
2020-01-10,0,0.0,0.0,0,0.0
2020-01-11,0,0.0,0.0,0,0.0
2020-01-12,0,0.0,0.0,0,0.0
2020-01-13,0,0.0,0.0,0,0.0
2020-01-14,0,0.0,0.0,0,0.0
2020-01-15,0,0.0,0.0,0,0.0
2020-01-16,0,0.0,0.0,0,0.0
2020-01-17,0,0.0,0.0,0,0.0
2020-01-18,0,0.0,0.0,0,0.0
2020-01-19,0,0.0,0.0,0,0.0
2020-01-20,0,0.0,0.0,0,0.0
2020-01-21,0,0.0,0.0,0,0.0
2020-01-22,0,0.0,0.0,0,0.0
2020-01-23,0,0.0,0.0,0,0.0
2020-01-24,0,0.0,0.0,0,0.0
2020-01-25,0,0.0,0.0,0,0.0
2020-01-26,0,0.0,0.0,0,0.0
2020-01-27,0,0.0,0.0,0,0.0
2020-01-28,0,0.0,0.0,0,0.0
2020-01-29,0,0.0,0.0,0,0.0
2020-01-30,0,0.0,0.0,0,0.0
2020-01-31,0,0.0,0.0,0,0.0
2020-02-01,0,0.0,0.0,0,0.0
2020-02-02,0,0.0,0.0,0,0.0
2020-02-03,0,0.0,0.0,0,0.0
2020-02-04,0,0.0,0.0,0,0.0
2020-02-05,0,0.0,0.0,0,0.0
2020-02-06,0,0.0,0.0,0,0.0
2020-02-07,0,0.0,0.0,0,0.0
2020-02-08,0,0.0,0.0,0,0.0
2020-02-09,0,0.0,0.0,0,0.0
2020-02-10,0,0.0,0.0,0,0.0
2020-02-11,0,0.0,0.0,0,0.0
2020-02-12,0,0.0,0.0,0,0.0
2020-02-13,0,0.0,0.0,0,0.0
2020-02-14,0,0.0,0.0,0,0.0
2020-02-15,0,0.0,0.0,0,0.0
2020-02-16,0,0.0,0.0,0,0.0
2020-02-17,0,0.0,0.0,0,0.0
2020-02-18,0,0.0,0.0,0,0.0
2020-02-19,0,0.0,0.0,0,0.0
2020-02-20,0,0.0,0.0,0,0.0
2020-02-21,0,0.0,0.0,0,0.0
2020-02-22,0,0.0,0.0,0,0.0
2020-02-23,0,0.0,0.0,0,0.0
2020-02-24,0,0.0,0.0,0,0.0
2020-02-25,0,0.0,0.0,0,0.0
2020-02-26,0,0.0,0.0,0,0.0
2020-02-27,0,0.0,0.0,0,0.0
2020-02-28,0,0.0,0.0,0,0.0
2020-02-29,0,0.0,0.0,0,0.0
2020-03-01,0,0.0,0.0,0,0.0
2020-03-02,0,0.0,0.0,0,0.0
2020-03-03,0,0.0,0.0,0,0.0
2020-03-04,0,0.0,0.0,0,0.0
2020-03-05,0,0.0,0.0,0,0.0
2020-03-06,0,0.0,0.0,0,0.0
2020-03-07,0,0.0,0.0,0,0.0
2020-03-08,0,0.0,0.0,0,0.0
2020-03-09,0,0.0,0.0,0,0.0
2020-03-10,0,0.0,0.0,0,0.0
2020-03-11,0,0.0,0.0,0,0.0
2020-03-12,0,0.0,0.0,0,0.0
2020-03-13,0,0.0,0.0,0,0.0
2020-03-14,0,0.0,0.0,0,0.0
2020-03-15,0,0.0,0.0,0,0.0
2020-03-16,0,0.0,0.0,0,0.0
2020-03-17,0,0.0,0.0,0,0.0
2020-03-18,0,0.0,0.0,0,0.0
2020-03-19,0,0.0,0.0,0,0.0
2020-03-20,0,0.0,0.25,0,0.0
2020-03-21,0,0.5,0.0,0,0.5
2020-03-22,1,0.0,-0.5,1,0.0
2020-03-23,0,-0.5,1.0,0,-0.5
2020-03-24,0,2.0,0.25,0,2.0
2020-03-25,4,0.0,-2.0,4,0.0
2020-03-26,0,-2.0,0.0,0,-2.0
2020-03-27,0,0.0,2.0,0,0.0
2020-03-28,0,2.0,0.25,0,2.0
2020-03-29,4,0.5,-2.0,4,0.5
2020-03-30,1,-2.0,-0.5,1,-2.0
2020-03-31,0,-0.5,2.5,0,-0.5
2020-04-01,0,3.0,0.25,0,3.0
2020-04-02,6,0.0,-3.0,6,0.0
2020-04-03,0,-3.0,0.75,0,-3.0
2020-04-04,0,1.5,1.5,0,1.5
2020-04-05,3,0.0,-1.5,3,0.0
2020-04-06,0,-1.5,0.0,0,-1.5
2020-04-07,0,0.0,0.75,0,0.0
2020-04-08,0,0.0,0.0,0,0.0
2020-04-09,0,0.0,1.5,0,0.0
2020-04-10,0,3.0,0.0,0,3.0
2020-04-11,6,0.0,-3.0,6,0.0
2020-04-12,0,-3.0,1.0,0,-3.0
2020-04-13,0,2.0,2.5,0,2.0
2020-04-14,4,2.0,-2.0,4,2.0
2020-04-15,4,-2.0,-0.75,4,-2.0
2020-04-16,0,0.5,1.0,0,0.5
2020-04-17,5,0.0,-1.25,5,0.0
2020-04-18,0,-2.0,0.0,0,-2.0
2020-04-19,1,0.0,1.5,1,0.0
2020-04-20,0,1.0,0.0,0,1.0
2020-04-21,3,0.0,-1.25,3,0.0
2020-04-22,0,-1.5,0.0,0,-1.5
2020-04-23,0,0.0,0.75,0,0.0
2020-04-24,0,0.0,0.25,0,0.0
2020-04-25,0,0.5,0.0,0,0.5
2020-04-26,1,0.0,-0.5,1,0.0
2020-04-27,0,-0.5,0.0,0,-0.5
2020-04-28,0,0.0,0.25,0,0.0
2020-04-29,0,0.0,0.25,0,0.0
2020-04-30,0,0.5,0.0,0,0.5
2020-05-01,1,0.0,-0.5,1,0.0
2020-05-02,0,-0.5,0.0,0,-0.5
2020-05-03,0,0.0,0.25,0,0.0
2020-05-04,0,0.0,0.25,0,0.0
2020-05-05,0,0.5,0.0,0,0.5
2020-05-06,1,0.0,0.0,1,0.0
2020-05-07,0,0.5,0.0,0,0.5
2020-05-08,2,0.0,-0.75,2,0.0
2020-05-09,0,-1.0,0.0,0,-1.0
2020-05-10,0,0.0,0.5,0,0.0
2020-05-11,0,0.0,0.25,0,0.0
2020-05-12,0,0.5,0.0,0,0.5
2020-05-13,1,0.0,0.0,1,0.0
2020-05-14,0,0.5,0.25,0,0.5
2020-05-15,2,0.5,1.0,2,0.5
2020-05-16,1,2.5,-0.5,1,2.5
2020-05-17,7,-0.5,-3.0,7,-0.5
2020-05-18,0,-3.5,0.25,0,-3.5
2020-05-19,0,0.0,1.75,0,0.0
2020-05-20,0,0.0,0.25,0,0.0
2020-05-21,0,0.5,2.75,0,0.5
2020-05-22,1,5.5,3.5,1,5.5
2020-05-23,11,7.5,-0.5,11,7.5
2020-05-24,16,4.5,-4.0,16,4.5
2020-05-25,20,-0.5,-7.25,20,-0.5
2020-05-26,15,-10.0,-3.25,15,-10.0
2020-05-27,0,-7.0,5.0,0,-7.0
2020-05-28,1,0.0,3.25,1,0.0
2020-05-29,0,-0.5,0.0,0,-0.5
2020-05-30,0,0.0,0.5,0,0.0
2020-05-31,0,0.5,0.0,0,0.5
2020-06-01,1,0.0,-0.5,1,0.0
2020-06-02,0,-0.5,0.25,0,-0.5
2020-06-03,0,0.5,0.25,0,0.5
2020-06-04,1,0.0,-0.25,1,0.0
2020-06-05,0,0.0,4.0,0,0.0
2020-06-06,1,8.0,0.5,1,8.0
2020-06-07,16,1.0,-7.5,16,1.0
2020-06-08,3,-7.0,0.25,3,-7.0
2020-06-09,2,1.5,6.0,2,1.5
2020-06-10,6,5.0,-2.25,6,5.0
2020-06-11,12,-3.0,-4.0,12,-3.0
2020-06-12,0,-3.0,3.25,0,-3.0
2020-06-13,6,3.5,0.0,6,3.5
2020-06-14,7,-3.0,-3.5,7,-3.0
2020-06-15,0,-3.5,1.75,0,-3.5
2020-06-16,0,0.5,4.0,0,0.5
2020-06-17,1,4.5,-0.5,1,4.5
2020-06-18,9,-0.5,-1.75,9,-0.5
2020-06-19,0,1.0,1.75,0,1.0
2020-06-20,11,3.0,0.5,11,3.0
2020-06-21,6,2.0,0.0,6,2.0
2020-06-22,15,3.0,-4.75,15,3.0
2020-06-23,12,-7.5,-1.75,12,-7.5
2020-06-24,0,-0.5,7.0,0,-0.5
2020-06-25,11,6.5,-2.25,11,6.5
2020-06-26,13,-5.0,-6.5,13,-5.0
2020-06-27,1,-6.5,5.5,1,-6.5
2020-06-28,0,6.0,5.75,0,6.0
2020-06-29,13,5.0,-2.75,13,5.0
2020-06-30,10,0.5,-0.25,10,0.5
2020-07-01,14,4.5,0.25,14,4.5
2020-07-02,19,1.0,-4.5,19,1.0
2020-07-03,16,-4.5,0.5,16,-4.5
2020-07-04,10,2.0,3.25,10,2.0
2020-07-05,20,2.0,-6.0,20,2.0
2020-07-06,14,-10.0,-4.5,14,-10.0
2020-07-07,0,-7.0,5.0,0,-7.0
2020-07-08,0,0.0,9.0,0,0.0
2020-07-09,0,11.0,0.0,0,11.0
2020-07-10,22,0.0,-11.0,22,0.0
2020-07-11,0,-11.0,5.75,0,-11.0
2020-07-12,0,11.5,11.0,0,11.5
2020-07-13,23,11.0,-6.75,23,11.0
2020-07-14,22,-2.0,-6.25,22,-2.0
2020-07-15,19,-1.5,1.0,19,-1.5
2020-07-16,19,0.0,-4.0,19,0.0
2020-07-17,19,-9.5,-4.75,19,-9.5
2020-07-18,0,-9.5,11.25,0,-9.5
2020-07-19,0,13.0,9.25,0,13.0
2020-07-20,26,9.0,-7.75,26,9.0
2020-07-21,18,-2.5,-3.25,18,-2.5
2020-07-22,21,2.5,2.0,21,2.5
2020-07-23,23,1.5,-2.25,23,1.5
2020-07-24,24,-2.0,-1.0,24,-2.0
2020-07-25,19,-0.5,2.25,19,-0.5
2020-07-26,23,2.5,-0.5,23,2.5
2020-07-27,24,-1.5,-1.5,24,-1.5
2020-07-28,20,-0.5,1.0,20,-0.5
2020-07-29,23,0.5,-0.75,23,0.5
2020-07-30,21,-2.0,0.25,21,-2.0
2020-07-31,19,1.0,3.5,19,1.0
2020-08-01,23,5.0,3.25,23,5.0
2020-08-02,29,7.5,1.5,29,7.5
2020-08-03,38,8.0,-0.25,38,8.0
2020-08-04,45,7.0,-1.5,45,7.0
2020-08-05,52,5.0,-1.25,52,5.0
2020-08-06,55,4.5,0.0,55,4.5
2020-08-07,61,5.0,-1.75,61,5.0
2020-08-08,65,1.0,-2.0,65,1.0
2020-08-09,63,1.0,1.75,63,1.0
2020-08-10,67,4.5,-17.25,67,4.5
2020-08-11,72,-33.5,6.0,72,-33.5
2020-08-12,0,16.5,37.5,0,16.5
2020-08-13,105,41.5,-15.0,105,41.5
2020-08-14,83,-13.5,-20.5,83,-13.5
2020-08-15,78,0.5,9.0,78,0.5
2020-08-16,84,4.5,-1.25,84,4.5
2020-08-17,87,-2.0,-3.25,87,-2.0
2020-08-18,80,-2.0,1.25,80,-2.0
2020-08-19,83,0.5,-3.5,83,0.5
2020-08-20,81,-9.0,-3.0,81,-9.0
2020-08-21,65,-5.5,6.75,65,-5.5
2020-08-22,70,4.5,4.25,70,4.5
2020-08-23,74,3.0,-2.75,74,3.0
2020-08-24,76,-1.0,-1.75,76,-1.0
2020-08-25,72,-0.5,-1.5,72,-0.5
2020-08-26,75,-4.0,-3.75,75,-4.0
2020-08-27,64,-8.0,2.25,64,-8.0
2020-08-28,59,0.5,8.0,59,0.5
2020-08-29,65,8.0,-1.0,65,8.0
2020-08-30,75,-1.5,-6.5,75,-1.5
2020-08-31,62,-5.0,2.25,62,-5.0
2020-09-01,65,3.0,5.0,65,3.0
2020-09-02,68,5.0,-1.5,68,5.0
2020-09-03,75,0.0,-5.5,75,0.0
2020-09-04,68,-6.0,-0.25,68,-6.0
2020-09-05,63,-0.5,1.75,63,-0.5
2020-09-06,67,-2.5,-1.5,67,-2.5
2020-09-07,58,-3.5,2.25,58,-3.5
2020-09-08,60,2.0,3.0,60,2.0
2020-09-09,62,2.5,-1.5,62,2.5
2020-09-10,65,-1.0,-10.0,65,-1.0
2020-09-11,60,-17.5,-6.0,60,-17.5
2020-09-12,30,-13.0,10.25,30,-13.0
2020-09-13,34,3.0,7.5,34,3.0
2020-09-14,36,2.0,-0.5,36,2.0
2020-09-15,38,2.0,-1.25,38,2.0
2020-09-16,40,-0.5,-1.0,40,-0.5
2020-09-17,37,0.0,-0.5,37,0.0
2020-09-18,40,-1.5,-1.25,40,-1.5
2020-09-19,34,-2.5,0.5,34,-2.5
2020-09-20,35,-0.5,3.5,35,-0.5
2020-09-21,33,4.5,3.75,33,4.5
2020-09-22,44,7.0,-2.75,44,7.0
2020-09-23,47,-1.0,-6.5,47,-1.0
2020-09-24,42,-6.0,-0.75,42,-6.0
2020-09-25,35,-2.5,2.75,35,-2.5
2020-09-26,37,-0.5,-0.5,37,-0.5
2020-09-27,34,-3.5,3.25,34,-3.5
2020-09-28,30,6.0,7.25,30,6.0
2020-09-29,46,11.0,-2.75,46,11.0
2020-09-30,52,0.5,-8.0,52,0.5
2020-10-01,47,-5.0,-2.0,47,-5.0
2020-10-02,42,-3.5,1.25,42,-3.5
2020-10-03,40,-2.5,3.0,40,-2.5
2020-10-04,37,2.5,3.5,37,2.5
2020-10-05,45,4.5,-0.75,45,4.5
2020-10-06,46,1.0,1.75,46,1.0
2020-10-07,47,8.0,0.25,47,8.0
2020-10-08,62,1.5,-5.25,62,1.5
2020-10-09,50,-2.5,-2.0,50,-2.5
2020-10-10,57,-2.5,1.0,57,-2.5
2020-10-11,45,-0.5,3.0,45,-0.5
2020-10-12,56,3.5,0.5,56,3.5
2020-10-13,52,0.5,-2.75,52,0.5
2020-10-14,57,-2.0,-0.5,57,-2.0
2020-10-15,48,-0.5,0.5,48,-0.5
2020-10-16,56,-1.0,-2.75,56,-1.0
2020-10-17,46,-6.0,3.25,46,-6.0
2020-10-18,44,5.5,3.5,44,5.5
2020-10-19,57,1.0,-6.0,57,1.0
2020-10-20,46,-6.5,-1.25,46,-6.5
2020-10-21,44,-1.5,5.25,44,-1.5
2020-10-22,43,4.0,0.0,43,4.0
2020-10-23,52,-1.5,-2.75,52,-1.5
2020-10-24,40,-1.5,4.0,40,-1.5
2020-10-25,49,6.5,5.25,49,6.5
2020-10-26,53,9.0,-3.5,53,9.0
2020-10-27,67,-0.5,-8.0,67,-0.5
2020-10-28,52,-7.0,-0.25,52,-7.0
2020-10-29,53,-1.0,1.5,53,-1.0
2020-10-30,50,-4.0,3.25,50,-4.0
2020-10-31,45,5.5,4.25,45,5.5
2020-11-01,61,4.5,-6.75,61,4.5
2020-11-02,54,-8.0,3.25,54,-8.0
2020-11-03,45,11.0,11.75,45,11.0
2020-11-04,76,15.5,-9.0,76,15.5
2020-11-05,76,-7.0,-15.5,76,-7.0
2020-11-06,62,-15.5,5.0,62,-15.5
2020-11-07,45,3.0,13.75,45,3.0
2020-11-08,68,12.0,-1.5,68,12.0
2020-11-09,69,0.0,-6.0,69,0.0
2020-11-10,68,0.0,-0.75,68,0.0
2020-11-11,69,-1.5,-0.75,69,-1.5
2020-11-12,65,-1.5,-0.25,65,-1.5
2020-11-13,66,-2.0,2.0,66,-2.0
2020-11-14,61,2.5,4.5,61,2.5
2020-11-15,71,7.0,0.25,71,7.0
2020-11-16,75,3.0,-1.5,75,3.0
2020-11-17,77,4.0,-2.75,77,4.0
2020-11-18,83,-2.5,-0.75,83,-2.5
2020-11-19,72,2.5,2.0,72,2.5
2020-11-20,88,1.5,-5.5,88,1.5
2020-11-21,75,-8.5,-2.0,75,-8.5
2020-11-22,71,-2.5,5.0,71,-2.5
2020-11-23,70,1.5,6.25,70,1.5
2020-11-24,74,10.0,1.5,74,10.0
2020-11-25,90,4.5,-4.25,90,4.5
2020-11-26,83,1.5,-3.0,83,1.5
2020-11-27,93,-1.5,-3.5,93,-1.5
2020-11-28,80,-5.5,3.25,80,-5.5
2020-11-29,82,5.0,3.75,82,5.0
2020-11-30,90,2.0,-3.5,90,2.0
2020-12-01,86,-2.0,-0.5,86,-2.0
2020-12-02,86,1.0,1.0,86,1.0
2020-12-03,88,0.0,-0.75,88,0.0
2020-12-04,86,-0.5,-0.75,86,-0.5
2020-12-05,87,-1.5,0.25,87,-1.5
2020-12-06,83,0.0,2.5,83,0.0
2020-12-07,87,3.5,2.0,87,3.5
2020-12-08,90,4.0,3.75,90,4.0
2020-12-09,95,11.0,5.25,95,11.0
2020-12-10,112,14.5,-1.0,112,14.5
2020-12-11,124,9.0,-7.0,124,9.0
2020-12-12,130,0.5,-3.0,130,0.5
2020-12-13,125,3.0,6.0,125,3.0
2020-12-14,136,12.5,2.25,136,12.5
2020-12-15,150,7.5,-4.75,150,7.5
2020-12-16,151,3.0,0.75,151,3.0
2020-12-17,156,9.0,-10.0,156,9.0
2020-12-18,169,-17.0,-46.75,169,-17.0
2020-12-19,122,-84.5,-52.5,122,-84.5
2020-12-20,0,-122.0,-37.5,0,-122.0
