date, confirmed_daily_cases, first_order,second_order, confirmed_daily_cases_outlier_removed,first_order_outlier_removed,second_order_outlier_removed
2020-01-01,0,0.0,0.0,0,0.0
2020-01-02,0,0.0,0.0,0,0.0
2020-01-03,0,0.0,0.0,0,0.0
2020-01-04,0,0.0,0.0,0,0.0
2020-01-05,0,0.0,0.0,0,0.0
2020-01-06,0,0.0,0.0,0,0.0
2020-01-07,0,0.0,0.0,0,0.0
2020-01-08,0,0.0,0.0,0,0.0
2020-01-09,0,0.0,0.0,0,0.0
2020-01-10,0,0.0,0.0,0,0.0
2020-01-11,0,0.0,0.0,0,0.0
2020-01-12,0,0.0,0.0,0,0.0
2020-01-13,0,0.0,0.0,0,0.0
2020-01-14,0,0.0,0.0,0,0.0
2020-01-15,0,0.0,0.0,0,0.0
2020-01-16,0,0.0,0.0,0,0.0
2020-01-17,0,0.0,0.0,0,0.0
2020-01-18,0,0.0,0.0,0,0.0
2020-01-19,0,0.0,0.0,0,0.0
2020-01-20,0,0.0,0.25,0,0.0
2020-01-21,0,0.5,0.0,0,0.5
2020-01-22,1,0.0,0.0,1,0.0
2020-01-23,0,0.5,0.0,0,0.5
2020-01-24,2,0.0,-0.5,2,0.0
2020-01-25,0,-0.5,0.25,0,-0.5
2020-01-26,1,0.5,0.75,1,0.5
2020-01-27,1,1.0,-0.5,1,1.0
2020-01-28,3,-0.5,-1.0,3,-0.5
2020-01-29,0,-1.0,0.5,0,-1.0
2020-01-30,1,0.5,0.25,1,0.5
2020-01-31,1,-0.5,-0.5,1,-0.5
2020-02-01,0,-0.5,0.25,0,-0.5
2020-02-02,0,0.0,0.5,0,0.0
2020-02-03,0,0.5,0.0,0,0.5
2020-02-04,1,0.0,0.75,1,0.0
2020-02-05,0,2.0,0.0,0,2.0
2020-02-06,5,0.0,-2.0,5,0.0
2020-02-07,0,-2.0,0.25,0,-2.0
2020-02-08,1,0.5,0.75,1,0.5
2020-02-09,1,-0.5,-0.5,1,-0.5
2020-02-10,0,-0.5,0.25,0,-0.5
2020-02-11,0,0.0,0.25,0,0.0
2020-02-12,0,0.0,0.0,0,0.0
2020-02-13,0,0.0,0.0,0,0.0
2020-02-14,0,0.0,0.5,0,0.0
2020-02-15,0,1.0,0.5,0,1.0
2020-02-16,2,1.0,-1.0,2,1.0
2020-02-17,2,-1.0,-0.75,2,-1.0
2020-02-18,0,-0.5,0.75,0,-0.5
2020-02-19,1,0.5,0.5,1,0.5
2020-02-20,1,0.5,-0.5,1,0.5
2020-02-21,2,-0.5,-0.25,2,-0.5
2020-02-22,0,0.0,0.75,0,0.0
2020-02-23,2,1.0,-0.25,2,1.0
2020-02-24,2,-0.5,-0.75,2,-0.5
2020-02-25,1,-0.5,0.0,1,-0.5
2020-02-26,1,-0.5,0.5,1,-0.5
2020-02-27,0,0.5,1.5,0,0.5
2020-02-28,2,2.5,-0.5,2,2.5
2020-02-29,5,-0.5,-2.25,5,-0.5
2020-03-01,1,-2.0,0.25,1,-2.0
2020-03-02,1,0.0,0.75,1,0.0
2020-03-03,1,-0.5,0.25,1,-0.5
2020-03-04,0,0.5,0.5,0,0.5
2020-03-05,2,0.5,-0.75,2,0.5
2020-03-06,1,-1.0,-0.5,1,-1.0
2020-03-07,0,-0.5,0.5,0,-0.5
2020-03-08,0,0.0,0.75,0,0.0
2020-03-09,0,1.0,0.25,0,1.0
2020-03-10,2,0.5,-0.75,2,0.5
2020-03-11,1,-0.5,-0.25,1,-0.5
2020-03-12,1,0.0,0.75,1,0.0
2020-03-13,1,1.0,1.25,1,1.0
2020-03-14,3,2.5,0.75,3,2.5
2020-03-15,6,2.5,-0.25,6,2.5
2020-03-16,8,2.0,2.5,8,2.0
2020-03-17,10,7.5,-1.5,10,7.5
2020-03-18,23,-1.0,-2.75,23,-1.0
2020-03-19,8,2.0,3.0,8,2.0
2020-03-20,27,5.0,-3.75,27,5.0
2020-03-21,18,-5.5,-0.5,18,-5.5
2020-03-22,16,4.0,3.75,16,4.0
2020-03-23,26,2.0,-3.5,26,2.0
2020-03-24,20,-3.0,-1.75,20,-3.0
2020-03-25,20,-1.5,0.25,20,-1.5
2020-03-26,17,-2.5,0.5,17,-2.5
2020-03-27,15,-0.5,1.25,15,-0.5
2020-03-28,16,0.0,-1.75,16,0.0
2020-03-29,15,-4.0,0.25,15,-4.0
2020-03-30,8,0.5,1.75,8,0.5
2020-03-31,16,-0.5,-1.75,16,-0.5
2020-04-01,7,-3.0,0.75,7,-3.0
2020-04-02,10,1.0,0.75,10,1.0
2020-04-03,9,-1.5,-0.75,9,-1.5
2020-04-04,7,-0.5,1.5,7,-0.5
2020-04-05,8,1.5,-1.0,8,1.5
2020-04-06,10,-2.5,-2.5,10,-2.5
2020-04-07,3,-3.5,0.75,3,-3.5
2020-04-08,3,-1.0,1.5,3,-1.0
2020-04-09,1,-0.5,1.0,1,-0.5
2020-04-10,2,1.0,0.5,2,1.0
2020-04-11,3,0.5,0.0,3,0.5
2020-04-12,3,1.0,-1.0,3,1.0
2020-04-13,5,-1.5,-1.25,5,-1.5
2020-04-14,0,-1.5,0.75,0,-1.5
2020-04-15,2,0.0,0.25,2,0.0
2020-04-16,0,-1.0,0.75,0,-1.0
2020-04-17,0,1.5,6.0,0,1.5
2020-04-18,3,11.0,-1.0,3,11.0
2020-04-19,22,-0.5,-10.25,22,-0.5
2020-04-20,2,-9.5,0.0,2,-9.5
2020-04-21,3,-0.5,4.25,3,-0.5
2020-04-22,1,-1.0,0.25,1,-1.0
2020-04-23,1,0.0,0.5,1,0.0
2020-04-24,1,0.0,-0.25,1,0.0
2020-04-25,1,-0.5,-0.25,1,-0.5
2020-04-26,0,-0.5,0.25,0,-0.5
2020-04-27,0,0.0,0.25,0,0.0
2020-04-28,0,0.0,0.0,0,0.0
2020-04-29,0,0.0,0.0,0,0.0
2020-04-30,0,0.0,0.75,0,0.0
2020-05-01,0,1.5,1.0,0,1.5
2020-05-02,3,2.0,-1.0,3,2.0
2020-05-03,4,-0.5,-2.0,4,-0.5
2020-05-04,2,-2.0,0.0,2,-2.0
2020-05-05,0,-0.5,1.25,0,-0.5
2020-05-06,1,0.5,0.0,1,0.5
2020-05-07,1,-0.5,-0.5,1,-0.5
2020-05-08,0,-0.5,0.25,0,-0.5
2020-05-09,0,0.0,0.25,0,0.0
2020-05-10,0,0.0,0.0,0,0.0
2020-05-11,0,0.0,0.0,0,0.0
2020-05-12,0,0.0,0.0,0,0.0
2020-05-13,0,0.0,0.0,0,0.0
2020-05-14,0,0.0,0.0,0,0.0
2020-05-15,0,0.0,0.0,0,0.0
2020-05-16,0,0.0,0.0,0,0.0
2020-05-17,0,0.0,0.0,0,0.0
2020-05-18,0,0.0,0.0,0,0.0
2020-05-19,0,0.0,0.0,0,0.0
2020-05-20,0,0.0,0.25,0,0.0
2020-05-21,0,0.5,0.0,0,0.5
2020-05-22,1,0.0,-0.5,1,0.0
2020-05-23,0,-0.5,0.0,0,-0.5
2020-05-24,0,0.0,0.25,0,0.0
2020-05-25,0,0.0,0.0,0,0.0
2020-05-26,0,0.0,0.0,0,0.0
2020-05-27,0,0.0,0.25,0,0.0
2020-05-28,0,0.5,0.0,0,0.5
2020-05-29,1,0.0,-0.5,1,0.0
2020-05-30,0,-0.5,0.25,0,-0.5
2020-05-31,0,0.5,0.25,0,0.5
2020-06-01,1,0.0,-0.5,1,0.0
2020-06-02,0,-0.5,0.0,0,-0.5
2020-06-03,0,0.0,0.25,0,0.0
2020-06-04,0,0.0,0.0,0,0.0
2020-06-05,0,0.0,0.0,0,0.0
2020-06-06,0,0.0,0.0,0,0.0
2020-06-07,0,0.0,0.0,0,0.0
2020-06-08,0,0.0,0.0,0,0.0
2020-06-09,0,0.0,0.0,0,0.0
2020-06-10,0,0.0,0.0,0,0.0
2020-06-11,0,0.0,0.0,0,0.0
2020-06-12,0,0.0,0.0,0,0.0
2020-06-13,0,0.0,0.5,0,0.0
2020-06-14,0,1.0,0.0,0,1.0
2020-06-15,2,0.0,-1.0,2,0.0
2020-06-16,0,-1.0,0.25,0,-1.0
2020-06-17,0,0.5,0.5,0,0.5
2020-06-18,1,0.0,-0.5,1,0.0
2020-06-19,0,-0.5,0.0,0,-0.5
2020-06-20,0,0.0,0.25,0,0.0
2020-06-21,0,0.0,0.0,0,0.0
2020-06-22,0,0.0,0.0,0,0.0
2020-06-23,0,0.0,0.25,0,0.0
2020-06-24,0,0.5,0.0,0,0.5
2020-06-25,1,0.0,-0.5,1,0.0
2020-06-26,0,-0.5,0.0,0,-0.5
2020-06-27,0,0.0,0.25,0,0.0
2020-06-28,0,0.0,0.0,0,0.0
2020-06-29,0,0.0,0.0,0,0.0
2020-06-30,0,0.0,0.25,0,0.0
2020-07-01,0,0.5,0.25,0,0.5
2020-07-02,1,0.5,-0.5,1,0.5
2020-07-03,1,-0.5,-0.5,1,-0.5
2020-07-04,0,-0.5,0.25,0,-0.5
2020-07-05,0,0.0,0.25,0,0.0
2020-07-06,0,0.0,0.0,0,0.0
2020-07-07,0,0.0,0.0,0,0.0
2020-07-08,0,0.0,0.0,0,0.0
2020-07-09,0,0.0,0.5,0,0.0
2020-07-10,0,1.0,0.0,0,1.0
2020-07-11,2,0.0,-1.0,2,0.0
2020-07-12,0,-1.0,0.0,0,-1.0
2020-07-13,0,0.0,0.5,0,0.0
2020-07-14,0,0.0,0.0,0,0.0
2020-07-15,0,0.0,0.0,0,0.0
2020-07-16,0,0.0,0.0,0,0.0
2020-07-17,0,0.0,0.0,0,0.0
2020-07-18,0,0.0,0.0,0,0.0
2020-07-19,0,0.0,0.0,0,0.0
2020-07-20,0,0.0,1.0,0,0.0
2020-07-21,0,2.0,0.0,0,2.0
2020-07-22,4,0.0,-1.25,4,0.0
2020-07-23,0,-0.5,0.0,0,-0.5
2020-07-24,3,0.0,-0.5,3,0.0
2020-07-25,0,-1.5,1.0,0,-1.5
2020-07-26,0,2.0,2.0,0,2.0
2020-07-27,4,2.5,-2.0,4,2.5
2020-07-28,5,-2.0,-2.5,5,-2.0
2020-07-29,0,-2.5,1.0,0,-2.5
2020-07-30,0,0.0,3.0,0,0.0
2020-07-31,0,3.5,0.25,0,3.5
2020-08-01,7,0.5,-3.5,7,0.5
2020-08-02,1,-3.5,0.0,1,-3.5
2020-08-03,0,0.5,1.75,0,0.5
2020-08-04,2,0.0,-0.5,2,0.0
2020-08-05,0,-0.5,0.0,0,-0.5
2020-08-06,1,0.0,0.5,1,0.0
2020-08-07,0,0.5,0.0,0,0.5
2020-08-08,2,0.0,-0.75,2,0.0
2020-08-09,0,-1.0,0.75,0,-1.0
2020-08-10,0,1.5,0.75,0,1.5
2020-08-11,3,0.5,-1.5,3,0.5
2020-08-12,1,-1.5,-0.5,1,-1.5
2020-08-13,0,-0.5,1.0,0,-0.5
2020-08-14,0,0.5,0.75,0,0.5
2020-08-15,1,1.0,-0.25,1,1.0
2020-08-16,2,0.0,-0.75,2,0.0
2020-08-17,1,-0.5,-0.25,1,-0.5
2020-08-18,1,-0.5,0.0,1,-0.5
2020-08-19,0,-0.5,0.5,0,-0.5
2020-08-20,0,0.5,0.25,0,0.5
2020-08-21,1,0.0,-0.5,1,0.0
2020-08-22,0,-0.5,0.0,0,-0.5
2020-08-23,0,0.0,0.25,0,0.0
2020-08-24,0,0.0,0.0,0,0.0
2020-08-25,0,0.0,0.0,0,0.0
2020-08-26,0,0.0,0.0,0,0.0
2020-08-27,0,0.0,0.25,0,0.0
2020-08-28,0,0.5,0.0,0,0.5
2020-08-29,1,0.0,-0.5,1,0.0
2020-08-30,0,-0.5,0.0,0,-0.5
2020-08-31,0,0.0,0.5,0,0.0
2020-09-01,0,0.5,0.0,0,0.5
2020-09-02,1,0.0,-0.25,1,0.0
2020-09-03,0,0.0,0.5,0,0.0
2020-09-04,1,1.0,0.0,1,1.0
2020-09-05,2,0.0,-0.75,2,0.0
2020-09-06,1,-0.5,0.0,1,-0.5
2020-09-07,1,0.0,0.0,1,0.0
2020-09-08,1,-0.5,0.0,1,-0.5
2020-09-09,0,0.0,0.75,0,0.0
2020-09-10,1,1.0,-0.25,1,1.0
2020-09-11,2,-0.5,-1.0,2,-0.5
2020-09-12,0,-1.0,0.5,0,-1.0
2020-09-13,0,0.5,0.5,0,0.5
2020-09-14,1,0.0,-0.25,1,0.0
2020-09-15,0,0.0,0.75,0,0.0
2020-09-16,1,1.5,-0.25,1,1.5
2020-09-17,3,-0.5,-0.75,3,-0.5
2020-09-18,0,0.0,0.5,0,0.0
2020-09-19,3,0.5,-0.25,3,0.5
2020-09-20,1,-0.5,-0.5,1,-0.5
2020-09-21,2,-0.5,-0.25,2,-0.5
2020-09-22,0,-1.0,0.25,0,-1.0
2020-09-23,0,0.0,0.75,0,0.0
2020-09-24,0,0.5,0.0,0,0.5
2020-09-25,1,0.0,-0.5,1,0.0
2020-09-26,0,-0.5,0.75,0,-0.5
2020-09-27,0,1.5,0.25,0,1.5
2020-09-28,3,0.0,-1.25,3,0.0
2020-09-29,0,-1.0,0.25,0,-1.0
2020-09-30,1,0.5,0.75,1,0.5
2020-10-01,1,0.5,-0.5,1,0.5
2020-10-02,2,-0.5,-0.75,2,-0.5
2020-10-03,0,-1.0,0.5,0,-1.0
2020-10-04,0,0.5,1.25,0,0.5
2020-10-05,1,1.5,0.0,1,1.5
2020-10-06,3,0.5,-1.25,3,0.5
2020-10-07,2,-1.0,0.0,2,-1.0
2020-10-08,1,0.5,0.25,1,0.5
2020-10-09,3,-0.5,-1.0,3,-0.5
2020-10-10,0,-1.5,0.75,0,-1.5
2020-10-11,0,1.0,1.0,0,1.0
2020-10-12,2,0.5,-1.0,2,0.5
2020-10-13,1,-1.0,-0.25,1,-1.0
2020-10-14,0,0.0,1.5,0,0.0
2020-10-15,1,2.0,-0.25,1,2.0
2020-10-16,4,-0.5,-2.0,4,-0.5
2020-10-17,0,-2.0,1.5,0,-2.0
2020-10-18,0,2.5,1.75,0,2.5
2020-10-19,5,1.5,-2.25,5,1.5
2020-10-20,3,-2.0,-0.5,3,-2.0
2020-10-21,1,0.5,0.75,1,0.5
2020-10-22,4,-0.5,-0.75,4,-0.5
2020-10-23,0,-1.0,0.25,0,-1.0
2020-10-24,2,0.0,0.0,2,0.0
2020-10-25,0,-1.0,0.0,0,-1.0
2020-10-26,0,0.0,0.5,0,0.0
2020-10-27,0,0.0,0.75,0,0.0
2020-10-28,0,1.5,0.25,0,1.5
2020-10-29,3,0.5,-1.25,3,0.5
2020-10-30,1,-1.0,0.25,1,-1.0
2020-10-31,1,1.0,1.5,1,1.0
2020-11-01,3,2.0,-0.25,3,2.0
2020-11-02,5,0.5,-2.0,5,0.5
2020-11-03,4,-2.0,-1.0,4,-2.0
2020-11-04,1,-1.5,1.75,1,-1.5
2020-11-05,1,1.5,0.5,1,1.5
2020-11-06,4,-0.5,-0.75,4,-0.5
2020-11-07,0,0.0,0.5,0,0.0
2020-11-08,4,0.5,-0.5,4,0.5
2020-11-09,1,-1.0,0.5,1,-1.0
2020-11-10,2,1.5,1.25,2,1.5
2020-11-11,4,1.5,0.25,4,1.5
2020-11-12,5,2.0,-1.25,5,2.0
2020-11-13,8,-1.0,-2.5,8,-1.0
2020-11-14,3,-3.0,0.0,3,-3.0
2020-11-15,2,-1.0,1.5,2,-1.0
2020-11-16,1,0.0,0.75,1,0.0
2020-11-17,2,0.5,0.0,2,0.5
2020-11-18,2,0.0,-0.25,2,0.0
2020-11-19,2,0.0,-0.5,2,0.0
2020-11-20,2,-1.0,1.0,2,-1.0
2020-11-21,0,2.0,0.75,0,2.0
2020-11-22,6,0.5,-2.5,6,0.5
2020-11-23,1,-3.0,0.75,1,-3.0
2020-11-24,0,2.0,2.0,0,2.0
2020-11-25,5,1.0,1.25,5,1.0
2020-11-26,2,4.5,1.25,2,4.5
2020-11-27,14,3.5,-5.0,14,3.5
2020-11-28,9,-5.5,2.0,9,-5.5
2020-11-29,3,7.5,3.0,3,7.5
2020-11-30,24,0.5,-8.25,24,0.5
2020-12-01,4,-9.0,-1.0,4,-9.0
2020-12-02,6,-1.5,4.0,6,-1.5
2020-12-03,1,-1.0,1.5,1,-1.0
2020-12-04,4,1.5,5.0,4,1.5
2020-12-05,4,9.0,-1.75,4,9.0
2020-12-06,22,-2.0,-9.5,22,-2.0
2020-12-07,0,-10.0,1.5,0,-10.0
2020-12-08,2,1.0,5.5,2,1.0
2020-12-09,2,1.0,-0.75,2,1.0
2020-12-10,4,-0.5,0.5,4,-0.5
2020-12-11,1,2.0,0.75,1,2.0
2020-12-12,8,1.0,-2.0,8,1.0
2020-12-13,3,-2.0,-0.75,3,-2.0
2020-12-14,4,-0.5,1.75,4,-0.5
2020-12-15,2,1.5,1.75,2,1.5
2020-12-16,7,3.0,-2.0,7,3.0
2020-12-17,8,-2.5,-2.5,8,-2.5
2020-12-18,2,-2.0,0.75,2,-2.0
2020-12-19,4,-1.0,-1.0,4,-1.0
2020-12-20,0,-4.0,-3.0,0,-4.0
