date, confirmed_daily_cases, first_order,second_order, confirmed_daily_cases_outlier_removed,first_order_outlier_removed,second_order_outlier_removed
2020-01-01,0,0.0,0.0,0,0.0
2020-01-02,0,0.0,0.0,0,0.0
2020-01-03,0,0.0,0.0,0,0.0
2020-01-04,0,0.0,0.0,0,0.0
2020-01-05,0,0.0,0.0,0,0.0
2020-01-06,0,0.0,0.0,0,0.0
2020-01-07,0,0.0,0.0,0,0.0
2020-01-08,0,0.0,0.0,0,0.0
2020-01-09,0,0.0,0.0,0,0.0
2020-01-10,0,0.0,0.0,0,0.0
2020-01-11,0,0.0,0.0,0,0.0
2020-01-12,0,0.0,0.0,0,0.0
2020-01-13,0,0.0,0.0,0,0.0
2020-01-14,0,0.0,0.0,0,0.0
2020-01-15,0,0.0,0.0,0,0.0
2020-01-16,0,0.0,0.0,0,0.0
2020-01-17,0,0.0,0.0,0,0.0
2020-01-18,0,0.0,0.0,0,0.0
2020-01-19,0,0.0,0.0,0,0.0
2020-01-20,0,0.0,0.5,0,0.0
2020-01-21,0,1.0,0.25,0,1.0
2020-01-22,2,0.5,-0.5,2,0.5
2020-01-23,1,0.0,0.0,1,0.0
2020-01-24,2,0.5,-0.25,2,0.5
2020-01-25,2,-0.5,-0.75,2,-0.5
2020-01-26,1,-1.0,1.5,1,-1.0
2020-01-27,0,2.5,0.5,0,2.5
2020-01-28,6,0.0,-2.75,6,0.0
2020-01-29,0,-3.0,1.25,0,-3.0
2020-01-30,0,2.5,1.5,0,2.5
2020-01-31,5,0.0,-2.5,5,0.0
2020-02-01,0,-2.5,0.0,0,-2.5
2020-02-02,0,0.0,2.75,0,0.0
2020-02-03,0,3.0,0.0,0,3.0
2020-02-04,6,0.0,-3.0,6,0.0
2020-02-05,0,-3.0,0.0,0,-3.0
2020-02-06,0,0.0,3.25,0,0.0
2020-02-07,0,3.5,0.0,0,3.5
2020-02-08,7,0.0,-3.5,7,0.0
2020-02-09,0,-3.5,0.25,0,-3.5
2020-02-10,0,0.5,1.75,0,0.5
2020-02-11,1,0.0,-0.5,1,0.0
2020-02-12,0,-0.5,0.0,0,-0.5
2020-02-13,0,0.0,0.25,0,0.0
2020-02-14,0,0.0,0.25,0,0.0
2020-02-15,0,0.5,0.25,0,0.5
2020-02-16,1,0.5,-0.5,1,0.5
2020-02-17,1,-0.5,-0.5,1,-0.5
2020-02-18,0,-0.5,0.25,0,-0.5
2020-02-19,0,0.0,0.25,0,0.0
2020-02-20,0,0.0,0.0,0,0.0
2020-02-21,0,0.0,0.0,0,0.0
2020-02-22,0,0.0,0.0,0,0.0
2020-02-23,0,0.0,0.5,0,0.0
2020-02-24,0,1.0,0.75,0,1.0
2020-02-25,2,1.5,-1.0,2,1.5
2020-02-26,3,-1.0,-1.25,3,-1.0
2020-02-27,0,-1.0,0.75,0,-1.0
2020-02-28,1,0.5,0.25,1,0.5
2020-02-29,1,-0.5,-0.25,1,-0.5
2020-03-01,0,0.0,0.25,0,0.0
2020-03-02,1,0.0,-0.25,1,0.0
2020-03-03,0,-0.5,1.0,0,-0.5
2020-03-04,0,2.0,0.5,0,2.0
2020-03-05,4,0.5,-1.5,4,0.5
2020-03-06,1,-1.0,-0.5,1,-1.0
2020-03-07,2,-0.5,0.0,2,-0.5
2020-03-08,0,-1.0,1.0,0,-1.0
2020-03-09,0,1.5,2.0,0,1.5
2020-03-10,3,3.0,1.25,3,3.0
2020-03-11,6,4.0,-1.75,6,4.0
2020-03-12,11,-0.5,-3.0,11,-0.5
2020-03-13,5,-2.0,7.0,5,-2.0
2020-03-14,7,13.5,7.5,7,13.5
2020-03-15,32,13.0,-7.25,32,13.0
2020-03-16,33,-1.0,-6.0,33,-1.0
2020-03-17,30,1.0,8.0,30,1.0
2020-03-18,35,15.0,3.25,35,15.0
2020-03-19,60,7.5,-0.25,60,7.5
2020-03-20,50,14.5,30.75,50,14.5
2020-03-21,89,69.0,1.0,89,69.0
2020-03-22,188,16.5,-55.0,188,16.5
2020-03-23,122,-41.0,-12.0,122,-41.0
2020-03-24,106,-7.5,21.75,106,-7.5
2020-03-25,107,2.5,-0.25,107,2.5
2020-03-26,111,-8.0,-1.75,111,-8.0
2020-03-27,91,-1.0,17.0,91,-1.0
2020-03-28,109,26.0,7.25,109,26.0
2020-03-29,143,13.5,-17.0,143,13.5
2020-03-30,136,-8.0,-10.75,136,-8.0
2020-03-31,127,-8.0,-1.75,127,-8.0
2020-04-01,120,-11.5,-0.25,120,-11.5
2020-04-02,104,-8.5,2.0,104,-8.5
2020-04-03,103,-7.5,4.0,103,-7.5
2020-04-04,89,-0.5,-5.75,89,-0.5
2020-04-05,102,-19.0,-15.75,102,-19.0
2020-04-06,51,-32.0,24.5,51,-32.0
2020-04-07,38,30.0,20.0,38,30.0
2020-04-08,111,8.0,-30.25,111,8.0
2020-04-09,54,-30.5,-6.25,54,-30.5
2020-04-10,50,-4.5,11.0,50,-4.5
2020-04-11,45,-8.5,-2.0,45,-8.5
2020-04-12,33,-8.5,4.5,33,-8.5
2020-04-13,28,0.5,4.75,28,0.5
2020-04-14,34,1.0,-1.5,34,1.0
2020-04-15,30,-2.5,-1.0,30,-2.5
2020-04-16,29,-1.0,2.25,29,-1.0
2020-04-17,28,2.0,1.5,28,2.0
2020-04-18,33,2.0,-2.5,33,2.0
2020-04-19,32,-3.0,-4.25,32,-3.0
2020-04-20,27,-6.5,-1.5,27,-6.5
2020-04-21,19,-6.0,1.75,19,-6.0
2020-04-22,15,-3.0,16.25,15,-3.0
2020-04-23,13,26.5,-1.75,13,26.5
2020-04-24,68,-6.5,-26.5,68,-6.5
2020-04-25,0,-26.5,5.5,0,-26.5
2020-04-26,15,4.5,11.25,15,4.5
2020-04-27,9,-4.0,-2.25,9,-4.0
2020-04-28,7,0.0,2.0,7,0.0
2020-04-29,9,0.0,-0.75,9,0.0
2020-04-30,7,-1.5,-0.25,7,-1.5
2020-05-01,6,-0.5,0.0,6,-0.5
2020-05-02,6,-1.5,3.25,6,-1.5
2020-05-03,3,6.0,0.25,3,6.0
2020-05-04,18,-1.0,-7.25,18,-1.0
2020-05-05,1,-8.5,1.0,1,-8.5
2020-05-06,1,1.0,6.0,1,1.0
2020-05-07,3,3.5,-0.25,3,3.5
2020-05-08,8,0.5,-2.5,8,0.5
2020-05-09,4,-1.5,0.25,4,-1.5
2020-05-10,5,1.0,0.0,5,1.0
2020-05-11,6,-1.5,-2.0,6,-1.5
2020-05-12,2,-3.0,0.5,2,-3.0
2020-05-13,0,-0.5,3.25,0,-0.5
2020-05-14,1,3.5,0.0,1,3.5
2020-05-15,7,-0.5,-2.75,7,-0.5
2020-05-16,0,-2.0,1.0,0,-2.0
2020-05-17,3,1.5,0.75,3,1.5
2020-05-18,3,-0.5,-1.25,3,-0.5
2020-05-19,2,-1.0,0.5,2,-1.0
2020-05-20,1,0.5,0.25,1,0.5
2020-05-21,3,-0.5,-0.25,3,-0.5
2020-05-22,0,0.0,0.25,0,0.0
2020-05-23,3,0.0,-0.25,3,0.0
2020-05-24,0,-0.5,0.75,0,-0.5
2020-05-25,2,1.5,2.0,2,1.5
2020-05-26,3,3.5,1.25,3,3.5
2020-05-27,9,4.0,-1.25,9,4.0
2020-05-28,11,1.0,-4.5,11,1.0
2020-05-29,11,-5.0,-2.25,11,-5.0
2020-05-30,1,-3.5,2.5,1,-3.5
2020-05-31,4,0.0,1.0,4,0.0
2020-06-01,1,-1.5,0.0,1,-1.5
2020-06-02,1,0.0,4.75,1,0.0
2020-06-03,1,8.0,0.0,1,8.0
2020-06-04,17,0.0,-7.75,17,0.0
2020-06-05,1,-7.5,1.75,1,-7.5
2020-06-06,2,3.5,5.0,2,3.5
2020-06-07,8,2.5,-3.25,8,2.5
2020-06-08,7,-3.0,-2.0,7,-3.0
2020-06-09,2,-1.5,1.0,2,-1.5
2020-06-10,4,-1.0,0.75,4,-1.0
2020-06-11,0,0.0,1.75,0,0.0
2020-06-12,4,2.5,-0.75,4,2.5
2020-06-13,5,-1.5,-2.5,5,-1.5
2020-06-14,1,-2.5,0.5,1,-2.5
2020-06-15,0,-0.5,1.25,0,-0.5
2020-06-16,0,0.0,1.75,0,0.0
2020-06-17,0,3.0,1.25,0,3.0
2020-06-18,6,2.5,-2.75,6,2.5
2020-06-19,5,-2.5,-2.25,5,-2.5
2020-06-20,1,-2.0,1.75,1,-2.0
2020-06-21,1,1.0,2.0,1,1.0
2020-06-22,3,2.0,-0.75,3,2.0
2020-06-23,5,-0.5,-2.25,5,-0.5
2020-06-24,2,-2.5,0.75,2,-2.5
2020-06-25,0,1.0,1.25,0,1.0
2020-06-26,4,0.0,-1.5,4,0.0
2020-06-27,0,-2.0,1.75,0,-2.0
2020-06-28,0,3.5,1.5,0,3.5
2020-06-29,7,1.0,-3.0,7,1.0
2020-06-30,2,-2.5,0.5,2,-2.5
2020-07-01,2,2.0,1.0,2,2.0
2020-07-02,6,-0.5,-1.25,6,-0.5
2020-07-03,1,-0.5,1.25,1,-0.5
2020-07-04,5,2.0,0.25,5,2.0
2020-07-05,5,0.0,-1.75,5,0.0
2020-07-06,5,-1.5,-1.25,5,-1.5
2020-07-07,2,-2.5,1.5,2,-2.5
2020-07-08,0,1.5,1.25,0,1.5
2020-07-09,5,0.0,1.5,5,0.0
2020-07-10,0,4.5,0.25,0,4.5
2020-07-11,14,0.5,-5.0,14,0.5
2020-07-12,1,-5.5,1.25,1,-5.5
2020-07-13,3,3.0,3.25,3,3.0
2020-07-14,7,1.0,-2.25,7,1.0
2020-07-15,5,-1.5,-1.0,5,-1.5
2020-07-16,4,-1.0,1.5,4,-1.0
2020-07-17,3,1.5,0.75,3,1.5
2020-07-18,7,0.5,-2.5,7,0.5
2020-07-19,4,-3.5,0.0,4,-3.5
2020-07-20,0,0.5,3.25,0,0.5
2020-07-21,5,3.0,3.0,5,3.0
2020-07-22,6,6.5,-3.0,6,6.5
2020-07-23,18,-3.0,-7.0,18,-3.0
2020-07-24,0,-7.5,3.75,0,-7.5
2020-07-25,3,4.5,4.5,3,4.5
2020-07-26,9,1.5,-4.5,9,1.5
2020-07-27,6,-4.5,-2.0,6,-4.5
2020-07-28,0,-2.5,3.75,0,-2.5
2020-07-29,1,3.0,2.5,1,3.0
2020-07-30,6,2.5,-2.5,6,2.5
2020-07-31,6,-2.0,-1.5,6,-2.0
2020-08-01,2,-0.5,1.25,2,-0.5
2020-08-02,5,0.5,-0.75,5,0.5
2020-08-03,3,-2.0,0.75,3,-2.0
2020-08-04,1,2.0,1.25,1,2.0
2020-08-05,7,0.5,1.0,7,0.5
2020-08-06,2,4.0,0.0,2,4.0
2020-08-07,15,0.5,-5.0,15,0.5
2020-08-08,3,-6.0,-1.0,3,-6.0
2020-08-09,3,-1.5,2.25,3,-1.5
2020-08-10,0,-1.5,2.0,0,-1.5
2020-08-11,0,2.5,1.5,0,2.5
2020-08-12,5,1.5,1.75,5,1.5
2020-08-13,3,6.0,-1.5,3,6.0
2020-08-14,17,-1.5,-6.75,17,-1.5
2020-08-15,0,-7.5,0.75,0,-7.5
2020-08-16,2,0.0,4.25,2,0.0
2020-08-17,0,1.0,0.0,0,1.0
2020-08-18,4,0.0,0.25,4,0.0
2020-08-19,0,1.5,0.25,0,1.5
2020-08-20,7,0.5,-2.5,7,0.5
2020-08-21,1,-3.5,0.75,1,-3.5
2020-08-22,0,2.0,3.5,0,2.0
2020-08-23,5,3.5,-2.25,5,3.5
2020-08-24,7,-2.5,-3.0,7,-2.5
2020-08-25,0,-2.5,2.75,0,-2.5
2020-08-26,2,3.0,1.0,2,3.0
2020-08-27,6,-0.5,-3.0,6,-0.5
2020-08-28,1,-3.0,0.0,1,-3.0
2020-08-29,0,-0.5,3.0,0,-0.5
2020-08-30,0,3.0,2.25,0,3.0
2020-08-31,6,4.0,-2.5,6,4.0
2020-09-01,8,-2.0,-3.0,8,-2.0
2020-09-02,2,-2.0,0.5,2,-2.0
2020-09-03,4,-1.0,3.25,4,-1.0
2020-09-04,0,4.5,0.75,0,4.5
2020-09-05,13,0.5,-5.25,13,0.5
2020-09-06,1,-6.0,-0.25,1,-6.0
2020-09-07,1,0.0,4.5,1,0.0
2020-09-08,1,3.0,1.5,1,3.0
2020-09-09,7,3.0,-3.25,7,3.0
2020-09-10,7,-3.5,-0.25,7,-3.5
2020-09-11,0,2.5,2.25,0,2.5
2020-09-12,12,1.0,-4.25,12,1.0
2020-09-13,2,-6.0,2.75,2,-6.0
2020-09-14,0,6.5,3.0,0,6.5
2020-09-15,15,0.0,-5.25,15,0.0
2020-09-16,0,-4.0,0.0,0,-4.0
2020-09-17,7,0.0,2.5,7,0.0
2020-09-18,0,1.0,0.0,0,1.0
2020-09-19,9,0.0,-1.5,9,0.0
2020-09-20,0,-2.0,0.75,0,-2.0
2020-09-21,5,1.5,0.25,5,1.5
2020-09-22,3,-1.5,-0.75,3,-1.5
2020-09-23,2,0.0,1.0,2,0.0
2020-09-24,3,0.5,-0.5,3,0.5
2020-09-25,3,-1.0,-1.0,3,-1.0
2020-09-26,1,-1.5,9.25,1,-1.5
2020-09-27,0,17.5,2.0,0,17.5
2020-09-28,36,2.5,-16.5,36,2.5
2020-09-29,5,-15.5,-1.0,5,-15.5
2020-09-30,5,0.5,8.5,5,0.5
2020-10-01,6,1.5,-1.25,6,1.5
2020-10-02,8,-2.0,-1.5,8,-2.0
2020-10-03,2,-1.5,3.0,2,-1.5
2020-10-04,5,4.0,3.25,5,4.0
2020-10-05,10,5.0,-2.75,10,5.0
2020-10-06,15,-1.5,-4.75,15,-1.5
2020-10-07,7,-4.5,0.5,7,-4.5
2020-10-08,6,-0.5,1.25,6,-0.5
2020-10-09,6,-2.0,0.0,6,-2.0
2020-10-10,2,-0.5,1.0,2,-0.5
2020-10-11,5,0.0,1.25,5,0.0
2020-10-12,2,2.0,-0.5,2,2.0
2020-10-13,9,-1.0,1.0,9,-1.0
2020-10-14,0,4.0,3.0,0,4.0
2020-10-15,17,5.0,-4.5,17,5.0
2020-10-16,10,-5.0,-3.75,10,-5.0
2020-10-17,7,-2.5,3.0,7,-2.5
2020-10-18,5,1.0,2.25,5,1.0
2020-10-19,9,2.0,-0.25,9,2.0
2020-10-20,9,0.5,-1.25,9,0.5
2020-10-21,10,-0.5,-1.75,10,-0.5
2020-10-22,8,-3.0,-0.5,8,-3.0
2020-10-23,4,-1.5,0.5,4,-1.5
2020-10-24,5,-2.0,2.0,5,-2.0
2020-10-25,0,2.5,4.25,0,2.5
2020-10-26,10,6.5,-2.75,10,6.5
2020-10-27,13,-3.0,-3.5,13,-3.0
2020-10-28,4,-0.5,1.75,4,-0.5
2020-10-29,12,0.5,-1.75,12,0.5
2020-10-30,5,-4.0,-0.75,5,-4.0
2020-10-31,4,-1.0,3.5,4,-1.0
2020-11-01,3,3.0,1.5,3,3.0
2020-11-02,10,2.0,-2.5,10,2.0
2020-11-03,7,-2.0,-0.75,7,-2.0
2020-11-04,6,0.5,2.5,6,0.5
2020-11-05,8,3.0,-0.5,8,3.0
2020-11-06,12,-0.5,-3.75,12,-0.5
2020-11-07,7,-4.5,-0.5,7,-4.5
2020-11-08,3,-1.5,2.25,3,-1.5
2020-11-09,4,0.0,1.0,4,0.0
2020-11-10,3,0.5,1.5,3,0.5
2020-11-11,5,3.0,-0.25,5,3.0
2020-11-12,9,0.0,-1.75,9,0.0
2020-11-13,5,-0.5,-1.0,5,-0.5
2020-11-14,8,-2.0,-1.0,8,-2.0
2020-11-15,1,-2.5,1.25,1,-2.5
2020-11-16,3,0.5,2.5,3,0.5
2020-11-17,2,2.5,0.25,2,2.5
2020-11-18,8,1.0,-0.75,8,1.0
2020-11-19,4,1.0,1.25,4,1.0
2020-11-20,10,3.5,-1.25,10,3.5
2020-11-21,11,-1.5,-4.0,11,-1.5
2020-11-22,7,-4.5,0.0,7,-4.5
2020-11-23,2,-1.5,5.75,2,-1.5
2020-11-24,4,7.0,4.5,4,7.0
2020-11-25,16,7.5,-6.25,16,7.5
2020-11-26,19,-5.5,-5.75,19,-5.5
2020-11-27,5,-4.0,6.75,5,-4.0
2020-11-28,11,8.0,1.75,11,8.0
2020-11-29,21,-0.5,-4.75,21,-0.5
2020-11-30,10,-1.5,-2.25,10,-1.5
2020-12-01,18,-5.0,3.0,18,-5.0
2020-12-02,0,4.5,7.25,0,4.5
2020-12-03,27,9.5,-5.5,27,9.5
2020-12-04,19,-6.5,-4.25,19,-6.5
2020-12-05,14,1.0,4.5,14,1.0
2020-12-06,21,2.5,0.5,21,2.5
2020-12-07,19,2.0,-1.5,19,2.0
2020-12-08,25,-0.5,-4.5,25,-0.5
2020-12-09,18,-7.0,-1.25,18,-7.0
2020-12-10,11,-3.0,5.0,11,-3.0
2020-12-11,12,3.0,5.5,12,3.0
2020-12-12,17,8.0,-3.5,17,8.0
2020-12-13,28,-4.0,-7.25,28,-4.0
2020-12-14,9,-6.5,4.75,9,-6.5
2020-12-15,15,5.5,3.5,15,5.5
2020-12-16,20,0.5,0.75,20,0.5
2020-12-17,16,7.0,139.75,16,7.0
2020-12-18,34,280.0,-12.0,34,280.0
2020-12-19,576,-17.0,-428.0,17,-17.0
2020-12-20,0,-576.0,-559.0,0,-576.0
