date, confirmed_daily_cases, first_order,second_order, confirmed_daily_cases_outlier_removed,first_order_outlier_removed,second_order_outlier_removed
2020-01-01,0,0.0,0.0,0,0.0
2020-01-02,0,0.0,0.0,0,0.0
2020-01-03,0,0.0,0.0,0,0.0
2020-01-04,0,0.0,0.0,0,0.0
2020-01-05,0,0.0,0.0,0,0.0
2020-01-06,0,0.0,0.0,0,0.0
2020-01-07,0,0.0,0.0,0,0.0
2020-01-08,0,0.0,0.0,0,0.0
2020-01-09,0,0.0,0.0,0,0.0
2020-01-10,0,0.0,0.0,0,0.0
2020-01-11,0,0.0,0.0,0,0.0
2020-01-12,0,0.0,0.0,0,0.0
2020-01-13,0,0.0,0.0,0,0.0
2020-01-14,0,0.0,0.0,0,0.0
2020-01-15,0,0.0,0.0,0,0.0
2020-01-16,0,0.0,0.0,0,0.0
2020-01-17,0,0.0,0.0,0,0.0
2020-01-18,0,0.0,0.0,0,0.0
2020-01-19,0,0.0,0.0,0,0.0
2020-01-20,0,0.0,0.0,0,0.0
2020-01-21,0,0.0,0.0,0,0.0
2020-01-22,0,0.0,0.0,0,0.0
2020-01-23,0,0.0,0.0,0,0.0
2020-01-24,0,0.0,0.0,0,0.0
2020-01-25,0,0.0,0.0,0,0.0
2020-01-26,0,0.0,0.0,0,0.0
2020-01-27,0,0.0,0.0,0,0.0
2020-01-28,0,0.0,0.0,0,0.0
2020-01-29,0,0.0,0.0,0,0.0
2020-01-30,0,0.0,0.0,0,0.0
2020-01-31,0,0.0,0.0,0,0.0
2020-02-01,0,0.0,0.0,0,0.0
2020-02-02,0,0.0,0.0,0,0.0
2020-02-03,0,0.0,0.0,0,0.0
2020-02-04,0,0.0,0.0,0,0.0
2020-02-05,0,0.0,0.0,0,0.0
2020-02-06,0,0.0,0.0,0,0.0
2020-02-07,0,0.0,0.0,0,0.0
2020-02-08,0,0.0,0.0,0,0.0
2020-02-09,0,0.0,0.0,0,0.0
2020-02-10,0,0.0,0.0,0,0.0
2020-02-11,0,0.0,0.0,0,0.0
2020-02-12,0,0.0,0.0,0,0.0
2020-02-13,0,0.0,0.0,0,0.0
2020-02-14,0,0.0,0.0,0,0.0
2020-02-15,0,0.0,0.0,0,0.0
2020-02-16,0,0.0,0.0,0,0.0
2020-02-17,0,0.0,0.0,0,0.0
2020-02-18,0,0.0,0.0,0,0.0
2020-02-19,0,0.0,0.0,0,0.0
2020-02-20,0,0.0,0.0,0,0.0
2020-02-21,0,0.0,0.0,0,0.0
2020-02-22,0,0.0,0.0,0,0.0
2020-02-23,0,0.0,0.0,0,0.0
2020-02-24,0,0.0,0.0,0,0.0
2020-02-25,0,0.0,0.0,0,0.0
2020-02-26,0,0.0,0.0,0,0.0
2020-02-27,0,0.0,0.0,0,0.0
2020-02-28,0,0.0,0.0,0,0.0
2020-02-29,0,0.0,0.0,0,0.0
2020-03-01,0,0.0,0.0,0,0.0
2020-03-02,0,0.0,0.25,0,0.0
2020-03-03,0,0.5,0.0,0,0.5
2020-03-04,1,0.0,-0.5,1,0.0
2020-03-05,0,-0.5,0.0,0,-0.5
2020-03-06,0,0.0,0.5,0,0.0
2020-03-07,0,0.5,0.0,0,0.5
2020-03-08,1,0.0,0.25,1,0.0
2020-03-09,0,1.0,0.5,0,1.0
2020-03-10,3,1.0,-1.25,3,1.0
2020-03-11,2,-1.5,1.25,2,-1.5
2020-03-12,0,3.5,1.25,0,3.5
2020-03-13,9,1.0,-4.0,9,1.0
2020-03-14,2,-4.5,-0.5,2,-4.5
2020-03-15,0,0.0,3.25,0,0.0
2020-03-16,2,2.0,0.75,2,2.0
2020-03-17,4,1.5,0.5,4,1.5
2020-03-18,5,3.0,1.75,5,3.0
2020-03-19,10,5.0,-2.5,10,5.0
2020-03-20,15,-2.0,-2.5,15,-2.0
2020-03-21,6,0.0,3.0,6,0.0
2020-03-22,15,4.0,2.5,15,4.0
2020-03-23,14,5.0,9.25,14,5.0
2020-03-24,25,22.5,-2.75,25,22.5
2020-03-25,59,-0.5,-18.5,59,-0.5
2020-03-26,24,-14.5,7.0,24,-14.5
2020-03-27,30,13.5,8.25,30,13.5
2020-03-28,51,2.0,-19.5,51,2.0
2020-03-29,34,-25.5,11.0,34,-25.5
2020-03-30,0,24.0,20.0,0,24.0
2020-03-31,82,14.5,-24.5,82,14.5
2020-04-01,29,-25.0,-4.5,29,-25.0
2020-04-02,32,5.5,19.0,32,5.5
2020-04-03,40,13.0,-7.5,40,13.0
2020-04-04,58,-9.5,-15.5,58,-9.5
2020-04-05,21,-18.0,6.25,21,-18.0
2020-04-06,22,3.0,4.75,22,3.0
2020-04-07,27,-8.5,-4.5,27,-8.5
2020-04-08,5,-6.0,10.0,5,-6.0
2020-04-09,15,11.5,2.75,15,11.5
2020-04-10,28,-0.5,-7.25,28,-0.5
2020-04-11,14,-3.0,1.5,14,-3.0
2020-04-12,22,2.5,1.25,22,2.5
2020-04-13,19,-0.5,2.25,19,-0.5
2020-04-14,21,7.0,5.5,21,7.0
2020-04-15,33,10.5,-1.25,33,10.5
2020-04-16,42,4.5,-15.75,42,4.5
2020-04-17,42,-21.0,-9.0,42,-21.0
2020-04-18,0,-13.5,11.75,0,-13.5
2020-04-19,15,2.5,3.0,15,2.5
2020-04-20,5,-7.5,3.75,5,-7.5
2020-04-21,0,10.0,6.0,0,10.0
2020-04-22,25,4.5,-10.25,25,4.5
2020-04-23,9,-10.5,-0.25,9,-10.5
2020-04-24,4,4.0,6.75,4,4.0
2020-04-25,17,3.0,-1.75,17,3.0
2020-04-26,10,0.5,-2.0,10,0.5
2020-04-27,18,-1.0,-3.5,18,-1.0
2020-04-28,8,-6.5,2.0,8,-6.5
2020-04-29,5,3.0,3.0,5,3.0
2020-04-30,14,-0.5,-2.25,14,-0.5
2020-05-01,4,-1.5,0.25,4,-1.5
2020-05-02,11,0.0,-0.75,11,0.0
2020-05-03,4,-3.0,0.0,4,-3.0
2020-05-04,5,0.0,1.0,5,0.0
2020-05-05,4,-1.0,-0.75,4,-1.0
2020-05-06,3,-1.5,0.75,3,-1.5
2020-05-07,1,0.5,1.0,1,0.5
2020-05-08,4,0.5,-1.25,4,0.5
2020-05-09,2,-2.0,-0.75,2,-2.0
2020-05-10,0,-1.0,1.0,0,-1.0
2020-05-11,0,0.0,0.5,0,0.0
2020-05-12,0,0.0,0.0,0,0.0
2020-05-13,0,0.0,0.75,0,0.0
2020-05-14,0,1.5,0.5,0,1.5
2020-05-15,3,1.0,-1.5,3,1.0
2020-05-16,2,-1.5,0.5,2,-1.5
2020-05-17,0,2.0,1.0,0,2.0
2020-05-18,6,0.5,-2.25,6,0.5
2020-05-19,1,-2.5,-0.25,1,-2.5
2020-05-20,1,0.0,1.5,1,0.0
2020-05-21,1,0.5,-0.25,1,0.5
2020-05-22,2,-0.5,0.0,2,-0.5
2020-05-23,0,0.5,0.25,0,0.5
2020-05-24,3,0.0,-1.0,3,0.0
2020-05-25,0,-1.5,0.0,0,-1.5
2020-05-26,0,0.0,5.0,0,0.0
2020-05-27,0,8.5,0.75,0,8.5
2020-05-28,17,1.5,-7.25,17,1.5
2020-05-29,3,-6.0,-1.25,3,-6.0
2020-05-30,5,-1.0,3.5,5,-1.0
2020-05-31,1,1.0,0.75,1,1.0
2020-06-01,7,0.5,-2.0,7,0.5
2020-06-02,2,-3.0,-0.75,2,-3.0
2020-06-03,1,-1.0,1.25,1,-1.0
2020-06-04,0,-0.5,0.5,0,-0.5
2020-06-05,0,0.0,0.25,0,0.0
2020-06-06,0,0.0,0.0,0,0.0
2020-06-07,0,0.0,0.0,0,0.0
2020-06-08,0,0.0,0.0,0,0.0
2020-06-09,0,0.0,0.0,0,0.0
2020-06-10,0,0.0,1.5,0,0.0
2020-06-11,0,3.0,0.25,0,3.0
2020-06-12,6,0.5,-2.5,6,0.5
2020-06-13,1,-2.0,3.0,1,-2.0
2020-06-14,2,6.5,4.25,2,6.5
2020-06-15,14,6.5,-6.0,14,6.5
2020-06-16,15,-5.5,-6.0,15,-5.5
2020-06-17,3,-5.5,5.5,3,-5.5
2020-06-18,4,5.5,4.25,4,5.5
2020-06-19,14,3.0,-6.0,14,3.0
2020-06-20,10,-6.5,-3.5,10,-6.5
2020-06-21,1,-4.0,3.0,1,-4.0
2020-06-22,2,-0.5,1.75,2,-0.5
2020-06-23,0,-0.5,0.75,0,-0.5
2020-06-24,1,1.0,0.5,1,1.0
2020-06-25,2,0.5,0.0,2,0.5
2020-06-26,2,1.0,-0.5,2,1.0
2020-06-27,4,-0.5,-0.75,4,-0.5
2020-06-28,1,-0.5,0.5,1,-0.5
2020-06-29,3,0.5,-0.25,3,0.5
2020-06-30,2,-1.0,0.0,2,-1.0
2020-07-01,1,0.5,1.0,1,0.5
2020-07-02,3,1.0,0.25,3,1.0
2020-07-03,3,1.0,-0.75,3,1.0
2020-07-04,5,-0.5,1.0,5,-0.5
2020-07-05,2,3.0,1.25,2,3.0
2020-07-06,11,2.0,-0.25,11,2.0
2020-07-07,6,2.5,0.0,6,2.5
2020-07-08,16,2.0,-3.0,16,2.0
2020-07-09,10,-3.5,-2.25,10,-3.5
2020-07-10,9,-2.5,4.0,9,-2.5
2020-07-11,5,4.5,9.75,5,4.5
2020-07-12,18,17.0,-5.75,18,17.0
2020-07-13,39,-7.0,-15.0,39,-7.0
2020-07-14,4,-13.0,4.5,4,-13.0
2020-07-15,13,2.0,5.5,13,2.0
2020-07-16,8,-2.0,0.0,8,-2.0
2020-07-17,9,2.0,5.25,9,2.0
2020-07-18,12,8.5,-2.25,12,8.5
2020-07-19,26,-2.5,-8.75,26,-2.5
2020-07-20,7,-9.0,0.75,7,-9.0
2020-07-21,8,-1.0,5.5,8,-1.0
2020-07-22,5,2.0,4.0,5,2.0
2020-07-23,12,7.0,0.5,12,7.0
2020-07-24,19,3.0,-6.0,19,3.0
2020-07-25,18,-5.0,-5.25,18,-5.0
2020-07-26,9,-7.5,3.5,9,-7.5
2020-07-27,3,2.0,8.0,3,2.0
2020-07-28,13,8.5,2.25,13,8.5
2020-07-29,20,6.5,-4.0,20,6.5
2020-07-30,26,0.5,-5.5,26,0.5
2020-07-31,21,-4.5,-3.25,21,-4.5
2020-08-01,17,-6.0,-1.0,17,-6.0
2020-08-02,9,-6.5,5.5,9,-6.5
2020-08-03,4,5.0,6.5,4,5.0
2020-08-04,19,6.5,3.0,19,6.5
2020-08-05,17,11.0,-4.0,17,11.0
2020-08-06,41,-1.5,-10.25,41,-1.5
2020-08-07,14,-9.5,2.0,14,-9.5
2020-08-08,22,2.5,4.25,22,2.5
2020-08-09,19,-1.0,-0.75,19,-1.0
2020-08-10,20,1.0,6.0,20,1.0
2020-08-11,21,11.0,11.0,21,11.0
2020-08-12,42,23.0,-2.0,42,23.0
2020-08-13,67,7.0,1.75,67,7.0
2020-08-14,56,26.5,3.5,56,26.5
2020-08-15,120,14.0,-23.75,120,14.0
2020-08-16,84,-21.0,4.25,84,-21.0
2020-08-17,78,22.5,19.25,78,22.5
2020-08-18,129,17.5,-14.5,129,17.5
2020-08-19,113,-6.5,-21.0,113,-6.5
2020-08-20,116,-24.5,7.0,116,-24.5
2020-08-21,64,7.5,16.25,64,7.5
2020-08-22,131,8.0,-17.75,131,8.0
2020-08-23,80,-28.0,20.0,80,-28.0
2020-08-24,75,48.0,29.5,75,48.0
2020-08-25,176,31.0,-38.75,176,31.0
2020-08-26,137,-29.5,-15.25,137,-29.5
2020-08-27,117,0.5,13.25,117,0.5
2020-08-28,138,-3.0,-6.5,138,-3.0
2020-08-29,111,-12.5,3.25,111,-12.5
2020-08-30,113,3.5,18.0,113,3.5
2020-08-31,118,23.5,27.0,118,23.5
2020-09-01,160,57.5,-2.25,160,57.5
2020-09-02,233,19.0,-50.0,233,19.0
2020-09-03,198,-42.5,-0.5,198,-42.5
2020-09-04,148,18.0,50.5,148,18.0
2020-09-05,234,58.5,-46.75,234,58.5
2020-09-06,265,-75.5,-22.25,265,-75.5
2020-09-07,83,14.0,17.0,83,14.0
2020-09-08,293,-41.5,36.0,293,-41.5
2020-09-09,0,86.0,115.0,0,86.0
2020-09-10,465,188.5,-65.25,465,188.5
2020-09-11,377,-44.5,-188.5,377,-44.5
2020-09-12,376,-188.5,115.0,376,-188.5
2020-09-13,0,185.5,154.5,0,185.5
2020-09-14,747,120.5,-160.25,747,120.5
2020-09-15,241,-135.0,-3.0,241,-135.0
2020-09-16,477,114.5,-51.75,477,114.5
2020-09-17,470,-238.5,-39.75,470,-238.5
2020-09-18,0,35.0,524.75,0,35.0
2020-09-19,540,811.0,-20.5,540,811.0
2020-09-20,1622,-6.0,-811.0,1622,-6.0
2020-09-21,528,-811.0,175.75,528,-811.0
2020-09-22,0,345.5,612.0,0,345.5
2020-09-23,1219,413.0,-205.75,1219,413.0
2020-09-24,826,-66.0,-413.0,826,-66.0
2020-09-25,1087,-413.0,191.75,1087,-413.0
2020-09-26,0,317.5,206.5,0,317.5
2020-09-27,1722,0.0,-266.5,1722,0.0
2020-09-28,0,-215.5,252.0,0,-215.5
2020-09-29,1291,504.0,-215.0,1291,504.0
2020-09-30,1008,-645.5,-177.0,1008,-645.5
2020-10-01,0,150.0,628.5,0,150.0
2020-10-02,1308,611.5,-80.5,1308,611.5
2020-10-03,1223,-11.0,-611.5,1223,-11.0
2020-10-04,1286,-611.5,-316.0,1286,-611.5
2020-10-05,0,-643.0,883.75,0,-643.0
2020-10-06,0,1156.0,910.75,0,1156.0
2020-10-07,2312,1178.5,-1156.0,2312,1178.5
2020-10-08,2357,-1156.0,-88.5,2357,-1156.0
2020-10-09,0,1001.5,902.25,0,1001.5
2020-10-10,4360,648.5,-1590.75,4360,648.5
2020-10-11,1297,-2180.0,-648.5,1297,-2180.0
2020-10-12,0,-648.5,1648.5,0,-648.5
2020-10-13,0,1117.0,324.25,0,1117.0
2020-10-14,2234,0.0,-1117.0,2234,0.0
2020-10-15,0,-1117.0,1438.0,0,-1117.0
2020-10-16,0,2876.0,558.5,0,2876.0
2020-10-17,5752,0.0,-2329.75,5752,0.0
2020-10-18,0,-1783.5,430.75,0,-1783.5
2020-10-19,2185,861.5,706.0,2185,861.5
2020-10-20,1723,-371.5,-861.5,1723,-371.5
2020-10-21,1442,-861.5,155.75,1442,-861.5
2020-10-22,0,-60.0,827.0,0,-60.0
2020-10-23,1322,792.5,-300.5,1322,792.5
2020-10-24,1585,-661.0,107.5,1585,-661.0
2020-10-25,0,1007.5,330.5,0,1007.5
2020-10-26,3600,0.0,-934.0,3600,0.0
2020-10-27,0,-860.5,0.0,0,-860.5
2020-10-28,1879,0.0,898.25,1879,0.0
2020-10-29,0,936.0,446.0,0,936.0
2020-10-30,3751,892.0,-1080.25,3751,892.0
2020-10-31,1784,-1224.5,-694.25,1784,-1224.5
2020-11-01,1302,-496.5,591.75,1302,-496.5
2020-11-02,791,-41.0,359.75,791,-41.0
2020-11-03,1220,223.0,208.25,1220,223.0
2020-11-04,1237,375.5,-420.75,1237,375.5
2020-11-05,1971,-618.5,121.75,1971,-618.5
2020-11-06,0,619.0,703.25,0,619.0
2020-11-07,3209,788.0,-999.25,3209,788.0
2020-11-08,1576,-1379.5,-432.0,1576,-1379.5
2020-11-09,450,-76.0,959.5,450,-76.0
2020-11-10,1424,539.5,78.0,1424,539.5
2020-11-11,1529,80.0,-261.5,1529,80.0
2020-11-12,1584,16.5,-18.25,1584,16.5
2020-11-13,1562,43.5,-132.5,1562,43.5
2020-11-14,1671,-248.5,-289.75,1671,-248.5
2020-11-15,1065,-536.0,38.0,1065,-536.0
2020-11-16,599,-172.5,630.5,599,-172.5
2020-11-17,720,725.0,-93.75,720,725.0
2020-11-18,2049,-360.0,-251.5,2049,-360.0
2020-11-19,0,222.0,481.5,0,222.0
2020-11-20,2493,603.0,-424.25,2493,603.0
2020-11-21,1206,-626.5,-481.75,1206,-626.5
2020-11-22,1240,-360.5,257.5,1240,-360.5
2020-11-23,485,-111.5,332.5,485,-111.5
2020-11-24,1017,304.5,93.5,1017,304.5
2020-11-25,1094,75.5,-102.0,1094,75.5
2020-11-26,1168,100.5,-27.25,1168,100.5
2020-11-27,1295,21.0,-56.25,1295,21.0
2020-11-28,1210,-12.0,-183.5,1210,-12.0
2020-11-29,1271,-346.0,-311.75,1271,-346.0
2020-11-30,518,-635.5,671.25,518,-635.5
2020-12-01,0,996.5,317.75,0,996.5
2020-12-02,2511,0.0,-471.0,2511,0.0
2020-12-03,0,54.5,272.75,0,54.5
2020-12-04,2620,545.5,-429.5,2620,545.5
2020-12-05,1091,-804.5,-463.75,1091,-804.5
2020-12-06,1011,-382.0,428.5,1011,-382.0
2020-12-07,327,52.5,462.0,327,52.5
2020-12-08,1116,542.0,-65.75,1116,542.0
2020-12-09,1411,-79.0,-301.25,1411,-79.0
2020-12-10,958,-60.5,122.25,958,-60.5
2020-12-11,1290,165.5,-50.25,1290,165.5
2020-12-12,1289,-161.0,-405.0,1289,-161.0
2020-12-13,968,-644.5,308.5,968,-644.5
2020-12-14,0,456.0,648.75,0,456.0
2020-12-15,1880,653.0,-343.25,1880,653.0
2020-12-16,1306,-230.5,-249.0,1306,-230.5
2020-12-17,1419,155.0,152.75,1419,155.0
2020-12-18,1616,75.0,-481.5,1616,75.0
2020-12-19,1569,-808.0,-822.0,1569,-808.0
2020-12-20,0,-1569.0,-761.0,0,-1569.0
