date, confirmed_daily_cases, first_order,second_order, confirmed_daily_cases_outlier_removed,first_order_outlier_removed,second_order_outlier_removed
2020-01-01,0,0.0,0.0,0,0.0
2020-01-02,0,0.0,0.0,0,0.0
2020-01-03,0,0.0,0.0,0,0.0
2020-01-04,0,0.0,0.0,0,0.0
2020-01-05,0,0.0,0.0,0,0.0
2020-01-06,0,0.0,0.0,0,0.0
2020-01-07,0,0.0,0.0,0,0.0
2020-01-08,0,0.0,0.0,0,0.0
2020-01-09,0,0.0,0.0,0,0.0
2020-01-10,0,0.0,0.0,0,0.0
2020-01-11,0,0.0,0.0,0,0.0
2020-01-12,0,0.0,0.0,0,0.0
2020-01-13,0,0.0,0.0,0,0.0
2020-01-14,0,0.0,0.0,0,0.0
2020-01-15,0,0.0,0.0,0,0.0
2020-01-16,0,0.0,0.0,0,0.0
2020-01-17,0,0.0,0.0,0,0.0
2020-01-18,0,0.0,0.0,0,0.0
2020-01-19,0,0.0,0.0,0,0.0
2020-01-20,0,0.0,0.0,0,0.0
2020-01-21,0,0.0,0.0,0,0.0
2020-01-22,0,0.0,0.0,0,0.0
2020-01-23,0,0.0,0.0,0,0.0
2020-01-24,0,0.0,0.0,0,0.0
2020-01-25,0,0.0,0.0,0,0.0
2020-01-26,0,0.0,0.0,0,0.0
2020-01-27,0,0.0,0.0,0,0.0
2020-01-28,0,0.0,0.0,0,0.0
2020-01-29,0,0.0,0.0,0,0.0
2020-01-30,0,0.0,0.0,0,0.0
2020-01-31,0,0.0,0.0,0,0.0
2020-02-01,0,0.0,0.0,0,0.0
2020-02-02,0,0.0,0.0,0,0.0
2020-02-03,0,0.0,0.0,0,0.0
2020-02-04,0,0.0,0.0,0,0.0
2020-02-05,0,0.0,0.0,0,0.0
2020-02-06,0,0.0,0.0,0,0.0
2020-02-07,0,0.0,0.0,0,0.0
2020-02-08,0,0.0,0.0,0,0.0
2020-02-09,0,0.0,0.0,0,0.0
2020-02-10,0,0.0,0.0,0,0.0
2020-02-11,0,0.0,0.0,0,0.0
2020-02-12,0,0.0,0.0,0,0.0
2020-02-13,0,0.0,0.0,0,0.0
2020-02-14,0,0.0,0.0,0,0.0
2020-02-15,0,0.0,0.0,0,0.0
2020-02-16,0,0.0,0.0,0,0.0
2020-02-17,0,0.0,0.0,0,0.0
2020-02-18,0,0.0,0.0,0,0.0
2020-02-19,0,0.0,0.0,0,0.0
2020-02-20,0,0.0,0.0,0,0.0
2020-02-21,0,0.0,0.0,0,0.0
2020-02-22,0,0.0,0.0,0,0.0
2020-02-23,0,0.0,0.0,0,0.0
2020-02-24,0,0.0,0.0,0,0.0
2020-02-25,0,0.0,0.0,0,0.0
2020-02-26,0,0.0,0.0,0,0.0
2020-02-27,0,0.0,0.0,0,0.0
2020-02-28,0,0.0,0.0,0,0.0
2020-02-29,0,0.0,0.0,0,0.0
2020-03-01,0,0.0,0.0,0,0.0
2020-03-02,0,0.0,0.0,0,0.0
2020-03-03,0,0.0,0.0,0,0.0
2020-03-04,0,0.0,0.0,0,0.0
2020-03-05,0,0.0,0.0,0,0.0
2020-03-06,0,0.0,0.0,0,0.0
2020-03-07,0,0.0,0.0,0,0.0
2020-03-08,0,0.0,0.0,0,0.0
2020-03-09,0,0.0,0.0,0,0.0
2020-03-10,0,0.0,0.0,0,0.0
2020-03-11,0,0.0,0.0,0,0.0
2020-03-12,0,0.0,0.0,0,0.0
2020-03-13,0,0.0,0.25,0,0.0
2020-03-14,0,0.5,1.25,0,0.5
2020-03-15,1,2.5,0.5,1,2.5
2020-03-16,5,1.5,-1.25,5,1.5
2020-03-17,4,0.0,0.25,4,0.0
2020-03-18,5,2.0,1.25,5,2.0
2020-03-19,8,2.5,-0.5,8,2.5
2020-03-20,10,1.0,-3.75,10,1.0
2020-03-21,10,-5.0,-2.25,10,-5.0
2020-03-22,0,-3.5,3.5,0,-3.5
2020-03-23,3,2.0,3.5,3,2.0
2020-03-24,4,3.5,1.75,4,3.5
2020-03-25,10,5.5,-1.0,10,5.5
2020-03-26,15,1.5,-2.5,15,1.5
2020-03-27,13,0.5,6.0,13,0.5
2020-03-28,16,13.5,-3.0,16,13.5
2020-03-29,40,-5.5,-11.0,40,-5.5
2020-03-30,5,-8.5,3.75,5,-8.5
2020-03-31,23,2.0,4.5,23,2.0
2020-04-01,9,0.5,2.25,9,0.5
2020-04-02,24,6.5,3.5,24,6.5
2020-04-03,22,7.5,10.25,22,7.5
2020-04-04,39,27.0,15.25,39,27.0
2020-04-05,76,38.0,-16.75,76,38.0
2020-04-06,115,-6.5,-41.5,115,-6.5
2020-04-07,63,-45.0,-3.25,63,-45.0
2020-04-08,25,-13.0,26.75,25,-13.0
2020-04-09,37,8.5,33.0,37,8.5
2020-04-10,42,53.0,9.75,42,53.0
2020-04-11,143,28.0,-29.0,143,28.0
2020-04-12,98,-5.0,3.25,98,-5.0
2020-04-13,133,34.5,3.5,133,34.5
2020-04-14,167,2.0,-47.25,167,2.0
2020-04-15,137,-60.0,-21.25,137,-60.0
2020-04-16,47,-40.5,39.5,47,-40.5
2020-04-17,56,19.0,25.0,56,19.0
2020-04-18,85,9.5,-15.25,85,9.5
2020-04-19,75,-11.5,-10.75,75,-11.5
2020-04-20,62,-12.0,-0.25,62,-12.0
2020-04-21,51,-12.0,3.75,51,-12.0
2020-04-22,38,-4.5,8.0,38,-4.5
2020-04-23,42,4.0,6.25,42,4.0
2020-04-24,46,8.0,-11.75,46,8.0
2020-04-25,58,-19.5,-9.75,58,-19.5
2020-04-26,7,-11.5,16.75,7,-11.5
2020-04-27,35,14.0,12.75,35,14.0
2020-04-28,35,14.0,-6.5,35,14.0
2020-04-29,63,1.0,-11.0,63,1.0
2020-04-30,37,-8.0,-1.75,37,-8.0
2020-05-01,47,-2.5,0.0,47,-2.5
2020-05-02,32,-8.0,3.25,32,-8.0
2020-05-03,31,4.0,0.75,31,4.0
2020-05-04,40,-6.5,-5.5,40,-6.5
2020-05-05,18,-7.0,15.0,18,-7.0
2020-05-06,26,23.5,3.75,26,23.5
2020-05-07,65,0.5,-22.0,65,0.5
2020-05-08,27,-20.5,10.25,27,-20.5
2020-05-09,24,21.0,21.25,24,21.0
2020-05-10,69,22.0,-19.5,69,22.0
2020-05-11,68,-18.0,-4.75,68,-18.0
2020-05-12,33,12.5,9.0,33,12.5
2020-05-13,93,0.0,-19.25,93,0.0
2020-05-14,33,-26.0,4.75,33,-26.0
2020-05-15,41,9.5,6.5,41,9.5
2020-05-16,52,-13.0,-8.25,52,-13.0
2020-05-17,15,-7.0,18.75,15,-7.0
2020-05-18,38,24.5,15.0,38,24.5
2020-05-19,64,23.0,-22.0,64,23.0
2020-05-20,84,-19.5,-16.5,84,-19.5
2020-05-21,25,-10.0,25.25,25,-10.0
2020-05-22,64,31.0,1.25,64,31.0
2020-05-23,87,-7.5,-31.0,87,-7.5
2020-05-24,49,-31.0,16.75,49,-31.0
2020-05-25,25,26.0,29.0,25,26.0
2020-05-26,101,27.0,-19.5,101,27.0
2020-05-27,79,-13.0,-27.25,79,-13.0
2020-05-28,75,-27.5,7.25,75,-27.5
2020-05-29,24,1.5,27.0,24,1.5
2020-05-30,78,26.5,-0.5,78,26.5
2020-05-31,77,0.5,-18.0,77,0.5
2020-06-01,79,-9.5,0.75,79,-9.5
2020-06-02,58,2.0,14.25,58,2.0
2020-06-03,83,19.0,-4.75,83,19.0
2020-06-04,96,-7.5,-11.75,96,-7.5
2020-06-05,68,-4.5,46.0,68,-4.5
2020-06-06,87,84.5,7.75,87,84.5
2020-06-07,237,11.0,-81.5,237,11.0
2020-06-08,109,-78.5,-7.0,109,-78.5
2020-06-09,80,-3.0,48.75,80,-3.0
2020-06-10,103,19.0,7.75,103,19.0
2020-06-11,118,12.5,-14.75,118,12.5
2020-06-12,128,-10.5,-9.75,128,-10.5
2020-06-13,97,-7.0,26.75,97,-7.0
2020-06-14,114,43.0,32.5,114,43.0
2020-06-15,183,58.0,-20.0,183,58.0
2020-06-16,230,3.0,-65.25,230,3.0
2020-06-17,189,-72.5,-4.0,189,-72.5
2020-06-18,85,-5.0,66.75,85,-5.0
2020-06-19,179,61.0,-1.75,179,61.0
2020-06-20,207,-8.5,-45.75,207,-8.5
2020-06-21,162,-30.5,14.0,162,-30.5
2020-06-22,146,19.5,60.75,146,19.5
2020-06-23,201,91.0,-13.25,201,91.0
2020-06-24,328,-7.0,-65.0,328,-7.0
2020-06-25,187,-39.0,20.5,187,-39.0
2020-06-26,250,34.0,23.5,250,34.0
2020-06-27,255,8.0,-12.25,255,8.0
2020-06-28,266,9.5,-0.25,266,9.5
2020-06-29,274,7.5,-3.75,274,7.5
2020-06-30,281,2.0,0.25,281,2.0
2020-07-01,278,8.0,9.0,278,8.0
2020-07-02,297,20.0,-0.25,297,20.0
2020-07-03,318,7.5,-11.5,318,7.5
2020-07-04,312,-3.0,3.75,312,-3.0
2020-07-05,312,15.0,42.5,312,15.0
2020-07-06,342,82.0,-29.5,342,82.0
2020-07-07,476,-44.0,-42.0,476,-44.0
2020-07-08,254,-2.0,74.25,254,-2.0
2020-07-09,472,104.5,4.5,472,104.5
2020-07-10,463,7.0,-47.0,463,7.0
2020-07-11,486,10.5,23.5,486,10.5
2020-07-12,484,54.0,-2.75,484,54.0
2020-07-13,594,5.0,-51.5,594,5.0
2020-07-14,494,-49.0,-4.75,494,-49.0
2020-07-15,496,-4.5,35.75,496,-4.5
2020-07-16,485,22.5,25.75,485,22.5
2020-07-17,541,47.0,-5.0,541,47.0
2020-07-18,579,12.5,-69.0,579,12.5
2020-07-19,566,-91.0,35.25,566,-91.0
2020-07-20,397,83.0,70.75,397,83.0
2020-07-21,732,50.5,-72.75,732,50.5
2020-07-22,498,-62.5,-56.25,498,-62.5
2020-07-23,607,-62.0,27.5,607,-62.0
2020-07-24,374,-7.5,82.25,374,-7.5
2020-07-25,592,102.5,25.25,592,102.5
2020-07-26,579,43.0,-73.5,579,43.0
2020-07-27,678,-44.5,30.5,678,-44.5
2020-07-28,490,104.0,71.25,490,104.0
2020-07-29,886,98.0,-89.0,886,98.0
2020-07-30,686,-74.0,-27.0,686,-74.0
2020-07-31,738,44.0,-9.25,738,44.0
2020-08-01,774,-92.5,-33.0,774,-92.5
2020-08-02,553,-22.0,153.25,553,-22.0
2020-08-03,730,214.0,15.0,730,214.0
2020-08-04,981,8.0,-221.75,981,8.0
2020-08-05,746,-229.5,-5.0,746,-229.5
2020-08-06,522,-2.0,133.0,522,-2.0
2020-08-07,742,36.5,54.75,742,36.5
2020-08-08,595,107.5,6.75,595,107.5
2020-08-09,957,50.0,-182.25,957,50.0
2020-08-10,695,-257.0,28.0,695,-257.0
2020-08-11,443,106.0,185.0,443,106.0
2020-08-12,907,113.0,-155.25,907,113.0
2020-08-13,669,-204.5,-47.0,669,-204.5
2020-08-14,498,19.0,178.0,498,19.0
2020-08-15,707,151.5,-93.0,707,151.5
2020-08-16,801,-167.0,-113.5,801,-167.0
2020-08-17,373,-75.5,180.25,373,-75.5
2020-08-18,650,193.5,-16.0,650,193.5
2020-08-19,760,-107.5,-155.0,760,-107.5
2020-08-20,435,-116.5,59.5,435,-116.5
2020-08-21,527,11.5,30.0,527,11.5
2020-08-22,458,-56.5,-19.75,458,-56.5
2020-08-23,414,-28.0,-2.0,414,-28.0
2020-08-24,402,-60.5,-5.75,402,-60.5
2020-08-25,293,-39.5,77.75,293,-39.5
2020-08-26,323,95.0,7.25,323,95.0
2020-08-27,483,-25.0,-81.5,483,-25.0
2020-08-28,273,-68.0,33.5,273,-68.0
2020-08-29,347,42.0,64.5,347,42.0
2020-08-30,357,61.0,-51.75,357,61.0
2020-08-31,469,-61.5,-70.25,469,-61.5
2020-09-01,234,-79.5,35.0,234,-79.5
2020-09-02,310,8.5,39.75,310,8.5
2020-09-03,251,0.0,6.75,251,0.0
2020-09-04,310,22.0,-4.0,310,22.0
2020-09-05,295,-8.0,-8.25,295,-8.0
2020-09-06,294,5.5,27.5,294,5.5
2020-09-07,306,47.0,83.0,306,47.0
2020-09-08,388,171.5,15.25,388,171.5
2020-09-09,649,77.5,-76.25,649,77.5
2020-09-10,543,19.0,-34.25,543,19.0
2020-09-11,687,9.0,-39.75,687,9.0
2020-09-12,561,-60.5,-7.5,561,-60.5
2020-09-13,566,-6.0,37.0,566,-6.0
2020-09-14,549,13.5,12.25,549,13.5
2020-09-15,593,18.5,-2.0,593,18.5
2020-09-16,586,9.5,0.75,586,9.5
2020-09-17,612,20.0,27.0,612,20.0
2020-09-18,626,63.5,-4.5,626,63.5
2020-09-19,739,11.0,-109.0,739,11.0
2020-09-20,648,-154.5,-13.75,648,-154.5
2020-09-21,430,-16.5,117.25,430,-16.5
2020-09-22,615,80.0,-5.75,615,80.0
2020-09-23,590,-28.0,-48.0,590,-28.0
2020-09-24,559,-16.0,-19.0,559,-16.0
2020-09-25,558,-66.0,-6.25,558,-66.0
2020-09-26,427,-28.5,40.25,427,-28.5
2020-09-27,501,14.5,33.5,501,14.5
2020-09-28,456,38.5,-30.5,456,38.5
2020-09-29,578,-46.5,-45.5,578,-46.5
2020-09-30,363,-52.5,-1.5,363,-52.5
2020-10-01,473,-49.5,104.0,473,-49.5
2020-10-02,264,155.5,52.25,264,155.5
2020-10-03,784,55.0,-190.25,784,55.0
2020-10-04,374,-225.0,-21.75,374,-225.0
2020-10-05,334,11.5,88.0,334,11.5
2020-10-06,397,-49.0,6.75,397,-49.0
2020-10-07,236,25.0,44.5,236,25.0
2020-10-08,447,40.0,-15.75,447,40.0
2020-10-09,316,-6.5,-18.5,316,-6.5
2020-10-10,434,3.0,-50.0,434,3.0
2020-10-11,322,-106.5,-1.25,322,-106.5
2020-10-12,221,0.5,75.0,221,0.5
2020-10-13,323,43.5,1.0,323,43.5
2020-10-14,308,2.5,-21.25,308,2.5
2020-10-15,328,1.0,-28.0,328,1.0
2020-10-16,310,-53.5,0.75,310,-53.5
2020-10-17,221,2.5,71.25,221,2.5
2020-10-18,315,89.0,-3.0,315,89.0
2020-10-19,399,-3.5,-99.5,399,-3.5
2020-10-20,308,-110.0,32.0,308,-110.0
2020-10-21,179,60.5,81.5,179,60.5
2020-10-22,429,53.0,-87.75,429,53.0
2020-10-23,285,-115.0,-1.75,285,-115.0
2020-10-24,199,49.5,97.75,199,49.5
2020-10-25,384,80.5,-67.25,384,80.5
2020-10-26,360,-85.0,-65.25,360,-85.0
2020-10-27,214,-50.0,51.75,214,-50.0
2020-10-28,260,18.5,19.0,260,18.5
2020-10-29,251,-12.0,4.0,251,-12.0
2020-10-30,236,26.5,3.0,236,26.5
2020-10-31,304,-6.0,-64.75,304,-6.0
2020-11-01,224,-103.0,21.75,224,-103.0
2020-11-02,98,37.5,83.5,98,37.5
2020-11-03,299,64.0,-36.0,299,64.0
2020-11-04,226,-34.5,-56.0,226,-34.5
2020-11-05,230,-48.0,16.75,230,-48.0
2020-11-06,130,-1.0,82.25,130,-1.0
2020-11-07,228,116.5,17.75,228,116.5
2020-11-08,363,34.5,-149.0,363,34.5
2020-11-09,297,-181.5,1.0,297,-181.5
2020-11-10,0,36.5,131.5,0,36.5
2020-11-11,370,81.5,-62.25,370,81.5
2020-11-12,163,-88.0,-23.25,163,-88.0
2020-11-13,194,35.0,59.5,194,35.0
2020-11-14,233,31.0,-41.25,233,31.0
2020-11-15,256,-47.5,-12.75,256,-47.5
2020-11-16,138,5.5,41.75,138,5.5
2020-11-17,267,36.0,-53.75,267,36.0
2020-11-18,210,-102.0,1.25,210,-102.0
2020-11-19,63,38.5,91.0,63,38.5
2020-11-20,287,80.0,-44.5,287,80.0
2020-11-21,223,-50.5,-56.5,223,-50.5
2020-11-22,186,-33.0,31.5,186,-33.0
2020-11-23,157,12.5,37.75,157,12.5
2020-11-24,211,42.5,-13.5,211,42.5
2020-11-25,242,-14.5,-55.75,242,-14.5
2020-11-26,182,-69.0,13.0,182,-69.0
2020-11-27,104,11.5,46.5,104,11.5
2020-11-28,205,24.0,-1.0,205,24.0
2020-11-29,152,9.5,-4.5,152,9.5
2020-11-30,224,15.0,-46.0,224,15.0
2020-12-01,182,-82.5,-29.0,182,-82.5
2020-12-02,59,-43.0,106.5,59,-43.0
2020-12-03,96,130.5,-2.5,96,130.5
2020-12-04,320,-48.0,-69.75,320,-48.0
2020-12-05,0,-9.0,24.0,0,-9.0
2020-12-06,302,0.0,-32.75,302,0.0
2020-12-07,0,-74.5,36.5,0,-74.5
2020-12-08,153,73.0,35.5,153,73.0
2020-12-09,146,-3.5,5.25,146,-3.5
2020-12-10,146,83.5,-34.75,146,83.5
2020-12-11,313,-73.0,-83.75,313,-73.0
2020-12-12,0,-84.0,71.0,0,-84.0
2020-12-13,145,69.0,42.5,145,69.0
2020-12-14,138,1.0,5.25,138,1.0
2020-12-15,147,79.5,-37.25,147,79.5
2020-12-16,297,-73.5,-79.75,297,-73.5
2020-12-17,0,-80.0,69.5,0,-80.0
2020-12-18,137,65.5,5.75,137,65.5
2020-12-19,131,-68.5,-98.25,131,-68.5
2020-12-20,0,-131.0,-62.5,0,-131.0
