date, confirmed_daily_cases, first_order,second_order, confirmed_daily_cases_outlier_removed,first_order_outlier_removed,second_order_outlier_removed
2020-01-01,0,0.0,0.0,0,0.0
2020-01-02,0,0.0,0.0,0,0.0
2020-01-03,0,0.0,0.0,0,0.0
2020-01-04,0,0.0,0.0,0,0.0
2020-01-05,0,0.0,0.0,0,0.0
2020-01-06,0,0.0,0.0,0,0.0
2020-01-07,0,0.0,0.0,0,0.0
2020-01-08,0,0.0,0.0,0,0.0
2020-01-09,0,0.0,0.0,0,0.0
2020-01-10,0,0.0,0.0,0,0.0
2020-01-11,0,0.0,0.0,0,0.0
2020-01-12,0,0.0,0.0,0,0.0
2020-01-13,0,0.0,0.0,0,0.0
2020-01-14,0,0.0,0.0,0,0.0
2020-01-15,0,0.0,0.0,0,0.0
2020-01-16,0,0.0,0.0,0,0.0
2020-01-17,0,0.0,0.0,0,0.0
2020-01-18,0,0.0,0.0,0,0.0
2020-01-19,0,0.0,0.0,0,0.0
2020-01-20,0,0.0,0.0,0,0.0
2020-01-21,0,0.0,0.0,0,0.0
2020-01-22,0,0.0,0.0,0,0.0
2020-01-23,0,0.0,0.0,0,0.0
2020-01-24,0,0.0,0.0,0,0.0
2020-01-25,0,0.0,0.0,0,0.0
2020-01-26,0,0.0,0.0,0,0.0
2020-01-27,0,0.0,0.0,0,0.0
2020-01-28,0,0.0,0.0,0,0.0
2020-01-29,0,0.0,0.0,0,0.0
2020-01-30,0,0.0,0.0,0,0.0
2020-01-31,0,0.0,0.0,0,0.0
2020-02-01,0,0.0,0.0,0,0.0
2020-02-02,0,0.0,0.0,0,0.0
2020-02-03,0,0.0,0.0,0,0.0
2020-02-04,0,0.0,0.0,0,0.0
2020-02-05,0,0.0,0.0,0,0.0
2020-02-06,0,0.0,0.0,0,0.0
2020-02-07,0,0.0,0.0,0,0.0
2020-02-08,0,0.0,0.0,0,0.0
2020-02-09,0,0.0,0.0,0,0.0
2020-02-10,0,0.0,0.0,0,0.0
2020-02-11,0,0.0,0.0,0,0.0
2020-02-12,0,0.0,0.0,0,0.0
2020-02-13,0,0.0,0.0,0,0.0
2020-02-14,0,0.0,0.0,0,0.0
2020-02-15,0,0.0,0.0,0,0.0
2020-02-16,0,0.0,0.0,0,0.0
2020-02-17,0,0.0,0.0,0,0.0
2020-02-18,0,0.0,0.0,0,0.0
2020-02-19,0,0.0,0.0,0,0.0
2020-02-20,0,0.0,0.0,0,0.0
2020-02-21,0,0.0,0.0,0,0.0
2020-02-22,0,0.0,0.0,0,0.0
2020-02-23,0,0.0,0.0,0,0.0
2020-02-24,0,0.0,0.0,0,0.0
2020-02-25,0,0.0,0.0,0,0.0
2020-02-26,0,0.0,0.25,0,0.0
2020-02-27,0,0.5,0.0,0,0.5
2020-02-28,1,0.0,0.0,1,0.0
2020-02-29,0,0.5,0.25,0,0.5
2020-03-01,2,0.5,0.0,2,0.5
2020-03-02,1,0.5,1.0,1,0.5
2020-03-03,3,2.5,-0.5,3,2.5
2020-03-04,6,-0.5,-1.25,6,-0.5
2020-03-05,2,0.0,1.25,2,0.0
2020-03-06,6,2.0,-0.75,6,2.0
2020-03-07,6,-1.5,1.5,6,-1.5
2020-03-08,3,5.0,5.25,3,5.0
2020-03-09,16,9.0,0.0,16,9.0
2020-03-10,21,5.0,-0.25,21,5.0
2020-03-11,26,8.5,3.0,26,8.5
2020-03-12,38,11.0,-9.0,38,11.0
2020-03-13,48,-9.5,-14.5,48,-9.5
2020-03-14,19,-18.0,5.25,19,-18.0
2020-03-15,12,1.0,16.75,12,1.0
2020-03-16,21,15.5,4.5,21,15.5
2020-03-17,43,10.0,-6.25,43,10.0
2020-03-18,41,3.0,5.5,41,3.0
2020-03-19,49,21.0,2.75,49,21.0
2020-03-20,83,8.5,-12.5,83,8.5
2020-03-21,66,-4.0,13.75,66,-4.0
2020-03-22,75,36.0,25.0,75,36.0
2020-03-23,138,46.0,-5.75,138,46.0
2020-03-24,167,24.5,-9.0,167,24.5
2020-03-25,187,28.0,9.5,187,28.0
2020-03-26,223,43.5,-18.5,223,43.5
2020-03-27,274,-9.0,-41.0,274,-9.0
2020-03-28,205,-38.5,33.5,205,-38.5
2020-03-29,197,58.0,55.0,197,58.0
2020-03-30,321,71.5,-13.25,321,71.5
2020-03-31,340,31.5,-32.0,340,31.5
2020-04-01,384,7.5,-17.0,384,7.5
2020-04-02,355,-2.5,-27.75,355,-2.5
2020-04-03,379,-48.0,-37.25,379,-48.0
2020-04-04,259,-77.0,60.25,259,-77.0
2020-04-05,225,72.5,70.0,225,72.5
2020-04-06,404,63.0,-51.5,404,63.0
2020-04-07,351,-30.5,-43.25,351,-30.5
2020-04-08,343,-23.5,11.75,343,-23.5
2020-04-09,304,-7.0,-18.0,304,-7.0
2020-04-10,329,-59.5,-23.75,329,-59.5
2020-04-11,185,-54.5,73.25,185,-54.5
2020-04-12,220,87.0,58.75,220,87.0
2020-04-13,359,63.0,-50.5,359,63.0
2020-04-14,346,-14.0,-11.25,346,-14.0
2020-04-15,331,40.5,22.75,331,40.5
2020-04-16,427,31.5,-61.0,427,31.5
2020-04-17,394,-81.5,-74.5,394,-81.5
2020-04-18,264,-117.5,168.75,264,-117.5
2020-04-19,159,256.0,118.75,159,256.0
2020-04-20,776,120.0,-237.0,776,120.0
2020-04-21,399,-218.0,-81.25,399,-218.0
2020-04-22,340,-42.5,100.25,340,-42.5
2020-04-23,314,-17.5,-11.25,314,-17.5
2020-04-24,305,-65.0,-24.5,305,-65.0
2020-04-25,184,-66.5,94.0,184,-66.5
2020-04-26,172,123.0,85.25,172,123.0
2020-04-27,430,104.0,-61.5,430,104.0
2020-04-28,380,0.0,-63.25,380,0.0
2020-04-29,430,-22.5,-15.5,430,-22.5
2020-04-30,335,-31.0,-18.25,335,-31.0
2020-05-01,368,-59.0,-29.25,368,-59.0
2020-05-02,217,-89.5,57.75,217,-89.5
2020-05-03,189,56.5,69.75,189,56.5
2020-05-04,330,50.0,-34.25,330,50.0
2020-05-05,289,-12.0,-24.75,289,-12.0
2020-05-06,306,0.5,-7.0,306,0.5
2020-05-07,290,-26.0,-28.5,290,-26.0
2020-05-08,254,-56.5,-13.0,254,-56.5
2020-05-09,177,-52.0,49.25,177,-52.0
2020-05-10,150,42.0,46.25,150,42.0
2020-05-11,261,40.5,-36.75,261,40.5
2020-05-12,231,-31.5,-24.75,231,-31.5
2020-05-13,198,-9.0,4.25,198,-9.0
2020-05-14,213,-23.0,-23.0,213,-23.0
2020-05-15,152,-55.0,-3.5,152,-55.0
2020-05-16,103,-30.0,36.75,103,-30.0
2020-05-17,92,18.5,37.5,92,18.5
2020-05-18,140,45.0,-14.0,140,45.0
2020-05-19,182,-9.5,-40.25,182,-9.5
2020-05-20,121,-35.5,-2.5,121,-35.5
2020-05-21,111,-14.5,2.5,111,-14.5
2020-05-22,92,-30.5,-2.25,92,-30.5
2020-05-23,50,-19.0,27.0,50,-19.0
2020-05-24,54,23.5,15.25,54,23.5
2020-05-25,97,11.5,-19.5,97,11.5
2020-05-26,77,-15.5,-11.25,77,-15.5
2020-05-27,66,-11.0,-1.5,66,-11.0
2020-05-28,55,-18.5,1.75,55,-18.5
2020-05-29,29,-7.5,7.75,29,-7.5
2020-05-30,40,-3.0,3.25,40,-3.0
2020-05-31,23,-1.0,7.0,23,-1.0
2020-06-01,38,11.0,-0.25,38,11.0
2020-06-02,45,-1.5,-8.0,45,-1.5
2020-06-03,35,-5.0,-2.0,35,-5.0
2020-06-04,35,-5.5,-0.75,35,-5.5
2020-06-05,24,-6.5,1.0,24,-6.5
2020-06-06,22,-3.5,2.25,22,-3.5
2020-06-07,17,-2.0,4.25,17,-2.0
2020-06-08,18,5.0,3.75,18,5.0
2020-06-09,27,5.5,-4.0,27,5.5
2020-06-10,29,-3.0,-2.5,29,-3.0
2020-06-11,21,0.5,2.0,21,0.5
2020-06-12,30,1.0,-4.5,30,1.0
2020-06-13,23,-8.5,-1.0,23,-8.5
2020-06-14,13,-1.0,5.25,13,-1.0
2020-06-15,21,2.0,3.5,21,2.0
2020-06-16,17,6.0,-1.75,17,6.0
2020-06-17,33,-1.5,-5.5,33,-1.5
2020-06-18,14,-5.0,-1.25,14,-5.0
2020-06-19,23,-4.0,-1.0,23,-4.0
2020-06-20,6,-7.0,3.25,6,-7.0
2020-06-21,9,2.5,6.25,9,2.5
2020-06-22,11,5.5,-2.0,11,5.5
2020-06-23,20,-1.5,-3.0,20,-1.5
2020-06-24,8,-0.5,0.25,8,-0.5
2020-06-25,19,-1.0,-3.5,19,-1.0
2020-06-26,6,-7.5,-0.25,6,-7.5
2020-06-27,4,-1.5,6.25,4,-1.5
2020-06-28,3,5.0,2.0,3,5.0
2020-06-29,14,2.5,-3.25,14,2.5
2020-06-30,8,-1.5,0.0,8,-1.5
2020-07-01,11,2.5,-0.5,11,2.5
2020-07-02,13,-2.5,-3.25,13,-2.5
2020-07-03,6,-4.0,0.25,6,-4.0
2020-07-04,5,-2.0,2.75,5,-2.0
2020-07-05,2,1.5,3.25,2,1.5
2020-07-06,8,4.5,-0.25,8,4.5
2020-07-07,11,1.0,-3.0,11,1.0
2020-07-08,10,-1.5,0.0,10,-1.5
2020-07-09,8,1.0,1.0,8,1.0
2020-07-10,12,0.5,-3.0,12,0.5
2020-07-11,9,-5.0,1.75,9,-5.0
2020-07-12,2,4.0,4.5,2,4.0
2020-07-13,17,4.0,-2.25,17,4.0
2020-07-14,10,-0.5,0.75,10,-0.5
2020-07-15,16,5.5,-1.75,16,5.5
2020-07-16,21,-4.0,-4.75,21,-4.0
2020-07-17,8,-4.0,4.25,8,-4.0
2020-07-18,13,4.5,2.0,13,4.5
2020-07-19,17,0.0,-1.75,17,0.0
2020-07-20,13,1.0,0.75,13,1.0
2020-07-21,19,1.5,0.5,19,1.5
2020-07-22,16,2.0,-2.0,16,2.0
2020-07-23,23,-2.5,-6.0,23,-2.5
2020-07-24,11,-10.0,0.25,11,-10.0
2020-07-25,3,-2.0,7.5,3,-2.0
2020-07-26,7,5.0,4.75,7,5.0
2020-07-27,13,7.5,1.25,13,7.5
2020-07-28,22,7.5,-2.5,22,7.5
2020-07-29,28,2.5,-5.5,28,2.5
2020-07-30,27,-3.5,-2.25,27,-3.5
2020-07-31,21,-2.0,1.25,21,-2.0
2020-08-01,23,-1.0,10.75,23,-1.0
2020-08-02,19,19.5,10.25,19,19.5
2020-08-03,62,19.5,-8.5,62,19.5
2020-08-04,58,2.5,-8.0,58,2.5
2020-08-05,67,3.5,-6.5,67,3.5
2020-08-06,65,-10.5,-11.25,65,-10.5
2020-08-07,46,-19.0,0.25,46,-19.0
2020-08-08,27,-10.0,17.5,27,-10.0
2020-08-09,26,16.0,14.25,26,16.0
2020-08-10,59,18.5,-10.5,59,18.5
2020-08-11,63,-5.0,-10.25,63,-5.0
2020-08-12,49,-2.0,2.75,49,-2.0
2020-08-13,59,0.5,-8.75,59,0.5
2020-08-14,50,-19.5,-4.5,50,-19.5
2020-08-15,20,-8.5,23.5,20,-8.5
2020-08-16,33,27.5,15.5,33,27.5
2020-08-17,75,22.5,-9.25,75,22.5
2020-08-18,78,9.0,4.5,78,9.0
2020-08-19,93,31.5,-5.0,93,31.5
2020-08-20,141,-1.0,-38.25,141,-1.0
2020-08-21,91,-45.0,-5.5,91,-45.0
2020-08-22,51,-12.0,24.5,51,-12.0
2020-08-23,67,4.0,7.25,67,4.0
2020-08-24,59,2.5,7.75,59,2.5
2020-08-25,72,19.5,5.0,72,19.5
2020-08-26,98,12.5,-8.0,98,12.5
2020-08-27,97,3.5,-7.0,97,3.5
2020-08-28,105,-1.5,-2.5,105,-1.5
2020-08-29,94,-1.5,13.0,94,-1.5
2020-08-30,102,24.5,25.0,102,24.5
2020-08-31,143,48.5,0.0,143,48.5
2020-09-01,199,24.5,-23.5,199,24.5
2020-09-02,192,1.5,-17.75,192,1.5
2020-09-03,202,-11.0,-17.0,202,-11.0
2020-09-04,170,-32.5,1.5,170,-32.5
2020-09-05,137,-8.0,23.75,137,-8.0
2020-09-06,154,15.0,-8.75,154,15.0
2020-09-07,167,-25.5,6.5,167,-25.5
2020-09-08,103,28.0,44.75,103,28.0
2020-09-09,223,64.0,-15.75,223,64.0
2020-09-10,231,-3.5,-36.25,231,-3.5
2020-09-11,216,-8.5,-7.75,216,-8.5
2020-09-12,214,-19.0,-2.75,214,-19.0
2020-09-13,178,-14.0,24.5,178,-14.0
2020-09-14,186,30.0,30.5,186,30.0
2020-09-15,238,47.0,-8.25,238,47.0
2020-09-16,280,13.5,-26.0,280,13.5
2020-09-17,265,-5.0,-14.0,265,-5.0
2020-09-18,270,-14.5,15.0,270,-14.5
2020-09-19,236,25.0,61.75,236,25.0
2020-09-20,320,109.0,31.75,320,109.0
2020-09-21,454,88.5,-25.0,454,88.5
2020-09-22,497,59.0,10.5,497,59.0
2020-09-23,572,109.5,-28.5,572,109.5
2020-09-24,716,2.0,-124.5,716,2.0
2020-09-25,576,-139.5,-55.25,576,-139.5
2020-09-26,437,-108.5,116.75,437,-108.5
2020-09-27,359,94.0,129.75,359,94.0
2020-09-28,625,151.0,-5.0,625,151.0
2020-09-29,661,84.0,-46.5,661,84.0
2020-09-30,793,58.0,-35.75,793,58.0
2020-10-01,777,12.5,-47.75,777,12.5
2020-10-02,818,-37.5,-24.75,818,-37.5
2020-10-03,702,-37.0,118.0,702,-37.0
2020-10-04,744,198.5,130.5,744,198.5
2020-10-05,1099,224.0,-61.5,1099,224.0
2020-10-06,1192,75.5,-117.25,1192,75.5
2020-10-07,1250,-10.5,-76.25,1250,-10.5
2020-10-08,1171,-77.0,-52.0,1171,-77.0
2020-10-09,1096,-114.5,4.25,1096,-114.5
2020-10-10,942,-68.5,162.0,942,-68.5
2020-10-11,959,209.5,150.25,959,209.5
2020-10-12,1361,232.0,-122.5,1361,232.0
2020-10-13,1423,-35.5,-148.5,1423,-35.5
2020-10-14,1290,-65.0,8.0,1290,-65.0
2020-10-15,1293,-19.5,-75.25,1293,-19.5
2020-10-16,1251,-215.5,-96.0,1251,-215.5
2020-10-17,862,-211.5,231.0,862,-211.5
2020-10-18,828,246.5,320.0,828,246.5
2020-10-19,1355,428.5,-67.0,1355,428.5
2020-10-20,1685,112.5,-259.75,1685,112.5
2020-10-21,1580,-91.0,-129.5,1580,-91.0
2020-10-22,1503,-146.5,-91.75,1503,-146.5
2020-10-23,1287,-274.5,-13.75,1287,-274.5
2020-10-24,954,-174.0,235.0,954,-174.0
2020-10-25,939,195.5,179.25,939,195.5
2020-10-26,1345,184.5,-117.0,1345,184.5
2020-10-27,1308,-38.5,-144.75,1308,-38.5
2020-10-28,1268,-105.0,-21.25,1268,-105.0
2020-10-29,1098,-81.0,-35.75,1098,-81.0
2020-10-30,1106,-176.5,7.5,1106,-176.5
2020-10-31,745,-66.0,271.5,745,-66.0
2020-11-01,974,366.5,137.5,974,366.5
2020-11-02,1478,209.0,-227.0,1478,209.0
2020-11-03,1392,-87.5,-129.0,1392,-87.5
2020-11-04,1303,-49.0,3.25,1303,-49.0
2020-11-05,1294,-81.0,-88.0,1294,-81.0
2020-11-06,1141,-225.0,-25.25,1141,-225.0
2020-11-07,844,-131.5,225.25,844,-131.5
2020-11-08,878,225.5,168.75,878,225.5
2020-11-09,1295,206.0,-124.0,1295,206.0
2020-11-10,1290,-22.5,-126.5,1290,-22.5
2020-11-11,1250,-47.0,-35.75,1250,-47.0
2020-11-12,1196,-94.0,-45.75,1196,-94.0
2020-11-13,1062,-138.5,-15.5,1062,-138.5
2020-11-14,919,-125.0,158.25,919,-125.0
2020-11-15,812,178.0,165.75,812,178.0
2020-11-16,1275,206.5,-129.0,1275,206.5
2020-11-17,1225,-80.0,-164.25,1225,-80.0
2020-11-18,1115,-122.0,-22.75,1115,-122.0
2020-11-19,981,-125.5,6.5,981,-125.5
2020-11-20,864,-109.0,23.25,864,-109.0
2020-11-21,763,-79.0,153.5,763,-79.0
2020-11-22,706,198.0,110.5,706,198.0
2020-11-23,1159,142.0,-156.5,1159,142.0
2020-11-24,990,-115.0,-118.0,990,-115.0
2020-11-25,929,-94.0,9.5,929,-94.0
2020-11-26,802,-96.0,-10.5,802,-96.0
2020-11-27,737,-115.0,2.0,737,-115.0
2020-11-28,572,-92.0,157.75,572,-92.0
2020-11-29,553,200.5,138.5,553,200.5
2020-11-30,973,185.0,-106.75,973,185.0
2020-12-01,923,-13.0,-121.75,923,-13.0
2020-12-02,947,-58.5,-68.75,947,-58.5
2020-12-03,806,-150.5,-6.25,806,-150.5
2020-12-04,646,-71.0,74.75,646,-71.0
2020-12-05,664,-1.0,107.75,664,-1.0
2020-12-06,644,144.5,99.5,644,144.5
2020-12-07,953,198.0,-61.5,953,198.0
2020-12-08,1040,21.5,-135.0,1040,21.5
2020-12-09,996,-72.0,-42.0,996,-72.0
2020-12-10,896,-62.5,-17.5,896,-62.5
2020-12-11,871,-107.0,-6.0,871,-107.0
2020-12-12,682,-74.5,155.75,682,-74.5
2020-12-13,722,204.5,113.5,722,204.5
2020-12-14,1091,152.5,-126.0,1091,152.5
2020-12-15,1027,-47.5,-139.75,1027,-47.5
2020-12-16,996,-127.0,-172.5,996,-127.0
2020-12-17,773,-392.5,-125.5,773,-392.5
2020-12-18,211,-378.0,143.5,211,-378.0
2020-12-19,17,-105.5,180.5,17,-105.5
2020-12-20,0,-17.0,88.5,0,-17.0
