date, confirmed_daily_cases, first_order,second_order, confirmed_daily_cases_outlier_removed,first_order_outlier_removed,second_order_outlier_removed
2020-01-01,0,0.0,0.0,0,0.0
2020-01-02,0,0.0,0.0,0,0.0
2020-01-03,0,0.0,0.0,0,0.0
2020-01-04,0,0.0,0.0,0,0.0
2020-01-05,0,0.0,0.0,0,0.0
2020-01-06,0,0.0,0.0,0,0.0
2020-01-07,0,0.0,0.0,0,0.0
2020-01-08,0,0.0,0.0,0,0.0
2020-01-09,0,0.0,0.0,0,0.0
2020-01-10,0,0.0,0.0,0,0.0
2020-01-11,0,0.0,0.0,0,0.0
2020-01-12,0,0.0,0.0,0,0.0
2020-01-13,0,0.0,0.0,0,0.0
2020-01-14,0,0.0,0.0,0,0.0
2020-01-15,0,0.0,0.0,0,0.0
2020-01-16,0,0.0,0.0,0,0.0
2020-01-17,0,0.0,0.0,0,0.0
2020-01-18,0,0.0,0.0,0,0.0
2020-01-19,0,0.0,0.0,0,0.0
2020-01-20,0,0.0,0.0,0,0.0
2020-01-21,0,0.0,0.0,0,0.0
2020-01-22,0,0.0,0.0,0,0.0
2020-01-23,0,0.0,0.0,0,0.0
2020-01-24,0,0.0,0.0,0,0.0
2020-01-25,0,0.0,0.0,0,0.0
2020-01-26,0,0.0,0.0,0,0.0
2020-01-27,0,0.0,0.0,0,0.0
2020-01-28,0,0.0,0.0,0,0.0
2020-01-29,0,0.0,0.0,0,0.0
2020-01-30,0,0.0,0.0,0,0.0
2020-01-31,0,0.0,0.0,0,0.0
2020-02-01,0,0.0,0.0,0,0.0
2020-02-02,0,0.0,0.0,0,0.0
2020-02-03,0,0.0,0.0,0,0.0
2020-02-04,0,0.0,0.0,0,0.0
2020-02-05,0,0.0,0.0,0,0.0
2020-02-06,0,0.0,0.0,0,0.0
2020-02-07,0,0.0,0.0,0,0.0
2020-02-08,0,0.0,0.0,0,0.0
2020-02-09,0,0.0,0.0,0,0.0
2020-02-10,0,0.0,0.0,0,0.0
2020-02-11,0,0.0,0.0,0,0.0
2020-02-12,0,0.0,0.0,0,0.0
2020-02-13,0,0.0,0.0,0,0.0
2020-02-14,0,0.0,0.0,0,0.0
2020-02-15,0,0.0,0.0,0,0.0
2020-02-16,0,0.0,0.0,0,0.0
2020-02-17,0,0.0,0.0,0,0.0
2020-02-18,0,0.0,0.0,0,0.0
2020-02-19,0,0.0,0.0,0,0.0
2020-02-20,0,0.0,0.0,0,0.0
2020-02-21,0,0.0,0.0,0,0.0
2020-02-22,0,0.0,0.0,0,0.0
2020-02-23,0,0.0,0.0,0,0.0
2020-02-24,0,0.0,0.0,0,0.0
2020-02-25,0,0.0,0.25,0,0.0
2020-02-26,0,0.5,0.0,0,0.5
2020-02-27,1,0.0,-0.5,1,0.0
2020-02-28,0,-0.5,0.0,0,-0.5
2020-02-29,0,0.0,0.25,0,0.0
2020-03-01,0,0.0,0.0,0,0.0
2020-03-02,0,0.0,0.25,0,0.0
2020-03-03,0,0.5,0.0,0,0.5
2020-03-04,1,0.0,-0.5,1,0.0
2020-03-05,0,-0.5,0.5,0,-0.5
2020-03-06,0,1.0,0.5,0,1.0
2020-03-07,2,0.5,-0.25,2,0.5
2020-03-08,1,0.5,2.5,1,0.5
2020-03-09,3,5.5,2.75,3,5.5
2020-03-10,12,6.0,0.5,12,6.0
2020-03-11,15,6.5,0.25,15,6.5
2020-03-12,25,6.5,-4.75,25,6.5
2020-03-13,28,-3.0,-2.25,28,-3.0
2020-03-14,19,2.0,6.0,19,2.0
2020-03-15,32,9.0,0.25,32,9.0
2020-03-16,37,2.5,-4.75,37,2.5
2020-03-17,37,-0.5,4.5,37,-0.5
2020-03-18,36,11.5,9.5,36,11.5
2020-03-19,60,18.5,-2.0,60,18.5
2020-03-20,73,7.5,-8.5,73,7.5
2020-03-21,75,1.5,10.75,75,1.5
2020-03-22,76,29.0,15.5,76,29.0
2020-03-23,133,32.5,-0.25,133,32.5
2020-03-24,141,28.5,-7.25,141,28.5
2020-03-25,190,18.0,-13.5,190,18.0
2020-03-26,177,1.5,-11.5,177,1.5
2020-03-27,193,-5.0,-9.25,193,-5.0
2020-03-28,167,-17.0,46.5,167,-17.0
2020-03-29,159,88.0,38.0,159,88.0
2020-03-30,343,59.0,-48.0,343,59.0
2020-03-31,277,-8.0,-14.75,277,-8.0
2020-04-01,327,29.5,4.75,327,29.5
2020-04-02,336,1.5,-28.25,336,1.5
2020-04-03,330,-27.0,-27.5,330,-27.0
2020-04-04,282,-53.5,38.75,282,-53.5
2020-04-05,223,50.5,67.5,223,50.5
2020-04-06,383,81.5,-24.5,383,81.5
2020-04-07,386,1.5,-39.5,386,1.5
2020-04-08,386,2.5,-20.25,386,2.5
2020-04-09,391,-39.0,-37.25,391,-39.0
2020-04-10,308,-72.0,4.25,308,-72.0
2020-04-11,247,-30.5,42.5,247,-30.5
2020-04-12,247,13.0,32.75,247,13.0
2020-04-13,273,35.0,15.5,273,35.0
2020-04-14,317,44.0,-6.0,317,44.0
2020-04-15,361,23.0,-31.25,361,23.0
2020-04-16,363,-18.5,-40.5,363,-18.5
2020-04-17,324,-58.0,-26.5,324,-58.0
2020-04-18,247,-71.5,37.5,247,-71.5
2020-04-19,181,17.0,55.25,181,17.0
2020-04-20,281,39.0,-15.5,281,39.0
2020-04-21,259,-14.0,-34.0,259,-14.0
2020-04-22,253,-29.0,-3.0,253,-29.0
2020-04-23,201,-20.0,-1.75,201,-20.0
2020-04-24,213,-32.5,-13.0,213,-32.5
2020-04-25,136,-46.0,25.25,136,-46.0
2020-04-26,121,18.0,31.0,121,18.0
2020-04-27,172,16.0,-8.0,172,16.0
2020-04-28,153,2.0,3.75,153,2.0
2020-04-29,176,23.5,-1.0,176,23.5
2020-04-30,200,0.0,-17.0,200,0.0
2020-05-01,176,-10.5,-17.75,176,-10.5
2020-05-02,179,-35.5,-4.75,179,-35.5
2020-05-03,105,-20.0,35.25,105,-20.0
2020-05-04,139,35.0,18.0,139,35.0
2020-05-05,175,16.0,-17.25,175,16.0
2020-05-06,171,0.5,-22.0,171,0.5
2020-05-07,176,-28.0,-10.25,176,-28.0
2020-05-08,115,-20.0,12.0,115,-20.0
2020-05-09,136,-4.0,20.5,136,-4.0
2020-05-10,107,21.0,12.75,107,21.0
2020-05-11,178,21.5,-16.75,178,21.5
2020-05-12,150,-12.5,-15.25,150,-12.5
2020-05-13,153,-9.0,12.75,153,-9.0
2020-05-14,132,13.0,13.0,132,13.0
2020-05-15,179,17.0,-21.75,179,17.0
2020-05-16,166,-30.5,-8.0,166,-30.5
2020-05-17,118,1.0,39.0,118,1.0
2020-05-18,168,47.5,-1.0,168,47.5
2020-05-19,213,-1.0,-44.0,213,-1.0
2020-05-20,166,-40.5,-6.75,166,-40.5
2020-05-21,132,-14.5,17.75,132,-14.5
2020-05-22,137,-5.0,-6.5,137,-5.0
2020-05-23,122,-27.5,-1.75,122,-27.5
2020-05-24,82,-8.5,18.75,82,-8.5
2020-05-25,105,10.0,7.5,105,10.0
2020-05-26,102,6.5,-5.0,102,6.5
2020-05-27,118,0.0,-6.25,118,0.0
2020-05-28,102,-6.0,-8.0,102,-6.0
2020-05-29,106,-16.0,-12.0,106,-16.0
2020-05-30,70,-30.0,6.5,70,-30.0
2020-05-31,46,-3.0,21.75,46,-3.0
2020-06-01,64,13.5,4.25,64,13.5
2020-06-02,73,5.5,-10.0,73,5.5
2020-06-03,75,-6.5,-7.75,75,-6.5
2020-06-04,60,-10.0,1.5,60,-10.0
2020-06-05,55,-3.5,-0.25,55,-3.5
2020-06-06,53,-10.5,7.0,53,-10.5
2020-06-07,34,10.5,12.25,34,10.5
2020-06-08,74,14.0,-7.0,74,14.0
2020-06-09,62,-3.5,-6.0,62,-3.5
2020-06-10,67,2.0,3.75,67,2.0
2020-06-11,66,4.0,0.0,66,4.0
2020-06-12,75,2.0,-7.25,75,2.0
2020-06-13,70,-10.5,-2.0,70,-10.5
2020-06-14,54,-2.0,12.25,54,-2.0
2020-06-15,66,14.0,0.5,66,14.0
2020-06-16,82,-1.0,-12.0,82,-1.0
2020-06-17,64,-10.0,19.5,64,-10.0
2020-06-18,62,38.0,1.25,62,38.0
2020-06-19,140,-7.5,-35.0,140,-7.5
2020-06-20,47,-32.0,8.5,47,-32.0
2020-06-21,76,9.5,29.75,76,9.5
2020-06-22,66,27.5,-12.0,66,27.5
2020-06-23,131,-14.5,-31.5,131,-14.5
2020-06-24,37,-35.5,2.75,37,-35.5
2020-06-25,60,-9.0,37.75,60,-9.0
2020-06-26,19,40.0,6.75,19,40.0
2020-06-27,140,4.5,-44.25,23,4.5
2020-06-28,28,-48.5,-0.5,28,-48.5
2020-06-29,43,3.5,20.25,43,3.5
2020-06-30,35,-8.0,-3.5,35,-8.0
2020-07-01,27,-3.5,2.0,27,-3.5
2020-07-02,28,-4.0,-3.0,28,-4.0
2020-07-03,19,-9.5,0.25,19,-9.5
2020-07-04,9,-3.5,11.25,9,-3.5
2020-07-05,12,13.0,6.0,12,13.0
2020-07-06,35,8.5,-11.75,35,8.5
2020-07-07,29,-10.5,-6.0,29,-10.5
2020-07-08,14,-3.5,9.0,14,-3.5
2020-07-09,22,7.5,-0.75,22,7.5
2020-07-10,29,-5.0,-8.5,29,-5.0
2020-07-11,12,-9.5,5.5,12,-9.5
2020-07-12,10,6.0,8.0,10,6.0
2020-07-13,24,6.5,-4.5,24,6.5
2020-07-14,23,-3.0,-2.75,23,-3.0
2020-07-15,18,1.0,1.25,18,1.0
2020-07-16,25,-0.5,-4.0,25,-0.5
2020-07-17,17,-7.0,-1.5,17,-7.0
2020-07-18,11,-3.5,11.5,11,-3.5
2020-07-19,10,16.0,14.5,10,16.0
2020-07-20,43,25.5,-12.5,43,25.5
2020-07-21,61,-9.0,-20.25,61,-9.0
2020-07-22,25,-15.0,5.75,25,-15.0
2020-07-23,31,2.5,5.75,31,2.5
2020-07-24,30,-3.5,0.0,30,-3.5
2020-07-25,24,2.5,1.5,24,2.5
2020-07-26,35,-0.5,-3.25,35,-0.5
2020-07-27,23,-4.0,1.25,23,-4.0
2020-07-28,27,2.0,2.75,27,2.0
2020-07-29,27,1.5,-3.75,27,1.5
2020-07-30,30,-5.5,-4.25,30,-5.5
2020-07-31,16,-7.0,2.25,16,-7.0
2020-08-01,16,-1.0,5.0,16,-1.0
2020-08-02,14,3.0,3.0,14,3.0
2020-08-03,22,5.0,-1.5,22,5.0
2020-08-04,24,0.0,-3.0,24,0.0
2020-08-05,22,-1.0,-1.75,22,-1.0
2020-08-06,22,-3.5,-3.75,22,-3.5
2020-08-07,15,-8.5,0.0,15,-8.5
2020-08-08,5,-3.5,7.75,5,-3.5
2020-08-09,8,7.0,6.5,8,7.0
2020-08-10,19,9.5,-2.25,19,9.5
2020-08-11,27,2.5,-7.25,27,2.5
2020-08-12,24,-5.0,-3.0,24,-5.0
2020-08-13,17,-3.5,0.75,17,-3.5
2020-08-14,17,-3.5,2.0,17,-3.5
2020-08-15,10,0.5,4.0,10,0.5
2020-08-16,18,4.5,4.75,18,4.5
2020-08-17,19,10.0,1.75,19,10.0
2020-08-18,38,8.0,-6.75,38,8.0
2020-08-19,35,-3.5,-7.25,35,-3.5
2020-08-20,31,-6.5,-1.25,31,-6.5
2020-08-21,22,-6.0,0.5,22,-6.0
2020-08-22,19,-5.5,7.25,19,-5.5
2020-08-23,11,8.5,12.5,11,8.5
2020-08-24,36,19.5,-2.25,36,19.5
2020-08-25,50,4.0,-9.75,50,4.0
2020-08-26,44,0.0,0.0,44,0.0
2020-08-27,50,4.0,-1.5,50,4.0
2020-08-28,52,-3.0,-3.5,52,-3.0
2020-08-29,44,-3.0,1.5,44,-3.0
2020-08-30,46,0.0,4.25,46,0.0
2020-08-31,44,5.5,12.75,44,5.5
2020-09-01,57,25.5,14.25,57,25.5
2020-09-02,95,34.0,0.75,95,34.0
2020-09-03,125,27.0,-16.25,125,27.0
2020-09-04,149,1.5,-18.0,149,1.5
2020-09-05,128,-9.0,7.0,128,-9.0
2020-09-06,131,15.5,7.5,131,15.5
2020-09-07,159,6.0,-8.0,159,6.0
2020-09-08,143,-0.5,7.75,143,-0.5
2020-09-09,158,21.5,-3.0,158,21.5
2020-09-10,186,-6.5,-22.25,186,-6.5
2020-09-11,145,-23.0,8.0,145,-23.0
2020-09-12,140,9.5,24.25,140,9.5
2020-09-13,164,25.5,-4.75,164,25.5
2020-09-14,191,0.0,-8.75,191,0.0
2020-09-15,164,8.0,24.25,164,8.0
2020-09-16,207,48.5,5.75,207,48.5
2020-09-17,261,19.5,-19.5,261,19.5
2020-09-18,246,9.5,-8.25,246,9.5
2020-09-19,280,3.0,3.5,280,3.0
2020-09-20,252,16.5,30.25,252,16.5
2020-09-21,313,63.5,8.0,313,63.5
2020-09-22,379,32.5,-47.5,379,32.5
2020-09-23,378,-31.5,-14.5,378,-31.5
2020-09-24,316,3.5,37.5,316,3.5
2020-09-25,385,43.5,-18.75,385,43.5
2020-09-26,403,-34.0,-16.0,403,-34.0
2020-09-27,317,11.5,54.25,317,11.5
2020-09-28,426,74.5,38.0,426,74.5
2020-09-29,466,87.5,3.0,466,87.5
2020-09-30,601,80.5,-43.75,601,80.5
2020-10-01,627,0.0,-67.5,627,0.0
2020-10-02,601,-54.5,3.25,601,-54.5
2020-10-03,518,6.5,73.5,518,6.5
2020-10-04,614,92.5,36.0,614,92.5
2020-10-05,703,78.5,-9.25,703,78.5
2020-10-06,771,74.0,-25.25,771,74.0
2020-10-07,851,28.0,-54.25,851,28.0
2020-10-08,827,-34.5,-66.0,827,-34.5
2020-10-09,782,-104.0,-21.75,782,-104.0
2020-10-10,619,-78.0,92.75,619,-78.0
2020-10-11,626,81.5,120.5,626,81.5
2020-10-12,782,163.0,-10.25,782,163.0
2020-10-13,952,61.0,-121.75,952,61.0
2020-10-14,904,-80.5,-18.5,904,-80.5
2020-10-15,791,24.0,19.5,791,24.0
2020-10-16,952,-41.5,-71.0,952,-41.5
2020-10-17,708,-118.0,121.5,708,-118.0
2020-10-18,716,201.5,189.25,716,201.5
2020-10-19,1111,260.5,-62.0,1111,260.5
2020-10-20,1237,77.5,-175.5,1237,77.5
2020-10-21,1266,-90.5,-56.0,1266,-90.5
2020-10-22,1056,-34.5,37.5,1056,-34.5
2020-10-23,1197,-15.5,-47.0,1197,-15.5
2020-10-24,1025,-128.5,140.5,1025,-128.5
2020-10-25,940,265.5,198.75,940,265.5
2020-10-26,1556,269.0,-182.5,1556,269.0
2020-10-27,1478,-99.5,-108.25,1478,-99.5
2020-10-28,1357,52.5,20.75,1357,52.5
2020-10-29,1583,-58.0,-202.25,1583,-58.0
2020-10-30,1241,-352.0,-44.25,1241,-352.0
2020-10-31,879,-146.5,308.75,879,-146.5
2020-11-01,948,265.5,144.75,948,265.5
2020-11-02,1410,143.0,-211.75,1410,143.0
2020-11-03,1234,-158.0,-125.75,1234,-158.0
2020-11-04,1094,-108.5,24.75,1094,-108.5
2020-11-05,1017,-108.5,-48.75,1017,-108.5
2020-11-06,877,-206.0,9.0,877,-206.0
2020-11-07,605,-90.5,204.5,605,-90.5
2020-11-08,696,203.0,112.0,696,203.0
2020-11-09,1011,133.5,-140.5,1011,133.5
2020-11-10,963,-78.0,-114.5,963,-78.0
2020-11-11,855,-95.5,40.25,855,-95.5
2020-11-12,772,2.5,11.75,772,2.5
2020-11-13,860,-72.0,-59.25,860,-72.0
2020-11-14,628,-116.0,127.25,628,-116.0
2020-11-15,628,182.5,161.0,628,182.5
2020-11-16,993,206.0,-92.75,993,206.0
2020-11-17,1040,-3.0,-133.0,1040,-3.0
2020-11-18,987,-60.0,-11.25,987,-60.0
2020-11-19,920,-25.5,-30.0,920,-25.5
2020-11-20,936,-120.0,-42.0,936,-120.0
2020-11-21,680,-109.5,147.75,680,-109.5
2020-11-22,717,175.5,148.75,717,175.5
2020-11-23,1031,188.0,-11.0,1031,188.0
2020-11-24,1093,153.5,-77.5,1093,153.5
2020-11-25,1338,33.0,-152.5,1338,33.0
2020-11-26,1159,-151.5,-95.25,1159,-151.5
2020-11-27,1035,-157.5,58.5,1035,-157.5
2020-11-28,844,-34.5,244.0,844,-34.5
2020-11-29,966,330.5,178.5,966,330.5
2020-11-30,1505,322.5,-130.75,1505,322.5
2020-12-01,1611,69.0,-112.25,1611,69.0
2020-12-02,1643,98.0,-20.75,1643,98.0
2020-12-03,1807,27.5,-117.5,1807,27.5
2020-12-04,1698,-137.0,-14.0,1698,-137.0
2020-12-05,1533,-0.5,313.0,1533,-0.5
2020-12-06,1697,489.0,226.5,1697,489.0
2020-12-07,2511,452.5,-199.25,2511,452.5
2020-12-08,2602,90.5,-210.75,2602,90.5
2020-12-09,2692,31.0,-15.75,2692,31.0
2020-12-10,2664,59.0,-111.0,2664,59.0
2020-12-11,2810,-191.0,-51.25,2810,-191.0
2020-12-12,2282,-43.5,397.75,2282,-43.5
2020-12-13,2723,604.5,102.5,2723,604.5
2020-12-14,3491,161.5,-483.75,3491,161.5
2020-12-15,3046,-363.0,-478.0,3046,-363.0
2020-12-16,2765,-794.5,-485.75,2765,-794.5
2020-12-17,1457,-1334.5,33.5,1457,-1334.5
2020-12-18,96,-727.5,643.25,96,-727.5
2020-12-19,2,-48.0,362.75,2,-48.0
2020-12-20,0,-2.0,46.0,0,-2.0
